%!PS-Adobe-2.0
%%Title: V2.eps
%%Creator: gnuplot 5.0 patchlevel 3
%%CreationDate: Thu Apr 12 18:38:26 2018
%%DocumentFonts: (atend)
%%BoundingBox: 60 50 312 374
%%Orientation: Landscape
%%Pages: (atend)
%%EndComments
%%BeginProlog
/gnudict 256 dict def
gnudict begin
%
% The following true/false flags may be edited by hand if desired.
% The unit line width and grayscale image gamma correction may also be changed.
%
/Color true def
/Blacktext false def
/Solid false def
/Dashlength 1 def
/Landscape true def
/Level1 false def
/Level3 false def
/Rounded false def
/ClipToBoundingBox false def
/SuppressPDFMark false def
/TransparentPatterns false def
/gnulinewidth 5.000 def
/userlinewidth gnulinewidth def
/Gamma 1.0 def
/BackgroundColor {-1.000 -1.000 -1.000} def
%
/vshift -80 def
/dl1 {
  10.0 Dashlength userlinewidth gnulinewidth div mul mul mul
  Rounded { currentlinewidth 0.75 mul sub dup 0 le { pop 0.01 } if } if
} def
/dl2 {
  10.0 Dashlength userlinewidth gnulinewidth div mul mul mul
  Rounded { currentlinewidth 0.75 mul add } if
} def
/hpt_ 31.5 def
/vpt_ 31.5 def
/hpt hpt_ def
/vpt vpt_ def
/doclip {
  ClipToBoundingBox {
    newpath 60 50 moveto 312 50 lineto 312 374 lineto 60 374 lineto closepath
    clip
  } if
} def
%
% Gnuplot Prolog Version 5.1 (Oct 2015)
%
%/SuppressPDFMark true def
%
/M {moveto} bind def
/L {lineto} bind def
/R {rmoveto} bind def
/V {rlineto} bind def
/N {newpath moveto} bind def
/Z {closepath} bind def
/C {setrgbcolor} bind def
/f {rlineto fill} bind def
/g {setgray} bind def
/Gshow {show} def   % May be redefined later in the file to support UTF-8
/vpt2 vpt 2 mul def
/hpt2 hpt 2 mul def
/Lshow {currentpoint stroke M 0 vshift R 
	Blacktext {gsave 0 setgray textshow grestore} {textshow} ifelse} def
/Rshow {currentpoint stroke M dup stringwidth pop neg vshift R
	Blacktext {gsave 0 setgray textshow grestore} {textshow} ifelse} def
/Cshow {currentpoint stroke M dup stringwidth pop -2 div vshift R 
	Blacktext {gsave 0 setgray textshow grestore} {textshow} ifelse} def
/UP {dup vpt_ mul /vpt exch def hpt_ mul /hpt exch def
  /hpt2 hpt 2 mul def /vpt2 vpt 2 mul def} def
/DL {Color {setrgbcolor Solid {pop []} if 0 setdash}
 {pop pop pop 0 setgray Solid {pop []} if 0 setdash} ifelse} def
/BL {stroke userlinewidth 2 mul setlinewidth
	Rounded {1 setlinejoin 1 setlinecap} if} def
/AL {stroke userlinewidth 2 div setlinewidth
	Rounded {1 setlinejoin 1 setlinecap} if} def
/UL {dup gnulinewidth mul /userlinewidth exch def
	dup 1 lt {pop 1} if 10 mul /udl exch def} def
/PL {stroke userlinewidth setlinewidth
	Rounded {1 setlinejoin 1 setlinecap} if} def
3.8 setmiterlimit
% Classic Line colors (version 5.0)
/LCw {1 1 1} def
/LCb {0 0 0} def
/LCa {0 0 0} def
/LC0 {1 0 0} def
/LC1 {0 1 0} def
/LC2 {0 0 1} def
/LC3 {1 0 1} def
/LC4 {0 1 1} def
/LC5 {1 1 0} def
/LC6 {0 0 0} def
/LC7 {1 0.3 0} def
/LC8 {0.5 0.5 0.5} def
% Default dash patterns (version 5.0)
/LTB {BL [] LCb DL} def
/LTw {PL [] 1 setgray} def
/LTb {PL [] LCb DL} def
/LTa {AL [1 udl mul 2 udl mul] 0 setdash LCa setrgbcolor} def
/LT0 {PL [] LC0 DL} def
/LT1 {PL [2 dl1 3 dl2] LC1 DL} def
/LT2 {PL [1 dl1 1.5 dl2] LC2 DL} def
/LT3 {PL [6 dl1 2 dl2 1 dl1 2 dl2] LC3 DL} def
/LT4 {PL [1 dl1 2 dl2 6 dl1 2 dl2 1 dl1 2 dl2] LC4 DL} def
/LT5 {PL [4 dl1 2 dl2] LC5 DL} def
/LT6 {PL [1.5 dl1 1.5 dl2 1.5 dl1 1.5 dl2 1.5 dl1 6 dl2] LC6 DL} def
/LT7 {PL [3 dl1 3 dl2 1 dl1 3 dl2] LC7 DL} def
/LT8 {PL [2 dl1 2 dl2 2 dl1 6 dl2] LC8 DL} def
/SL {[] 0 setdash} def
/Pnt {stroke [] 0 setdash gsave 1 setlinecap M 0 0 V stroke grestore} def
/Dia {stroke [] 0 setdash 2 copy vpt add M
  hpt neg vpt neg V hpt vpt neg V
  hpt vpt V hpt neg vpt V closepath stroke
  Pnt} def
/Pls {stroke [] 0 setdash vpt sub M 0 vpt2 V
  currentpoint stroke M
  hpt neg vpt neg R hpt2 0 V stroke
 } def
/Box {stroke [] 0 setdash 2 copy exch hpt sub exch vpt add M
  0 vpt2 neg V hpt2 0 V 0 vpt2 V
  hpt2 neg 0 V closepath stroke
  Pnt} def
/Crs {stroke [] 0 setdash exch hpt sub exch vpt add M
  hpt2 vpt2 neg V currentpoint stroke M
  hpt2 neg 0 R hpt2 vpt2 V stroke} def
/TriU {stroke [] 0 setdash 2 copy vpt 1.12 mul add M
  hpt neg vpt -1.62 mul V
  hpt 2 mul 0 V
  hpt neg vpt 1.62 mul V closepath stroke
  Pnt} def
/Star {2 copy Pls Crs} def
/BoxF {stroke [] 0 setdash exch hpt sub exch vpt add M
  0 vpt2 neg V hpt2 0 V 0 vpt2 V
  hpt2 neg 0 V closepath fill} def
/TriUF {stroke [] 0 setdash vpt 1.12 mul add M
  hpt neg vpt -1.62 mul V
  hpt 2 mul 0 V
  hpt neg vpt 1.62 mul V closepath fill} def
/TriD {stroke [] 0 setdash 2 copy vpt 1.12 mul sub M
  hpt neg vpt 1.62 mul V
  hpt 2 mul 0 V
  hpt neg vpt -1.62 mul V closepath stroke
  Pnt} def
/TriDF {stroke [] 0 setdash vpt 1.12 mul sub M
  hpt neg vpt 1.62 mul V
  hpt 2 mul 0 V
  hpt neg vpt -1.62 mul V closepath fill} def
/DiaF {stroke [] 0 setdash vpt add M
  hpt neg vpt neg V hpt vpt neg V
  hpt vpt V hpt neg vpt V closepath fill} def
/Pent {stroke [] 0 setdash 2 copy gsave
  translate 0 hpt M 4 {72 rotate 0 hpt L} repeat
  closepath stroke grestore Pnt} def
/PentF {stroke [] 0 setdash gsave
  translate 0 hpt M 4 {72 rotate 0 hpt L} repeat
  closepath fill grestore} def
/Circle {stroke [] 0 setdash 2 copy
  hpt 0 360 arc stroke Pnt} def
/CircleF {stroke [] 0 setdash hpt 0 360 arc fill} def
/C0 {BL [] 0 setdash 2 copy moveto vpt 90 450 arc} bind def
/C1 {BL [] 0 setdash 2 copy moveto
	2 copy vpt 0 90 arc closepath fill
	vpt 0 360 arc closepath} bind def
/C2 {BL [] 0 setdash 2 copy moveto
	2 copy vpt 90 180 arc closepath fill
	vpt 0 360 arc closepath} bind def
/C3 {BL [] 0 setdash 2 copy moveto
	2 copy vpt 0 180 arc closepath fill
	vpt 0 360 arc closepath} bind def
/C4 {BL [] 0 setdash 2 copy moveto
	2 copy vpt 180 270 arc closepath fill
	vpt 0 360 arc closepath} bind def
/C5 {BL [] 0 setdash 2 copy moveto
	2 copy vpt 0 90 arc
	2 copy moveto
	2 copy vpt 180 270 arc closepath fill
	vpt 0 360 arc} bind def
/C6 {BL [] 0 setdash 2 copy moveto
	2 copy vpt 90 270 arc closepath fill
	vpt 0 360 arc closepath} bind def
/C7 {BL [] 0 setdash 2 copy moveto
	2 copy vpt 0 270 arc closepath fill
	vpt 0 360 arc closepath} bind def
/C8 {BL [] 0 setdash 2 copy moveto
	2 copy vpt 270 360 arc closepath fill
	vpt 0 360 arc closepath} bind def
/C9 {BL [] 0 setdash 2 copy moveto
	2 copy vpt 270 450 arc closepath fill
	vpt 0 360 arc closepath} bind def
/C10 {BL [] 0 setdash 2 copy 2 copy moveto vpt 270 360 arc closepath fill
	2 copy moveto
	2 copy vpt 90 180 arc closepath fill
	vpt 0 360 arc closepath} bind def
/C11 {BL [] 0 setdash 2 copy moveto
	2 copy vpt 0 180 arc closepath fill
	2 copy moveto
	2 copy vpt 270 360 arc closepath fill
	vpt 0 360 arc closepath} bind def
/C12 {BL [] 0 setdash 2 copy moveto
	2 copy vpt 180 360 arc closepath fill
	vpt 0 360 arc closepath} bind def
/C13 {BL [] 0 setdash 2 copy moveto
	2 copy vpt 0 90 arc closepath fill
	2 copy moveto
	2 copy vpt 180 360 arc closepath fill
	vpt 0 360 arc closepath} bind def
/C14 {BL [] 0 setdash 2 copy moveto
	2 copy vpt 90 360 arc closepath fill
	vpt 0 360 arc} bind def
/C15 {BL [] 0 setdash 2 copy vpt 0 360 arc closepath fill
	vpt 0 360 arc closepath} bind def
/Rec {newpath 4 2 roll moveto 1 index 0 rlineto 0 exch rlineto
	neg 0 rlineto closepath} bind def
/Square {dup Rec} bind def
/Bsquare {vpt sub exch vpt sub exch vpt2 Square} bind def
/S0 {BL [] 0 setdash 2 copy moveto 0 vpt rlineto BL Bsquare} bind def
/S1 {BL [] 0 setdash 2 copy vpt Square fill Bsquare} bind def
/S2 {BL [] 0 setdash 2 copy exch vpt sub exch vpt Square fill Bsquare} bind def
/S3 {BL [] 0 setdash 2 copy exch vpt sub exch vpt2 vpt Rec fill Bsquare} bind def
/S4 {BL [] 0 setdash 2 copy exch vpt sub exch vpt sub vpt Square fill Bsquare} bind def
/S5 {BL [] 0 setdash 2 copy 2 copy vpt Square fill
	exch vpt sub exch vpt sub vpt Square fill Bsquare} bind def
/S6 {BL [] 0 setdash 2 copy exch vpt sub exch vpt sub vpt vpt2 Rec fill Bsquare} bind def
/S7 {BL [] 0 setdash 2 copy exch vpt sub exch vpt sub vpt vpt2 Rec fill
	2 copy vpt Square fill Bsquare} bind def
/S8 {BL [] 0 setdash 2 copy vpt sub vpt Square fill Bsquare} bind def
/S9 {BL [] 0 setdash 2 copy vpt sub vpt vpt2 Rec fill Bsquare} bind def
/S10 {BL [] 0 setdash 2 copy vpt sub vpt Square fill 2 copy exch vpt sub exch vpt Square fill
	Bsquare} bind def
/S11 {BL [] 0 setdash 2 copy vpt sub vpt Square fill 2 copy exch vpt sub exch vpt2 vpt Rec fill
	Bsquare} bind def
/S12 {BL [] 0 setdash 2 copy exch vpt sub exch vpt sub vpt2 vpt Rec fill Bsquare} bind def
/S13 {BL [] 0 setdash 2 copy exch vpt sub exch vpt sub vpt2 vpt Rec fill
	2 copy vpt Square fill Bsquare} bind def
/S14 {BL [] 0 setdash 2 copy exch vpt sub exch vpt sub vpt2 vpt Rec fill
	2 copy exch vpt sub exch vpt Square fill Bsquare} bind def
/S15 {BL [] 0 setdash 2 copy Bsquare fill Bsquare} bind def
/D0 {gsave translate 45 rotate 0 0 S0 stroke grestore} bind def
/D1 {gsave translate 45 rotate 0 0 S1 stroke grestore} bind def
/D2 {gsave translate 45 rotate 0 0 S2 stroke grestore} bind def
/D3 {gsave translate 45 rotate 0 0 S3 stroke grestore} bind def
/D4 {gsave translate 45 rotate 0 0 S4 stroke grestore} bind def
/D5 {gsave translate 45 rotate 0 0 S5 stroke grestore} bind def
/D6 {gsave translate 45 rotate 0 0 S6 stroke grestore} bind def
/D7 {gsave translate 45 rotate 0 0 S7 stroke grestore} bind def
/D8 {gsave translate 45 rotate 0 0 S8 stroke grestore} bind def
/D9 {gsave translate 45 rotate 0 0 S9 stroke grestore} bind def
/D10 {gsave translate 45 rotate 0 0 S10 stroke grestore} bind def
/D11 {gsave translate 45 rotate 0 0 S11 stroke grestore} bind def
/D12 {gsave translate 45 rotate 0 0 S12 stroke grestore} bind def
/D13 {gsave translate 45 rotate 0 0 S13 stroke grestore} bind def
/D14 {gsave translate 45 rotate 0 0 S14 stroke grestore} bind def
/D15 {gsave translate 45 rotate 0 0 S15 stroke grestore} bind def
/DiaE {stroke [] 0 setdash vpt add M
  hpt neg vpt neg V hpt vpt neg V
  hpt vpt V hpt neg vpt V closepath stroke} def
/BoxE {stroke [] 0 setdash exch hpt sub exch vpt add M
  0 vpt2 neg V hpt2 0 V 0 vpt2 V
  hpt2 neg 0 V closepath stroke} def
/TriUE {stroke [] 0 setdash vpt 1.12 mul add M
  hpt neg vpt -1.62 mul V
  hpt 2 mul 0 V
  hpt neg vpt 1.62 mul V closepath stroke} def
/TriDE {stroke [] 0 setdash vpt 1.12 mul sub M
  hpt neg vpt 1.62 mul V
  hpt 2 mul 0 V
  hpt neg vpt -1.62 mul V closepath stroke} def
/PentE {stroke [] 0 setdash gsave
  translate 0 hpt M 4 {72 rotate 0 hpt L} repeat
  closepath stroke grestore} def
/CircE {stroke [] 0 setdash 
  hpt 0 360 arc stroke} def
/Opaque {gsave closepath 1 setgray fill grestore 0 setgray closepath} def
/DiaW {stroke [] 0 setdash vpt add M
  hpt neg vpt neg V hpt vpt neg V
  hpt vpt V hpt neg vpt V Opaque stroke} def
/BoxW {stroke [] 0 setdash exch hpt sub exch vpt add M
  0 vpt2 neg V hpt2 0 V 0 vpt2 V
  hpt2 neg 0 V Opaque stroke} def
/TriUW {stroke [] 0 setdash vpt 1.12 mul add M
  hpt neg vpt -1.62 mul V
  hpt 2 mul 0 V
  hpt neg vpt 1.62 mul V Opaque stroke} def
/TriDW {stroke [] 0 setdash vpt 1.12 mul sub M
  hpt neg vpt 1.62 mul V
  hpt 2 mul 0 V
  hpt neg vpt -1.62 mul V Opaque stroke} def
/PentW {stroke [] 0 setdash gsave
  translate 0 hpt M 4 {72 rotate 0 hpt L} repeat
  Opaque stroke grestore} def
/CircW {stroke [] 0 setdash 
  hpt 0 360 arc Opaque stroke} def
/BoxFill {gsave Rec 1 setgray fill grestore} def
/Density {
  /Fillden exch def
  currentrgbcolor
  /ColB exch def /ColG exch def /ColR exch def
  /ColR ColR Fillden mul Fillden sub 1 add def
  /ColG ColG Fillden mul Fillden sub 1 add def
  /ColB ColB Fillden mul Fillden sub 1 add def
  ColR ColG ColB setrgbcolor} def
/BoxColFill {gsave Rec PolyFill} def
/PolyFill {gsave Density fill grestore grestore} def
/h {rlineto rlineto rlineto gsave closepath fill grestore} bind def
%
% PostScript Level 1 Pattern Fill routine for rectangles
% Usage: x y w h s a XX PatternFill
%	x,y = lower left corner of box to be filled
%	w,h = width and height of box
%	  a = angle in degrees between lines and x-axis
%	 XX = 0/1 for no/yes cross-hatch
%
/PatternFill {gsave /PFa [ 9 2 roll ] def
  PFa 0 get PFa 2 get 2 div add PFa 1 get PFa 3 get 2 div add translate
  PFa 2 get -2 div PFa 3 get -2 div PFa 2 get PFa 3 get Rec
  TransparentPatterns {} {gsave 1 setgray fill grestore} ifelse
  clip
  currentlinewidth 0.5 mul setlinewidth
  /PFs PFa 2 get dup mul PFa 3 get dup mul add sqrt def
  0 0 M PFa 5 get rotate PFs -2 div dup translate
  0 1 PFs PFa 4 get div 1 add floor cvi
	{PFa 4 get mul 0 M 0 PFs V} for
  0 PFa 6 get ne {
	0 1 PFs PFa 4 get div 1 add floor cvi
	{PFa 4 get mul 0 2 1 roll M PFs 0 V} for
 } if
  stroke grestore} def
%
/languagelevel where
 {pop languagelevel} {1} ifelse
dup 2 lt
	{/InterpretLevel1 true def
	 /InterpretLevel3 false def}
	{/InterpretLevel1 Level1 def
	 2 gt
	    {/InterpretLevel3 Level3 def}
	    {/InterpretLevel3 false def}
	 ifelse }
 ifelse
%
% PostScript level 2 pattern fill definitions
%
/Level2PatternFill {
/Tile8x8 {/PaintType 2 /PatternType 1 /TilingType 1 /BBox [0 0 8 8] /XStep 8 /YStep 8}
	bind def
/KeepColor {currentrgbcolor [/Pattern /DeviceRGB] setcolorspace} bind def
<< Tile8x8
 /PaintProc {0.5 setlinewidth pop 0 0 M 8 8 L 0 8 M 8 0 L stroke} 
>> matrix makepattern
/Pat1 exch def
<< Tile8x8
 /PaintProc {0.5 setlinewidth pop 0 0 M 8 8 L 0 8 M 8 0 L stroke
	0 4 M 4 8 L 8 4 L 4 0 L 0 4 L stroke}
>> matrix makepattern
/Pat2 exch def
<< Tile8x8
 /PaintProc {0.5 setlinewidth pop 0 0 M 0 8 L
	8 8 L 8 0 L 0 0 L fill}
>> matrix makepattern
/Pat3 exch def
<< Tile8x8
 /PaintProc {0.5 setlinewidth pop -4 8 M 8 -4 L
	0 12 M 12 0 L stroke}
>> matrix makepattern
/Pat4 exch def
<< Tile8x8
 /PaintProc {0.5 setlinewidth pop -4 0 M 8 12 L
	0 -4 M 12 8 L stroke}
>> matrix makepattern
/Pat5 exch def
<< Tile8x8
 /PaintProc {0.5 setlinewidth pop -2 8 M 4 -4 L
	0 12 M 8 -4 L 4 12 M 10 0 L stroke}
>> matrix makepattern
/Pat6 exch def
<< Tile8x8
 /PaintProc {0.5 setlinewidth pop -2 0 M 4 12 L
	0 -4 M 8 12 L 4 -4 M 10 8 L stroke}
>> matrix makepattern
/Pat7 exch def
<< Tile8x8
 /PaintProc {0.5 setlinewidth pop 8 -2 M -4 4 L
	12 0 M -4 8 L 12 4 M 0 10 L stroke}
>> matrix makepattern
/Pat8 exch def
<< Tile8x8
 /PaintProc {0.5 setlinewidth pop 0 -2 M 12 4 L
	-4 0 M 12 8 L -4 4 M 8 10 L stroke}
>> matrix makepattern
/Pat9 exch def
/Pattern1 {PatternBgnd KeepColor Pat1 setpattern} bind def
/Pattern2 {PatternBgnd KeepColor Pat2 setpattern} bind def
/Pattern3 {PatternBgnd KeepColor Pat3 setpattern} bind def
/Pattern4 {PatternBgnd KeepColor Landscape {Pat5} {Pat4} ifelse setpattern} bind def
/Pattern5 {PatternBgnd KeepColor Landscape {Pat4} {Pat5} ifelse setpattern} bind def
/Pattern6 {PatternBgnd KeepColor Landscape {Pat9} {Pat6} ifelse setpattern} bind def
/Pattern7 {PatternBgnd KeepColor Landscape {Pat8} {Pat7} ifelse setpattern} bind def
} def
%
%
%End of PostScript Level 2 code
%
/PatternBgnd {
  TransparentPatterns {} {gsave 1 setgray fill grestore} ifelse
} def
%
% Substitute for Level 2 pattern fill codes with
% grayscale if Level 2 support is not selected.
%
/Level1PatternFill {
/Pattern1 {0.250 Density} bind def
/Pattern2 {0.500 Density} bind def
/Pattern3 {0.750 Density} bind def
/Pattern4 {0.125 Density} bind def
/Pattern5 {0.375 Density} bind def
/Pattern6 {0.625 Density} bind def
/Pattern7 {0.875 Density} bind def
} def
%
% Now test for support of Level 2 code
%
Level1 {Level1PatternFill} {Level2PatternFill} ifelse
%
/Symbol-Oblique /Symbol findfont [1 0 .167 1 0 0] makefont
dup length dict begin {1 index /FID eq {pop pop} {def} ifelse} forall
currentdict end definefont pop
%
/MFshow {
   { dup 5 get 3 ge
     { 5 get 3 eq {gsave} {grestore} ifelse }
     {dup dup 0 get findfont exch 1 get scalefont setfont
     [ currentpoint ] exch dup 2 get 0 exch R dup 5 get 2 ne {dup dup 6
     get exch 4 get {textshow} {stringwidth pop 0 R} ifelse }if dup 5 get 0 eq
     {dup 3 get {2 get neg 0 exch R pop} {pop aload pop M} ifelse} {dup 5
     get 1 eq {dup 2 get exch dup 3 get exch 6 get stringwidth pop -2 div
     dup 0 R} {dup 6 get stringwidth pop -2 div 0 R 6 get
     textshow 2 index {aload pop M neg 3 -1 roll neg R pop pop} {pop pop pop
     pop aload pop M} ifelse }ifelse }ifelse }
     ifelse }
   forall} def
/Gswidth {dup type /stringtype eq {stringwidth} {pop (n) stringwidth} ifelse} def
/MFwidth {0 exch { dup 5 get 3 ge { 5 get 3 eq { 0 } { pop } ifelse }
 {dup 3 get{dup dup 0 get findfont exch 1 get scalefont setfont
     6 get Gswidth pop add} {pop} ifelse} ifelse} forall} def
/MLshow { currentpoint stroke M
  0 exch R
  Blacktext {gsave 0 setgray MFshow grestore} {MFshow} ifelse } bind def
/MRshow { currentpoint stroke M
  exch dup MFwidth neg 3 -1 roll R
  Blacktext {gsave 0 setgray MFshow grestore} {MFshow} ifelse } bind def
/MCshow { currentpoint stroke M
  exch dup MFwidth -2 div 3 -1 roll R
  Blacktext {gsave 0 setgray MFshow grestore} {MFshow} ifelse } bind def
/XYsave    { [( ) 1 2 true false 3 ()] } bind def
/XYrestore { [( ) 1 2 true false 4 ()] } bind def
Level1 SuppressPDFMark or 
{} {
/SDict 10 dict def
systemdict /pdfmark known not {
  userdict /pdfmark systemdict /cleartomark get put
} if
SDict begin [
  /Title (V2.eps)
  /Subject (gnuplot plot)
  /Creator (gnuplot 5.0 patchlevel 3)
  /Author (bad)
%  /Producer (gnuplot)
%  /Keywords ()
  /CreationDate (Thu Apr 12 18:38:26 2018)
  /DOCINFO pdfmark
end
} ifelse
%
% Support for boxed text - Ethan A Merritt May 2005
%
/InitTextBox { userdict /TBy2 3 -1 roll put userdict /TBx2 3 -1 roll put
           userdict /TBy1 3 -1 roll put userdict /TBx1 3 -1 roll put
	   /Boxing true def } def
/ExtendTextBox { Boxing
    { gsave dup false charpath pathbbox
      dup TBy2 gt {userdict /TBy2 3 -1 roll put} {pop} ifelse
      dup TBx2 gt {userdict /TBx2 3 -1 roll put} {pop} ifelse
      dup TBy1 lt {userdict /TBy1 3 -1 roll put} {pop} ifelse
      dup TBx1 lt {userdict /TBx1 3 -1 roll put} {pop} ifelse
      grestore } if } def
/PopTextBox { newpath TBx1 TBxmargin sub TBy1 TBymargin sub M
               TBx1 TBxmargin sub TBy2 TBymargin add L
	       TBx2 TBxmargin add TBy2 TBymargin add L
	       TBx2 TBxmargin add TBy1 TBymargin sub L closepath } def
/DrawTextBox { PopTextBox stroke /Boxing false def} def
/FillTextBox { gsave PopTextBox 1 1 1 setrgbcolor fill grestore /Boxing false def} def
0 0 0 0 InitTextBox
/TBxmargin 20 def
/TBymargin 20 def
/Boxing false def
/textshow { ExtendTextBox Gshow } def
%
% redundant definitions for compatibility with prologue.ps older than 5.0.2
/LTB {BL [] LCb DL} def
/LTb {PL [] LCb DL} def
end
%%EndProlog
%%Page: 1 1
gnudict begin
gsave
doclip
50 50 translate
0.100 0.100 scale
90 rotate
0 -5040 translate
0 setgray
newpath
(Times-Roman) findfont 240 scalefont setfont
BackgroundColor 0 lt 3 1 roll 0 lt exch 0 lt or or not {gsave BackgroundColor C clippath fill grestore} if
1.000 UL
LTb
LCb setrgbcolor
1080 2947 M
63 0 V
1664 0 R
-63 0 V
stroke
1036 2947 M
[ [(Times-Roman) 150.0 0.0 true true 0 ( 0)]
] -50.0 MRshow
1.000 UL
LTb
LCb setrgbcolor
1080 3015 M
31 0 V
1696 0 R
-31 0 V
-1696 68 R
31 0 V
1696 0 R
-31 0 V
-1696 68 R
31 0 V
1696 0 R
-31 0 V
-1696 68 R
31 0 V
1696 0 R
-31 0 V
-1696 69 R
63 0 V
1664 0 R
-63 0 V
stroke
1036 3288 M
[ [(Times-Roman) 150.0 0.0 true true 0 ( 0.02)]
] -50.0 MRshow
1.000 UL
LTb
LCb setrgbcolor
1080 3356 M
31 0 V
1696 0 R
-31 0 V
-1696 68 R
31 0 V
1696 0 R
-31 0 V
-1696 68 R
31 0 V
1696 0 R
-31 0 V
-1696 68 R
31 0 V
1696 0 R
-31 0 V
-1696 68 R
63 0 V
1664 0 R
-63 0 V
stroke
1036 3628 M
[ [(Times-Roman) 150.0 0.0 true true 0 ( 0.04)]
] -50.0 MRshow
1.000 UL
LTb
LCb setrgbcolor
1080 3696 M
31 0 V
1696 0 R
-31 0 V
-1696 68 R
31 0 V
1696 0 R
-31 0 V
-1696 69 R
31 0 V
1696 0 R
-31 0 V
-1696 68 R
31 0 V
1696 0 R
-31 0 V
-1696 68 R
63 0 V
1664 0 R
-63 0 V
stroke
1036 3969 M
[ [(Times-Roman) 150.0 0.0 true true 0 ( 0.06)]
] -50.0 MRshow
1.000 UL
LTb
LCb setrgbcolor
1080 4037 M
31 0 V
1696 0 R
-31 0 V
-1696 68 R
31 0 V
1696 0 R
-31 0 V
-1696 68 R
31 0 V
1696 0 R
-31 0 V
-1696 68 R
31 0 V
1696 0 R
-31 0 V
-1696 68 R
63 0 V
1664 0 R
-63 0 V
stroke
1036 4309 M
[ [(Times-Roman) 150.0 0.0 true true 0 ( 0.08)]
] -50.0 MRshow
1.000 UL
LTb
LCb setrgbcolor
1080 4378 M
31 0 V
1696 0 R
-31 0 V
-1696 68 R
31 0 V
1696 0 R
-31 0 V
-1696 68 R
31 0 V
1696 0 R
-31 0 V
-1696 68 R
31 0 V
1696 0 R
-31 0 V
-1696 68 R
63 0 V
1664 0 R
-63 0 V
stroke
1036 4650 M
[ [(Times-Roman) 150.0 0.0 true true 0 ( 0.1)]
] -50.0 MRshow
1.000 UL
LTb
LCb setrgbcolor
1080 2947 M
0 63 V
0 1640 R
0 -63 V
stroke
1080 2827 M
[ [(Times-Roman) 150.0 0.0 true true 0 ( 0)]
] -50.0 MCshow
1.000 UL
LTb
LCb setrgbcolor
1160 2947 M
0 31 V
0 1672 R
0 -31 V
79 -1672 R
0 31 V
0 1672 R
0 -31 V
80 -1672 R
0 31 V
0 1672 R
0 -31 V
80 -1672 R
0 31 V
0 1672 R
0 -31 V
80 -1672 R
0 63 V
0 1640 R
0 -63 V
stroke
1479 2827 M
[ [(Times-Roman) 150.0 0.0 true true 0 ( 150)]
] -50.0 MCshow
1.000 UL
LTb
LCb setrgbcolor
1558 2947 M
0 31 V
0 1672 R
0 -31 V
80 -1672 R
0 31 V
0 1672 R
0 -31 V
80 -1672 R
0 31 V
0 1672 R
0 -31 V
79 -1672 R
0 31 V
0 1672 R
0 -31 V
80 -1672 R
0 63 V
0 1640 R
0 -63 V
stroke
1877 2827 M
[ [(Times-Roman) 150.0 0.0 true true 0 ( 300)]
] -50.0 MCshow
1.000 UL
LTb
LCb setrgbcolor
1957 2947 M
0 31 V
0 1672 R
0 -31 V
79 -1672 R
0 31 V
0 1672 R
0 -31 V
80 -1672 R
0 31 V
0 1672 R
0 -31 V
80 -1672 R
0 31 V
0 1672 R
0 -31 V
80 -1672 R
0 63 V
0 1640 R
0 -63 V
stroke
2276 2827 M
[ [(Times-Roman) 150.0 0.0 true true 0 ( 450)]
] -50.0 MCshow
1.000 UL
LTb
LCb setrgbcolor
2355 2947 M
0 31 V
0 1672 R
0 -31 V
80 -1672 R
0 31 V
0 1672 R
0 -31 V
80 -1672 R
0 31 V
0 1672 R
0 -31 V
79 -1672 R
0 31 V
0 1672 R
0 -31 V
80 -1672 R
0 63 V
0 1640 R
0 -63 V
stroke
2674 2827 M
[ [(Times-Roman) 150.0 0.0 true true 0 ( 600)]
] -50.0 MCshow
1.000 UL
LTb
LCb setrgbcolor
2754 2947 M
0 31 V
0 1672 R
0 -31 V
stroke
LTB
LCb setrgbcolor
1080 4650 N
0 -1703 V
1727 0 V
0 1703 V
-1727 0 V
Z stroke
1.000 UP
1.000 UL
LTb
LCb setrgbcolor
LCb setrgbcolor
600 3798 M
currentpoint gsave translate -270 rotate 0 0 moveto
[ [(Times-Roman) 150.0 0.0 true true 0 (V)]
[(Times-Roman) 120.0 -45.0 true true 0 (2)]
] -35.0 MCshow
grestore
LTb
LCb setrgbcolor
1943 2587 M
[ [(Times-Roman) 150.0 0.0 true true 0 (Multiplicity)]
] -50.0 MCshow
LTb
% Begin plot #1
1.000 UP
2.000 UL
LTb
0.58 0.00 0.83 C LCb setrgbcolor
2499 4566 M
[ [(Times-Roman) 100.0 0.0 true true 0 (90-100)]
] -33.3 MRshow
1.000 UP
2.000 UL
LTb
0.58 0.00 0.83 C 2559 4566 M
135 0 V
-135 31 R
0 -62 V
135 62 R
0 -62 V
1173 4117 M
0 24 V
-31 -24 R
62 0 V
-62 24 R
62 0 V
51 147 R
0 13 V
-31 -13 R
62 0 V
-62 13 R
62 0 V
89 102 R
0 8 V
-31 -8 R
62 0 V
-62 8 R
62 0 V
147 -19 R
0 5 V
-31 -5 R
62 0 V
-62 5 R
62 0 V
211 -152 R
0 4 V
-31 -4 R
62 0 V
-62 4 R
62 0 V
293 -296 R
0 3 V
-31 -3 R
62 0 V
-62 3 R
62 0 V
282 -325 R
0 5 V
-31 -5 R
62 0 V
-62 5 R
62 0 V
153 -176 R
0 8 V
-31 -8 R
62 0 V
-62 8 R
62 0 V
1173 4129 TriDF
1255 4294 TriDF
1375 4407 TriDF
1553 4394 TriDF
1795 4247 TriDF
2119 3955 TriDF
2432 3633 TriDF
2616 3464 TriDF
2626 4566 TriDF
% End plot #1
% Begin plot #2
1.000 UP
2.000 UL
LTb
0.90 0.12 0.06 C LCb setrgbcolor
2499 4466 M
[ [(Times-Roman) 100.0 0.0 true true 0 (80-90%)]
] -33.3 MRshow
1.000 UP
2.000 UL
LTb
0.90 0.12 0.06 C 2559 4466 M
135 0 V
-135 31 R
0 -62 V
135 62 R
0 -62 V
1173 4050 M
0 28 V
-31 -28 R
62 0 V
-62 28 R
62 0 V
49 126 R
0 14 V
-31 -14 R
62 0 V
-62 14 R
62 0 V
91 77 R
0 8 V
-31 -8 R
62 0 V
-62 8 R
62 0 V
147 -24 R
0 5 V
-31 -5 R
62 0 V
-62 5 R
62 0 V
211 -147 R
0 5 V
-31 -5 R
62 0 V
-62 5 R
62 0 V
290 -285 R
0 3 V
-31 -3 R
62 0 V
-62 3 R
62 0 V
285 -300 R
0 5 V
-31 -5 R
62 0 V
-62 5 R
62 0 V
153 -158 R
0 9 V
-31 -9 R
62 0 V
-62 9 R
62 0 V
1173 4064 BoxF
1253 4211 BoxF
1375 4299 BoxF
1553 4282 BoxF
1795 4139 BoxF
2116 3858 BoxF
2432 3562 BoxF
2616 3411 BoxF
2626 4466 BoxF
% End plot #2
% Begin plot #3
1.000 UP
2.000 UL
LTb
0.90 0.62 0.00 C LCb setrgbcolor
2499 4366 M
[ [(Times-Roman) 100.0 0.0 true true 0 (70-80%)]
] -33.3 MRshow
1.000 UP
2.000 UL
LTb
0.90 0.62 0.00 C 2559 4366 M
135 0 V
-135 31 R
0 -62 V
135 62 R
0 -62 V
1173 4028 M
0 29 V
-31 -29 R
62 0 V
-62 29 R
62 0 V
49 111 R
0 14 V
-31 -14 R
62 0 V
-62 14 R
62 0 V
91 71 R
0 8 V
-31 -8 R
62 0 V
-62 8 R
62 0 V
147 -30 R
0 6 V
-31 -6 R
62 0 V
-62 6 R
62 0 V
211 -148 R
0 4 V
-31 -4 R
62 0 V
-62 4 R
62 0 V
290 -275 R
0 3 V
-31 -3 R
62 0 V
-62 3 R
62 0 V
285 -289 R
0 6 V
-31 -6 R
62 0 V
-62 6 R
62 0 V
153 -153 R
0 9 V
-31 -9 R
62 0 V
-62 9 R
62 0 V
1173 4042 Crs
1253 4175 Crs
1375 4257 Crs
1553 4234 Crs
1795 4091 Crs
2116 3819 Crs
2432 3535 Crs
2616 3390 Crs
2626 4366 Crs
% End plot #3
% Begin plot #4
1.000 UP
2.000 UL
LTb
0.00 0.00 0.00 C LCb setrgbcolor
2499 4266 M
[ [(Times-Roman) 100.0 0.0 true true 0 (NoQ)]
[(Times-Roman) 80.0 -30.0 true true 0 (2)]
] -23.3 MRshow
1.000 UP
2.000 UL
LTb
0.00 0.00 0.00 C 2559 4266 M
135 0 V
-135 31 R
0 -62 V
135 62 R
0 -62 V
1173 4027 M
0 9 V
-31 -9 R
62 0 V
-62 9 R
62 0 V
49 111 R
0 5 V
-31 -5 R
62 0 V
-62 5 R
62 0 V
91 60 R
0 3 V
-31 -3 R
62 0 V
-62 3 R
62 0 V
147 -35 R
0 2 V
-31 -2 R
62 0 V
-62 2 R
62 0 V
211 -144 R
0 2 V
-31 -2 R
62 0 V
-62 2 R
62 0 V
293 -259 R
0 1 V
-31 -1 R
62 0 V
-62 1 R
62 0 V
282 -273 R
0 1 V
-31 -1 R
62 0 V
-62 1 R
62 0 V
153 -137 R
0 3 V
-31 -3 R
62 0 V
-62 3 R
62 0 V
1173 4032 Circle
1253 4149 Circle
1375 4214 Circle
1553 4181 Circle
1795 4039 Circle
2119 3781 Circle
2432 3510 Circle
2616 3374 Circle
2626 4266 Circle
% End plot #4
% Begin plot #5
1.000 UP
2.000 UL
LTb
0.58 0.00 0.83 C LCb setrgbcolor
2499 4166 M
[ [(Times-Roman) 100.0 0.0 true true 0 (20-30)]
] -33.3 MRshow
1.000 UP
2.000 UL
LTb
0.58 0.00 0.83 C 2559 4166 M
135 0 V
-135 31 R
0 -62 V
135 62 R
0 -62 V
1173 3987 M
0 30 V
-31 -30 R
62 0 V
-62 30 R
62 0 V
49 77 R
0 15 V
-31 -15 R
62 0 V
-62 15 R
62 0 V
91 19 R
0 9 V
-31 -9 R
62 0 V
-62 9 R
62 0 V
147 -53 R
0 7 V
-31 -7 R
62 0 V
-62 7 R
62 0 V
211 -151 R
0 5 V
-31 -5 R
62 0 V
-62 5 R
62 0 V
293 -243 R
0 4 V
-31 -4 R
62 0 V
-62 4 R
62 0 V
282 -255 R
0 6 V
-31 -6 R
62 0 V
-62 6 R
62 0 V
153 -116 R
0 10 V
-31 -10 R
62 0 V
-62 10 R
62 0 V
1173 4002 PentF
1253 4102 PentF
1375 4133 PentF
1553 4088 PentF
1795 3942 PentF
2119 3704 PentF
2432 3454 PentF
2616 3346 PentF
2626 4166 PentF
% End plot #5
% Begin plot #6
1.000 UP
2.000 UL
LTb
0.00 0.62 0.45 C LCb setrgbcolor
2499 4066 M
[ [(Times-Roman) 100.0 0.0 true true 0 (10-20%)]
] -33.3 MRshow
1.000 UP
2.000 UL
LTb
0.00 0.62 0.45 C 2559 4066 M
135 0 V
-135 31 R
0 -62 V
135 62 R
0 -62 V
1173 3983 M
0 30 V
-31 -30 R
62 0 V
-62 30 R
62 0 V
49 63 R
0 15 V
-31 -15 R
62 0 V
-62 15 R
62 0 V
91 8 R
0 9 V
-31 -9 R
62 0 V
-62 9 R
62 0 V
147 -46 R
0 6 V
-31 -6 R
62 0 V
-62 6 R
62 0 V
211 -150 R
0 5 V
-31 -5 R
62 0 V
-62 5 R
62 0 V
293 -238 R
0 4 V
-31 -4 R
62 0 V
-62 4 R
62 0 V
282 -238 R
0 6 V
-31 -6 R
62 0 V
-62 6 R
62 0 V
153 -129 R
0 10 V
-31 -10 R
62 0 V
-62 10 R
62 0 V
1173 3998 TriUF
1253 4084 TriUF
1375 4104 TriUF
1553 4065 TriUF
1795 3920 TriUF
2119 3687 TriUF
2432 3454 TriUF
2616 3333 TriUF
2626 4066 TriUF
% End plot #6
% Begin plot #7
1.000 UP
2.000 UL
LTb
0.00 0.45 0.70 C LCb setrgbcolor
2499 3966 M
[ [(Times-Roman) 100.0 0.0 true true 0 (0-10%)]
] -33.3 MRshow
1.000 UP
2.000 UL
LTb
0.00 0.45 0.70 C 2559 3966 M
135 0 V
-135 31 R
0 -62 V
135 62 R
0 -62 V
-1521 7 R
0 32 V
-31 -32 R
62 0 V
-62 32 R
62 0 V
49 95 R
0 16 V
-31 -16 R
62 0 V
-62 16 R
62 0 V
91 11 R
0 9 V
-31 -9 R
62 0 V
-62 9 R
62 0 V
147 -71 R
0 7 V
-31 -7 R
62 0 V
-62 7 R
62 0 V
211 -143 R
0 5 V
-31 -5 R
62 0 V
-62 5 R
62 0 V
293 -230 R
0 5 V
-31 -5 R
62 0 V
-62 5 R
62 0 V
282 -243 R
0 6 V
-31 -6 R
62 0 V
-62 6 R
62 0 V
153 -115 R
0 10 V
-31 -10 R
62 0 V
-62 10 R
62 0 V
1173 3958 CircleF
1253 4077 CircleF
1375 4101 CircleF
1553 4037 CircleF
1795 3900 CircleF
2119 3675 CircleF
2432 3438 CircleF
2616 3331 CircleF
2626 3966 CircleF
% End plot #7
% Begin plot #8
1.000 UP
2.000 UL
LTb
0.90 0.12 0.06 C LCb setrgbcolor
2499 3866 M
[ [(Times-Roman) 100.0 0.0 true true 0 (niseem)]
] -33.3 MRshow
1.000 UP
2.000 UL
LTb
0.90 0.12 0.06 C 2559 3866 M
135 0 V
-135 31 R
0 -62 V
135 62 R
0 -62 V
1173 4023 M
0 4 V
-31 -4 R
62 0 V
-62 4 R
62 0 V
49 121 R
0 3 V
-31 -3 R
62 0 V
-62 3 R
62 0 V
91 63 R
-31 0 R
62 0 V
-62 0 R
62 0 V
147 -29 R
-31 0 R
62 0 V
-62 0 R
62 0 V
211 -138 R
-31 0 R
62 0 V
-62 0 R
62 0 V
293 -248 R
-31 0 R
62 0 V
-62 0 R
62 0 V
282 -263 R
-31 0 R
62 0 V
-62 0 R
62 0 V
1173 4025 Box
1253 4149 Box
1375 4214 Box
1553 4185 Box
1795 4047 Box
2119 3799 Box
2432 3536 Box
2626 3866 Box
% End plot #8
2.000 UL
LTb
LCb setrgbcolor
1.000 UL
LTB
LCb setrgbcolor
1080 4650 N
0 -1703 V
1727 0 V
0 1703 V
-1727 0 V
Z stroke
1.000 UP
1.000 UL
LTb
LCb setrgbcolor
stroke
grestore
end
showpage
%%Trailer
%%DocumentFonts: Times-Roman
%%Pages: 1
