0.0025	1.185	0.003201	1.276
0.0075	1.186	0.003204	1.268
0.0125	1.172	0.00318	1.253
0.0175	1.161	0.003164	1.232
0.0225	1.146	0.003146	1.207
0.0275	1.128	0.003121	1.179
0.0325	1.105	0.00308	1.15
0.0375	1.078	0.003033	1.122
0.0425	1.061	0.003002	1.097
0.0475	1.049	0.002979	1.074
0.0525	1.03	0.002951	1.055
0.0575	1.019	0.00293	1.04
0.0625	1.014	0.002921	1.028
0.0675	1.002	0.002902	1.019
0.0725	1.003	0.002903	1.012
0.0775	1.001	0.002902	1.007
0.0825	1	0.002899	1.004
0.0875	0.9946	0.002891	1.002
0.0925	1.001	0.002906	1
0.0975	1.004	0.002913	0.9996
0.1025	0.9993	0.002907	0.9991
0.1075	1	0.002916	0.9988
0.1125	0.9955	0.002913	0.9986
0.1175	0.9988	0.002926	0.9985
0.1225	0.9991	0.002931	0.9985
0.1275	0.9991	0.00294	0.9985
0.1325	0.9957	0.002944	0.9985
0.1375	1.001	0.002973	0.9985
0.1425	0.994	0.002967	0.9984
0.1475	0.999	0.00299	0.9984
0.1525	1.001	0.003009	0.9984
0.1575	1	0.003026	0.9984
0.1625	0.9944	0.003023	0.9984
0.1675	0.9996	0.003053	0.9984
0.1725	1.002	0.003078	0.9984
0.1775	0.9975	0.003087	0.9984
0.1825	0.9975	0.003103	0.9984
0.1875	0.9961	0.00312	0.9984
0.1925	0.9965	0.003141	0.9984
0.1975	0.9998	0.003172	0.9984
0.2025	0.9935	0.003179	0.9984
0.2075	0.9971	0.003207	0.9984
0.2125	1.003	0.003243	0.9984
0.2175	0.9934	0.003241	0.9984
0.2225	1.001	0.003286	0.9984
0.2275	0.9953	0.0033	0.9984
0.2325	1.006	0.003355	0.9984
0.2375	1.001	0.003361	0.9984
0.2425	1	0.003386	0.9984
0.2475	0.9991	0.003413	0.9984
0.2525	1.002	0.003452	0.9984
0.2575	0.9947	0.003458	0.9984
0.2625	0.9989	0.003502	0.9984
0.2675	1.001	0.003536	0.9984
0.2725	0.9932	0.003549	0.9984
0.2775	0.9998	0.003605	0.9984
0.2825	1.004	0.003646	0.9984
0.2875	1	0.00367	0.9984
0.2925	0.9909	0.003681	0.9984
0.2975	1.005	0.003751	0.9984

0.0025	1.241	0.004998	1.306
0.0075	1.229	0.004968	1.298
0.0125	1.219	0.004937	1.284
0.0175	1.203	0.00492	1.264
0.0225	1.181	0.004871	1.24
0.0275	1.163	0.004838	1.213
0.0325	1.139	0.004782	1.184
0.0375	1.114	0.004728	1.155
0.0425	1.088	0.004661	1.128
0.0475	1.062	0.004598	1.103
0.0525	1.052	0.004597	1.081
0.0575	1.044	0.004582	1.062
0.0625	1.026	0.004536	1.046
0.0675	1.013	0.004507	1.034
0.0725	1.012	0.004515	1.024
0.0775	1.007	0.004507	1.016
0.0825	1.004	0.004515	1.011
0.0875	1.003	0.004531	1.007
0.0925	1	0.004541	1.004
0.0975	1.005	0.004563	1.003
0.1025	0.9953	0.00454	1.001
0.1075	1.003	0.004582	1.001
0.1125	0.9994	0.004587	1
0.1175	1.008	0.00463	0.9998
0.1225	1.007	0.004638	0.9996
0.1275	1.008	0.004663	0.9995
0.1325	0.998	0.004658	0.9995
0.1375	0.9973	0.004671	0.9994
0.1425	1.005	0.00471	0.9994
0.1475	1.001	0.004727	0.9994
0.1525	1.001	0.004746	0.9994
0.1575	1.012	0.004803	0.9994
0.1625	0.994	0.004773	0.9994
0.1675	1.007	0.004841	0.9994
0.1725	0.9973	0.004826	0.9994
0.1775	0.9977	0.004842	0.9994
0.1825	0.992	0.004868	0.9994
0.1875	1.002	0.00492	0.9994
0.1925	1.001	0.004942	0.9994
0.1975	1.003	0.004985	0.9994
0.2025	1.003	0.005014	0.9994
0.2075	0.999	0.005027	0.9994
0.2125	1.01	0.005086	0.9994
0.2175	0.9954	0.005071	0.9994
0.2225	1.009	0.005159	0.9994
0.2275	1.003	0.005178	0.9994
0.2325	0.9996	0.00519	0.9994
0.2375	1.01	0.005276	0.9994
0.2425	1.007	0.005295	0.9994
0.2475	0.9942	0.00529	0.9994
0.2525	0.9953	0.005331	0.9994
0.2575	1.002	0.005403	0.9994
0.2625	1.001	0.005443	0.9994
0.2675	1.006	0.005516	0.9994
0.2725	0.9986	0.005519	0.9994
0.2775	0.9994	0.005563	0.9994
0.2825	1.001	0.005617	0.9994
0.2875	1.003	0.005671	0.9994
0.2925	0.9956	0.005683	0.9994
0.2975	0.9975	0.00575	0.9994

0.0025	1.266	0.008454	1.334
0.0075	1.281	0.008562	1.327
0.0125	1.27	0.008548	1.314
0.0175	1.256	0.008548	1.296
0.0225	1.237	0.008506	1.273
0.0275	1.186	0.008267	1.247
0.0325	1.192	0.008305	1.218
0.0375	1.136	0.008045	1.19
0.0425	1.129	0.008036	1.161
0.0475	1.087	0.007822	1.134
0.0525	1.069	0.007762	1.11
0.0575	1.072	0.007886	1.088
0.0625	1.05	0.007821	1.069
0.0675	1.035	0.007736	1.053
0.0725	1.008	0.007604	1.04
0.0775	1.023	0.0077	1.029
0.0825	1.016	0.007656	1.021
0.0875	1.001	0.007585	1.015
0.0925	0.9933	0.007577	1.01
0.0975	0.9875	0.007588	1.007
0.1025	1.018	0.007773	1.004
0.1075	0.9921	0.007677	1.003
0.1125	1.002	0.007757	1.001
0.1175	0.9994	0.007745	1.001
0.1225	0.9905	0.007728	1
0.1275	0.9933	0.007742	0.9999
0.1325	1.006	0.007841	0.9997
0.1375	0.9919	0.007792	0.9996
0.1425	0.988	0.007801	0.9995
0.1475	0.9946	0.007888	0.9995
0.1525	0.9956	0.00793	0.9994
0.1575	1.001	0.007995	0.9994
0.1625	1	0.008013	0.9994
0.1675	0.9954	0.007999	0.9994
0.1725	1.021	0.008209	0.9994
0.1775	0.9979	0.008117	0.9994
0.1825	1.004	0.008195	0.9994
0.1875	1.01	0.008251	0.9994
0.1925	0.9929	0.008206	0.9994
0.1975	1.017	0.008411	0.9994
0.2025	0.9921	0.008258	0.9994
0.2075	1.002	0.008384	0.9994
0.2125	1.01	0.008473	0.9994
0.2175	1.031	0.008655	0.9994
0.2225	0.9969	0.008484	0.9994
0.2275	1.002	0.008594	0.9994
0.2325	1.009	0.008702	0.9994
0.2375	1.021	0.008788	0.9994
0.2425	1.004	0.008761	0.9994
0.2475	0.9925	0.008763	0.9994
0.2525	1.009	0.008905	0.9994
0.2575	1.015	0.009004	0.9994
0.2625	1	0.008983	0.9994
0.2675	1.004	0.009057	0.9994
0.2725	1.02	0.009279	0.9994
0.2775	1.017	0.009281	0.9994
0.2825	1.012	0.009323	0.9994
0.2875	0.9923	0.009257	0.9994
0.2925	0.9986	0.009383	0.9994
0.2975	1.002	0.009433	0.9994

0.0025	1.368	0.02604	1.366
0.0075	1.272	0.02487	1.36
0.0125	1.339	0.02623	1.347
0.0175	1.354	0.02692	1.329
0.0225	1.276	0.02563	1.307
0.0275	1.24	0.02518	1.281
0.0325	1.174	0.02425	1.253
0.0375	1.201	0.025	1.223
0.0425	1.132	0.02363	1.194
0.0475	1.141	0.02379	1.165
0.0525	1.134	0.02364	1.139
0.0575	1.044	0.02246	1.114
0.0625	1.031	0.02248	1.092
0.0675	1.057	0.0231	1.073
0.0725	1.046	0.02312	1.057
0.0775	0.9882	0.02248	1.043
0.0825	1.063	0.02368	1.033
0.0875	0.9886	0.0228	1.024
0.0925	1.024	0.02311	1.017
0.0975	0.9885	0.02256	1.012
0.1025	0.9895	0.02241	1.008
0.1075	1.017	0.02297	1.005
0.1125	0.9979	0.02288	1.003
0.1175	1.005	0.02323	1.002
0.1225	0.9901	0.02306	1.001
0.1275	1.018	0.02358	1
0.1325	0.9917	0.02346	0.9997
0.1375	0.9815	0.02336	0.9994
0.1425	1.029	0.02408	0.9992
0.1475	1.052	0.02462	0.9991
0.1525	0.9954	0.02351	0.999
0.1575	1.018	0.02398	0.999
0.1625	1.014	0.02403	0.9989
0.1675	0.9801	0.02371	0.9989
0.1725	0.9954	0.02435	0.9989
0.1775	0.9754	0.02421	0.9989
0.1825	1.023	0.02509	0.9989
0.1875	1.03	0.02555	0.9989
0.1925	0.9889	0.02476	0.9989
0.1975	0.984	0.02514	0.9989
0.2025	1.003	0.02533	0.9989
0.2075	0.9631	0.02479	0.9989
0.2125	0.9534	0.0246	0.9989
0.2175	1.003	0.02577	0.9989
0.2225	0.9588	0.0252	0.9989
0.2275	1.03	0.02669	0.9989
0.2325	1.014	0.02663	0.9989
0.2375	1.018	0.02696	0.9989
0.2425	1.032	0.02779	0.9989
0.2475	1.02	0.02745	0.9989
0.2525	1.005	0.02752	0.9989
0.2575	0.9821	0.02697	0.9989
0.2625	1.019	0.02787	0.9989
0.2675	1.007	0.02815	0.9989
0.2725	1.01	0.02859	0.9989
0.2775	1.066	0.03008	0.9989
0.2825	0.9676	0.02813	0.9989
0.2875	1.03	0.02983	0.9989
0.2925	0.9778	0.02948	0.9989
0.2975	1.001	0.0301	0.9989

0.0025	1.205	0.003721	1.299
0.0075	1.208	0.003731	1.291
0.0125	1.198	0.003702	1.276
0.0175	1.183	0.003679	1.255
0.0225	1.164	0.003644	1.23
0.0275	1.138	0.003596	1.202
0.0325	1.125	0.003578	1.172
0.0375	1.096	0.003518	1.143
0.0425	1.081	0.003488	1.116
0.0475	1.061	0.003449	1.091
0.0525	1.043	0.003414	1.07
0.0575	1.033	0.003396	1.052
0.0625	1.019	0.003366	1.037
0.0675	1.014	0.003352	1.026
0.0725	1.007	0.00334	1.017
0.0775	1.002	0.003335	1.011
0.0825	1.002	0.003336	1.007
0.0875	0.999	0.003325	1.004
0.0925	0.9902	0.003313	1.001
0.0975	0.9993	0.003335	1
0.1025	0.9972	0.003335	0.9992
0.1075	1.002	0.003349	0.9987
0.1125	0.9993	0.00335	0.9984
0.1175	0.9934	0.003349	0.9982
0.1225	0.9937	0.003355	0.9981
0.1275	0.9963	0.003371	0.998
0.1325	0.9935	0.003379	0.998
0.1375	0.9954	0.003396	0.998
0.1425	0.9963	0.003415	0.998
0.1475	0.994	0.003427	0.998
0.1525	0.9994	0.003452	0.998
0.1575	0.9941	0.00346	0.998
0.1625	0.9988	0.003489	0.998
0.1675	1.001	0.003514	0.998
0.1725	0.9943	0.003521	0.998
0.1775	1.003	0.003558	0.998
0.1825	1.004	0.003583	0.998
0.1875	0.9945	0.003581	0.998
0.1925	0.9993	0.003617	0.998
0.1975	0.9954	0.003633	0.998
0.2025	0.9968	0.003659	0.998
0.2075	0.9964	0.003682	0.998
0.2125	0.9918	0.003696	0.998
0.2175	0.9949	0.003731	0.998
0.2225	1.001	0.003775	0.998
0.2275	0.9946	0.003788	0.998
0.2325	0.9974	0.003819	0.998
0.2375	0.9971	0.003848	0.998
0.2425	0.9938	0.003877	0.998
0.2475	0.9968	0.003915	0.998
0.2525	0.9998	0.003962	0.998
0.2575	0.9989	0.003986	0.998
0.2625	1.005	0.004042	0.998
0.2675	1.005	0.004076	0.998
0.2725	0.9995	0.0041	0.998
0.2775	1.004	0.004155	0.998
0.2825	0.9943	0.004154	0.998
0.2875	1.003	0.004223	0.998
0.2925	0.9968	0.004248	0.998
0.2975	1.002	0.004303	0.998

0.0025	1.255	0.005784	1.326
0.0075	1.233	0.005716	1.319
0.0125	1.249	0.005786	1.306
0.0175	1.225	0.005733	1.287
0.0225	1.206	0.005689	1.263
0.0275	1.179	0.005621	1.236
0.0325	1.156	0.00554	1.207
0.0375	1.134	0.005494	1.178
0.0425	1.116	0.005455	1.149
0.0475	1.089	0.005379	1.123
0.0525	1.073	0.005352	1.098
0.0575	1.055	0.00531	1.077
0.0625	1.043	0.005276	1.059
0.0675	1.018	0.005191	1.045
0.0725	1.02	0.005227	1.033
0.0775	1.017	0.005229	1.023
0.0825	1.016	0.005237	1.016
0.0875	1.007	0.005232	1.011
0.0925	1.013	0.005268	1.007
0.0975	1.001	0.005234	1.004
0.1025	1	0.005237	1.003
0.1075	1.011	0.005292	1.001
0.1125	1.006	0.005285	1.001
0.1175	0.9967	0.005293	1
0.1225	1.002	0.005329	0.9996
0.1275	0.9907	0.005306	0.9994
0.1325	1.004	0.005371	0.9993
0.1375	0.9998	0.005386	0.9992
0.1425	1.005	0.005426	0.9992
0.1475	1.003	0.005429	0.9992
0.1525	0.9975	0.005446	0.9992
0.1575	0.9998	0.00549	0.9992
0.1625	1.001	0.005513	0.9992
0.1675	0.992	0.005507	0.9992
0.1725	0.9996	0.005561	0.9992
0.1775	0.992	0.005564	0.9992
0.1825	1	0.00563	0.9992
0.1875	0.9945	0.005627	0.9992
0.1925	0.994	0.005666	0.9992
0.1975	1.006	0.005737	0.9992
0.2025	1.002	0.005753	0.9992
0.2075	0.9964	0.005762	0.9992
0.2125	1.001	0.005835	0.9992
0.2175	1	0.005868	0.9992
0.2225	1.007	0.005917	0.9992
0.2275	0.9998	0.005936	0.9992
0.2325	0.9959	0.00596	0.9992
0.2375	1.004	0.006041	0.9992
0.2425	1.015	0.006118	0.9992
0.2475	0.9984	0.006111	0.9992
0.2525	0.9995	0.006149	0.9992
0.2575	1.007	0.006242	0.9992
0.2625	1	0.006251	0.9992
0.2675	1.003	0.006302	0.9992
0.2725	0.9907	0.006326	0.9992
0.2775	0.9932	0.006361	0.9992
0.2825	1.005	0.006482	0.9992
0.2875	0.9923	0.006471	0.9992
0.2925	0.9892	0.006534	0.9992
0.2975	1.009	0.006681	0.9992

0.0025	1.295	0.009926	1.363
0.0075	1.309	0.01004	1.357
0.0125	1.274	0.009865	1.344
0.0175	1.274	0.009942	1.325
0.0225	1.239	0.009806	1.302
0.0275	1.239	0.009817	1.275
0.0325	1.212	0.009679	1.246
0.0375	1.173	0.009428	1.216
0.0425	1.145	0.009332	1.186
0.0475	1.128	0.009271	1.157
0.0525	1.109	0.009178	1.13
0.0575	1.064	0.009003	1.106
0.0625	1.069	0.009086	1.085
0.0675	1.038	0.008933	1.066
0.0725	1.031	0.008869	1.051
0.0775	1.021	0.008828	1.038
0.0825	1.022	0.008834	1.028
0.0875	1.02	0.008866	1.02
0.0925	0.9858	0.008671	1.014
0.0975	1.005	0.008842	1.01
0.1025	1.006	0.008909	1.006
0.1075	1	0.0089	1.004
0.1125	1.005	0.008953	1.002
0.1175	0.9861	0.008843	1.001
0.1225	1.003	0.00896	1.001
0.1275	1.005	0.009022	1
0.1325	1.003	0.009027	0.9997
0.1375	1.008	0.009089	0.9995
0.1425	0.9858	0.008992	0.9993
0.1475	1.005	0.00914	0.9993
0.1525	0.9992	0.009143	0.9992
0.1575	1.013	0.009281	0.9992
0.1625	1.001	0.009259	0.9992
0.1675	1.003	0.009261	0.9992
0.1725	1.005	0.009347	0.9992
0.1775	0.9975	0.00933	0.9992
0.1825	1.002	0.00943	0.9992
0.1875	1.021	0.009618	0.9992
0.1925	0.9975	0.009475	0.9992
0.1975	1.014	0.009605	0.9992
0.2025	1.001	0.009614	0.9992
0.2075	1.032	0.009864	0.9992
0.2125	1.002	0.009685	0.9992
0.2175	1.013	0.009866	0.9992
0.2225	1.012	0.009893	0.9992
0.2275	0.992	0.009811	0.9992
0.2325	1.011	0.01001	0.9992
0.2375	1.014	0.01013	0.9992
0.2425	0.991	0.009998	0.9992
0.2475	0.9948	0.0101	0.9992
0.2525	0.9928	0.01016	0.9992
0.2575	0.9913	0.01016	0.9992
0.2625	1.002	0.01035	0.9992
0.2675	0.9875	0.01031	0.9992
0.2725	1.001	0.0105	0.9992
0.2775	1.004	0.01058	0.9992
0.2825	1.011	0.01072	0.9992
0.2875	1.013	0.01081	0.9992
0.2925	0.9931	0.01075	0.9992
0.2975	1.01	0.01094	0.9992

0.0025	1.357	0.02965	1.382
0.0075	1.266	0.02878	1.376
0.0125	1.321	0.02979	1.365
0.0175	1.259	0.02902	1.349
0.0225	1.221	0.02859	1.329
0.0275	1.315	0.03017	1.305
0.0325	1.305	0.03046	1.279
0.0375	1.151	0.0277	1.251
0.0425	1.212	0.02877	1.223
0.0475	1.141	0.02768	1.195
0.0525	1.156	0.02758	1.168
0.0575	1.107	0.02707	1.142
0.0625	1.108	0.02754	1.119
0.0675	1.078	0.02704	1.098
0.0725	1.062	0.02719	1.079
0.0775	1.028	0.02655	1.063
0.0825	1.013	0.02652	1.049
0.0875	1.019	0.02682	1.038
0.0925	0.9902	0.02606	1.029
0.0975	0.9768	0.02588	1.021
0.1025	1.025	0.02671	1.015
0.1075	0.9638	0.02562	1.011
0.1125	0.9932	0.02596	1.007
0.1175	1.005	0.02666	1.005
0.1225	0.9748	0.02648	1.003
0.1275	0.9942	0.02698	1.002
0.1325	1.007	0.02743	1.001
0.1375	0.9994	0.0271	0.9999
0.1425	1.01	0.02741	0.9994
0.1475	0.9731	0.02684	0.9991
0.1525	0.9651	0.02684	0.9989
0.1575	0.9929	0.02709	0.9987
0.1625	1.017	0.02788	0.9986
0.1675	1.01	0.02787	0.9986
0.1725	0.9885	0.02774	0.9985
0.1775	0.9972	0.0279	0.9985
0.1825	1.031	0.02897	0.9985
0.1875	0.9518	0.02766	0.9985
0.1925	1.023	0.02943	0.9985
0.1975	0.9578	0.02856	0.9985
0.2025	0.9303	0.02772	0.9985
0.2075	0.992	0.0294	0.9985
0.2125	1.021	0.0298	0.9985
0.2175	0.9548	0.02877	0.9985
0.2225	0.9921	0.02966	0.9985
0.2275	0.954	0.02925	0.9985
0.2325	1.011	0.03058	0.9985
0.2375	1.042	0.03125	0.9985
0.2425	1.01	0.03136	0.9985
0.2475	1.048	0.03264	0.9985
0.2525	1.014	0.03191	0.9985
0.2575	1.004	0.0321	0.9985
0.2625	1.064	0.0334	0.9985
0.2675	1.018	0.03284	0.9985
0.2725	1.039	0.03368	0.9985
0.2775	0.9586	0.03217	0.9985
0.2825	0.9917	0.03291	0.9985
0.2875	0.9954	0.03359	0.9985
0.2925	0.9642	0.03318	0.9985
0.2975	1.008	0.03484	0.9985

0.0025	1.217	0.003305	1.319
0.0075	1.221	0.003308	1.312
0.0125	1.212	0.003298	1.298
0.0175	1.212	0.003298	1.278
0.0225	1.191	0.003268	1.254
0.0275	1.164	0.003225	1.226
0.0325	1.146	0.003194	1.197
0.0375	1.124	0.003154	1.167
0.0425	1.102	0.003119	1.139
0.0475	1.077	0.003074	1.112
0.0525	1.069	0.003066	1.089
0.0575	1.042	0.00301	1.069
0.0625	1.03	0.002991	1.051
0.0675	1.024	0.002983	1.038
0.0725	1.014	0.002962	1.026
0.0775	1.007	0.002949	1.018
0.0825	1.003	0.002947	1.012
0.0875	1.003	0.002951	1.007
0.0925	1	0.002944	1.004
0.0975	0.9976	0.00294	1.001
0.1025	1.001	0.002951	0.9999
0.1075	0.9994	0.002955	0.9989
0.1125	1.001	0.002964	0.9982
0.1175	0.9949	0.002957	0.9978
0.1225	0.9917	0.00296	0.9976
0.1275	0.9925	0.002969	0.9974
0.1325	0.9984	0.002992	0.9973
0.1375	0.9999	0.003007	0.9973
0.1425	0.9973	0.003018	0.9972
0.1475	0.9976	0.003034	0.9972
0.1525	1.002	0.003061	0.9972
0.1575	0.9987	0.003062	0.9972
0.1625	0.9962	0.003077	0.9972
0.1675	0.9976	0.003096	0.9972
0.1725	0.9996	0.003118	0.9972
0.1775	0.989	0.003113	0.9972
0.1825	0.9963	0.003149	0.9972
0.1875	0.9963	0.003168	0.9972
0.1925	0.9963	0.003189	0.9972
0.1975	0.9976	0.003213	0.9972
0.2025	0.9909	0.003221	0.9972
0.2075	0.9959	0.003252	0.9972
0.2125	0.9893	0.003263	0.9972
0.2175	0.9998	0.003312	0.9972
0.2225	0.9982	0.003328	0.9972
0.2275	0.9963	0.003354	0.9972
0.2325	1.001	0.003393	0.9972
0.2375	0.9974	0.003407	0.9972
0.2425	0.9973	0.003434	0.9972
0.2475	0.998	0.003466	0.9972
0.2525	0.9951	0.003487	0.9972
0.2575	0.9946	0.003519	0.9972
0.2625	0.9998	0.003563	0.9972
0.2675	0.9969	0.00359	0.9972
0.2725	1	0.003626	0.9972
0.2775	1.002	0.003664	0.9972
0.2825	1	0.003694	0.9972
0.2875	1.002	0.003734	0.9972
0.2925	0.9957	0.003755	0.9972
0.2975	0.9965	0.003791	0.9972

0.0025	1.277	0.005188	1.352
0.0075	1.26	0.005146	1.345
0.0125	1.267	0.005176	1.332
0.0175	1.254	0.005149	1.314
0.0225	1.221	0.005074	1.291
0.0275	1.215	0.005076	1.264
0.0325	1.189	0.005018	1.235
0.0375	1.16	0.004944	1.206
0.0425	1.13	0.004874	1.177
0.0475	1.104	0.004799	1.149
0.0525	1.097	0.004808	1.123
0.0575	1.07	0.004743	1.099
0.0625	1.063	0.004732	1.079
0.0675	1.036	0.004658	1.061
0.0725	1.03	0.004656	1.047
0.0775	1.024	0.004651	1.035
0.0825	1.021	0.004654	1.025
0.0875	1.019	0.004672	1.018
0.0925	1.004	0.004646	1.012
0.0975	1.003	0.004646	1.008
0.1025	0.9971	0.00464	1.005
0.1075	1.001	0.004664	1.003
0.1125	0.9918	0.004659	1.002
0.1175	1.004	0.004711	1.001
0.1225	1.001	0.004716	0.9999
0.1275	0.999	0.004731	0.9994
0.1325	0.9939	0.004741	0.9991
0.1375	0.9986	0.004765	0.999
0.1425	1.005	0.00481	0.9989
0.1475	1	0.004812	0.9988
0.1525	0.9953	0.004821	0.9987
0.1575	1.003	0.004874	0.9987
0.1625	0.9937	0.00487	0.9987
0.1675	0.9936	0.004889	0.9987
0.1725	1.003	0.004938	0.9987
0.1775	0.9987	0.004954	0.9987
0.1825	0.9982	0.004986	0.9987
0.1875	0.9966	0.005005	0.9987
0.1925	0.9958	0.005031	0.9987
0.1975	1.003	0.005098	0.9987
0.2025	1.002	0.005111	0.9987
0.2075	1.004	0.005155	0.9987
0.2125	0.9971	0.005161	0.9987
0.2175	0.9965	0.005197	0.9987
0.2225	1.007	0.005259	0.9987
0.2275	0.9979	0.005267	0.9987
0.2325	1.008	0.005339	0.9987
0.2375	0.9994	0.005347	0.9987
0.2425	0.9987	0.005389	0.9987
0.2475	1.014	0.005483	0.9987
0.2525	1.004	0.005485	0.9987
0.2575	0.9981	0.005504	0.9987
0.2625	0.995	0.005534	0.9987
0.2675	0.9986	0.005599	0.9987
0.2725	1.005	0.005668	0.9987
0.2775	1.009	0.005723	0.9987
0.2825	0.9989	0.005731	0.9987
0.2875	0.9916	0.005755	0.9987
0.2925	0.9884	0.005789	0.9987
0.2975	1.002	0.0059	0.9987

0.0025	1.331	0.008966	1.395
0.0075	1.311	0.008911	1.388
0.0125	1.308	0.008954	1.376
0.0175	1.282	0.008885	1.357
0.0225	1.29	0.008968	1.335
0.0275	1.267	0.008853	1.308
0.0325	1.219	0.008601	1.279
0.0375	1.206	0.008557	1.249
0.0425	1.181	0.008469	1.218
0.0475	1.161	0.008394	1.188
0.0525	1.129	0.008264	1.159
0.0575	1.102	0.008197	1.132
0.0625	1.094	0.008204	1.108
0.0675	1.068	0.008111	1.087
0.0725	1.039	0.00794	1.069
0.0775	1.054	0.008036	1.054
0.0825	1.024	0.007885	1.041
0.0875	1.029	0.007905	1.031
0.0925	1.03	0.00792	1.022
0.0975	1.013	0.007903	1.016
0.1025	1.002	0.007885	1.011
0.1075	1.013	0.007978	1.008
0.1125	1.01	0.008006	1.005
0.1175	0.9942	0.007925	1.003
0.1225	0.9968	0.007943	1.002
0.1275	0.9919	0.007931	1.001
0.1325	0.9991	0.007986	0.9999
0.1375	0.9961	0.008019	0.9995
0.1425	1.004	0.008112	0.9992
0.1475	1	0.008122	0.999
0.1525	1.016	0.008271	0.9989
0.1575	0.9967	0.008177	0.9988
0.1625	1.001	0.008245	0.9988
0.1675	0.9971	0.008237	0.9987
0.1725	0.9997	0.008283	0.9987
0.1775	0.9922	0.008259	0.9987
0.1825	1.008	0.008439	0.9987
0.1875	0.9921	0.008366	0.9987
0.1925	0.9944	0.008425	0.9987
0.1975	0.9988	0.008483	0.9987
0.2025	0.9918	0.008499	0.9987
0.2075	1.009	0.008607	0.9987
0.2125	0.9921	0.008579	0.9987
0.2175	0.9986	0.008719	0.9987
0.2225	0.9998	0.00874	0.9987
0.2275	1.004	0.008851	0.9987
0.2325	1.002	0.008869	0.9987
0.2375	0.9922	0.008847	0.9987
0.2425	1.005	0.009019	0.9987
0.2475	1.007	0.009055	0.9987
0.2525	1.009	0.009122	0.9987
0.2575	0.9948	0.009085	0.9987
0.2625	1.009	0.009279	0.9987
0.2675	1.006	0.009324	0.9987
0.2725	1.006	0.009396	0.9987
0.2775	0.9852	0.009329	0.9987
0.2825	1.006	0.00955	0.9987
0.2875	1	0.009579	0.9987
0.2925	0.9904	0.009576	0.9987
0.2975	0.9868	0.009616	0.9987

0.0025	1.37	0.02675	1.412
0.0075	1.357	0.02688	1.407
0.0125	1.336	0.02674	1.396
0.0175	1.331	0.02693	1.38
0.0225	1.328	0.02726	1.36
0.0275	1.311	0.02687	1.336
0.0325	1.289	0.02661	1.31
0.0375	1.204	0.02552	1.281
0.0425	1.213	0.02571	1.252
0.0475	1.211	0.02535	1.223
0.0525	1.164	0.02484	1.194
0.0575	1.178	0.02515	1.167
0.0625	1.116	0.02433	1.142
0.0675	1.067	0.02394	1.118
0.0725	1.068	0.02427	1.098
0.0775	1.006	0.02318	1.079
0.0825	1.049	0.0239	1.063
0.0875	1.025	0.0237	1.05
0.0925	1.018	0.02379	1.039
0.0975	1.025	0.02345	1.029
0.1025	1.019	0.02358	1.022
0.1075	1.014	0.0236	1.016
0.1125	1.024	0.02379	1.011
0.1175	1.051	0.02451	1.008
0.1225	0.975	0.02341	1.005
0.1275	1.009	0.02422	1.003
0.1325	0.9903	0.02395	1.001
0.1375	1.034	0.02487	1
0.1425	0.9712	0.02365	0.9996
0.1475	0.9707	0.02406	0.999
0.1525	1	0.02448	0.9986
0.1575	1.015	0.02475	0.9984
0.1625	0.9741	0.02383	0.9982
0.1675	1.019	0.02517	0.9981
0.1725	1.025	0.02553	0.998
0.1775	0.9951	0.02494	0.998
0.1825	1.001	0.02553	0.9979
0.1875	1.044	0.02637	0.9979
0.1925	0.9863	0.02566	0.9979
0.1975	0.9662	0.02546	0.9979
0.2025	0.9671	0.02545	0.9979
0.2075	1.012	0.02645	0.9979
0.2125	0.9851	0.02579	0.9979
0.2175	0.968	0.02568	0.9979
0.2225	1.031	0.02726	0.9979
0.2275	0.9809	0.02653	0.9979
0.2325	1.027	0.02781	0.9979
0.2375	1.018	0.0277	0.9979
0.2425	1.007	0.02799	0.9979
0.2475	1.028	0.02845	0.9979
0.2525	0.9956	0.02818	0.9979
0.2575	1.019	0.02884	0.9979
0.2625	1.004	0.02864	0.9979
0.2675	1.014	0.02899	0.9979
0.2725	0.9704	0.0285	0.9979
0.2775	0.9573	0.02845	0.9979
0.2825	1.081	0.03142	0.9979
0.2875	1.032	0.03065	0.9979
0.2925	0.9991	0.03026	0.9979
0.2975	0.9927	0.03033	0.9979

0.0025	1.259	0.004686	1.349
0.0075	1.242	0.00464	1.343
0.0125	1.242	0.004649	1.33
0.0175	1.241	0.004648	1.312
0.0225	1.22	0.004608	1.289
0.0275	1.204	0.004566	1.263
0.0325	1.184	0.004518	1.235
0.0375	1.159	0.004463	1.206
0.0425	1.145	0.004433	1.177
0.0475	1.117	0.004363	1.149
0.0525	1.088	0.00429	1.123
0.0575	1.065	0.004246	1.099
0.0625	1.051	0.004203	1.079
0.0675	1.043	0.00418	1.061
0.0725	1.027	0.00414	1.046
0.0775	1.029	0.004159	1.034
0.0825	1.015	0.004118	1.024
0.0875	1.009	0.00411	1.016
0.0925	1.003	0.004087	1.011
0.0975	1.004	0.004105	1.006
0.1025	0.9996	0.004094	1.003
0.1075	1.002	0.004111	1.001
0.1125	0.9929	0.004096	0.999
0.1175	0.9911	0.004094	0.9978
0.1225	0.992	0.004108	0.9971
0.1275	0.9958	0.004137	0.9966
0.1325	0.9943	0.004144	0.9963
0.1375	0.9988	0.004171	0.9961
0.1425	0.9971	0.004193	0.9959
0.1475	0.9869	0.004185	0.9959
0.1525	0.9893	0.004208	0.9958
0.1575	0.9888	0.004228	0.9958
0.1625	0.9929	0.004272	0.9958
0.1675	0.9976	0.004302	0.9958
0.1725	0.9895	0.004301	0.9958
0.1775	1.008	0.004387	0.9958
0.1825	0.9952	0.004371	0.9958
0.1875	1.001	0.004421	0.9958
0.1925	0.9983	0.004434	0.9958
0.1975	0.9929	0.00446	0.9958
0.2025	0.9966	0.004498	0.9958
0.2075	0.9907	0.004504	0.9958
0.2125	0.9959	0.004556	0.9958
0.2175	0.9941	0.004579	0.9958
0.2225	0.9925	0.004616	0.9958
0.2275	0.9958	0.004664	0.9958
0.2325	0.9989	0.004718	0.9958
0.2375	0.9985	0.00475	0.9958
0.2425	0.9963	0.004779	0.9958
0.2475	0.9932	0.004814	0.9958
0.2525	1.002	0.004882	0.9958
0.2575	1.003	0.004925	0.9958
0.2625	0.9978	0.004952	0.9958
0.2675	0.9937	0.004986	0.9958
0.2725	0.9928	0.005024	0.9958
0.2775	0.9934	0.005076	0.9958
0.2825	0.992	0.005118	0.9958
0.2875	0.9967	0.005195	0.9958
0.2925	0.9949	0.005221	0.9958
0.2975	0.9923	0.005274	0.9958

0.0025	1.291	0.007302	1.382
0.0075	1.298	0.007335	1.376
0.0125	1.299	0.007328	1.364
0.0175	1.288	0.007334	1.347
0.0225	1.27	0.007274	1.325
0.0275	1.254	0.007235	1.3
0.0325	1.215	0.007083	1.273
0.0375	1.195	0.007047	1.244
0.0425	1.178	0.006994	1.215
0.0475	1.146	0.006883	1.186
0.0525	1.129	0.006848	1.158
0.0575	1.106	0.006782	1.133
0.0625	1.094	0.006744	1.109
0.0675	1.068	0.006655	1.088
0.0725	1.064	0.006645	1.07
0.0775	1.034	0.006541	1.055
0.0825	1.027	0.006525	1.042
0.0875	1.022	0.006541	1.032
0.0925	1.015	0.006533	1.023
0.0975	1.016	0.00656	1.017
0.1025	1.011	0.006552	1.012
0.1075	0.9881	0.006477	1.008
0.1125	1.007	0.006574	1.005
0.1175	0.9941	0.006544	1.003
0.1225	1.008	0.006632	1.001
0.1275	1.002	0.006646	1
0.1325	1.011	0.006715	0.9993
0.1375	1.006	0.006696	0.9988
0.1425	0.9984	0.006695	0.9984
0.1475	0.9995	0.006746	0.9982
0.1525	1	0.006773	0.9981
0.1575	0.9936	0.006771	0.998
0.1625	0.9915	0.006817	0.9979
0.1675	1.001	0.006883	0.9979
0.1725	0.9939	0.006881	0.9979
0.1775	0.997	0.006931	0.9978
0.1825	1.012	0.007033	0.9978
0.1875	0.9982	0.006999	0.9978
0.1925	0.9908	0.007034	0.9978
0.1975	0.993	0.007068	0.9978
0.2025	1.008	0.007188	0.9978
0.2075	1.004	0.007222	0.9978
0.2125	0.9883	0.007191	0.9978
0.2175	1.005	0.007307	0.9978
0.2225	0.9891	0.007278	0.9978
0.2275	0.9949	0.007353	0.9978
0.2325	1.007	0.007489	0.9978
0.2375	0.9963	0.007457	0.9978
0.2425	0.9979	0.00754	0.9978
0.2475	1.012	0.007683	0.9978
0.2525	0.984	0.007588	0.9978
0.2575	0.9917	0.007676	0.9978
0.2625	0.9954	0.007748	0.9978
0.2675	0.9998	0.00786	0.9978
0.2725	0.9885	0.007849	0.9978
0.2775	0.9951	0.007938	0.9978
0.2825	1.003	0.008048	0.9978
0.2875	0.9934	0.008065	0.9978
0.2925	1.007	0.008214	0.9978
0.2975	0.9932	0.008206	0.9978

0.0025	1.345	0.01268	1.421
0.0075	1.35	0.01275	1.415
0.0125	1.366	0.01294	1.404
0.0175	1.324	0.01271	1.387
0.0225	1.322	0.01277	1.367
0.0275	1.276	0.01248	1.342
0.0325	1.253	0.01229	1.315
0.0375	1.249	0.01229	1.286
0.0425	1.201	0.01199	1.256
0.0475	1.181	0.01189	1.226
0.0525	1.143	0.01167	1.197
0.0575	1.127	0.0117	1.169
0.0625	1.11	0.01167	1.143
0.0675	1.091	0.01151	1.119
0.0725	1.074	0.01141	1.098
0.0775	1.069	0.01139	1.079
0.0825	1.04	0.01119	1.063
0.0875	1.033	0.01116	1.05
0.0925	1.023	0.01112	1.038
0.0975	1.015	0.01111	1.029
0.1025	1.013	0.01114	1.021
0.1075	0.9956	0.01104	1.016
0.1125	0.9973	0.01112	1.011
0.1175	1.004	0.0112	1.007
0.1225	1.023	0.01138	1.005
0.1275	1.018	0.01135	1.003
0.1325	1.004	0.01131	1.001
0.1375	0.9996	0.01126	1
0.1425	0.9815	0.01119	0.9995
0.1475	1.018	0.01159	0.999
0.1525	1.014	0.01158	0.9986
0.1575	1.007	0.01161	0.9984
0.1625	0.9958	0.0115	0.9982
0.1675	1.001	0.01162	0.9981
0.1725	1.004	0.01167	0.998
0.1775	1.023	0.0119	0.998
0.1825	0.9889	0.01168	0.9979
0.1875	1.004	0.01188	0.9979
0.1925	0.9879	0.01186	0.9979
0.1975	0.9973	0.01189	0.9979
0.2025	0.998	0.01196	0.9979
0.2075	0.9783	0.01191	0.9979
0.2125	1.002	0.01221	0.9979
0.2175	1.02	0.01244	0.9979
0.2225	1.001	0.01236	0.9979
0.2275	1.001	0.01238	0.9979
0.2325	0.9897	0.01237	0.9979
0.2375	1.014	0.0127	0.9979
0.2425	1.004	0.01269	0.9979
0.2475	1.005	0.01274	0.9979
0.2525	1.045	0.01318	0.9979
0.2575	0.9877	0.01281	0.9979
0.2625	1.004	0.01302	0.9979
0.2675	1.003	0.01307	0.9979
0.2725	1.015	0.01331	0.9979
0.2775	0.989	0.0132	0.9979
0.2825	1.003	0.01343	0.9979
0.2875	1.004	0.01349	0.9979
0.2925	0.9811	0.01336	0.9979
0.2975	0.991	0.01359	0.9979

0.0025	1.424	0.03857	1.437
0.0075	1.404	0.03901	1.432
0.0125	1.369	0.03871	1.422
0.0175	1.335	0.03847	1.407
0.0225	1.376	0.03905	1.388
0.0275	1.299	0.03762	1.366
0.0325	1.348	0.03907	1.341
0.0375	1.308	0.03824	1.314
0.0425	1.254	0.03696	1.286
0.0475	1.234	0.0366	1.257
0.0525	1.197	0.03552	1.229
0.0575	1.092	0.03362	1.201
0.0625	1.126	0.03436	1.174
0.0675	1.151	0.03581	1.149
0.0725	1.08	0.03477	1.126
0.0775	1.056	0.03387	1.106
0.0825	1.065	0.03455	1.087
0.0875	1.016	0.03328	1.071
0.0925	0.9744	0.03271	1.057
0.0975	1.028	0.0337	1.045
0.1025	1.112	0.03543	1.035
0.1075	0.984	0.03267	1.027
0.1125	0.9859	0.03277	1.02
0.1175	1.021	0.03383	1.014
0.1225	1.003	0.03383	1.01
0.1275	1.031	0.0347	1.007
0.1325	1.025	0.03471	1.004
0.1375	1.091	0.03645	1.002
0.1425	1.013	0.03494	1
0.1475	1.014	0.03526	0.9993
0.1525	1.004	0.03421	0.9985
0.1575	0.9645	0.03366	0.9979
0.1625	0.9917	0.03464	0.9975
0.1675	1.051	0.03598	0.9972
0.1725	1.03	0.03634	0.997
0.1775	1.062	0.0375	0.9968
0.1825	0.9889	0.0357	0.9967
0.1875	0.9848	0.03585	0.9967
0.1925	0.9482	0.03546	0.9966
0.1975	0.9515	0.0355	0.9966
0.2025	1.005	0.03676	0.9966
0.2075	0.972	0.03655	0.9966
0.2125	1.017	0.03774	0.9966
0.2175	0.9705	0.03658	0.9966
0.2225	0.9292	0.03568	0.9966
0.2275	0.9433	0.037	0.9966
0.2325	0.9943	0.03796	0.9966
0.2375	0.9821	0.03839	0.9966
0.2425	1.038	0.04075	0.9966
0.2475	1.072	0.04135	0.9966
0.2525	1.026	0.04096	0.9965
0.2575	0.9986	0.04038	0.9965
0.2625	1.081	0.04322	0.9965
0.2675	1.004	0.04069	0.9965
0.2725	1.008	0.04172	0.9965
0.2775	1.008	0.04163	0.9965
0.2825	1.006	0.04231	0.9965
0.2875	1.097	0.04593	0.9965
0.2925	1.011	0.04361	0.9965
0.2975	1.004	0.044	0.9965

0.0025	1.262	0.00685	1.373
0.0075	1.289	0.006965	1.367
0.0125	1.265	0.006868	1.356
0.0175	1.269	0.006895	1.339
0.0225	1.267	0.006889	1.319
0.0275	1.234	0.00679	1.294
0.0325	1.21	0.006704	1.268
0.0375	1.195	0.006647	1.24
0.0425	1.182	0.006607	1.211
0.0475	1.145	0.006474	1.183
0.0525	1.124	0.006402	1.156
0.0575	1.113	0.006388	1.13
0.0625	1.085	0.006274	1.107
0.0675	1.068	0.006208	1.086
0.0725	1.052	0.006149	1.068
0.0775	1.045	0.006128	1.053
0.0825	1.035	0.006104	1.04
0.0875	1.033	0.006102	1.029
0.0925	1.018	0.006043	1.021
0.0975	1.002	0.005988	1.014
0.1025	1	0.005985	1.008
0.1075	0.9989	0.006015	1.004
0.1125	1.001	0.006041	1.001
0.1175	0.9952	0.006011	0.999
0.1225	1.008	0.006094	0.9973
0.1275	1	0.006055	0.9962
0.1325	0.9905	0.006053	0.9954
0.1375	0.9883	0.006054	0.9948
0.1425	0.9899	0.006107	0.9944
0.1475	1.001	0.006186	0.9942
0.1525	0.9998	0.006203	0.994
0.1575	0.9852	0.006188	0.9939
0.1625	0.99	0.006219	0.9938
0.1675	0.9968	0.006293	0.9938
0.1725	0.9845	0.00628	0.9937
0.1775	0.9889	0.006349	0.9937
0.1825	0.9878	0.006375	0.9937
0.1875	0.9985	0.006465	0.9937
0.1925	1.002	0.006531	0.9937
0.1975	0.9905	0.006509	0.9937
0.2025	0.9962	0.006596	0.9937
0.2075	1.004	0.00669	0.9937
0.2125	1.005	0.006739	0.9937
0.2175	0.9858	0.006703	0.9937
0.2225	1.002	0.006816	0.9937
0.2275	1	0.006875	0.9937
0.2325	0.9977	0.006912	0.9937
0.2375	0.995	0.00694	0.9937
0.2425	0.9958	0.007013	0.9937
0.2475	0.994	0.007059	0.9937
0.2525	1	0.007146	0.9937
0.2575	0.9923	0.007214	0.9937
0.2625	0.9936	0.007252	0.9937
0.2675	1.002	0.007377	0.9937
0.2725	1.017	0.007493	0.9937
0.2775	0.9955	0.007482	0.9937
0.2825	0.9866	0.00748	0.9937
0.2875	0.998	0.007659	0.9937
0.2925	1.002	0.007703	0.9937
0.2975	1	0.007802	0.9937

0.0025	1.312	0.01088	1.418
0.0075	1.324	0.01094	1.413
0.0125	1.309	0.01085	1.401
0.0175	1.314	0.01091	1.385
0.0225	1.306	0.01092	1.365
0.0275	1.292	0.01085	1.341
0.0325	1.269	0.01079	1.314
0.0375	1.237	0.01062	1.286
0.0425	1.229	0.01058	1.256
0.0475	1.187	0.01038	1.226
0.0525	1.158	0.01025	1.197
0.0575	1.142	0.01019	1.17
0.0625	1.094	0.009888	1.144
0.0675	1.088	0.00988	1.12
0.0725	1.089	0.00991	1.099
0.0775	1.074	0.009854	1.08
0.0825	1.059	0.009792	1.064
0.0875	1.041	0.009759	1.05
0.0925	1.02	0.009658	1.039
0.0975	1.015	0.009674	1.029
0.1025	1.023	0.00973	1.021
0.1075	1.011	0.009682	1.015
0.1125	0.9967	0.009601	1.011
0.1175	0.997	0.00966	1.007
0.1225	1	0.009724	1.004
0.1275	0.9808	0.009674	1.002
0.1325	1.007	0.009864	1
0.1375	1.005	0.009922	0.9992
0.1425	0.9995	0.009874	0.9984
0.1475	0.9876	0.009875	0.9979
0.1525	1.017	0.01013	0.9975
0.1575	1.005	0.01009	0.9972
0.1625	0.9923	0.01005	0.997
0.1675	0.9926	0.0101	0.9969
0.1725	0.9982	0.0102	0.9968
0.1775	0.9983	0.01028	0.9968
0.1825	0.9929	0.01025	0.9967
0.1875	1.001	0.01037	0.9967
0.1925	1.008	0.01048	0.9967
0.1975	1.004	0.01055	0.9967
0.2025	0.9785	0.01043	0.9967
0.2075	1	0.01063	0.9967
0.2125	0.9877	0.01061	0.9967
0.2175	1.003	0.0108	0.9967
0.2225	0.9727	0.01067	0.9967
0.2275	0.9883	0.01086	0.9967
0.2325	1.001	0.01101	0.9967
0.2375	0.9902	0.01101	0.9967
0.2425	1.016	0.01129	0.9967
0.2475	0.9898	0.01117	0.9967
0.2525	1.003	0.01135	0.9967
0.2575	0.9719	0.01117	0.9967
0.2625	0.9889	0.0115	0.9967
0.2675	0.9926	0.01157	0.9967
0.2725	1.007	0.01175	0.9967
0.2775	1.012	0.01186	0.9967
0.2825	0.9978	0.01185	0.9967
0.2875	0.9885	0.01189	0.9967
0.2925	1.016	0.01223	0.9967
0.2975	0.9739	0.01197	0.9967

0.0025	1.369	0.01918	1.445
0.0075	1.339	0.01881	1.44
0.0125	1.366	0.01924	1.43
0.0175	1.354	0.01932	1.415
0.0225	1.35	0.01918	1.397
0.0275	1.35	0.01918	1.374
0.0325	1.317	0.01905	1.349
0.0375	1.283	0.01852	1.322
0.0425	1.261	0.01849	1.293
0.0475	1.234	0.01812	1.264
0.0525	1.202	0.01795	1.235
0.0575	1.203	0.0181	1.207
0.0625	1.152	0.01776	1.18
0.0675	1.128	0.01748	1.154
0.0725	1.104	0.01724	1.131
0.0775	1.101	0.0172	1.11
0.0825	1.067	0.01684	1.091
0.0875	1.071	0.01683	1.074
0.0925	1.05	0.01674	1.06
0.0975	1.056	0.0169	1.047
0.1025	1.009	0.01659	1.037
0.1075	1	0.01653	1.028
0.1125	1.008	0.01675	1.021
0.1175	1.026	0.01695	1.015
0.1225	1.016	0.01679	1.011
0.1275	0.9913	0.01653	1.007
0.1325	1.002	0.01675	1.005
0.1375	1.017	0.01701	1.002
0.1425	1.004	0.01688	1.001
0.1475	0.9816	0.01675	0.9997
0.1525	0.9943	0.01701	0.9988
0.1575	1.001	0.01712	0.9981
0.1625	1.004	0.01723	0.9977
0.1675	0.9802	0.01712	0.9973
0.1725	0.9865	0.0172	0.9971
0.1775	1.017	0.01768	0.9969
0.1825	0.9869	0.01737	0.9968
0.1875	0.9721	0.01731	0.9968
0.1925	1.04	0.01831	0.9967
0.1975	0.9784	0.01757	0.9967
0.2025	1.039	0.01847	0.9967
0.2075	1.017	0.01819	0.9966
0.2125	1.018	0.01831	0.9966
0.2175	0.9928	0.01806	0.9966
0.2225	0.9854	0.01826	0.9966
0.2275	0.9798	0.0182	0.9966
0.2325	1.015	0.01878	0.9966
0.2375	0.9946	0.01862	0.9966
0.2425	0.9835	0.01862	0.9966
0.2475	0.999	0.01876	0.9966
0.2525	0.9726	0.01859	0.9966
0.2575	0.9736	0.01873	0.9966
0.2625	1.005	0.01944	0.9966
0.2675	1.01	0.01965	0.9966
0.2725	1.05	0.02032	0.9966
0.2775	0.9577	0.01917	0.9966
0.2825	0.9846	0.01973	0.9966
0.2875	0.9949	0.01998	0.9966
0.2925	1.025	0.02063	0.9966
0.2975	0.9573	0.01982	0.9966

0.0025	1.509	0.0608	1.481
0.0075	1.411	0.05972	1.477
0.0125	1.46	0.06088	1.468
0.0175	1.347	0.05748	1.454
0.0225	1.488	0.06149	1.437
0.0275	1.406	0.05846	1.417
0.0325	1.358	0.05817	1.393
0.0375	1.343	0.05781	1.368
0.0425	1.351	0.05818	1.34
0.0475	1.233	0.05404	1.312
0.0525	1.215	0.05364	1.283
0.0575	1.283	0.05499	1.255
0.0625	1.183	0.05281	1.227
0.0675	1.24	0.05588	1.2
0.0725	1.081	0.05036	1.174
0.0775	1.17	0.05464	1.151
0.0825	1.071	0.05172	1.129
0.0875	1.142	0.05372	1.109
0.0925	1.129	0.05455	1.091
0.0975	1.045	0.05088	1.075
0.1025	0.9984	0.04925	1.061
0.1075	0.9713	0.04843	1.049
0.1125	1.072	0.05242	1.039
0.1175	1.118	0.05356	1.03
0.1225	1.027	0.05156	1.023
0.1275	1.058	0.05271	1.017
0.1325	1.022	0.05263	1.012
0.1375	1.031	0.0528	1.008
0.1425	0.8213	0.04511	1.005
0.1475	0.9592	0.04996	1.003
0.1525	1.03	0.05246	1.001
0.1575	0.9801	0.05161	0.9991
0.1625	1.085	0.05515	0.998
0.1675	0.9903	0.05267	0.9971
0.1725	1.085	0.05623	0.9964
0.1775	1.039	0.05467	0.996
0.1825	0.9447	0.05098	0.9956
0.1875	1.018	0.05635	0.9953
0.1925	0.967	0.05443	0.9952
0.1975	1.004	0.0551	0.995
0.2025	0.9965	0.05517	0.9949
0.2075	1.091	0.05806	0.9949
0.2125	0.9764	0.05337	0.9948
0.2175	1.013	0.057	0.9948
0.2225	1.019	0.05697	0.9948
0.2275	1.013	0.05761	0.9948
0.2325	1.001	0.05764	0.9947
0.2375	0.8847	0.05421	0.9947
0.2425	1.013	0.06046	0.9947
0.2475	1.011	0.05938	0.9947
0.2525	1.029	0.0619	0.9947
0.2575	1.078	0.06476	0.9947
0.2625	1.094	0.06405	0.9947
0.2675	0.8644	0.05631	0.9947
0.2725	0.9467	0.05881	0.9947
0.2775	1.151	0.06791	0.9947
0.2825	0.9992	0.06252	0.9947
0.2875	0.99	0.06379	0.9947
0.2925	0.9743	0.063	0.9947
0.2975	1.009	0.06645	0.9947

0.0025	1.29	0.01073	1.394
0.0075	1.282	0.0107	1.389
0.0125	1.296	0.01082	1.38
0.0175	1.289	0.01078	1.366
0.0225	1.281	0.01074	1.348
0.0275	1.279	0.01073	1.327
0.0325	1.256	0.01063	1.304
0.0375	1.241	0.01052	1.278
0.0425	1.21	0.01039	1.252
0.0475	1.191	0.01024	1.225
0.0525	1.17	0.01017	1.198
0.0575	1.15	0.01006	1.172
0.0625	1.124	0.009916	1.148
0.0675	1.086	0.009687	1.125
0.0725	1.09	0.009693	1.104
0.0775	1.077	0.009688	1.085
0.0825	1.055	0.00954	1.069
0.0875	1.038	0.009444	1.054
0.0925	1.032	0.009421	1.042
0.0975	1.018	0.00937	1.031
0.1025	1.032	0.009457	1.023
0.1075	1.014	0.009406	1.016
0.1125	1.012	0.009404	1.01
0.1175	0.996	0.009299	1.005
0.1225	0.9921	0.009287	1.002
0.1275	0.9954	0.009352	0.999
0.1325	0.9884	0.009341	0.9968
0.1375	0.9789	0.009312	0.9952
0.1425	0.9905	0.009454	0.994
0.1475	0.9838	0.009442	0.9932
0.1525	0.9836	0.009526	0.9925
0.1575	0.9834	0.009543	0.9921
0.1625	0.9744	0.009546	0.9918
0.1675	0.9891	0.00972	0.9915
0.1725	0.9932	0.009808	0.9914
0.1775	0.9978	0.009918	0.9913
0.1825	0.9804	0.009806	0.9912
0.1875	0.9991	0.01002	0.9912
0.1925	0.9896	0.01006	0.9911
0.1975	1.013	0.01025	0.9911
0.2025	0.9898	0.01017	0.9911
0.2075	0.99	0.01027	0.9911
0.2125	0.9899	0.01027	0.9911
0.2175	0.9995	0.01049	0.9911
0.2225	0.9773	0.01039	0.9911
0.2275	1.011	0.01074	0.9911
0.2325	1.005	0.01076	0.9911
0.2375	0.9902	0.01077	0.9911
0.2425	0.9803	0.01077	0.9911
0.2475	0.9923	0.01096	0.9911
0.2525	0.9875	0.01099	0.9911
0.2575	0.994	0.01118	0.9911
0.2625	0.9904	0.01124	0.9911
0.2675	0.9839	0.01125	0.9911
0.2725	1.008	0.01164	0.9911
0.2775	0.9946	0.01162	0.9911
0.2825	0.9874	0.01167	0.9911
0.2875	0.9899	0.01179	0.9911
0.2925	0.9749	0.01178	0.9911
0.2975	0.9873	0.01202	0.9911

0.0025	1.368	0.01736	1.448
0.0075	1.38	0.01749	1.443
0.0125	1.369	0.01749	1.434
0.0175	1.366	0.01754	1.42
0.0225	1.351	0.01747	1.402
0.0275	1.344	0.01739	1.381
0.0325	1.283	0.01683	1.356
0.0375	1.275	0.01685	1.33
0.0425	1.253	0.01669	1.303
0.0475	1.246	0.01662	1.274
0.0525	1.211	0.01652	1.246
0.0575	1.191	0.01627	1.218
0.0625	1.174	0.01613	1.191
0.0675	1.146	0.01593	1.165
0.0725	1.108	0.0156	1.141
0.0775	1.114	0.01574	1.119
0.0825	1.07	0.01544	1.1
0.0875	1.079	0.01559	1.082
0.0925	1.061	0.01556	1.067
0.0975	1.031	0.01509	1.053
0.1025	1.028	0.01519	1.042
0.1075	1.03	0.01531	1.032
0.1125	1.015	0.01517	1.025
0.1175	1.013	0.01523	1.018
0.1225	0.9863	0.01516	1.013
0.1275	0.981	0.015	1.008
0.1325	1.013	0.01548	1.005
0.1375	0.9756	0.01519	1.003
0.1425	0.9918	0.01532	1.001
0.1475	0.9782	0.01525	0.999
0.1525	0.9924	0.01555	0.9978
0.1575	0.9947	0.01569	0.997
0.1625	0.9926	0.01566	0.9963
0.1675	0.9828	0.01571	0.9959
0.1725	1.003	0.01605	0.9956
0.1775	0.9999	0.01601	0.9953
0.1825	1.01	0.01622	0.9952
0.1875	0.9904	0.01613	0.995
0.1925	1	0.01636	0.995
0.1975	0.9877	0.01633	0.9949
0.2025	0.9933	0.01634	0.9949
0.2075	0.9827	0.01635	0.9949
0.2125	1.007	0.01683	0.9948
0.2175	0.9727	0.01653	0.9948
0.2225	1.016	0.01713	0.9948
0.2275	0.9995	0.01703	0.9948
0.2325	1.025	0.01745	0.9948
0.2375	0.9937	0.01721	0.9948
0.2425	0.9728	0.0173	0.9948
0.2475	0.9989	0.01764	0.9948
0.2525	1.004	0.01782	0.9948
0.2575	1.012	0.01801	0.9948
0.2625	1.02	0.01832	0.9948
0.2675	1.001	0.01812	0.9948
0.2725	1.012	0.01846	0.9948
0.2775	0.9998	0.0185	0.9948
0.2825	1.03	0.01901	0.9948
0.2875	0.9915	0.01865	0.9948
0.2925	1.006	0.01924	0.9948
0.2975	1.021	0.01944	0.9948

0.0025	1.404	0.03043	1.468
0.0075	1.412	0.03077	1.463
0.0125	1.413	0.03086	1.454
0.0175	1.392	0.03058	1.441
0.0225	1.359	0.03053	1.425
0.0275	1.341	0.03026	1.405
0.0325	1.286	0.02895	1.382
0.0375	1.345	0.0301	1.357
0.0425	1.328	0.02983	1.331
0.0475	1.262	0.0291	1.303
0.0525	1.28	0.02934	1.275
0.0575	1.199	0.02857	1.247
0.0625	1.203	0.02872	1.22
0.0675	1.223	0.02907	1.194
0.0725	1.091	0.02689	1.169
0.0775	1.135	0.02766	1.146
0.0825	1.082	0.02702	1.125
0.0875	1.092	0.02694	1.105
0.0925	1.036	0.02615	1.088
0.0975	1.051	0.0266	1.073
0.1025	1.075	0.02707	1.059
0.1075	1.012	0.02614	1.048
0.1125	1.043	0.02668	1.038
0.1175	1.017	0.02649	1.029
0.1225	0.9678	0.02573	1.022
0.1275	0.9846	0.02595	1.017
0.1325	1.026	0.02677	1.012
0.1375	0.9969	0.02639	1.008
0.1425	1.031	0.02734	1.005
0.1475	1.035	0.02724	1.003
0.1525	1.015	0.02713	1.001
0.1575	1.031	0.02735	0.9992
0.1625	0.9357	0.0254	0.998
0.1675	0.9504	0.02637	0.9972
0.1725	0.9676	0.02662	0.9966
0.1775	0.9543	0.02635	0.9961
0.1825	0.9832	0.02738	0.9957
0.1875	1.016	0.02825	0.9955
0.1925	1.005	0.02806	0.9953
0.1975	1.018	0.02856	0.9952
0.2025	0.9714	0.0277	0.9951
0.2075	0.9958	0.02814	0.995
0.2125	0.9862	0.02826	0.995
0.2175	1.011	0.02874	0.995
0.2225	0.9997	0.02889	0.9949
0.2275	0.9688	0.02853	0.9949
0.2325	1.019	0.02994	0.9949
0.2375	1.008	0.02959	0.9949
0.2425	0.9776	0.02931	0.9949
0.2475	1.004	0.02978	0.9949
0.2525	1.003	0.03016	0.9949
0.2575	0.9557	0.0293	0.9949
0.2625	0.9532	0.02953	0.9949
0.2675	1.016	0.03114	0.9949
0.2725	0.9958	0.03136	0.9949
0.2775	0.991	0.03096	0.9949
0.2825	0.9482	0.03051	0.9949
0.2875	0.9654	0.03092	0.9949
0.2925	0.9431	0.03067	0.9949
0.2975	1.006	0.03226	0.9949

0.0025	1.342	0.08729	1.496
0.0075	1.284	0.08699	1.492
0.0125	1.446	0.0968	1.484
0.0175	1.454	0.09642	1.472
0.0225	1.441	0.09756	1.456
0.0275	1.232	0.08545	1.438
0.0325	1.515	0.1006	1.417
0.0375	1.337	0.09082	1.393
0.0425	1.204	0.08367	1.368
0.0475	1.251	0.08551	1.342
0.0525	1.347	0.09213	1.314
0.0575	1.215	0.08718	1.287
0.0625	1.334	0.09224	1.259
0.0675	1.31	0.09068	1.233
0.0725	1.021	0.07757	1.207
0.0775	1.113	0.08414	1.182
0.0825	1.054	0.08098	1.159
0.0875	1.16	0.08658	1.138
0.0925	1.043	0.08105	1.118
0.0975	1.018	0.07853	1.1
0.1025	1.051	0.0802	1.084
0.1075	1.107	0.08381	1.069
0.1125	1.049	0.08114	1.057
0.1175	1.09	0.08553	1.046
0.1225	1.129	0.08631	1.036
0.1275	1.135	0.09006	1.028
0.1325	1.156	0.09073	1.021
0.1375	0.9947	0.08283	1.016
0.1425	0.9424	0.07955	1.011
0.1475	1.017	0.0822	1.007
0.1525	0.9565	0.07998	1.004
0.1575	1.077	0.08432	1.001
0.1625	0.8658	0.07564	0.9991
0.1675	0.8699	0.07727	0.9975
0.1725	1.013	0.08493	0.9962
0.1775	1.03	0.08722	0.9952
0.1825	1.003	0.08646	0.9945
0.1875	0.9488	0.08303	0.9939
0.1925	0.944	0.08317	0.9934
0.1975	0.9285	0.08514	0.9931
0.2025	0.9161	0.08446	0.9928
0.2075	0.9745	0.08717	0.9927
0.2125	0.9593	0.08569	0.9925
0.2175	1.021	0.09086	0.9924
0.2225	0.8555	0.08278	0.9924
0.2275	1.094	0.09812	0.9923
0.2325	1.075	0.09559	0.9923
0.2375	0.9934	0.09326	0.9923
0.2425	0.9553	0.08759	0.9922
0.2475	1.01	0.09436	0.9922
0.2525	1.026	0.09404	0.9922
0.2575	0.9597	0.09568	0.9922
0.2625	0.9397	0.09624	0.9922
0.2675	0.95	0.0935	0.9922
0.2725	0.9696	0.09997	0.9922
0.2775	0.993	0.09977	0.9922
0.2825	0.9621	0.09792	0.9922
0.2875	0.9457	0.09986	0.9922
0.2925	0.9832	0.1024	0.9922
0.2975	0.9363	0.101	0.9922

0.0025	1.327	0.01753	1.416
0.0075	1.271	0.01701	1.412
0.0125	1.314	0.01745	1.404
0.0175	1.317	0.01755	1.392
0.0225	1.324	0.01759	1.377
0.0275	1.306	0.0174	1.359
0.0325	1.281	0.01724	1.338
0.0375	1.275	0.01723	1.316
0.0425	1.239	0.01684	1.292
0.0475	1.25	0.0171	1.267
0.0525	1.246	0.017	1.241
0.0575	1.179	0.01636	1.216
0.0625	1.201	0.01661	1.191
0.0675	1.135	0.01595	1.168
0.0725	1.119	0.01594	1.145
0.0775	1.101	0.01569	1.124
0.0825	1.096	0.01568	1.105
0.0875	1.084	0.01559	1.087
0.0925	1.062	0.01538	1.072
0.0975	1.05	0.01533	1.058
0.1025	1.043	0.01527	1.046
0.1075	1.025	0.01507	1.035
0.1125	1.02	0.01515	1.026
0.1175	0.978	0.01473	1.019
0.1225	0.9937	0.01496	1.012
0.1275	1.009	0.01516	1.007
0.1325	1.002	0.01513	1.003
0.1375	0.9722	0.01488	0.9993
0.1425	0.9974	0.01519	0.9966
0.1475	1.021	0.0157	0.9944
0.1525	0.9774	0.01521	0.9927
0.1575	0.9658	0.01512	0.9914
0.1625	1.017	0.01587	0.9904
0.1675	0.9852	0.01557	0.9896
0.1725	0.9827	0.01561	0.9891
0.1775	0.9879	0.01589	0.9887
0.1825	0.9841	0.01583	0.9883
0.1875	1.011	0.01619	0.9881
0.1925	0.9992	0.01632	0.988
0.1975	0.9848	0.0162	0.9878
0.2025	1.001	0.01663	0.9878
0.2075	0.9834	0.01637	0.9877
0.2125	0.9785	0.01648	0.9877
0.2175	0.9673	0.01653	0.9876
0.2225	0.9677	0.01669	0.9876
0.2275	0.9685	0.01685	0.9876
0.2325	0.9862	0.01727	0.9876
0.2375	1.003	0.01759	0.9876
0.2425	1.019	0.01789	0.9876
0.2475	0.99	0.01782	0.9876
0.2525	0.9965	0.0179	0.9876
0.2575	0.9773	0.01788	0.9876
0.2625	1.007	0.01844	0.9876
0.2675	0.9953	0.01837	0.9876
0.2725	0.9927	0.01859	0.9876
0.2775	0.9871	0.01853	0.9876
0.2825	1.01	0.01924	0.9876
0.2875	0.9664	0.0187	0.9876
0.2925	0.9716	0.01898	0.9876
0.2975	0.9977	0.01957	0.9876

0.0025	1.385	0.02849	1.468
0.0075	1.367	0.02814	1.464
0.0125	1.383	0.02856	1.456
0.0175	1.402	0.02907	1.444
0.0225	1.339	0.02796	1.428
0.0275	1.381	0.02856	1.409
0.0325	1.321	0.02782	1.388
0.0375	1.355	0.02863	1.364
0.0425	1.351	0.02859	1.339
0.0475	1.287	0.02757	1.313
0.0525	1.267	0.02767	1.286
0.0575	1.274	0.02767	1.259
0.0625	1.194	0.02631	1.232
0.0675	1.146	0.02591	1.206
0.0725	1.177	0.02638	1.182
0.0775	1.126	0.02555	1.158
0.0825	1.104	0.02546	1.137
0.0875	1.066	0.02512	1.117
0.0925	1.075	0.02529	1.098
0.0975	0.9979	0.02402	1.082
0.1025	1.017	0.02445	1.068
0.1075	1.045	0.02487	1.055
0.1125	1.071	0.02561	1.044
0.1175	1.001	0.02452	1.035
0.1225	1.024	0.02507	1.027
0.1275	1.014	0.02515	1.02
0.1325	1.022	0.02531	1.014
0.1375	1.063	0.02611	1.01
0.1425	0.9727	0.02473	1.006
0.1475	1.031	0.02592	1.003
0.1525	1.03	0.02587	1
0.1575	0.9979	0.02544	0.9985
0.1625	0.977	0.0254	0.997
0.1675	0.9577	0.02506	0.9959
0.1725	0.9837	0.02562	0.995
0.1775	0.9951	0.02619	0.9943
0.1825	1.04	0.027	0.9938
0.1875	1.023	0.0268	0.9934
0.1925	1.046	0.0273	0.9931
0.1975	0.9936	0.02655	0.9929
0.2025	0.9788	0.02639	0.9928
0.2075	1.028	0.02771	0.9926
0.2125	0.9845	0.02686	0.9926
0.2175	1.017	0.02766	0.9925
0.2225	0.9909	0.02751	0.9925
0.2275	0.9453	0.02677	0.9924
0.2325	1	0.02777	0.9924
0.2375	0.997	0.02816	0.9924
0.2425	1.059	0.02957	0.9924
0.2475	0.9939	0.02859	0.9924
0.2525	0.9546	0.02782	0.9924
0.2575	0.9639	0.02827	0.9924
0.2625	0.9998	0.02929	0.9924
0.2675	1.019	0.03002	0.9924
0.2725	0.9938	0.0301	0.9924
0.2775	0.9794	0.0298	0.9924
0.2825	1.037	0.03159	0.9924
0.2875	1.047	0.03194	0.9924
0.2925	0.9807	0.03092	0.9924
0.2975	0.9399	0.02966	0.9924

0.0025	1.486	0.05315	1.499
0.0075	1.341	0.04788	1.495
0.0125	1.497	0.05343	1.487
0.0175	1.439	0.05166	1.476
0.0225	1.448	0.05172	1.462
0.0275	1.434	0.05186	1.445
0.0325	1.326	0.04918	1.425
0.0375	1.388	0.05023	1.403
0.0425	1.278	0.04704	1.379
0.0475	1.336	0.04927	1.353
0.0525	1.358	0.0504	1.327
0.0575	1.332	0.051	1.301
0.0625	1.185	0.04543	1.274
0.0675	1.153	0.0455	1.248
0.0725	1.191	0.04652	1.222
0.0775	1.19	0.04642	1.198
0.0825	1.167	0.04621	1.175
0.0875	1.22	0.04832	1.153
0.0925	1.204	0.04721	1.132
0.0975	1.081	0.04415	1.114
0.1025	1.149	0.04678	1.097
0.1075	1.213	0.04877	1.082
0.1125	1.061	0.0444	1.068
0.1175	1.048	0.04369	1.056
0.1225	1.005	0.04344	1.045
0.1275	1.044	0.04521	1.036
0.1325	1.029	0.04362	1.028
0.1375	1.05	0.04459	1.022
0.1425	0.9561	0.04185	1.016
0.1475	1.114	0.0479	1.011
0.1525	0.9632	0.04335	1.008
0.1575	0.9681	0.04333	1.004
0.1625	0.9195	0.04159	1.002
0.1675	1.007	0.04433	0.9996
0.1725	1.096	0.04721	0.9979
0.1775	0.9732	0.04398	0.9966
0.1825	1.015	0.04551	0.9955
0.1875	1.049	0.0471	0.9947
0.1925	1.017	0.04617	0.9941
0.1975	1.04	0.04705	0.9936
0.2025	0.9675	0.04475	0.9932
0.2075	0.9713	0.04582	0.9929
0.2125	0.9683	0.046	0.9927
0.2175	1.015	0.04787	0.9925
0.2225	0.9247	0.04485	0.9924
0.2275	1.005	0.04796	0.9923
0.2325	0.9953	0.04824	0.9923
0.2375	0.9627	0.04721	0.9922
0.2425	0.9778	0.04738	0.9922
0.2475	1.046	0.05045	0.9922
0.2525	1.045	0.05122	0.9921
0.2575	1.038	0.05172	0.9921
0.2625	1.03	0.05207	0.9921
0.2675	0.9596	0.04919	0.9921
0.2725	0.9724	0.04943	0.9921
0.2775	0.9826	0.05078	0.9921
0.2825	1.043	0.05232	0.9921
0.2875	1.045	0.05313	0.9921
0.2925	1.024	0.05418	0.9921
0.2975	1.09	0.05699	0.9921

0.0025	1.704	0.1786	1.534
0.0075	1.319	0.1414	1.531
0.0125	1.228	0.1398	1.523
0.0175	1.232	0.1431	1.513
0.0225	1.51	0.1634	1.499
0.0275	1.454	0.1585	1.482
0.0325	1.55	0.1675	1.463
0.0375	1.564	0.1693	1.442
0.0425	1.681	0.1745	1.418
0.0475	1.683	0.1737	1.393
0.0525	1.082	0.1245	1.367
0.0575	1.61	0.1693	1.341
0.0625	1.321	0.1547	1.314
0.0675	1.208	0.1476	1.287
0.0725	0.9929	0.1247	1.26
0.0775	1.054	0.134	1.235
0.0825	0.9944	0.1256	1.21
0.0875	0.9613	0.1243	1.186
0.0925	0.9748	0.1307	1.164
0.0975	1.038	0.1379	1.143
0.1025	0.8048	0.1117	1.124
0.1075	1.279	0.154	1.106
0.1125	1.061	0.1395	1.09
0.1175	1.168	0.1532	1.076
0.1225	1.029	0.1367	1.063
0.1275	1.011	0.1295	1.051
0.1325	1.121	0.1482	1.041
0.1375	0.9303	0.1289	1.033
0.1425	0.9391	0.1292	1.025
0.1475	0.9662	0.1353	1.019
0.1525	0.8582	0.1247	1.013
0.1575	0.9934	0.1362	1.008
0.1625	0.8818	0.132	1.005
0.1675	0.8492	0.1233	1.001
0.1725	0.9192	0.1314	0.9987
0.1775	0.9256	0.1323	0.9965
0.1825	1.153	0.1631	0.9947
0.1875	0.969	0.1414	0.9933
0.1925	1.167	0.1629	0.9921
0.1975	1.088	0.1541	0.9912
0.2025	0.7015	0.1153	0.9905
0.2075	1.058	0.1517	0.9899
0.2125	0.8953	0.1407	0.9895
0.2175	1.1	0.1548	0.9891
0.2225	1.111	0.1578	0.9889
0.2275	0.9451	0.1364	0.9887
0.2325	0.9787	0.1537	0.9885
0.2375	0.9866	0.1481	0.9884
0.2425	1.047	0.1608	0.9883
0.2475	0.7635	0.1324	0.9883
0.2525	0.9371	0.1543	0.9882
0.2575	1.23	0.1944	0.9882
0.2625	1.181	0.1775	0.9882
0.2675	1.15	0.1802	0.9881
0.2725	0.8192	0.1429	0.9881
0.2775	1.063	0.1751	0.9881
0.2825	0.9082	0.1507	0.9881
0.2875	0.7686	0.1541	0.9881
0.2925	0.9065	0.1574	0.9881
0.2975	0.7806	0.143	0.9881

