0.003333	1.167	0.008949	1.219
0.01	1.168	0.009363	1.205
0.01667	1.131	0.009548	1.18
0.02333	1.127	0.01	1.149
0.03	1.099	0.01035	1.115
0.03667	1.07	0.01067	1.083
0.04333	1.032	0.01101	1.056
0.05	1.033	0.01162	1.035
0.05667	1.012	0.01213	1.021
0.06333	0.9929	0.01271	1.011
0.07	0.9818	0.01351	1.005
0.07667	1.009	0.01478	1.002
0.08333	0.964	0.01549	1
0.09	0.9741	0.0171	0.9993
0.09667	0.9628	0.01908	0.999
0.1033	1.015	0.02275	0.9988
0.11	1.017	0.0272	0.9987
0.1167	0.9396	0.03425	0.9987
0.1233	1.074	0.0732	0.9987

0.003333	1.223	0.01245	1.278
0.01	1.251	0.01261	1.26
0.01667	1.179	0.01218	1.228
0.02333	1.152	0.01195	1.188
0.03	1.105	0.01169	1.145
0.03667	1.1	0.01169	1.104
0.04333	1.046	0.01127	1.07
0.05	1.007	0.01092	1.044
0.05667	1.002	0.01096	1.026
0.06333	1.016	0.01103	1.014
0.07	0.9852	0.01075	1.007
0.07667	0.9807	0.01069	1.003
0.08333	0.9891	0.01075	1.001
0.09	0.9702	0.01055	0.9995
0.09667	0.9756	0.01062	0.999
0.1033	0.9756	0.01055	0.9989
0.11	0.9928	0.01067	0.9988
0.1167	0.9736	0.0105	0.9987
0.1233	0.978	0.01046	0.9987
0.13	0.9741	0.01066	0.9987
0.1367	0.9838	0.01104	0.9987
0.1433	0.9995	0.01147	0.9987
0.15	0.9972	0.01188	0.9987
0.1567	0.9843	0.01213	0.9987
0.1633	0.9991	0.01269	0.9987
0.17	0.9902	0.01308	0.9987
0.1767	1	0.01366	0.9987
0.1833	0.9773	0.01389	0.9987
0.19	0.9958	0.01466	0.9987
0.1967	1.008	0.01534	0.9987

0.003333	1.225	0.01954	1.309
0.01	1.265	0.0201	1.294
0.01667	1.231	0.0196	1.266
0.02333	1.205	0.01945	1.229
0.03	1.184	0.01913	1.188
0.03667	1.126	0.01859	1.146
0.04333	1.085	0.01824	1.109
0.05	1.042	0.01777	1.077
0.05667	1.032	0.01758	1.052
0.06333	1.027	0.01762	1.033
0.07	0.9851	0.01723	1.02
0.07667	0.9784	0.01714	1.012
0.08333	0.9416	0.01663	1.007
0.09	0.9663	0.01701	1.004
0.09667	1.001	0.01734	1.002
0.1033	0.9708	0.01702	1.001
0.11	0.9683	0.01694	1.001
0.1167	0.9985	0.01728	1
0.1233	1.005	0.01721	1
0.13	1.002	0.01724	1
0.1367	0.9855	0.01707	1
0.1433	1.009	0.01735	1
0.15	0.9521	0.01667	1
0.1567	1.003	0.01713	1
0.1633	0.9866	0.01705	1
0.17	0.9396	0.01646	1
0.1767	1.005	0.01718	1
0.1833	1	0.01711	1
0.19	0.9968	0.01704	1
0.1967	0.9887	0.01695	1

0.003333	1.266	0.04604	1.405
0.01	1.344	0.04799	1.39
0.01667	1.296	0.04702	1.36
0.02333	1.287	0.04712	1.319
0.03	1.262	0.0462	1.272
0.03667	1.085	0.04188	1.223
0.04333	1.106	0.04232	1.175
0.05	1.069	0.04179	1.132
0.05667	1.06	0.04123	1.096
0.06333	1.037	0.04128	1.066
0.07	1.003	0.03987	1.044
0.07667	1.028	0.04029	1.028
0.08333	0.971	0.03924	1.017
0.09	0.9083	0.03791	1.009
0.09667	1.069	0.04176	1.005
0.1033	0.9572	0.03928	1.002
0.11	1.022	0.04005	1
0.1167	0.9264	0.03802	0.9992
0.1233	0.9327	0.03848	0.9987
0.13	0.9889	0.03972	0.9985
0.1367	0.9981	0.03961	0.9984
0.1433	0.9921	0.03984	0.9983
0.15	0.9773	0.03938	0.9983
0.1567	0.9847	0.03979	0.9983
0.1633	0.9532	0.03827	0.9983
0.17	1.003	0.03969	0.9983
0.1767	1.009	0.03997	0.9983
0.1833	1.001	0.03937	0.9983
0.19	1.017	0.04068	0.9983
0.1967	0.9937	0.03892	0.9983

0.003333	1.199	0.01108	1.262
0.01	1.188	0.01143	1.243
0.01667	1.164	0.01179	1.21
0.02333	1.146	0.01221	1.168
0.03	1.102	0.01248	1.125
0.03667	1.083	0.01303	1.086
0.04333	1.031	0.0133	1.055
0.05	1.013	0.0139	1.032
0.05667	0.9793	0.01444	1.017
0.06333	1.001	0.01548	1.008
0.07	0.9596	0.01611	1.003
0.07667	0.9601	0.01724	1
0.08333	1.006	0.01942	0.9991
0.09	0.9799	0.02078	0.9985
0.09667	0.9882	0.02347	0.9983
0.1033	1.003	0.02731	0.9982
0.11	0.9629	0.032	0.9982
0.1167	0.9473	0.042	0.9982
0.1233	0.8718	0.07572	0.9982

0.003333	1.265	0.01551	1.304
0.01	1.209	0.015	1.286
0.01667	1.217	0.01514	1.254
0.02333	1.189	0.01491	1.211
0.03	1.137	0.01443	1.166
0.03667	1.084	0.01404	1.123
0.04333	1.077	0.01395	1.086
0.05	1.032	0.01358	1.056
0.05667	1.007	0.01335	1.035
0.06333	0.9975	0.01324	1.021
0.07	0.9929	0.01318	1.012
0.07667	0.9987	0.01318	1.006
0.08333	0.9855	0.01303	1.003
0.09	0.9595	0.01279	1.002
0.09667	0.9961	0.01311	1.001
0.1033	0.9772	0.01283	1.001
0.11	0.9848	0.0129	1.001
0.1167	0.9965	0.01289	1.001
0.1233	0.9713	0.01267	1.001
0.13	0.9598	0.01282	1.001
0.1367	0.9829	0.01342	1.001
0.1433	0.9882	0.01389	1.001
0.15	0.9589	0.01397	1.001
0.1567	0.9569	0.0145	1.001
0.1633	1.004	0.01552	1.001
0.17	0.9732	0.0156	1.001
0.1767	0.9916	0.0165	1.001
0.1833	0.9574	0.01668	1.001
0.19	0.9769	0.01751	1.001
0.1967	0.9681	0.01815	1.001

0.003333	1.303	0.0249	1.34
0.01	1.3	0.02471	1.325
0.01667	1.264	0.0244	1.296
0.02333	1.244	0.02402	1.258
0.03	1.159	0.02299	1.215
0.03667	1.185	0.02347	1.171
0.04333	1.144	0.02303	1.129
0.05	1.072	0.02231	1.094
0.05667	1.032	0.02146	1.065
0.06333	1.022	0.02137	1.043
0.07	1.003	0.02116	1.027
0.07667	0.9588	0.02041	1.017
0.08333	0.9654	0.02049	1.01
0.09	0.9614	0.02055	1.006
0.09667	0.9513	0.02062	1.003
0.1033	0.9563	0.02049	1.002
0.11	0.986	0.02086	1.001
0.1167	0.9997	0.02102	1.001
0.1233	0.9912	0.02093	1.001
0.13	0.9728	0.02065	1
0.1367	0.961	0.02031	1
0.1433	0.9793	0.02055	1
0.15	0.9989	0.02081	1
0.1567	0.9437	0.02014	1
0.1633	0.998	0.02105	1
0.17	1.003	0.0209	1
0.1767	0.9629	0.02037	1
0.1833	0.9707	0.02029	1
0.19	0.9809	0.02053	1
0.1967	0.984	0.02057	1

0.003333	1.323	0.05663	1.38
0.01	1.366	0.05903	1.367
0.01667	1.25	0.05547	1.343
0.02333	1.316	0.0575	1.31
0.03	1.274	0.05733	1.27
0.03667	1.1	0.05125	1.228
0.04333	1.115	0.05172	1.185
0.05	1.134	0.05351	1.146
0.05667	1.071	0.05128	1.11
0.06333	1.01	0.04814	1.08
0.07	0.965	0.04746	1.056
0.07667	0.9799	0.04793	1.037
0.08333	1.043	0.04913	1.023
0.09	1.039	0.0505	1.013
0.09667	0.9037	0.04532	1.007
0.1033	0.9614	0.04755	1.002
0.11	0.9797	0.04758	0.9993
0.1167	1.038	0.04914	0.9976
0.1233	0.944	0.04665	0.9966
0.13	0.8948	0.04545	0.996
0.1367	1.017	0.04978	0.9957
0.1433	0.9386	0.04725	0.9955
0.15	1.001	0.04832	0.9954
0.1567	0.9964	0.04877	0.9954
0.1633	0.9812	0.04768	0.9953
0.17	0.951	0.04687	0.9953
0.1767	1.011	0.04868	0.9953
0.1833	0.9832	0.04751	0.9953
0.19	0.9328	0.04568	0.9953
0.1967	0.99	0.04785	0.9953

0.003333	1.194	0.009562	1.263
0.01	1.199	0.01	1.248
0.01667	1.188	0.01038	1.222
0.02333	1.161	0.01073	1.188
0.03	1.132	0.01107	1.15
0.03667	1.096	0.01145	1.113
0.04333	1.05	0.0117	1.08
0.05	1.038	0.01227	1.053
0.05667	0.9908	0.01257	1.033
0.06333	1.008	0.01351	1.018
0.07	0.9889	0.01419	1.009
0.07667	1.009	0.01547	1.003
0.08333	0.9923	0.01664	0.9997
0.09	0.9959	0.01838	0.9978
0.09667	0.955	0.01987	0.9969
0.1033	0.9816	0.02349	0.9964
0.11	0.9495	0.02773	0.9962
0.1167	0.9664	0.03715	0.9961
0.1233	0.8646	0.06518	0.9961

0.003333	1.254	0.01339	1.309
0.01	1.253	0.01331	1.294
0.01667	1.232	0.01319	1.266
0.02333	1.199	0.01295	1.228
0.03	1.163	0.01271	1.187
0.03667	1.133	0.01254	1.145
0.04333	1.082	0.01214	1.107
0.05	1.042	0.01183	1.075
0.05667	1.025	0.01172	1.05
0.06333	0.9995	0.01148	1.032
0.07	1.005	0.01158	1.019
0.07667	1.001	0.01147	1.011
0.08333	0.9916	0.0114	1.006
0.09	0.9658	0.0111	1.003
0.09667	0.9698	0.01117	1.002
0.1033	0.9757	0.0112	1.001
0.11	0.9717	0.0111	1
0.1167	0.9709	0.01107	1
0.1233	0.9701	0.01105	1
0.13	0.9802	0.0113	1
0.1367	0.9842	0.01168	1
0.1433	0.9862	0.01214	1
0.15	0.982	0.01236	1
0.1567	0.9934	0.01298	1
0.1633	0.953	0.01296	1
0.17	0.9993	0.0139	1
0.1767	0.9891	0.01428	1
0.1833	0.9729	0.01471	1
0.19	0.9749	0.01535	1
0.1967	0.9716	0.01579	1

0.003333	1.31	0.02193	1.368
0.01	1.324	0.02202	1.354
0.01667	1.326	0.02206	1.326
0.02333	1.233	0.02094	1.289
0.03	1.186	0.02041	1.246
0.03667	1.167	0.02031	1.201
0.04333	1.126	0.0198	1.158
0.05	1.084	0.01936	1.119
0.05667	1.054	0.01913	1.086
0.06333	1.077	0.01936	1.06
0.07	0.9856	0.01819	1.04
0.07667	1.028	0.01872	1.026
0.08333	0.9863	0.01822	1.016
0.09	1.017	0.01865	1.009
0.09667	0.9792	0.01828	1.005
0.1033	0.9846	0.01835	1.003
0.11	0.9634	0.01801	1.001
0.1167	0.9468	0.01772	1
0.1233	1.015	0.01874	0.9999
0.13	0.9652	0.01785	0.9997
0.1367	0.9668	0.01805	0.9996
0.1433	0.9836	0.01801	0.9996
0.15	0.9828	0.01808	0.9995
0.1567	0.9868	0.018	0.9995
0.1633	0.959	0.01785	0.9995
0.17	0.9683	0.01782	0.9995
0.1767	0.9821	0.01793	0.9995
0.1833	1	0.01821	0.9995
0.19	0.9478	0.01732	0.9995
0.1967	0.9781	0.01781	0.9995

0.003333	1.393	0.05326	1.465
0.01	1.324	0.05054	1.451
0.01667	1.282	0.04917	1.424
0.02333	1.292	0.04943	1.386
0.03	1.266	0.05004	1.34
0.03667	1.171	0.04666	1.291
0.04333	1.175	0.04713	1.241
0.05	1.112	0.04486	1.193
0.05667	1.051	0.0441	1.15
0.06333	1.077	0.04503	1.112
0.07	0.999	0.0425	1.08
0.07667	1.074	0.0448	1.055
0.08333	1	0.04248	1.036
0.09	1.017	0.04373	1.022
0.09667	0.9516	0.04121	1.012
0.1033	0.9816	0.0426	1.005
0.11	0.9829	0.04239	1.001
0.1167	0.9652	0.0423	0.9976
0.1233	1.018	0.04406	0.9958
0.13	0.9952	0.04305	0.9947
0.1367	0.9789	0.04219	0.994
0.1433	1.02	0.04279	0.9937
0.15	1.014	0.04265	0.9935
0.1567	0.962	0.04144	0.9934
0.1633	1.004	0.04289	0.9933
0.17	1.015	0.04319	0.9933
0.1767	0.9807	0.04131	0.9933
0.1833	0.9406	0.04015	0.9933
0.19	0.979	0.04168	0.9933
0.1967	0.9805	0.04153	0.9933

0.003333	1.228	0.01224	1.284
0.01	1.249	0.01294	1.272
0.01667	1.206	0.01314	1.249
0.02333	1.189	0.01365	1.219
0.03	1.163	0.01414	1.184
0.03667	1.131	0.01467	1.148
0.04333	1.084	0.015	1.113
0.05	1.065	0.0156	1.083
0.05667	1.03	0.01618	1.058
0.06333	0.9988	0.01688	1.038
0.07	1.005	0.01815	1.023
0.07667	1.006	0.01942	1.013
0.08333	1.03	0.02163	1.006
0.09	0.9564	0.02239	1.001
0.09667	0.989	0.02564	0.9987
0.1033	0.931	0.02816	0.9972
0.11	0.9842	0.03554	0.9963
0.1167	0.9439	0.0452	0.9959
0.1233	0.9193	0.08622	0.9956

0.003333	1.318	0.01745	1.34
0.01	1.286	0.01725	1.327
0.01667	1.234	0.01674	1.301
0.02333	1.224	0.01667	1.267
0.03	1.194	0.01637	1.227
0.03667	1.167	0.01614	1.185
0.04333	1.13	0.01585	1.145
0.05	1.07	0.01523	1.109
0.05667	1.07	0.01518	1.078
0.06333	1.051	0.01507	1.054
0.07	1.002	0.01457	1.036
0.07667	0.9968	0.01449	1.022
0.08333	0.9938	0.01442	1.013
0.09	1.001	0.01451	1.008
0.09667	0.9922	0.01436	1.004
0.1033	0.9907	0.01436	1.002
0.11	1.005	0.01441	1
0.1167	0.9708	0.01403	0.9997
0.1233	0.9712	0.01396	0.9994
0.13	0.9701	0.01424	0.9992
0.1367	0.9868	0.01489	0.9991
0.1433	0.9539	0.01498	0.9991
0.15	0.9708	0.0156	0.999
0.1567	0.9931	0.01637	0.999
0.1633	1.02	0.01734	0.999
0.17	0.9624	0.01716	0.999
0.1767	0.9848	0.01796	0.999
0.1833	0.9502	0.01832	0.999
0.19	0.9721	0.01925	0.999
0.1967	0.9772	0.02012	0.999

0.003333	1.389	0.02913	1.377
0.01	1.337	0.02814	1.366
0.01667	1.294	0.02748	1.345
0.02333	1.281	0.02751	1.315
0.03	1.224	0.02669	1.279
0.03667	1.197	0.02636	1.24
0.04333	1.186	0.0262	1.2
0.05	1.107	0.0251	1.161
0.05667	1.113	0.02513	1.126
0.06333	1.047	0.02408	1.096
0.07	1.038	0.02423	1.07
0.07667	1.018	0.02359	1.05
0.08333	1.011	0.02369	1.034
0.09	1.022	0.02389	1.022
0.09667	0.9836	0.02339	1.014
0.1033	0.9835	0.02335	1.008
0.11	0.9753	0.02297	1.004
0.1167	0.9534	0.02273	1.001
0.1233	1.017	0.02372	0.9997
0.13	0.9947	0.02339	0.9987
0.1367	0.9855	0.02317	0.9982
0.1433	0.9954	0.02331	0.9979
0.15	1	0.02346	0.9977
0.1567	0.9546	0.02261	0.9976
0.1633	1.025	0.02369	0.9975
0.17	0.9723	0.02275	0.9975
0.1767	0.9779	0.02275	0.9975
0.1833	0.9609	0.02269	0.9975
0.19	0.9657	0.02257	0.9975
0.1967	0.9701	0.02248	0.9975

0.003333	1.431	0.06804	1.477
0.01	1.512	0.07213	1.465
0.01667	1.399	0.06779	1.441
0.02333	1.376	0.06694	1.408
0.03	1.229	0.06195	1.367
0.03667	1.23	0.06217	1.322
0.04333	1.209	0.06098	1.275
0.05	1.124	0.05756	1.229
0.05667	1.151	0.06127	1.185
0.06333	1.067	0.05613	1.146
0.07	1.144	0.06034	1.112
0.07667	0.9822	0.05467	1.083
0.08333	0.9903	0.05402	1.059
0.09	1.036	0.05695	1.041
0.09667	1.09	0.0589	1.027
0.1033	1.038	0.05674	1.017
0.11	0.963	0.0528	1.009
0.1167	0.9838	0.05387	1.004
0.1233	0.9831	0.0533	1.001
0.13	0.9908	0.05449	0.9983
0.1367	0.9396	0.05211	0.9969
0.1433	0.9264	0.05349	0.996
0.15	1.053	0.05697	0.9954
0.1567	0.9001	0.05138	0.9951
0.1633	0.9851	0.05415	0.9949
0.17	0.8872	0.04962	0.9948
0.1767	0.9848	0.05461	0.9948
0.1833	0.9451	0.05253	0.9948
0.19	0.946	0.05153	0.9947
0.1967	1.089	0.05719	0.9947

0.003333	1.275	0.01551	1.318
0.01	1.258	0.01594	1.306
0.01667	1.225	0.01636	1.282
0.02333	1.252	0.0175	1.25
0.03	1.184	0.01761	1.213
0.03667	1.139	0.01803	1.174
0.04333	1.102	0.01857	1.136
0.05	1.087	0.01956	1.102
0.05667	1.065	0.02043	1.072
0.06333	1.041	0.02127	1.049
0.07	1.002	0.02236	1.03
0.07667	0.9872	0.02363	1.017
0.08333	0.9705	0.02536	1.007
0.09	0.9425	0.02767	1.001
0.09667	0.9388	0.03047	0.9968
0.1033	0.9481	0.03573	0.9943
0.11	0.994	0.04433	0.9929
0.1167	1.006	0.0589	0.992
0.1233	0.8861	0.1039	0.9916

0.003333	1.341	0.0221	1.352
0.01	1.323	0.02184	1.34
0.01667	1.27	0.02107	1.317
0.02333	1.217	0.02061	1.285
0.03	1.264	0.02117	1.248
0.03667	1.186	0.02022	1.208
0.04333	1.178	0.0202	1.169
0.05	1.121	0.01956	1.132
0.05667	1.064	0.01892	1.1
0.06333	1.034	0.01842	1.073
0.07	1.014	0.0181	1.051
0.07667	1.031	0.01844	1.035
0.08333	1.028	0.01838	1.023
0.09	0.9979	0.01802	1.015
0.09667	0.9781	0.01742	1.009
0.1033	0.9845	0.01775	1.005
0.11	0.9916	0.0177	1.003
0.1167	0.9631	0.01733	1.002
0.1233	0.9786	0.01744	1.001
0.13	0.978	0.01782	1.001
0.1367	0.9687	0.01822	1
0.1433	0.9572	0.01868	1
0.15	0.9688	0.01949	1
0.1567	0.9718	0.01997	1
0.1633	0.99	0.0211	1
0.17	0.9552	0.02122	1
0.1767	0.9808	0.0224	1
0.1833	0.9438	0.02259	1
0.19	0.93	0.02336	1
0.1967	1.002	0.02547	1

0.003333	1.394	0.03658	1.4
0.01	1.355	0.03549	1.389
0.01667	1.417	0.03714	1.367
0.02333	1.321	0.03473	1.338
0.03	1.243	0.03369	1.302
0.03667	1.261	0.03399	1.262
0.04333	1.183	0.0326	1.221
0.05	1.132	0.03175	1.181
0.05667	1.078	0.03096	1.145
0.06333	1.104	0.03142	1.112
0.07	1.076	0.0307	1.084
0.07667	1.067	0.03077	1.061
0.08333	0.9819	0.029	1.043
0.09	0.9985	0.02945	1.029
0.09667	0.9861	0.02944	1.018
0.1033	0.9828	0.02894	1.011
0.11	0.9495	0.02822	1.006
0.1167	0.9227	0.02793	1.002
0.1233	0.931	0.02805	1
0.13	0.9783	0.02896	0.9987
0.1367	0.9756	0.02863	0.9979
0.1433	0.9637	0.02847	0.9973
0.15	0.974	0.02885	0.997
0.1567	1.003	0.02929	0.9969
0.1633	1.014	0.02958	0.9968
0.17	0.9397	0.02791	0.9967
0.1767	0.9974	0.02885	0.9967
0.1833	1.013	0.02928	0.9967
0.19	0.9889	0.02877	0.9967
0.1967	0.9955	0.0287	0.9967

0.003333	1.376	0.08214	1.488
0.01	1.506	0.08824	1.478
0.01667	1.447	0.08756	1.457
0.02333	1.283	0.07962	1.427
0.03	1.399	0.08587	1.391
0.03667	1.118	0.0719	1.349
0.04333	1.317	0.08175	1.305
0.05	1.261	0.07976	1.261
0.05667	1.079	0.07096	1.217
0.06333	1.153	0.07582	1.177
0.07	1.155	0.07612	1.141
0.07667	1.019	0.06946	1.109
0.08333	1.15	0.0752	1.082
0.09	0.9919	0.06796	1.06
0.09667	1.171	0.07756	1.043
0.1033	1.047	0.0708	1.029
0.11	0.95	0.06596	1.018
0.1167	1.094	0.07501	1.011
0.1233	0.979	0.06586	1.005
0.13	0.9732	0.06732	1.001
0.1367	1.095	0.07183	0.9985
0.1433	1.029	0.07037	0.9967
0.15	0.8833	0.06313	0.9956
0.1567	0.9374	0.06511	0.9948
0.1633	0.9061	0.06514	0.9944
0.17	0.9431	0.06577	0.9941
0.1767	0.9297	0.0664	0.9939
0.1833	1.043	0.07127	0.9938
0.19	1.017	0.0687	0.9938
0.1967	1.102	0.07118	0.9937

0.003333	1.297	0.01991	1.327
0.01	1.281	0.0205	1.317
0.01667	1.277	0.02155	1.299
0.02333	1.225	0.02166	1.272
0.03	1.241	0.0231	1.241
0.03667	1.149	0.02291	1.207
0.04333	1.146	0.02439	1.171
0.05	1.112	0.02529	1.137
0.05667	1.115	0.02671	1.106
0.06333	1.072	0.02763	1.078
0.07	1.051	0.02943	1.055
0.07667	0.9834	0.03016	1.036
0.08333	0.9538	0.03177	1.022
0.09	0.9768	0.03573	1.01
0.09667	0.9673	0.04008	1.002
0.1033	0.9566	0.04584	0.9967
0.11	1.063	0.0591	0.9928
0.1167	0.9615	0.07336	0.9902
0.1233	1.299	0.1864	0.9886

0.003333	1.377	0.02873	1.393
0.01	1.353	0.02832	1.381
0.01667	1.333	0.02814	1.359
0.02333	1.293	0.02747	1.329
0.03	1.245	0.02671	1.292
0.03667	1.225	0.02657	1.252
0.04333	1.173	0.02578	1.211
0.05	1.178	0.02604	1.171
0.05667	1.108	0.02471	1.135
0.06333	1.084	0.02458	1.103
0.07	1.03	0.02347	1.076
0.07667	1.06	0.02401	1.054
0.08333	1.025	0.02356	1.037
0.09	1.053	0.0241	1.024
0.09667	0.9946	0.02289	1.015
0.1033	0.9921	0.02285	1.008
0.11	0.9692	0.02233	1.004
0.1167	0.9668	0.02224	1.001
0.1233	0.9907	0.02256	0.999
0.13	0.9471	0.02227	0.9978
0.1367	0.9726	0.02343	0.9971
0.1433	0.9963	0.02451	0.9967
0.15	1.008	0.02564	0.9965
0.1567	0.9764	0.02603	0.9964
0.1633	1.015	0.02737	0.9963
0.17	1.022	0.02868	0.9963
0.1767	0.911	0.02716	0.9963
0.1833	0.9622	0.0294	0.9963
0.19	0.9654	0.03085	0.9963
0.1967	0.9399	0.03136	0.9963

0.003333	1.436	0.04768	1.455
0.01	1.458	0.04925	1.444
0.01667	1.361	0.04674	1.423
0.02333	1.339	0.04598	1.394
0.03	1.335	0.04535	1.358
0.03667	1.28	0.04449	1.317
0.04333	1.206	0.04306	1.275
0.05	1.21	0.04281	1.233
0.05667	1.14	0.04147	1.192
0.06333	1.14	0.04107	1.155
0.07	1.148	0.04214	1.122
0.07667	1.082	0.04029	1.094
0.08333	1.074	0.03996	1.07
0.09	0.982	0.03778	1.052
0.09667	1	0.03814	1.037
0.1033	1.049	0.03972	1.026
0.11	1.015	0.03796	1.018
0.1167	0.969	0.03769	1.012
0.1233	0.9536	0.03701	1.008
0.13	1.014	0.03872	1.005
0.1367	0.9581	0.03698	1.003
0.1433	0.9581	0.03702	1.002
0.15	0.9236	0.03541	1.001
0.1567	1.004	0.03786	1.001
0.1633	0.9897	0.03748	1.001
0.17	0.9842	0.03702	1
0.1767	0.9459	0.03619	1
0.1833	0.9398	0.03569	1
0.19	0.9604	0.03657	1
0.1967	0.9606	0.03645	1

0.003333	1.341	0.1068	1.668
0.01	1.357	0.1115	1.654
0.01667	1.314	0.1028	1.627
0.02333	1.307	0.1075	1.59
0.03	1.219	0.09902	1.543
0.03667	1.412	0.1118	1.489
0.04333	1.352	0.1104	1.432
0.05	1.154	0.09817	1.373
0.05667	1.101	0.09373	1.316
0.06333	1.191	0.09849	1.262
0.07	1.189	0.1027	1.212
0.07667	1.281	0.1088	1.168
0.08333	1.033	0.09202	1.13
0.09	1.117	0.09468	1.098
0.09667	1.077	0.09503	1.072
0.1033	0.978	0.09076	1.051
0.11	1.138	0.09927	1.035
0.1167	1.153	0.09804	1.023
0.1233	1.03	0.09169	1.014
0.13	0.9312	0.08468	1.007
0.1367	0.9453	0.08676	1.003
0.1433	1.018	0.09295	0.9993
0.15	1.009	0.09034	0.9972
0.1567	0.9298	0.08687	0.9957
0.1633	0.9992	0.0907	0.9948
0.17	0.9359	0.08542	0.9943
0.1767	0.9587	0.08619	0.9939
0.1833	1.006	0.08912	0.9937
0.19	0.9084	0.08488	0.9936
0.1967	0.9282	0.08305	0.9935

0.003333	1.352	0.02931	1.374
0.01	1.299	0.02965	1.364
0.01667	1.31	0.03111	1.345
0.02333	1.285	0.03197	1.319
0.03	1.291	0.0343	1.287
0.03667	1.225	0.03451	1.251
0.04333	1.169	0.03539	1.213
0.05	1.169	0.03697	1.176
0.05667	1.139	0.03841	1.14
0.06333	1.081	0.04005	1.108
0.07	1.007	0.04091	1.08
0.07667	1.023	0.04491	1.056
0.08333	1.04	0.04931	1.036
0.09	1.055	0.05462	1.02
0.09667	0.9572	0.05686	1.008
0.1033	1.074	0.07348	0.9989
0.11	0.9361	0.07669	0.9923
0.1167	0.9749	0.1062	0.9876
0.1233	0.712	0.1609	0.9844

0.003333	1.488	0.04325	1.437
0.01	1.39	0.04106	1.425
0.01667	1.275	0.03894	1.402
0.02333	1.317	0.03959	1.37
0.03	1.258	0.03865	1.331
0.03667	1.245	0.0388	1.288
0.04333	1.174	0.03731	1.243
0.05	1.19	0.03777	1.2
0.05667	1.135	0.03634	1.161
0.06333	1.117	0.03606	1.125
0.07	1.143	0.03599	1.095
0.07667	1.034	0.03404	1.071
0.08333	1.069	0.03516	1.051
0.09	1.014	0.03284	1.037
0.09667	0.9933	0.03306	1.026
0.1033	1.041	0.034	1.018
0.11	0.9944	0.03278	1.013
0.1167	1.049	0.03342	1.009
0.1233	1.017	0.03319	1.007
0.13	0.9563	0.03215	1.005
0.1367	0.9562	0.03329	1.004
0.1433	0.9745	0.03517	1.004
0.15	0.9345	0.03473	1.004
0.1567	0.9598	0.03692	1.003
0.1633	0.9717	0.03863	1.003
0.17	0.9115	0.03822	1.003
0.1767	0.9443	0.04052	1.003
0.1833	0.9225	0.04182	1.003
0.19	0.9633	0.04525	1.003
0.1967	0.9306	0.04608	1.003

0.003333	1.49	0.07183	1.482
0.01	1.342	0.0652	1.472
0.01667	1.328	0.06584	1.453
0.02333	1.337	0.06601	1.426
0.03	1.41	0.06892	1.392
0.03667	1.398	0.0684	1.354
0.04333	1.279	0.0629	1.313
0.05	1.34	0.06616	1.271
0.05667	1.18	0.06127	1.231
0.06333	1.224	0.06303	1.192
0.07	1.116	0.05938	1.157
0.07667	1.062	0.0556	1.125
0.08333	1.129	0.06056	1.098
0.09	1.209	0.06196	1.076
0.09667	1.007	0.05433	1.058
0.1033	0.9842	0.05409	1.043
0.11	0.9933	0.05481	1.032
0.1167	1.014	0.05535	1.023
0.1233	0.8983	0.05065	1.017
0.13	1.014	0.0559	1.012
0.1367	0.9426	0.05325	1.009
0.1433	0.9147	0.05103	1.007
0.15	1.053	0.05755	1.005
0.1567	1	0.05564	1.004
0.1633	0.8884	0.05091	1.004
0.17	1.036	0.05759	1.003
0.1767	0.9889	0.05454	1.003
0.1833	0.9608	0.05284	1.003
0.19	0.9286	0.05241	1.003
0.1967	0.9492	0.05219	1.003

0.003333	1.548	0.1736	1.822
0.01	1.716	0.1934	1.802
0.01667	1.57	0.183	1.764
0.02333	1.701	0.1857	1.711
0.03	1.251	0.1488	1.646
0.03667	1.284	0.1502	1.572
0.04333	1.319	0.1535	1.495
0.05	1.127	0.1345	1.418
0.05667	1.198	0.1453	1.344
0.06333	0.8622	0.1159	1.277
0.07	1.08	0.1406	1.218
0.07667	0.9291	0.1268	1.167
0.08333	0.9158	0.1193	1.124
0.09	0.9689	0.1225	1.091
0.09667	0.9629	0.1252	1.064
0.1033	1.257	0.1527	1.044
0.11	1.122	0.1444	1.03
0.1167	1.062	0.1393	1.019
0.1233	0.8844	0.12	1.012
0.13	0.9285	0.1266	1.007
0.1367	1.13	0.1462	1.004
0.1433	0.8667	0.1231	1.002
0.15	1.021	0.132	1.001
0.1567	1.169	0.1425	0.9999
0.1633	1.155	0.1436	0.9994
0.17	1.073	0.1342	0.9991
0.1767	1.271	0.152	0.999
0.1833	1.218	0.1514	0.9989
0.19	0.8461	0.1215	0.9988
0.1967	0.8569	0.1111	0.9988

