0.0025	1.15	0.00408	1.216
0.0075	1.16	0.004	1.209
0.0125	1.172	0.003859	1.197
0.0175	1.174	0.003666	1.18
0.0225	1.173	0.003483	1.159
0.0275	1.154	0.003293	1.136
0.0325	1.128	0.003123	1.113
0.0375	1.1	0.002969	1.091
0.0425	1.074	0.00285	1.071
0.0475	1.053	0.002769	1.054
0.0525	1.039	0.002736	1.039
0.0575	1.02	0.002695	1.028
0.0625	1.017	0.002684	1.019
0.0675	1.008	0.002662	1.012
0.0725	1.004	0.002643	1.007
0.0775	1.002	0.002632	1.004
0.0825	1.003	0.002623	1.002
0.0875	0.9979	0.002603	1.001
0.0925	0.9945	0.002588	0.9998
0.0975	1.002	0.002586	0.9993
0.1025	0.9965	0.002566	0.999
0.1075	0.9952	0.002552	0.9988
0.1125	0.9967	0.002539	0.9987
0.1175	0.9999	0.002532	0.9987
0.1225	0.9974	0.002516	0.9986
0.1275	1.001	0.002509	0.9986
0.1325	0.9969	0.002487	0.9986
0.1375	0.9988	0.002475	0.9986
0.1425	0.9936	0.002454	0.9986
0.1475	0.9996	0.002449	0.9986
0.1525	0.9983	0.002432	0.9986
0.1575	1.003	0.002426	0.9986
0.1625	1.001	0.002408	0.9986
0.1675	0.9994	0.002392	0.9986
0.1725	0.9995	0.002377	0.9986
0.1775	0.999	0.002361	0.9986
0.1825	0.9963	0.00234	0.9986
0.1875	0.9977	0.002333	0.9986
0.1925	0.9976	0.002316	0.9986
0.1975	1.004	0.002313	0.9986
0.2025	0.9941	0.002283	0.9986
0.2075	0.9999	0.002276	0.9986
0.2125	0.9932	0.002252	0.9986
0.2175	1.003	0.002254	0.9986
0.2225	0.9958	0.00223	0.9986
0.2275	0.9967	0.002216	0.9986
0.2325	1.001	0.00221	0.9986
0.2375	1.003	0.002198	0.9986
0.2425	1.001	0.002181	0.9986
0.2475	0.999	0.002164	0.9986
0.2525	0.9964	0.002148	0.9986
0.2575	0.9988	0.002138	0.9986
0.2625	0.998	0.002124	0.9986
0.2675	1	0.002116	0.9986
0.2725	0.999	0.002107	0.9986
0.2775	0.9945	0.002097	0.9986
0.2825	0.997	0.002107	0.9986
0.2875	0.9991	0.002121	0.9986
0.2925	0.9986	0.002137	0.9986
0.2975	0.9975	0.002161	0.9986
0.3025	0.9951	0.00218	0.9986
0.3075	0.9984	0.002213	0.9986
0.3125	1.001	0.002244	0.9986
0.3175	0.9986	0.002268	0.9986
0.3225	0.9948	0.002288	0.9986
0.3275	0.9992	0.002325	0.9986
0.3325	0.9974	0.002352	0.9986
0.3375	1.002	0.002388	0.9986
0.3425	1.004	0.002422	0.9986
0.3475	0.9987	0.002444	0.9986
0.3525	0.999	0.002473	0.9986
0.3575	1	0.002508	0.9986
0.3625	0.9995	0.00254	0.9986
0.3675	1.002	0.002576	0.9986
0.3725	0.9971	0.002602	0.9986
0.3775	0.9993	0.002638	0.9986
0.3825	1.003	0.002674	0.9986
0.3875	0.9984	0.002702	0.9986
0.3925	0.9978	0.002735	0.9986
0.3975	1.002	0.002776	0.9986

0.0025	1.161	0.006314	1.243
0.0075	1.175	0.005947	1.237
0.0125	1.183	0.005434	1.224
0.0175	1.183	0.004959	1.206
0.0225	1.183	0.004581	1.184
0.0275	1.166	0.004242	1.161
0.0325	1.149	0.003981	1.136
0.0375	1.119	0.003743	1.112
0.0425	1.089	0.003556	1.09
0.0475	1.068	0.003455	1.07
0.0525	1.049	0.00342	1.052
0.0575	1.035	0.0034	1.038
0.0625	1.027	0.003389	1.027
0.0675	1.02	0.003381	1.019
0.0725	1.004	0.003355	1.012
0.0775	1.005	0.00337	1.008
0.0825	0.9952	0.003358	1.004
0.0875	0.9946	0.003363	1.002
0.0925	1.001	0.003387	1.001
0.0975	0.9965	0.003386	0.9998
0.1025	0.998	0.003404	0.9992
0.1075	0.9959	0.003406	0.9989
0.1125	1.002	0.003434	0.9987
0.1175	0.9999	0.00344	0.9986
0.1225	0.999	0.003456	0.9986
0.1275	1.006	0.003485	0.9985
0.1325	1.002	0.003492	0.9985
0.1375	0.9974	0.003489	0.9985
0.1425	1.003	0.003516	0.9985
0.1475	1.004	0.003541	0.9985
0.1525	1.008	0.003563	0.9985
0.1575	0.9968	0.00356	0.9985
0.1625	0.9959	0.00357	0.9985
0.1675	0.9988	0.003591	0.9985
0.1725	0.998	0.003607	0.9985
0.1775	1.002	0.003635	0.9985
0.1825	0.9918	0.00363	0.9985
0.1875	0.9983	0.003664	0.9985
0.1925	1.002	0.003692	0.9985
0.1975	1.001	0.003706	0.9985
0.2025	0.9951	0.003722	0.9985
0.2075	1.003	0.003759	0.9985
0.2125	1.003	0.003781	0.9985
0.2175	0.9941	0.003781	0.9985
0.2225	1.006	0.003836	0.9985
0.2275	0.9981	0.003839	0.9985
0.2325	1.004	0.003877	0.9985
0.2375	1.003	0.003897	0.9985
0.2425	0.9998	0.003926	0.9985
0.2475	0.9984	0.003938	0.9985
0.2525	1.004	0.003985	0.9985
0.2575	0.996	0.003982	0.9985
0.2625	0.999	0.004029	0.9985
0.2675	0.997	0.004051	0.9985
0.2725	0.996	0.004068	0.9985
0.2775	0.9974	0.004112	0.9985
0.2825	0.9925	0.004121	0.9985
0.2875	0.9957	0.004169	0.9985
0.2925	1.008	0.004237	0.9985
0.2975	1.005	0.00426	0.9985
0.3025	0.9961	0.00426	0.9985
0.3075	1.007	0.004337	0.9985
0.3125	0.9959	0.004332	0.9985
0.3175	1.004	0.004395	0.9985
0.3225	1.004	0.004438	0.9985
0.3275	0.9963	0.004449	0.9985
0.3325	1.006	0.004519	0.9985
0.3375	1	0.004538	0.9985
0.3425	1.004	0.004584	0.9985
0.3475	1.009	0.004644	0.9985
0.3525	1.005	0.004674	0.9985
0.3575	0.9934	0.004673	0.9985
0.3625	1.001	0.004739	0.9985
0.3675	0.9938	0.004765	0.9985
0.3725	1.006	0.004853	0.9985
0.3775	1.016	0.00493	0.9985
0.3825	0.9992	0.004915	0.9985
0.3875	1.004	0.004979	0.9985
0.3925	0.9976	0.005	0.9985
0.3975	0.9971	0.005052	0.9985

0.0025	1.171	0.01033	1.259
0.0075	1.206	0.009659	1.253
0.0125	1.178	0.008083	1.241
0.0175	1.179	0.006724	1.223
0.0225	1.19	0.005789	1.202
0.0275	1.186	0.005136	1.179
0.0325	1.171	0.004653	1.154
0.0375	1.138	0.004272	1.13
0.0425	1.104	0.003986	1.106
0.0475	1.082	0.003837	1.085
0.0525	1.064	0.003794	1.066
0.0575	1.049	0.003766	1.05
0.0625	1.037	0.003747	1.037
0.0675	1.019	0.003712	1.027
0.0725	1.019	0.003723	1.019
0.0775	1.008	0.003703	1.012
0.0825	1.003	0.003693	1.008
0.0875	1.001	0.003699	1.005
0.0925	0.9956	0.0037	1.003
0.0975	1.007	0.003732	1.001
0.1025	1.005	0.003739	1
0.1075	0.9964	0.003727	0.9997
0.1125	1.003	0.003756	0.9993
0.1175	0.9998	0.003755	0.9991
0.1225	1.005	0.003785	0.9989
0.1275	1.005	0.003796	0.9989
0.1325	0.9983	0.003788	0.9988
0.1375	1.003	0.003813	0.9988
0.1425	0.9988	0.003818	0.9988
0.1475	0.9994	0.003832	0.9988
0.1525	0.9971	0.003842	0.9988
0.1575	0.9985	0.003857	0.9988
0.1625	0.9966	0.003863	0.9988
0.1675	1.002	0.003899	0.9988
0.1725	0.9897	0.003884	0.9988
0.1775	0.9945	0.003908	0.9988
0.1825	0.9976	0.003936	0.9988
0.1875	0.9966	0.003954	0.9988
0.1925	1.001	0.003989	0.9988
0.1975	1.001	0.004005	0.9988
0.2025	0.9943	0.004008	0.9988
0.2075	0.9959	0.004033	0.9988
0.2125	1.003	0.004077	0.9988
0.2175	0.9979	0.004084	0.9988
0.2225	1.007	0.004129	0.9988
0.2275	1.002	0.004141	0.9988
0.2325	0.9999	0.004154	0.9988
0.2375	1.006	0.004198	0.9988
0.2425	0.997	0.004202	0.9988
0.2475	1.002	0.004235	0.9988
0.2525	0.9996	0.004258	0.9988
0.2575	0.9969	0.004271	0.9988
0.2625	1.005	0.004328	0.9988
0.2675	1.001	0.004342	0.9988
0.2725	0.9976	0.004353	0.9988
0.2775	0.9963	0.004378	0.9988
0.2825	0.9999	0.00442	0.9988
0.2875	0.9976	0.004449	0.9988
0.2925	1.003	0.004487	0.9988
0.2975	1.001	0.004513	0.9988
0.3025	1.003	0.004552	0.9988
0.3075	1.001	0.004586	0.9988
0.3125	1.002	0.004603	0.9988
0.3175	1.005	0.004676	0.9988
0.3225	1.001	0.004682	0.9988
0.3275	1.003	0.004717	0.9988
0.3325	1.002	0.004758	0.9988
0.3375	1.003	0.004798	0.9988
0.3425	1.005	0.004831	0.9988
0.3475	1.012	0.0049	0.9988
0.3525	1	0.004897	0.9988
0.3575	1.007	0.004958	0.9988
0.3625	1.002	0.00499	0.9988
0.3675	0.9978	0.005009	0.9988
0.3725	1.005	0.005079	0.9988
0.3775	1.001	0.005114	0.9988
0.3825	0.9985	0.005141	0.9988
0.3875	1	0.005191	0.9988
0.3925	1	0.005246	0.9988
0.3975	1.009	0.005315	0.9988

0.0025	1.241	0.02726	1.253
0.0075	1.247	0.02297	1.248
0.0125	1.191	0.01681	1.239
0.0175	1.227	0.01264	1.226
0.0225	1.188	0.009031	1.209
0.0275	1.173	0.006814	1.19
0.0325	1.182	0.005505	1.17
0.0375	1.162	0.004608	1.149
0.0425	1.144	0.004016	1.128
0.0475	1.111	0.003601	1.107
0.0525	1.097	0.003399	1.089
0.0575	1.078	0.003285	1.072
0.0625	1.058	0.003211	1.057
0.0675	1.044	0.003174	1.044
0.0725	1.028	0.003139	1.034
0.0775	1.02	0.003122	1.025
0.0825	1.018	0.003121	1.018
0.0875	1.002	0.003091	1.013
0.0925	1.006	0.003106	1.009
0.0975	1.001	0.0031	1.006
0.1025	1.006	0.003116	1.004
0.1075	0.9995	0.00311	1.002
0.1125	1.003	0.003127	1.001
0.1175	1.003	0.003132	1.001
0.1225	1.002	0.003143	1
0.1275	0.9965	0.003137	0.9997
0.1325	1.002	0.003152	0.9995
0.1375	1.003	0.003165	0.9994
0.1425	1.001	0.003172	0.9993
0.1475	0.9967	0.003167	0.9993
0.1525	1.001	0.003189	0.9992
0.1575	1.004	0.00321	0.9992
0.1625	1.001	0.003209	0.9992
0.1675	0.9983	0.003214	0.9992
0.1725	0.9977	0.003226	0.9992
0.1775	1.004	0.003246	0.9992
0.1825	1.002	0.003252	0.9992
0.1875	0.9992	0.00326	0.9992
0.1925	0.9958	0.003264	0.9992
0.1975	1.001	0.003289	0.9992
0.2025	0.9959	0.003293	0.9992
0.2075	0.9977	0.003309	0.9992
0.2125	1	0.003332	0.9992
0.2175	0.9945	0.003331	0.9992
0.2225	0.998	0.003356	0.9992
0.2275	1.002	0.00338	0.9992
0.2325	1.003	0.0034	0.9992
0.2375	1.001	0.003402	0.9992
0.2425	1	0.003425	0.9992
0.2475	0.9993	0.003435	0.9992
0.2525	0.9995	0.003455	0.9992
0.2575	1.004	0.003481	0.9992
0.2625	1.003	0.0035	0.9992
0.2675	1.006	0.003527	0.9992
0.2725	0.9996	0.003528	0.9992
0.2775	1.001	0.00355	0.9992
0.2825	1.001	0.003577	0.9992
0.2875	1.004	0.003598	0.9992
0.2925	1	0.003604	0.9992
0.2975	1.003	0.003641	0.9992
0.3025	0.9965	0.003647	0.9992
0.3075	0.9959	0.003665	0.9992
0.3125	1.004	0.003707	0.9992
0.3175	0.9976	0.00371	0.9992
0.3225	1.006	0.003756	0.9992
0.3275	0.9936	0.003746	0.9992
0.3325	1.004	0.003806	0.9992
0.3375	1.002	0.003822	0.9992
0.3425	1.003	0.003849	0.9992
0.3475	1.004	0.003881	0.9992
0.3525	1.004	0.003905	0.9992
0.3575	1.004	0.003932	0.9992
0.3625	0.9973	0.003945	0.9992
0.3675	1.005	0.003991	0.9992
0.3725	1.001	0.004009	0.9992
0.3775	0.9962	0.004021	0.9992
0.3825	1.004	0.004075	0.9992
0.3875	1.002	0.004106	0.9992
0.3925	1.01	0.004155	0.9992
0.3975	0.9974	0.004158	0.9992

0.0025	1.173	0.004961	1.229
0.0075	1.176	0.004845	1.223
0.0125	1.183	0.00465	1.211
0.0175	1.198	0.004451	1.195
0.0225	1.187	0.004214	1.175
0.0275	1.168	0.003984	1.152
0.0325	1.141	0.00378	1.129
0.0375	1.113	0.003597	1.107
0.0425	1.092	0.003466	1.086
0.0475	1.069	0.003358	1.067
0.0525	1.059	0.003325	1.051
0.0575	1.04	0.003276	1.037
0.0625	1.014	0.003214	1.026
0.0675	1.013	0.003204	1.018
0.0725	1.008	0.003182	1.012
0.0775	0.999	0.003151	1.007
0.0825	1.004	0.003151	1.004
0.0875	1.003	0.003135	1.002
0.0925	0.9966	0.003104	1.001
0.0975	0.9941	0.003093	0.9997
0.1025	1.001	0.003091	0.9992
0.1075	0.9968	0.003063	0.9988
0.1125	0.9916	0.003036	0.9986
0.1175	0.9978	0.003037	0.9985
0.1225	0.9964	0.003018	0.9984
0.1275	0.9962	0.003001	0.9984
0.1325	0.9984	0.002988	0.9984
0.1375	0.9918	0.002958	0.9984
0.1425	0.994	0.002947	0.9984
0.1475	0.9954	0.002935	0.9984
0.1525	0.9962	0.002916	0.9984
0.1575	0.9899	0.002884	0.9984
0.1625	0.9945	0.002878	0.9984
0.1675	0.9988	0.002872	0.9984
0.1725	1	0.002852	0.9984
0.1775	0.9977	0.002832	0.9984
0.1825	0.9936	0.002805	0.9984
0.1875	0.9967	0.002795	0.9984
0.1925	0.9973	0.002777	0.9984
0.1975	0.9965	0.002762	0.9984
0.2025	0.9989	0.002749	0.9984
0.2075	1.002	0.002737	0.9984
0.2125	0.9947	0.002704	0.9984
0.2175	0.9947	0.002692	0.9984
0.2225	1	0.002684	0.9984
0.2275	1.003	0.002672	0.9984
0.2325	0.9967	0.002642	0.9984
0.2375	1	0.002634	0.9984
0.2425	0.9958	0.002608	0.9984
0.2475	0.9999	0.002599	0.9984
0.2525	0.9965	0.002578	0.9984
0.2575	1.002	0.002569	0.9984
0.2625	1	0.002554	0.9984
0.2675	0.9981	0.002535	0.9984
0.2725	1.001	0.002533	0.9984
0.2775	0.9998	0.002528	0.9984
0.2825	0.9969	0.00253	0.9984
0.2875	0.9974	0.002539	0.9984
0.2925	1	0.002569	0.9984
0.2975	0.9983	0.002593	0.9984
0.3025	1	0.002628	0.9984
0.3075	0.9993	0.002655	0.9984
0.3125	0.9988	0.00269	0.9984
0.3175	1.002	0.00273	0.9984
0.3225	0.9991	0.002757	0.9984
0.3275	0.9994	0.002789	0.9984
0.3325	0.994	0.002813	0.9984
0.3375	1.003	0.002865	0.9984
0.3425	0.9992	0.002897	0.9984
0.3475	1.002	0.002937	0.9984
0.3525	1.002	0.002975	0.9984
0.3575	1	0.003009	0.9984
0.3625	0.997	0.00304	0.9984
0.3675	1.002	0.003088	0.9984
0.3725	1.004	0.003135	0.9984
0.3775	1.002	0.00317	0.9984
0.3825	0.9985	0.003203	0.9984
0.3875	1.001	0.003247	0.9984
0.3925	1.004	0.003297	0.9984
0.3975	0.9996	0.003322	0.9984

0.0025	1.191	0.007708	1.258
0.0075	1.191	0.007189	1.252
0.0125	1.204	0.00659	1.24
0.0175	1.2	0.006007	1.223
0.0225	1.202	0.005551	1.202
0.0275	1.171	0.005108	1.179
0.0325	1.169	0.004829	1.154
0.0375	1.133	0.00452	1.13
0.0425	1.104	0.004298	1.107
0.0475	1.085	0.004185	1.086
0.0525	1.064	0.004139	1.067
0.0575	1.048	0.004109	1.051
0.0625	1.037	0.004087	1.038
0.0675	1.03	0.004081	1.027
0.0725	1.018	0.004066	1.019
0.0775	1.005	0.004046	1.013
0.0825	1.011	0.004073	1.008
0.0875	1.006	0.004067	1.005
0.0925	1.008	0.004091	1.003
0.0975	0.9925	0.004053	1.001
0.1025	0.9915	0.004063	1
0.1075	0.9995	0.004098	0.9994
0.1125	1.002	0.004118	0.999
0.1175	0.9955	0.004124	0.9987
0.1225	0.9999	0.004149	0.9986
0.1275	0.9999	0.004161	0.9985
0.1325	0.9969	0.00417	0.9985
0.1375	0.9977	0.004189	0.9984
0.1425	0.9912	0.004189	0.9984
0.1475	0.9918	0.004207	0.9984
0.1525	0.9952	0.004236	0.9984
0.1575	1.003	0.004274	0.9984
0.1625	0.9979	0.004284	0.9984
0.1675	1.003	0.004317	0.9984
0.1725	1.001	0.00434	0.9984
0.1775	0.9988	0.004354	0.9984
0.1825	0.9976	0.004372	0.9984
0.1875	0.998	0.004398	0.9984
0.1925	1.005	0.004435	0.9984
0.1975	1	0.004452	0.9984
0.2025	0.9976	0.004465	0.9984
0.2075	0.9966	0.00449	0.9984
0.2125	0.9989	0.004525	0.9984
0.2175	1.003	0.004563	0.9984
0.2225	1.005	0.004606	0.9984
0.2275	0.9981	0.004606	0.9984
0.2325	0.9946	0.004629	0.9984
0.2375	0.9946	0.004657	0.9984
0.2425	0.9975	0.004692	0.9984
0.2475	1.005	0.004749	0.9984
0.2525	1.004	0.004775	0.9984
0.2575	0.9951	0.004786	0.9984
0.2625	1.001	0.004839	0.9984
0.2675	0.9961	0.004859	0.9984
0.2725	1.006	0.00492	0.9984
0.2775	1.003	0.004949	0.9984
0.2825	1.008	0.004999	0.9984
0.2875	0.9954	0.004999	0.9984
0.2925	0.9993	0.005058	0.9984
0.2975	0.999	0.005101	0.9984
0.3025	0.9964	0.005127	0.9984
0.3075	0.9997	0.00517	0.9984
0.3125	1.005	0.005233	0.9984
0.3175	0.9965	0.005246	0.9984
0.3225	1.009	0.005332	0.9984
0.3275	1.002	0.005357	0.9984
0.3325	0.9929	0.005374	0.9984
0.3375	1.005	0.005463	0.9984
0.3425	0.9977	0.00549	0.9984
0.3475	0.9952	0.005536	0.9984
0.3525	0.9975	0.005584	0.9984
0.3575	1.011	0.005699	0.9984
0.3625	0.9984	0.005689	0.9984
0.3675	1.001	0.005741	0.9984
0.3725	0.9959	0.005792	0.9984
0.3775	1.008	0.005867	0.9984
0.3825	0.9893	0.005875	0.9984
0.3875	0.9962	0.005945	0.9984
0.3925	1.006	0.006044	0.9984
0.3975	0.9854	0.006003	0.9984

0.0025	1.221	0.01273	1.275
0.0075	1.203	0.01151	1.269
0.0125	1.199	0.009787	1.258
0.0175	1.204	0.008167	1.241
0.0225	1.202	0.007007	1.221
0.0275	1.198	0.006208	1.198
0.0325	1.195	0.005658	1.174
0.0375	1.159	0.005189	1.149
0.0425	1.136	0.00489	1.125
0.0475	1.107	0.004685	1.103
0.0525	1.08	0.004596	1.082
0.0575	1.058	0.004543	1.064
0.0625	1.051	0.004527	1.049
0.0675	1.026	0.004475	1.037
0.0725	1.022	0.004478	1.027
0.0775	1.017	0.004469	1.019
0.0825	1.001	0.004427	1.013
0.0875	1.007	0.004462	1.008
0.0925	1	0.004453	1.005
0.0975	1.005	0.004479	1.003
0.1025	1.005	0.004493	1.001
0.1075	0.9988	0.004481	1
0.1125	1.002	0.004506	0.9997
0.1175	0.9963	0.0045	0.9992
0.1225	0.997	0.004522	0.9989
0.1275	0.9933	0.004525	0.9988
0.1325	1.002	0.004553	0.9987
0.1375	0.996	0.004559	0.9986
0.1425	1.003	0.004596	0.9986
0.1475	0.9911	0.004581	0.9986
0.1525	1.001	0.004621	0.9986
0.1575	1.004	0.004648	0.9985
0.1625	0.9967	0.004651	0.9985
0.1675	0.9972	0.00468	0.9985
0.1725	0.9945	0.004678	0.9985
0.1775	0.9984	0.004716	0.9985
0.1825	1	0.004743	0.9985
0.1875	0.9975	0.004759	0.9985
0.1925	1.008	0.004819	0.9985
0.1975	0.9985	0.004809	0.9985
0.2025	1.002	0.004833	0.9985
0.2075	1.002	0.004869	0.9985
0.2125	1.003	0.004896	0.9985
0.2175	1	0.004911	0.9985
0.2225	0.9998	0.004937	0.9985
0.2275	1.002	0.004967	0.9985
0.2325	1.004	0.005004	0.9985
0.2375	0.9981	0.005018	0.9985
0.2425	1.003	0.005073	0.9985
0.2475	0.9945	0.005064	0.9985
0.2525	0.9988	0.005111	0.9985
0.2575	0.9939	0.00513	0.9985
0.2625	0.9948	0.005159	0.9985
0.2675	1.005	0.005227	0.9985
0.2725	0.998	0.00524	0.9985
0.2775	1.009	0.005318	0.9985
0.2825	1.007	0.005351	0.9985
0.2875	1.011	0.005392	0.9985
0.2925	1.005	0.005409	0.9985
0.2975	1.011	0.005467	0.9985
0.3025	1.007	0.005483	0.9985
0.3075	1	0.005514	0.9985
0.3125	0.9951	0.005533	0.9985
0.3175	0.9999	0.005588	0.9985
0.3225	1.01	0.005669	0.9985
0.3275	0.9926	0.005643	0.9985
0.3325	0.9988	0.005715	0.9985
0.3375	1.011	0.005797	0.9985
0.3425	1.002	0.005804	0.9985
0.3475	0.9965	0.00583	0.9985
0.3525	1.016	0.005963	0.9985
0.3575	0.9983	0.005925	0.9985
0.3625	1.005	0.006016	0.9985
0.3675	1.009	0.006084	0.9985
0.3725	1.002	0.006104	0.9985
0.3775	0.9995	0.006137	0.9985
0.3825	0.9998	0.006185	0.9985
0.3875	0.9995	0.006238	0.9985
0.3925	0.9948	0.006262	0.9985
0.3975	1.001	0.00637	0.9985

0.0025	1.215	0.03202	1.277
0.0075	1.148	0.02579	1.272
0.0125	1.201	0.02026	1.263
0.0175	1.206	0.01493	1.25
0.0225	1.236	0.01117	1.233
0.0275	1.213	0.008387	1.214
0.0325	1.209	0.006728	1.193
0.0375	1.185	0.005619	1.171
0.0425	1.161	0.004881	1.149
0.0475	1.141	0.004411	1.128
0.0525	1.119	0.004141	1.108
0.0575	1.093	0.003991	1.089
0.0625	1.074	0.003904	1.072
0.0675	1.054	0.003839	1.058
0.0725	1.041	0.003805	1.045
0.0775	1.03	0.003778	1.035
0.0825	1.022	0.003761	1.026
0.0875	1.018	0.003763	1.019
0.0925	1.006	0.003736	1.014
0.0975	1.003	0.003737	1.01
0.1025	0.9973	0.00373	1.007
0.1075	1.003	0.003758	1.004
0.1125	1	0.003752	1.003
0.1175	1.004	0.003774	1.002
0.1225	0.9972	0.003764	1.001
0.1275	0.9953	0.003769	1
0.1325	1.006	0.003805	0.9997
0.1375	0.9996	0.003794	0.9995
0.1425	1.004	0.003824	0.9993
0.1475	0.9968	0.003815	0.9992
0.1525	1.001	0.003837	0.9991
0.1575	1	0.003848	0.9991
0.1625	0.9985	0.003855	0.9991
0.1675	1.002	0.003875	0.9991
0.1725	0.9977	0.003879	0.9991
0.1775	1.002	0.003907	0.999
0.1825	1.003	0.003918	0.999
0.1875	0.9904	0.003898	0.999
0.1925	1.002	0.003949	0.999
0.1975	1	0.003958	0.999
0.2025	1.001	0.003976	0.999
0.2075	0.9966	0.003977	0.999
0.2125	1.002	0.004016	0.999
0.2175	0.9981	0.004022	0.999
0.2225	0.9988	0.004038	0.999
0.2275	1.003	0.004074	0.999
0.2325	0.9937	0.004065	0.999
0.2375	0.9992	0.004097	0.999
0.2425	0.9973	0.004115	0.999
0.2475	1.003	0.004151	0.999
0.2525	1	0.004159	0.999
0.2575	0.9954	0.00417	0.999
0.2625	0.9983	0.0042	0.999
0.2675	1.01	0.004257	0.999
0.2725	0.9993	0.004242	0.999
0.2775	1.003	0.004279	0.999
0.2825	1.001	0.004298	0.999
0.2875	1.009	0.004344	0.999
0.2925	0.9987	0.004344	0.999
0.2975	0.9991	0.004372	0.999
0.3025	1.003	0.004411	0.999
0.3075	1.002	0.004427	0.999
0.3125	1.002	0.004459	0.999
0.3175	0.9983	0.004479	0.999
0.3225	1.001	0.004503	0.999
0.3275	1.005	0.004542	0.999
0.3325	1.006	0.004582	0.999
0.3375	0.997	0.004592	0.999
0.3425	1.001	0.004633	0.999
0.3475	1.001	0.004653	0.999
0.3525	0.9996	0.00469	0.999
0.3575	0.9961	0.004708	0.999
0.3625	1.001	0.004756	0.999
0.3675	1.008	0.004816	0.999
0.3725	0.9984	0.004816	0.999
0.3775	1.002	0.004857	0.999
0.3825	1.009	0.004923	0.999
0.3875	1.01	0.004969	0.999
0.3925	1.002	0.004981	0.999
0.3975	1.003	0.005014	0.999

0.0025	1.185	0.004473	1.249
0.0075	1.203	0.004404	1.243
0.0125	1.216	0.004241	1.232
0.0175	1.216	0.004036	1.217
0.0225	1.209	0.00382	1.198
0.0275	1.193	0.003621	1.177
0.0325	1.177	0.003453	1.155
0.0375	1.15	0.003287	1.132
0.0425	1.124	0.003158	1.11
0.0475	1.093	0.003055	1.09
0.0525	1.077	0.003008	1.071
0.0575	1.051	0.002952	1.055
0.0625	1.035	0.00292	1.042
0.0675	1.021	0.002881	1.031
0.0725	1.018	0.002868	1.022
0.0775	1.008	0.00284	1.015
0.0825	1.004	0.002824	1.01
0.0875	1.003	0.002813	1.006
0.0925	1.001	0.002794	1.004
0.0975	0.9983	0.002777	1.002
0.1025	1.002	0.00277	1
0.1075	0.9899	0.002733	0.9995
0.1125	0.996	0.002729	0.9989
0.1175	0.9953	0.002715	0.9986
0.1225	0.9962	0.002703	0.9983
0.1275	0.9925	0.002682	0.9982
0.1325	0.9903	0.002661	0.9981
0.1375	0.9954	0.002656	0.9981
0.1425	1.002	0.002656	0.9981
0.1475	0.9973	0.002631	0.998
0.1525	0.9965	0.002613	0.998
0.1575	0.9965	0.002597	0.998
0.1625	0.9982	0.002585	0.998
0.1675	0.9984	0.002572	0.998
0.1725	0.9972	0.002552	0.998
0.1775	0.995	0.002532	0.998
0.1825	0.9992	0.002525	0.998
0.1875	0.9967	0.002506	0.998
0.1925	0.9978	0.002493	0.998
0.1975	1.001	0.002482	0.998
0.2025	0.9986	0.002462	0.998
0.2075	0.9978	0.002446	0.998
0.2125	0.9997	0.002435	0.998
0.2175	0.9973	0.002413	0.998
0.2225	0.9977	0.002401	0.998
0.2275	0.9953	0.002382	0.998
0.2325	0.9964	0.002368	0.998
0.2375	0.9974	0.002357	0.998
0.2425	0.9975	0.002339	0.998
0.2475	0.9966	0.002324	0.998
0.2525	0.9987	0.002315	0.998
0.2575	1.001	0.002305	0.998
0.2625	0.9956	0.00228	0.998
0.2675	0.9945	0.002266	0.998
0.2725	0.9963	0.002262	0.998
0.2775	0.9976	0.002262	0.998
0.2825	0.9947	0.002262	0.998
0.2875	1.001	0.002286	0.998
0.2925	0.9975	0.002297	0.998
0.2975	0.9951	0.00232	0.998
0.3025	1.003	0.002362	0.998
0.3075	0.9973	0.00238	0.998
0.3125	0.9961	0.002406	0.998
0.3175	0.9994	0.002441	0.998
0.3225	0.9962	0.002467	0.998
0.3275	0.9992	0.002502	0.998
0.3325	1	0.002536	0.998
0.3375	0.9951	0.00256	0.998
0.3425	1.005	0.002607	0.998
0.3475	1.001	0.002635	0.998
0.3525	0.9996	0.002662	0.998
0.3575	0.9999	0.002699	0.998
0.3625	1.003	0.002739	0.998
0.3675	0.9977	0.002764	0.998
0.3725	1	0.002804	0.998
0.3775	0.9986	0.002837	0.998
0.3825	1.004	0.002885	0.998
0.3875	0.9965	0.002905	0.998
0.3925	0.9996	0.002941	0.998
0.3975	0.9964	0.002972	0.998

0.0025	1.216	0.007013	1.28
0.0075	1.213	0.006526	1.274
0.0125	1.22	0.005963	1.262
0.0175	1.223	0.005446	1.246
0.0225	1.223	0.005033	1.226
0.0275	1.213	0.004683	1.203
0.0325	1.192	0.004376	1.178
0.0375	1.169	0.004133	1.153
0.0425	1.131	0.003914	1.129
0.0475	1.108	0.003799	1.106
0.0525	1.085	0.003757	1.086
0.0575	1.065	0.003723	1.067
0.0625	1.051	0.003694	1.052
0.0675	1.021	0.003638	1.039
0.0725	1.028	0.003665	1.028
0.0775	1.022	0.00366	1.02
0.0825	1.01	0.003643	1.014
0.0875	1.003	0.003635	1.009
0.0925	0.9999	0.00364	1.005
0.0975	1.002	0.003662	1.003
0.1025	0.9957	0.003656	1.001
0.1075	1.002	0.003685	1
0.1125	1.001	0.003692	0.9993
0.1175	1.001	0.003711	0.9988
0.1225	1.003	0.003725	0.9985
0.1275	0.9996	0.003733	0.9983
0.1325	0.9984	0.003745	0.9981
0.1375	1	0.003763	0.9981
0.1425	1.005	0.003792	0.998
0.1475	0.9936	0.003777	0.998
0.1525	1.002	0.003812	0.998
0.1575	0.9934	0.003816	0.998
0.1625	0.9973	0.003842	0.998
0.1675	1.004	0.003884	0.998
0.1725	0.9964	0.00388	0.998
0.1775	0.9947	0.003892	0.998
0.1825	0.9976	0.003923	0.998
0.1875	0.9948	0.003935	0.998
0.1925	0.9999	0.003971	0.998
0.1975	1.001	0.003994	0.998
0.2025	0.992	0.003995	0.998
0.2075	0.9939	0.004028	0.998
0.2125	0.9896	0.004039	0.998
0.2175	0.9959	0.004076	0.998
0.2225	0.9926	0.004098	0.998
0.2275	0.9929	0.004119	0.998
0.2325	0.9948	0.004155	0.998
0.2375	1.001	0.004193	0.998
0.2425	1.003	0.004228	0.998
0.2475	1.001	0.004254	0.998
0.2525	0.9887	0.004242	0.998
0.2575	0.9963	0.0043	0.998
0.2625	1.001	0.004345	0.998
0.2675	1	0.004371	0.998
0.2725	0.9979	0.004394	0.998
0.2775	0.9937	0.004423	0.998
0.2825	0.9922	0.004451	0.998
0.2875	1.003	0.004517	0.998
0.2925	1.006	0.004563	0.998
0.2975	0.9974	0.004571	0.998
0.3025	1.001	0.004612	0.998
0.3075	1.001	0.004664	0.998
0.3125	1.008	0.004722	0.998
0.3175	0.9939	0.004716	0.998
0.3225	1.009	0.0048	0.998
0.3275	0.9987	0.004804	0.998
0.3325	1.003	0.004872	0.998
0.3375	0.9952	0.004885	0.998
0.3425	1.001	0.004937	0.998
0.3475	1	0.004982	0.998
0.3525	0.9984	0.005016	0.998
0.3575	1.003	0.005084	0.998
0.3625	0.9973	0.005106	0.998
0.3675	0.9926	0.005134	0.998
0.3725	0.9999	0.005232	0.998
0.3775	0.994	0.005243	0.998
0.3825	0.9973	0.005302	0.998
0.3875	0.9994	0.005363	0.998
0.3925	1	0.005414	0.998
0.3975	0.9963	0.005454	0.998

0.0025	1.243	0.01157	1.305
0.0075	1.247	0.0106	1.299
0.0125	1.236	0.008991	1.288
0.0175	1.24	0.007497	1.271
0.0225	1.23	0.006369	1.251
0.0275	1.227	0.005654	1.228
0.0325	1.214	0.005135	1.202
0.0375	1.198	0.004758	1.176
0.0425	1.153	0.004415	1.151
0.0475	1.134	0.004263	1.126
0.0525	1.107	0.004196	1.104
0.0575	1.081	0.004138	1.083
0.0625	1.064	0.004098	1.066
0.0675	1.047	0.004072	1.051
0.0725	1.032	0.004048	1.038
0.0775	1.024	0.004034	1.028
0.0825	1.019	0.004036	1.02
0.0875	1.009	0.00401	1.014
0.0925	1.013	0.004036	1.009
0.0975	0.9988	0.004005	1.006
0.1025	1	0.004022	1.004
0.1075	1.004	0.004048	1.002
0.1125	1.003	0.00405	1.001
0.1175	0.9932	0.004041	0.9998
0.1225	1.002	0.004075	0.9992
0.1275	1.003	0.004093	0.9989
0.1325	1.002	0.004101	0.9987
0.1375	0.9974	0.004106	0.9985
0.1425	0.9987	0.004124	0.9984
0.1475	0.9953	0.004119	0.9984
0.1525	1.003	0.004163	0.9984
0.1575	1.005	0.004189	0.9984
0.1625	0.9954	0.004176	0.9983
0.1675	1.003	0.004212	0.9983
0.1725	0.9961	0.004216	0.9983
0.1775	1.001	0.004245	0.9983
0.1825	1.003	0.004274	0.9983
0.1875	1	0.004291	0.9983
0.1925	1.007	0.004324	0.9983
0.1975	1	0.004324	0.9983
0.2025	1.003	0.004357	0.9983
0.2075	1.003	0.004376	0.9983
0.2125	1.003	0.004407	0.9983
0.2175	1.002	0.004424	0.9983
0.2225	1.002	0.004454	0.9983
0.2275	0.9999	0.004463	0.9983
0.2325	1.002	0.004497	0.9983
0.2375	0.9978	0.004522	0.9983
0.2425	0.9966	0.00454	0.9983
0.2475	0.9979	0.004569	0.9983
0.2525	1.002	0.004607	0.9983
0.2575	0.9915	0.004601	0.9983
0.2625	0.9995	0.004664	0.9983
0.2675	1.004	0.0047	0.9983
0.2725	0.9921	0.0047	0.9983
0.2775	1.01	0.004784	0.9983
0.2825	0.998	0.004782	0.9983
0.2875	0.9989	0.004811	0.9983
0.2925	1.003	0.004858	0.9983
0.2975	1.003	0.004897	0.9983
0.3025	0.9952	0.004901	0.9983
0.3075	0.9983	0.004945	0.9983
0.3125	0.9916	0.004964	0.9983
0.3175	1.002	0.005039	0.9983
0.3225	1.004	0.005081	0.9983
0.3275	0.9978	0.005104	0.9983
0.3325	1.004	0.005153	0.9983
0.3375	1.001	0.005185	0.9983
0.3425	0.9912	0.005193	0.9983
0.3475	1.004	0.005283	0.9983
0.3525	0.9966	0.005295	0.9983
0.3575	0.9955	0.005339	0.9983
0.3625	0.9899	0.005359	0.9983
0.3675	0.9993	0.005438	0.9983
0.3725	1.012	0.005528	0.9983
0.3775	1.001	0.005535	0.9983
0.3825	0.9876	0.005531	0.9983
0.3875	0.9953	0.005615	0.9983
0.3925	0.9967	0.005683	0.9983
0.3975	1.003	0.005738	0.9983

0.0025	1.284	0.03025	1.292
0.0075	1.286	0.02499	1.288
0.0125	1.25	0.01892	1.279
0.0175	1.222	0.0136	1.267
0.0225	1.236	0.01003	1.252
0.0275	1.236	0.00764	1.234
0.0325	1.231	0.006137	1.214
0.0375	1.224	0.005171	1.193
0.0425	1.19	0.004471	1.172
0.0475	1.166	0.004032	1.15
0.0525	1.142	0.003781	1.13
0.0575	1.114	0.00364	1.11
0.0625	1.094	0.003559	1.092
0.0675	1.073	0.003502	1.076
0.0725	1.064	0.003477	1.062
0.0775	1.044	0.003437	1.049
0.0825	1.033	0.003416	1.039
0.0875	1.023	0.003402	1.03
0.0925	1.019	0.003403	1.023
0.0975	1.014	0.003395	1.017
0.1025	1.017	0.003406	1.012
0.1075	1.001	0.003381	1.009
0.1125	0.9982	0.00338	1.006
0.1175	1.001	0.003392	1.004
0.1225	0.9999	0.003396	1.002
0.1275	1.005	0.003424	1.001
0.1325	1.002	0.003424	1.001
0.1375	0.9989	0.00343	1
0.1425	0.9952	0.003427	0.9996
0.1475	1.001	0.00345	0.9993
0.1525	1.005	0.003472	0.9992
0.1575	0.9977	0.003466	0.999
0.1625	1.002	0.003487	0.999
0.1675	0.9931	0.003475	0.9989
0.1725	0.9979	0.003512	0.9989
0.1775	0.9941	0.003505	0.9989
0.1825	1.003	0.003539	0.9988
0.1875	0.9987	0.003537	0.9988
0.1925	1.002	0.003565	0.9988
0.1975	0.9971	0.003566	0.9988
0.2025	1.001	0.003592	0.9988
0.2075	1.001	0.003606	0.9988
0.2125	0.9994	0.00362	0.9988
0.2175	0.9989	0.003628	0.9988
0.2225	0.9948	0.003637	0.9988
0.2275	0.9939	0.003649	0.9988
0.2325	0.9982	0.003678	0.9988
0.2375	1.003	0.003708	0.9988
0.2425	0.9932	0.003706	0.9988
0.2475	1.002	0.003738	0.9988
0.2525	0.9968	0.003743	0.9988
0.2575	1.002	0.003778	0.9988
0.2625	1.001	0.003796	0.9988
0.2675	1.004	0.003824	0.9988
0.2725	0.9986	0.003835	0.9988
0.2775	0.9876	0.003823	0.9988
0.2825	0.9958	0.00387	0.9988
0.2875	1.003	0.003916	0.9988
0.2925	0.9889	0.003889	0.9988
0.2975	1.008	0.003969	0.9988
0.3025	0.9959	0.003952	0.9988
0.3075	0.9997	0.003993	0.9988
0.3125	1.008	0.004043	0.9988
0.3175	0.9991	0.004039	0.9988
0.3225	0.9944	0.004061	0.9988
0.3275	0.9965	0.004079	0.9988
0.3325	0.999	0.004123	0.9988
0.3375	1.003	0.004151	0.9988
0.3425	1.002	0.00418	0.9988
0.3475	0.9978	0.004199	0.9988
0.3525	1.005	0.004252	0.9988
0.3575	1.009	0.004283	0.9988
0.3625	1.009	0.004325	0.9988
0.3675	1.005	0.004342	0.9988
0.3725	1.008	0.004374	0.9988
0.3775	0.9984	0.004388	0.9988
0.3825	1.007	0.004439	0.9988
0.3875	1.001	0.004454	0.9988
0.3925	0.9951	0.004468	0.9988
0.3975	1.003	0.004525	0.9988

0.0025	1.212	0.006371	1.273
0.0075	1.236	0.006295	1.269
0.0125	1.235	0.006014	1.259
0.0175	1.237	0.005715	1.246
0.0225	1.253	0.005501	1.229
0.0275	1.215	0.005148	1.209
0.0325	1.212	0.004942	1.188
0.0375	1.187	0.004716	1.166
0.0425	1.16	0.004535	1.144
0.0475	1.127	0.004373	1.122
0.0525	1.105	0.004297	1.102
0.0575	1.079	0.004221	1.084
0.0625	1.068	0.004187	1.067
0.0675	1.048	0.004124	1.053
0.0725	1.04	0.004094	1.041
0.0775	1.03	0.004046	1.031
0.0825	1.017	0.004006	1.022
0.0875	1.018	0.003997	1.016
0.0925	1.008	0.003944	1.011
0.0975	0.9949	0.003899	1.007
0.1025	1.001	0.003886	1.004
0.1075	1	0.003875	1.002
0.1125	0.9997	0.003853	1
0.1175	0.9988	0.003834	0.9992
0.1225	0.9955	0.0038	0.9985
0.1275	0.9969	0.003787	0.998
0.1325	0.9974	0.003761	0.9976
0.1375	0.996	0.003739	0.9974
0.1425	0.9955	0.003719	0.9973
0.1475	0.9948	0.003696	0.9972
0.1525	0.9944	0.003668	0.9971
0.1575	0.9925	0.003647	0.9971
0.1625	0.9976	0.003641	0.9971
0.1675	0.9957	0.003609	0.9971
0.1725	0.9995	0.003603	0.9971
0.1775	0.9987	0.003573	0.997
0.1825	0.994	0.003541	0.997
0.1875	0.9953	0.003524	0.997
0.1925	0.9919	0.003492	0.997
0.1975	1.003	0.003497	0.997
0.2025	0.9927	0.003451	0.997
0.2075	0.9949	0.003433	0.997
0.2125	0.9944	0.003409	0.997
0.2175	0.9963	0.003396	0.997
0.2225	1	0.00338	0.997
0.2275	0.9937	0.003349	0.997
0.2325	0.9991	0.003341	0.997
0.2375	0.996	0.003308	0.997
0.2425	0.9969	0.003297	0.997
0.2475	0.9952	0.003268	0.997
0.2525	0.9969	0.00325	0.997
0.2575	0.9995	0.00324	0.997
0.2625	0.9963	0.00321	0.997
0.2675	0.9975	0.003198	0.997
0.2725	1.002	0.003196	0.997
0.2775	0.9949	0.003184	0.997
0.2825	0.9975	0.003191	0.997
0.2875	1.005	0.00323	0.997
0.2925	0.9933	0.00323	0.997
0.2975	0.9988	0.003269	0.997
0.3025	0.9996	0.003311	0.997
0.3075	0.9938	0.003342	0.997
0.3125	1.004	0.003403	0.997
0.3175	1.001	0.003444	0.997
0.3225	0.9965	0.003473	0.997
0.3275	1.005	0.00354	0.997
0.3325	0.999	0.003566	0.997
0.3375	0.9952	0.003604	0.997
0.3425	0.9921	0.003643	0.997
0.3475	1.002	0.003713	0.997
0.3525	1.003	0.003764	0.997
0.3575	1.007	0.003823	0.997
0.3625	0.9961	0.003842	0.997
0.3675	0.9941	0.003889	0.997
0.3725	1.003	0.003962	0.997
0.3775	1.002	0.004013	0.997
0.3825	1.005	0.004071	0.997
0.3875	0.999	0.004107	0.997
0.3925	1.002	0.004163	0.997
0.3975	0.9934	0.004189	0.997

0.0025	1.253	0.01005	1.301
0.0075	1.245	0.009369	1.296
0.0125	1.248	0.008515	1.286
0.0175	1.248	0.007775	1.272
0.0225	1.263	0.007252	1.255
0.0275	1.247	0.006715	1.235
0.0325	1.235	0.006311	1.212
0.0375	1.204	0.005925	1.189
0.0425	1.174	0.005625	1.166
0.0475	1.146	0.005471	1.142
0.0525	1.122	0.005397	1.12
0.0575	1.093	0.005319	1.1
0.0625	1.078	0.005289	1.082
0.0675	1.06	0.005245	1.066
0.0725	1.043	0.005207	1.051
0.0775	1.033	0.005204	1.04
0.0825	1.018	0.005146	1.03
0.0875	1.01	0.005145	1.022
0.0925	1.006	0.005154	1.015
0.0975	1.018	0.005211	1.011
0.1025	0.9961	0.00515	1.007
0.1075	0.9982	0.005176	1.004
0.1125	1.005	0.005225	1.002
0.1175	0.9982	0.005217	1
0.1225	0.9921	0.005206	0.9992
0.1275	0.995	0.005251	0.9985
0.1325	0.9943	0.005268	0.998
0.1375	0.9895	0.005267	0.9976
0.1425	1.002	0.005342	0.9974
0.1475	0.9924	0.00533	0.9972
0.1525	0.9913	0.005344	0.9971
0.1575	0.9902	0.005361	0.9971
0.1625	1.002	0.005446	0.997
0.1675	1.004	0.00548	0.997
0.1725	0.9887	0.005443	0.997
0.1775	1.002	0.005523	0.997
0.1825	1.004	0.005564	0.997
0.1875	0.9975	0.005561	0.997
0.1925	0.993	0.005577	0.997
0.1975	1.002	0.005637	0.997
0.2025	1.006	0.005697	0.997
0.2075	0.9988	0.005702	0.997
0.2125	0.9892	0.005688	0.997
0.2175	0.9893	0.00573	0.997
0.2225	1.004	0.005834	0.997
0.2275	0.996	0.005826	0.997
0.2325	1.001	0.005891	0.997
0.2375	0.9982	0.005925	0.997
0.2425	1.008	0.006001	0.997
0.2475	1.003	0.006032	0.997
0.2525	1.004	0.006069	0.997
0.2575	0.9985	0.006104	0.997
0.2625	1.001	0.006152	0.997
0.2675	0.9906	0.006145	0.997
0.2725	0.9982	0.006211	0.997
0.2775	0.9917	0.006242	0.997
0.2825	0.9976	0.006322	0.997
0.2875	1.008	0.006417	0.997
0.2925	1.002	0.006432	0.997
0.2975	1.008	0.006526	0.997
0.3025	0.9966	0.006522	0.997
0.3075	0.9975	0.006579	0.997
0.3125	1.002	0.006669	0.997
0.3175	1.003	0.006728	0.997
0.3225	0.9997	0.006742	0.997
0.3275	0.9965	0.006818	0.997
0.3325	1.004	0.006901	0.997
0.3375	1.005	0.006958	0.997
0.3425	1.004	0.007018	0.997
0.3475	0.9957	0.007042	0.997
0.3525	0.9974	0.007105	0.997
0.3575	0.9941	0.007148	0.997
0.3625	1.002	0.00725	0.997
0.3675	1.013	0.007385	0.997
0.3725	1.004	0.007421	0.997
0.3775	0.9989	0.007464	0.997
0.3825	1.006	0.007562	0.997
0.3875	1	0.0076	0.997
0.3925	1.01	0.007735	0.997
0.3975	0.9888	0.00769	0.997

0.0025	1.245	0.01635	1.33
0.0075	1.253	0.01509	1.325
0.0125	1.261	0.01287	1.315
0.0175	1.264	0.01075	1.3
0.0225	1.288	0.00932	1.282
0.0275	1.27	0.008203	1.261
0.0325	1.264	0.007465	1.238
0.0375	1.235	0.006872	1.213
0.0425	1.206	0.006443	1.188
0.0475	1.174	0.006172	1.164
0.0525	1.147	0.006073	1.14
0.0575	1.115	0.005983	1.118
0.0625	1.095	0.005924	1.098
0.0675	1.066	0.005835	1.08
0.0725	1.062	0.005835	1.064
0.0775	1.044	0.005789	1.05
0.0825	1.029	0.005752	1.039
0.0875	1.021	0.00573	1.029
0.0925	1.021	0.005751	1.022
0.0975	1.008	0.005715	1.016
0.1025	1.009	0.005738	1.011
0.1075	1.018	0.005792	1.007
0.1125	1	0.005734	1.005
0.1175	0.9983	0.00574	1.003
0.1225	1.01	0.005808	1.001
0.1275	1.007	0.005805	1
0.1325	1.003	0.005826	0.9993
0.1375	0.9938	0.005797	0.9988
0.1425	1.002	0.005865	0.9985
0.1475	0.9967	0.005847	0.9982
0.1525	0.9982	0.005882	0.9981
0.1575	0.9977	0.005897	0.998
0.1625	0.9974	0.005926	0.9979
0.1675	0.9941	0.005949	0.9979
0.1725	1.003	0.005999	0.9979
0.1775	0.9965	0.006006	0.9979
0.1825	1.004	0.006067	0.9978
0.1875	0.9899	0.006032	0.9978
0.1925	0.9945	0.006086	0.9978
0.1975	0.9956	0.006113	0.9978
0.2025	1.009	0.006213	0.9978
0.2075	1.001	0.006217	0.9978
0.2125	1.008	0.006276	0.9978
0.2175	1.011	0.006318	0.9978
0.2225	0.9943	0.006288	0.9978
0.2275	0.9947	0.006307	0.9978
0.2325	0.9965	0.006362	0.9978
0.2375	1.001	0.006413	0.9978
0.2425	0.9981	0.006446	0.9978
0.2475	0.9936	0.006458	0.9978
0.2525	0.9878	0.006468	0.9978
0.2575	0.9982	0.006561	0.9978
0.2625	1	0.006633	0.9978
0.2675	1.01	0.006719	0.9978
0.2725	1.002	0.006696	0.9978
0.2775	1.004	0.006769	0.9978
0.2825	0.9982	0.006789	0.9978
0.2875	0.9973	0.006833	0.9978
0.2925	1.012	0.00695	0.9978
0.2975	1.007	0.006967	0.9978
0.3025	1.013	0.007057	0.9978
0.3075	0.9971	0.007018	0.9978
0.3125	0.9971	0.007062	0.9978
0.3175	1.004	0.00715	0.9978
0.3225	1.004	0.007195	0.9978
0.3275	0.9897	0.007192	0.9978
0.3325	1.002	0.007321	0.9978
0.3375	1.005	0.007392	0.9978
0.3425	0.984	0.007348	0.9978
0.3475	0.9932	0.007422	0.9978
0.3525	0.9959	0.00753	0.9978
0.3575	1.01	0.007655	0.9978
0.3625	1	0.007675	0.9978
0.3675	1.003	0.007745	0.9978
0.3725	1.001	0.007791	0.9978
0.3775	0.9928	0.007827	0.9978
0.3825	1.003	0.007951	0.9978
0.3875	0.9851	0.007902	0.9978
0.3925	0.9975	0.008053	0.9978
0.3975	1.002	0.008147	0.9978

0.0025	1.279	0.04316	1.325
0.0075	1.3	0.03641	1.321
0.0125	1.284	0.02704	1.313
0.0175	1.288	0.02006	1.302
0.0225	1.279	0.01453	1.288
0.0275	1.261	0.01095	1.27
0.0325	1.294	0.009044	1.251
0.0375	1.267	0.007534	1.23
0.0425	1.236	0.006524	1.209
0.0475	1.211	0.005873	1.187
0.0525	1.184	0.005502	1.165
0.0575	1.156	0.005294	1.144
0.0625	1.136	0.005206	1.124
0.0675	1.106	0.005073	1.106
0.0725	1.085	0.005013	1.089
0.0775	1.08	0.005003	1.074
0.0825	1.057	0.004938	1.06
0.0875	1.04	0.004891	1.049
0.0925	1.031	0.004877	1.039
0.0975	1.02	0.004858	1.03
0.1025	1.012	0.004825	1.023
0.1075	1.011	0.004837	1.018
0.1125	1.003	0.004827	1.013
0.1175	1.009	0.004857	1.01
0.1225	1.003	0.004859	1.007
0.1275	1.004	0.00488	1.005
0.1325	1	0.004886	1.003
0.1375	0.9926	0.004851	1.002
0.1425	0.9923	0.004872	1.001
0.1475	1.004	0.004937	1
0.1525	1.004	0.004951	0.9995
0.1575	0.9972	0.004942	0.9992
0.1625	1	0.004956	0.9989
0.1675	0.9965	0.004963	0.9988
0.1725	0.9928	0.004973	0.9987
0.1775	0.9969	0.005005	0.9986
0.1825	1.002	0.005032	0.9985
0.1875	0.9991	0.005049	0.9985
0.1925	0.9975	0.005068	0.9985
0.1975	1.011	0.00513	0.9985
0.2025	1	0.005115	0.9985
0.2075	0.9966	0.005123	0.9985
0.2125	1.004	0.005176	0.9984
0.2175	1.001	0.005182	0.9984
0.2225	0.9957	0.005199	0.9984
0.2275	1.003	0.005243	0.9984
0.2325	1.007	0.005277	0.9984
0.2375	0.9966	0.005269	0.9984
0.2425	0.9963	0.005286	0.9984
0.2475	0.998	0.00532	0.9984
0.2525	1.003	0.005361	0.9984
0.2575	1.002	0.005391	0.9984
0.2625	1.005	0.005437	0.9984
0.2675	1.001	0.005445	0.9984
0.2725	1.01	0.00551	0.9984
0.2775	0.9993	0.005502	0.9984
0.2825	0.9962	0.005524	0.9984
0.2875	0.9923	0.005544	0.9984
0.2925	1.006	0.005629	0.9984
0.2975	0.9988	0.005629	0.9984
0.3025	1.005	0.005689	0.9984
0.3075	1.003	0.005718	0.9984
0.3125	1.002	0.00574	0.9984
0.3175	1.002	0.005781	0.9984
0.3225	1.001	0.005812	0.9984
0.3275	1.009	0.005883	0.9984
0.3325	1.006	0.005912	0.9984
0.3375	0.9956	0.005899	0.9984
0.3425	0.9943	0.005933	0.9984
0.3475	1.008	0.006046	0.9984
0.3525	0.9986	0.006038	0.9984
0.3575	0.9937	0.006063	0.9984
0.3625	0.9974	0.006131	0.9984
0.3675	1.005	0.006203	0.9984
0.3725	0.9969	0.006206	0.9984
0.3775	1.006	0.006312	0.9984
0.3825	1.002	0.006322	0.9984
0.3875	1.004	0.00639	0.9984
0.3925	1	0.006407	0.9984
0.3975	1.009	0.006494	0.9984

0.0025	1.244	0.009596	1.303
0.0075	1.263	0.009427	1.299
0.0125	1.277	0.009089	1.29
0.0175	1.289	0.008699	1.277
0.0225	1.268	0.008158	1.261
0.0275	1.247	0.007722	1.243
0.0325	1.249	0.007431	1.222
0.0375	1.222	0.00709	1.2
0.0425	1.201	0.006829	1.177
0.0475	1.163	0.006584	1.155
0.0525	1.135	0.006444	1.133
0.0575	1.121	0.006395	1.113
0.0625	1.097	0.006287	1.094
0.0675	1.069	0.00616	1.077
0.0725	1.061	0.006119	1.062
0.0775	1.04	0.006003	1.049
0.0825	1.037	0.005989	1.038
0.0875	1.025	0.005905	1.028
0.0925	1.014	0.005836	1.021
0.0975	1.002	0.005772	1.015
0.1025	1.016	0.005813	1.01
0.1075	0.9985	0.005708	1.006
0.1125	1.01	0.005729	1.003
0.1175	0.997	0.005649	1.001
0.1225	0.9985	0.005616	0.9996
0.1275	0.9979	0.0056	0.9984
0.1325	0.997	0.005554	0.9976
0.1375	0.9978	0.005536	0.997
0.1425	0.9995	0.005509	0.9966
0.1475	0.9979	0.005475	0.9963
0.1525	0.9976	0.005439	0.9961
0.1575	0.9915	0.005384	0.996
0.1625	0.9953	0.005363	0.9959
0.1675	0.9922	0.005323	0.9959
0.1725	0.9964	0.005303	0.9958
0.1775	0.9957	0.005267	0.9958
0.1825	1	0.005259	0.9958
0.1875	0.9909	0.005177	0.9958
0.1925	0.9977	0.005185	0.9958
0.1975	0.9866	0.005102	0.9958
0.2025	0.9949	0.005107	0.9958
0.2075	0.9924	0.005073	0.9958
0.2125	0.9928	0.00504	0.9958
0.2175	0.9981	0.005017	0.9958
0.2225	0.9905	0.00497	0.9958
0.2275	0.9951	0.004963	0.9958
0.2325	0.9909	0.004912	0.9958
0.2375	0.9874	0.004868	0.9958
0.2425	0.9954	0.004863	0.9958
0.2475	0.9918	0.004823	0.9958
0.2525	0.9927	0.004795	0.9958
0.2575	0.9944	0.004763	0.9958
0.2625	1.004	0.004774	0.9958
0.2675	0.9892	0.004696	0.9958
0.2725	0.9958	0.0047	0.9958
0.2775	0.9984	0.004711	0.9958
0.2825	1.001	0.004734	0.9958
0.2875	0.9933	0.00473	0.9958
0.2925	1.007	0.004819	0.9958
0.2975	1.004	0.00486	0.9958
0.3025	0.9999	0.004916	0.9958
0.3075	1.002	0.004981	0.9958
0.3125	0.9955	0.005008	0.9958
0.3175	0.9994	0.005087	0.9958
0.3225	0.9959	0.005145	0.9958
0.3275	0.9964	0.005209	0.9958
0.3325	0.9928	0.005257	0.9958
0.3375	0.9941	0.005341	0.9958
0.3425	0.9959	0.00541	0.9958
0.3475	0.9952	0.005467	0.9958
0.3525	1.003	0.005574	0.9958
0.3575	0.991	0.005594	0.9958
0.3625	0.9984	0.005716	0.9958
0.3675	0.9995	0.005782	0.9958
0.3725	1.001	0.005859	0.9958
0.3775	0.9963	0.005925	0.9958
0.3825	0.9997	0.006016	0.9958
0.3875	0.9919	0.006058	0.9958
0.3925	0.9902	0.006124	0.9958
0.3975	0.9894	0.006191	0.9958

0.0025	1.293	0.01519	1.324
0.0075	1.285	0.01406	1.32
0.0125	1.263	0.01266	1.312
0.0175	1.284	0.01169	1.299
0.0225	1.307	0.01094	1.284
0.0275	1.267	0.01003	1.265
0.0325	1.258	0.009441	1.245
0.0375	1.252	0.008999	1.223
0.0425	1.21	0.008503	1.2
0.0475	1.192	0.008294	1.177
0.0525	1.144	0.008073	1.154
0.0575	1.136	0.008105	1.133
0.0625	1.111	0.007989	1.113
0.0675	1.093	0.007929	1.094
0.0725	1.062	0.007803	1.078
0.0775	1.061	0.007842	1.063
0.0825	1.061	0.007844	1.05
0.0875	1.042	0.007783	1.039
0.0925	1.024	0.007705	1.03
0.0975	1.013	0.007688	1.022
0.1025	1.017	0.007715	1.016
0.1075	1.004	0.007692	1.011
0.1125	1.006	0.007731	1.007
0.1175	1.01	0.007812	1.004
0.1225	0.9981	0.007766	1.002
0.1275	1.013	0.007875	1
0.1325	0.995	0.007808	0.9991
0.1375	1.005	0.007893	0.9982
0.1425	0.9976	0.007881	0.9975
0.1475	1.004	0.007968	0.997
0.1525	0.9917	0.007931	0.9967
0.1575	1.004	0.00806	0.9964
0.1625	0.9944	0.008035	0.9963
0.1675	1.006	0.008127	0.9962
0.1725	1.02	0.008239	0.9961
0.1775	0.9987	0.008156	0.9961
0.1825	0.9945	0.008199	0.996
0.1875	1.01	0.00835	0.996
0.1925	1.001	0.008335	0.996
0.1975	1.002	0.00841	0.996
0.2025	0.9957	0.008403	0.996
0.2075	1.003	0.008493	0.996
0.2125	1.004	0.008542	0.996
0.2175	0.99	0.008503	0.996
0.2225	0.9957	0.008608	0.996
0.2275	1.002	0.008678	0.996
0.2325	1.002	0.008785	0.996
0.2375	0.9938	0.008778	0.996
0.2425	1.008	0.008895	0.996
0.2475	1.008	0.008979	0.996
0.2525	0.9911	0.008947	0.996
0.2575	0.9878	0.008984	0.996
0.2625	1.003	0.009138	0.996
0.2675	0.988	0.009107	0.996
0.2725	0.9973	0.009258	0.996
0.2775	0.9804	0.0092	0.996
0.2825	0.9849	0.009297	0.996
0.2875	1	0.009462	0.996
0.2925	0.9869	0.009491	0.996
0.2975	1.008	0.009719	0.996
0.3025	0.9925	0.009658	0.996
0.3075	0.9821	0.0097	0.996
0.3125	1.012	0.01	0.996
0.3175	0.9982	0.009919	0.996
0.3225	1.004	0.01011	0.996
0.3275	0.9855	0.01002	0.996
0.3325	1.002	0.01023	0.996
0.3375	1.008	0.01041	0.996
0.3425	1.008	0.01049	0.996
0.3475	0.9814	0.01039	0.996
0.3525	0.9928	0.01056	0.996
0.3575	1.018	0.01082	0.996
0.3625	1.001	0.01086	0.996
0.3675	1.012	0.01102	0.996
0.3725	1.012	0.01111	0.996
0.3775	0.9975	0.01113	0.996
0.3825	0.9834	0.01113	0.996
0.3875	1.023	0.01151	0.996
0.3925	0.9994	0.0115	0.996
0.3975	0.9918	0.0115	0.996

0.0025	1.27	0.02467	1.349
0.0075	1.287	0.0227	1.345
0.0125	1.3	0.01955	1.336
0.0175	1.3	0.0162	1.324
0.0225	1.316	0.01401	1.309
0.0275	1.311	0.01246	1.291
0.0325	1.295	0.01128	1.271
0.0375	1.284	0.01049	1.249
0.0425	1.239	0.009744	1.226
0.0475	1.22	0.009446	1.202
0.0525	1.195	0.00925	1.179
0.0575	1.158	0.0091	1.157
0.0625	1.135	0.008993	1.135
0.0675	1.119	0.008942	1.115
0.0725	1.088	0.008784	1.097
0.0775	1.076	0.008775	1.08
0.0825	1.073	0.008759	1.066
0.0875	1.051	0.008664	1.053
0.0925	1.024	0.008558	1.042
0.0975	1.038	0.008685	1.033
0.1025	1.017	0.008534	1.025
0.1075	0.9977	0.008488	1.019
0.1125	1.006	0.008561	1.014
0.1175	1.013	0.008624	1.01
0.1225	1.011	0.008645	1.006
0.1275	1.006	0.008639	1.004
0.1325	0.995	0.008624	1.002
0.1375	1.001	0.008675	1
0.1425	1.008	0.008735	0.9993
0.1475	0.993	0.008689	0.9985
0.1525	0.9851	0.008655	0.9979
0.1575	1.001	0.008848	0.9975
0.1625	0.9895	0.008809	0.9972
0.1675	0.9956	0.008875	0.997
0.1725	1.006	0.008961	0.9969
0.1775	1.003	0.008983	0.9968
0.1825	1.012	0.009116	0.9967
0.1875	1.011	0.00917	0.9967
0.1925	0.9994	0.0091	0.9966
0.1975	0.9839	0.009037	0.9966
0.2025	1.013	0.009271	0.9966
0.2075	0.9798	0.009108	0.9966
0.2125	0.9884	0.0092	0.9966
0.2175	0.991	0.009235	0.9966
0.2225	0.9797	0.009278	0.9966
0.2275	1.001	0.009445	0.9966
0.2325	0.9923	0.009447	0.9966
0.2375	0.9975	0.009546	0.9966
0.2425	0.9881	0.009525	0.9966
0.2475	0.9967	0.009648	0.9966
0.2525	1.002	0.009755	0.9966
0.2575	0.9905	0.00977	0.9966
0.2625	0.9986	0.009881	0.9966
0.2675	0.995	0.009904	0.9966
0.2725	0.9954	0.009961	0.9966
0.2775	1.019	0.01021	0.9966
0.2825	0.9863	0.01007	0.9966
0.2875	0.9814	0.01007	0.9966
0.2925	1.031	0.01054	0.9966
0.2975	0.9876	0.01026	0.9966
0.3025	1.004	0.01045	0.9966
0.3075	1.017	0.01063	0.9966
0.3125	0.9982	0.01054	0.9966
0.3175	0.9793	0.01051	0.9966
0.3225	0.9983	0.01077	0.9966
0.3275	1.012	0.01089	0.9966
0.3325	1.019	0.01106	0.9966
0.3375	0.9954	0.01097	0.9966
0.3425	1.016	0.0112	0.9966
0.3475	0.9883	0.01107	0.9966
0.3525	0.9949	0.01124	0.9966
0.3575	1.014	0.01146	0.9966
0.3625	0.9775	0.01126	0.9966
0.3675	1.003	0.01159	0.9966
0.3725	1.001	0.01162	0.9966
0.3775	0.9937	0.01173	0.9966
0.3825	0.9928	0.01178	0.9966
0.3875	0.973	0.01175	0.9966
0.3925	0.9892	0.01204	0.9966
0.3975	0.9828	0.01201	0.9966

0.0025	1.387	0.06635	1.358
0.0075	1.354	0.05574	1.354
0.0125	1.295	0.04075	1.347
0.0175	1.368	0.03114	1.336
0.0225	1.269	0.0217	1.323
0.0275	1.347	0.01721	1.307
0.0325	1.317	0.01364	1.288
0.0375	1.328	0.01166	1.268
0.0425	1.284	0.01001	1.247
0.0475	1.267	0.009069	1.225
0.0525	1.227	0.008486	1.203
0.0575	1.191	0.008116	1.182
0.0625	1.168	0.007936	1.16
0.0675	1.144	0.007772	1.14
0.0725	1.116	0.007651	1.121
0.0775	1.105	0.007644	1.104
0.0825	1.087	0.007544	1.088
0.0875	1.068	0.007462	1.073
0.0925	1.046	0.007403	1.061
0.0975	1.047	0.007407	1.05
0.1025	1.031	0.007339	1.04
0.1075	1.019	0.007306	1.032
0.1125	1.015	0.007308	1.025
0.1175	1.02	0.007365	1.019
0.1225	1.017	0.007355	1.014
0.1275	1.014	0.007361	1.011
0.1325	1.001	0.00734	1.008
0.1375	1.005	0.007384	1.005
0.1425	1.026	0.007491	1.003
0.1475	1.006	0.007407	1.002
0.1525	1.007	0.007447	1.001
0.1575	0.9885	0.007381	0.9998
0.1625	0.9863	0.007404	0.9992
0.1675	0.9907	0.00745	0.9987
0.1725	1.001	0.007509	0.9983
0.1775	0.9955	0.007504	0.9981
0.1825	0.9859	0.007487	0.9979
0.1875	0.9832	0.007508	0.9978
0.1925	1.005	0.007657	0.9977
0.1975	0.9966	0.007654	0.9976
0.2025	0.9891	0.007633	0.9976
0.2075	1.007	0.007754	0.9975
0.2125	0.9939	0.007714	0.9975
0.2175	0.9999	0.00777	0.9975
0.2225	0.9909	0.007788	0.9975
0.2275	0.9965	0.007879	0.9975
0.2325	0.9988	0.007905	0.9975
0.2375	0.9932	0.007897	0.9975
0.2425	0.9975	0.007964	0.9975
0.2475	0.9824	0.007927	0.9975
0.2525	1.005	0.008088	0.9975
0.2575	1.017	0.0082	0.9975
0.2625	1.012	0.008203	0.9975
0.2675	0.998	0.008177	0.9975
0.2725	1.001	0.00824	0.9975
0.2775	0.9989	0.008283	0.9975
0.2825	0.9939	0.0083	0.9975
0.2875	1.002	0.008396	0.9975
0.2925	1.004	0.008477	0.9975
0.2975	1.014	0.008576	0.9975
0.3025	0.9935	0.008512	0.9975
0.3075	1.008	0.008642	0.9975
0.3125	0.9918	0.008602	0.9975
0.3175	0.9916	0.008636	0.9975
0.3225	0.9991	0.008755	0.9975
0.3275	0.999	0.00879	0.9975
0.3325	1.007	0.008887	0.9975
0.3375	1.003	0.008922	0.9975
0.3425	0.9945	0.008963	0.9975
0.3475	0.9999	0.009033	0.9975
0.3525	0.9947	0.009087	0.9975
0.3575	1.003	0.00922	0.9975
0.3625	1.005	0.009291	0.9975
0.3675	0.9905	0.009246	0.9975
0.3725	0.9942	0.009314	0.9975
0.3775	0.9881	0.009378	0.9975
0.3825	0.9949	0.009486	0.9975
0.3875	1.007	0.009631	0.9975
0.3925	1.001	0.009648	0.9975
0.3975	1.002	0.009747	0.9975

0.0025	1.27	0.01502	1.319
0.0075	1.297	0.01486	1.315
0.0125	1.302	0.01429	1.309
0.0175	1.319	0.01369	1.299
0.0225	1.297	0.01288	1.286
0.0275	1.273	0.01215	1.271
0.0325	1.284	0.01178	1.253
0.0375	1.264	0.01125	1.235
0.0425	1.258	0.01094	1.215
0.0475	1.194	0.01036	1.194
0.0525	1.179	0.01022	1.174
0.0575	1.165	0.01016	1.154
0.0625	1.135	0.009929	1.135
0.0675	1.116	0.009821	1.116
0.0725	1.092	0.009646	1.099
0.0775	1.08	0.009583	1.084
0.0825	1.063	0.009423	1.07
0.0875	1.057	0.009374	1.057
0.0925	1.058	0.009353	1.046
0.0975	1.041	0.009169	1.036
0.1025	1.022	0.00904	1.028
0.1075	1.018	0.009021	1.021
0.1125	1.016	0.008938	1.016
0.1175	1.017	0.008903	1.011
0.1225	1.007	0.008798	1.007
0.1275	0.9886	0.008618	1.004
0.1325	0.9804	0.008537	1.002
0.1375	0.9927	0.008541	0.9996
0.1425	0.9787	0.008451	0.9982
0.1475	0.9986	0.008506	0.997
0.1525	0.9977	0.008457	0.9962
0.1575	1.005	0.008455	0.9956
0.1625	1.014	0.008465	0.9951
0.1675	0.9979	0.008293	0.9948
0.1725	0.9929	0.008213	0.9945
0.1775	0.9792	0.008083	0.9944
0.1825	0.9983	0.008165	0.9942
0.1875	1.002	0.00812	0.9942
0.1925	1.005	0.008111	0.9941
0.1975	0.9962	0.008001	0.9941
0.2025	0.9955	0.007951	0.994
0.2075	1.002	0.007936	0.994
0.2125	1.005	0.00791	0.994
0.2175	0.9771	0.007694	0.994
0.2225	0.9853	0.007713	0.994
0.2275	1.003	0.007727	0.994
0.2325	0.9878	0.007608	0.994
0.2375	0.9816	0.007539	0.994
0.2425	0.9857	0.007531	0.994
0.2475	0.9979	0.007539	0.994
0.2525	1.001	0.007512	0.994
0.2575	0.9832	0.007354	0.994
0.2625	0.9804	0.007305	0.994
0.2675	1.004	0.007407	0.994
0.2725	0.9951	0.007323	0.994
0.2775	0.9985	0.00734	0.994
0.2825	0.9963	0.007353	0.994
0.2875	0.9964	0.007381	0.994
0.2925	0.99	0.007414	0.994
0.2975	0.9932	0.007499	0.994
0.3025	0.989	0.007581	0.994
0.3075	0.9934	0.007714	0.994
0.3125	1.007	0.007867	0.994
0.3175	0.9996	0.00794	0.994
0.3225	0.9906	0.007954	0.994
0.3275	0.9985	0.008106	0.994
0.3325	0.9863	0.008146	0.994
0.3375	0.9911	0.008302	0.994
0.3425	0.9988	0.008445	0.994
0.3475	0.9938	0.008515	0.994
0.3525	1.009	0.008715	0.994
0.3575	0.9972	0.008759	0.994
0.3625	1.001	0.008905	0.994
0.3675	0.9903	0.008971	0.994
0.3725	1.003	0.00917	0.994
0.3775	1.01	0.009321	0.994
0.3825	0.9987	0.009391	0.994
0.3875	0.9937	0.009448	0.994
0.3925	0.9854	0.009532	0.994
0.3975	1.011	0.009842	0.994

0.0025	1.341	0.02428	1.35
0.0075	1.313	0.02241	1.346
0.0125	1.308	0.02018	1.339
0.0175	1.292	0.01828	1.328
0.0225	1.333	0.0173	1.314
0.0275	1.311	0.01598	1.297
0.0325	1.292	0.01492	1.279
0.0375	1.273	0.01417	1.258
0.0425	1.251	0.01355	1.237
0.0475	1.237	0.01327	1.215
0.0525	1.199	0.01298	1.192
0.0575	1.179	0.01288	1.17
0.0625	1.149	0.01272	1.149
0.0675	1.14	0.01266	1.129
0.0725	1.104	0.01234	1.111
0.0775	1.077	0.01227	1.093
0.0825	1.065	0.0122	1.078
0.0875	1.043	0.0121	1.064
0.0925	1.048	0.01222	1.052
0.0975	1.027	0.0121	1.041
0.1025	1.026	0.01213	1.032
0.1075	1.024	0.0121	1.024
0.1125	1.004	0.01202	1.018
0.1175	0.9916	0.012	1.013
0.1225	1.005	0.01217	1.008
0.1275	1.015	0.01233	1.005
0.1325	1.009	0.0123	1.002
0.1375	0.9827	0.01209	1
0.1425	0.9871	0.01219	0.9985
0.1475	0.9971	0.01238	0.9972
0.1525	1.007	0.01253	0.9963
0.1575	0.9846	0.01236	0.9955
0.1625	1.001	0.0126	0.995
0.1675	0.994	0.01256	0.9946
0.1725	0.9959	0.01263	0.9943
0.1775	1.019	0.01292	0.9941
0.1825	0.9975	0.0128	0.994
0.1875	0.9852	0.01279	0.9939
0.1925	0.9981	0.01294	0.9938
0.1975	0.9907	0.01297	0.9938
0.2025	1.009	0.01325	0.9938
0.2075	1.025	0.01347	0.9937
0.2125	1.001	0.0133	0.9937
0.2175	0.9782	0.01319	0.9937
0.2225	0.9707	0.01324	0.9937
0.2275	0.9851	0.01342	0.9937
0.2325	1	0.0137	0.9937
0.2375	0.9939	0.01371	0.9937
0.2425	0.9964	0.01382	0.9937
0.2475	1.011	0.01407	0.9937
0.2525	0.9921	0.01406	0.9937
0.2575	0.9994	0.01422	0.9937
0.2625	0.9807	0.01408	0.9937
0.2675	1.007	0.01445	0.9937
0.2725	0.9817	0.01429	0.9937
0.2775	1.013	0.01468	0.9937
0.2825	0.9847	0.01449	0.9937
0.2875	1.006	0.01487	0.9937
0.2925	0.999	0.01496	0.9937
0.2975	1.005	0.01513	0.9937
0.3025	1.001	0.01525	0.9937
0.3075	1.027	0.01561	0.9937
0.3125	1.013	0.01573	0.9937
0.3175	0.9907	0.01553	0.9937
0.3225	1.005	0.01581	0.9937
0.3275	0.9854	0.01575	0.9937
0.3325	1.008	0.01621	0.9937
0.3375	0.9935	0.01609	0.9937
0.3425	0.9963	0.01628	0.9937
0.3475	1.003	0.01656	0.9937
0.3525	0.9818	0.0164	0.9937
0.3575	0.9942	0.01666	0.9937
0.3625	1.017	0.01714	0.9937
0.3675	1.007	0.01724	0.9937
0.3725	0.999	0.01725	0.9937
0.3775	1.009	0.01752	0.9937
0.3825	0.9948	0.01755	0.9937
0.3875	0.9911	0.01758	0.9937
0.3925	1.005	0.01821	0.9937
0.3975	1.002	0.01815	0.9937

0.0025	1.302	0.0393	1.361
0.0075	1.263	0.03495	1.357
0.0125	1.323	0.03113	1.35
0.0175	1.311	0.02552	1.34
0.0225	1.398	0.02277	1.327
0.0275	1.341	0.01988	1.312
0.0325	1.332	0.01791	1.295
0.0375	1.312	0.0166	1.275
0.0425	1.29	0.01566	1.255
0.0475	1.254	0.01492	1.234
0.0525	1.231	0.0148	1.212
0.0575	1.196	0.0145	1.191
0.0625	1.162	0.01426	1.17
0.0675	1.17	0.01438	1.149
0.0725	1.132	0.01411	1.13
0.0775	1.087	0.01372	1.112
0.0825	1.083	0.01378	1.096
0.0875	1.063	0.01368	1.081
0.0925	1.054	0.01364	1.067
0.0975	1.045	0.01362	1.055
0.1025	1.035	0.01355	1.045
0.1075	1.038	0.01367	1.036
0.1125	1.011	0.01347	1.028
0.1175	1.007	0.01346	1.022
0.1225	1.038	0.01383	1.016
0.1275	1.005	0.01351	1.012
0.1325	1.026	0.01372	1.008
0.1375	0.9945	0.01346	1.005
0.1425	0.9941	0.01359	1.003
0.1475	1.004	0.01373	1.001
0.1525	0.991	0.01372	0.9992
0.1575	1.005	0.01387	0.9981
0.1625	0.992	0.01383	0.9972
0.1675	0.995	0.01392	0.9965
0.1725	0.9837	0.01381	0.996
0.1775	1.018	0.0142	0.9957
0.1825	0.9951	0.01408	0.9954
0.1875	1.021	0.0143	0.9952
0.1925	0.9646	0.01388	0.995
0.1975	0.9967	0.01436	0.9949
0.2025	1.005	0.01447	0.9949
0.2075	1.005	0.01456	0.9948
0.2125	0.9933	0.01451	0.9948
0.2175	1.004	0.01474	0.9948
0.2225	0.9874	0.01465	0.9947
0.2275	0.9957	0.0148	0.9947
0.2325	1.004	0.01493	0.9947
0.2375	1.011	0.01515	0.9947
0.2425	1.011	0.01523	0.9947
0.2475	1.03	0.01544	0.9947
0.2525	1.01	0.01548	0.9947
0.2575	0.9882	0.01527	0.9947
0.2625	0.9852	0.01528	0.9947
0.2675	0.9976	0.01558	0.9947
0.2725	1.011	0.01583	0.9947
0.2775	1.003	0.01585	0.9947
0.2825	0.9952	0.01579	0.9947
0.2875	1.002	0.01609	0.9947
0.2925	1.004	0.01613	0.9947
0.2975	1.011	0.01635	0.9947
0.3025	0.9869	0.01632	0.9947
0.3075	1.029	0.0169	0.9947
0.3125	1.004	0.01672	0.9947
0.3175	1.005	0.01694	0.9947
0.3225	0.9946	0.01692	0.9947
0.3275	1.003	0.01705	0.9947
0.3325	1.019	0.01745	0.9947
0.3375	1.02	0.01766	0.9947
0.3425	0.984	0.01738	0.9947
0.3475	0.9913	0.01755	0.9947
0.3525	0.9938	0.01773	0.9947
0.3575	0.978	0.01757	0.9947
0.3625	0.9905	0.01795	0.9947
0.3675	0.9883	0.01804	0.9947
0.3725	0.9799	0.01815	0.9947
0.3775	0.9824	0.01832	0.9947
0.3825	0.9916	0.01864	0.9947
0.3875	1.016	0.01911	0.9947
0.3925	1.018	0.01929	0.9947
0.3975	0.9866	0.01907	0.9947

0.0025	1.385	0.107	1.387
0.0075	1.467	0.09279	1.383
0.0125	1.315	0.06607	1.377
0.0175	1.401	0.04961	1.368
0.0225	1.332	0.03501	1.356
0.0275	1.354	0.02737	1.342
0.0325	1.366	0.02195	1.326
0.0375	1.314	0.01812	1.308
0.0425	1.339	0.01624	1.288
0.0475	1.284	0.01441	1.268
0.0525	1.286	0.01383	1.247
0.0575	1.247	0.01322	1.225
0.0625	1.214	0.01286	1.204
0.0675	1.2	0.01276	1.183
0.0725	1.159	0.01247	1.163
0.0775	1.158	0.01244	1.144
0.0825	1.125	0.01224	1.126
0.0875	1.121	0.01223	1.11
0.0925	1.1	0.0121	1.094
0.0975	1.082	0.01194	1.08
0.1025	1.07	0.01195	1.068
0.1075	1.058	0.01184	1.057
0.1125	1.042	0.01179	1.047
0.1175	1.018	0.0116	1.038
0.1225	1.011	0.01162	1.031
0.1275	1.023	0.01177	1.024
0.1325	1.021	0.01177	1.019
0.1375	1.016	0.01176	1.015
0.1425	0.9916	0.01162	1.011
0.1475	1.025	0.0119	1.008
0.1525	1.018	0.01186	1.005
0.1575	1.003	0.01185	1.003
0.1625	1.002	0.01185	1.002
0.1675	0.9963	0.01186	1
0.1725	1.037	0.0122	0.9992
0.1775	1.001	0.01195	0.9984
0.1825	0.9898	0.01198	0.9978
0.1875	0.9997	0.01201	0.9974
0.1925	0.9925	0.01204	0.997
0.1975	0.9888	0.01204	0.9967
0.2025	1.013	0.01226	0.9965
0.2075	0.9962	0.01224	0.9964
0.2125	0.997	0.01226	0.9963
0.2175	1.008	0.0125	0.9962
0.2225	0.9859	0.0124	0.9962
0.2275	0.9981	0.01242	0.9961
0.2325	1.007	0.01258	0.9961
0.2375	0.9853	0.01241	0.9961
0.2425	1.025	0.01296	0.996
0.2475	1.016	0.01288	0.996
0.2525	1.012	0.01288	0.996
0.2575	1.004	0.01293	0.996
0.2625	0.9921	0.01289	0.996
0.2675	0.9969	0.01297	0.996
0.2725	0.9925	0.01302	0.996
0.2775	1.001	0.01321	0.996
0.2825	0.9968	0.0133	0.996
0.2875	1.004	0.01339	0.996
0.2925	1.005	0.01344	0.996
0.2975	0.9959	0.01344	0.996
0.3025	0.9806	0.01338	0.996
0.3075	0.995	0.01361	0.996
0.3125	0.9884	0.01361	0.996
0.3175	1.018	0.01407	0.996
0.3225	0.9938	0.01388	0.996
0.3275	1.006	0.01403	0.996
0.3325	0.9761	0.01392	0.996
0.3375	0.9872	0.01409	0.996
0.3425	1.005	0.01434	0.996
0.3475	0.9949	0.01432	0.996
0.3525	0.9793	0.01434	0.996
0.3575	0.9885	0.01448	0.996
0.3625	1.011	0.01485	0.996
0.3675	0.9903	0.01475	0.996
0.3725	1.006	0.01494	0.996
0.3775	0.9911	0.01498	0.996
0.3825	0.9954	0.01507	0.996
0.3875	1.006	0.01533	0.996
0.3925	0.9969	0.01537	0.996
0.3975	0.9848	0.01539	0.996

0.0025	1.318	0.02509	1.356
0.0075	1.295	0.02423	1.353
0.0125	1.304	0.02313	1.346
0.0175	1.321	0.02218	1.337
0.0225	1.353	0.02144	1.325
0.0275	1.33	0.02021	1.31
0.0325	1.285	0.01893	1.293
0.0375	1.34	0.01903	1.274
0.0425	1.293	0.01798	1.254
0.0475	1.276	0.01754	1.234
0.0525	1.205	0.01671	1.213
0.0575	1.2	0.01672	1.191
0.0625	1.168	0.01636	1.171
0.0675	1.166	0.0163	1.151
0.0725	1.174	0.01631	1.132
0.0775	1.098	0.01552	1.114
0.0825	1.092	0.01544	1.097
0.0875	1.088	0.01533	1.082
0.0925	1.065	0.01503	1.068
0.0975	1.021	0.01461	1.056
0.1025	1.05	0.01482	1.046
0.1075	1.025	0.01462	1.036
0.1125	1.037	0.01462	1.028
0.1175	1.035	0.01462	1.021
0.1225	1.011	0.01417	1.015
0.1275	0.9887	0.01396	1.011
0.1325	0.9986	0.01395	1.007
0.1375	0.9922	0.01389	1.003
0.1425	1.01	0.01397	1.001
0.1475	0.9786	0.0136	0.9987
0.1525	0.9846	0.0135	0.9971
0.1575	1.007	0.01368	0.9958
0.1625	0.9663	0.01324	0.9948
0.1675	1.001	0.01344	0.994
0.1725	0.9915	0.01327	0.9935
0.1775	0.9898	0.01321	0.993
0.1825	1.009	0.01329	0.9927
0.1875	0.9733	0.01282	0.9925
0.1925	0.9915	0.01298	0.9923
0.1975	0.9927	0.01289	0.9922
0.2025	0.9862	0.01276	0.9921
0.2075	0.9869	0.01264	0.992
0.2125	0.9848	0.01256	0.992
0.2175	0.9936	0.01257	0.9919
0.2225	1.004	0.01254	0.9919
0.2275	0.9995	0.01249	0.9919
0.2325	0.99	0.01237	0.9919
0.2375	1.008	0.0124	0.9919
0.2425	0.9806	0.0121	0.9919
0.2475	0.9852	0.01209	0.9919
0.2525	1.011	0.01226	0.9919
0.2575	1.01	0.01217	0.9919
0.2625	0.9898	0.0119	0.9919
0.2675	1.004	0.01193	0.9919
0.2725	0.9738	0.01168	0.9919
0.2775	0.9837	0.01174	0.9919
0.2825	0.992	0.01187	0.9919
0.2875	0.9979	0.01196	0.9919
0.2925	0.9888	0.01201	0.9919
0.2975	0.9989	0.01219	0.9919
0.3025	0.9795	0.01222	0.9919
0.3075	0.9902	0.01237	0.9919
0.3125	0.9952	0.01261	0.9919
0.3175	0.9949	0.01282	0.9919
0.3225	0.9787	0.01276	0.9919
0.3275	0.9925	0.01312	0.9919
0.3325	0.9871	0.01327	0.9919
0.3375	0.9779	0.01336	0.9919
0.3425	1.019	0.01388	0.9919
0.3475	0.9811	0.01368	0.9919
0.3525	1.007	0.01416	0.9919
0.3575	0.9817	0.01412	0.9919
0.3625	0.9862	0.01431	0.9919
0.3675	1.018	0.01485	0.9919
0.3725	1.005	0.01487	0.9919
0.3775	0.9823	0.01489	0.9919
0.3825	1.035	0.01561	0.9919
0.3875	1.012	0.01549	0.9919
0.3925	0.9831	0.0155	0.9919
0.3975	0.9905	0.01569	0.9919

0.0025	1.355	0.0395	1.358
0.0075	1.333	0.03669	1.355
0.0125	1.357	0.03364	1.35
0.0175	1.34	0.03034	1.341
0.0225	1.354	0.0282	1.331
0.0275	1.353	0.02651	1.318
0.0325	1.324	0.02456	1.303
0.0375	1.323	0.02352	1.287
0.0425	1.248	0.02172	1.269
0.0475	1.253	0.02156	1.251
0.0525	1.232	0.02138	1.231
0.0575	1.208	0.02108	1.212
0.0625	1.239	0.02156	1.192
0.0675	1.163	0.02066	1.173
0.0725	1.148	0.02068	1.155
0.0775	1.186	0.02119	1.137
0.0825	1.138	0.02083	1.12
0.0875	1.077	0.02002	1.104
0.0925	1.103	0.02032	1.09
0.0975	1.062	0.02003	1.076
0.1025	1.077	0.02034	1.064
0.1075	1.03	0.01963	1.053
0.1125	1.011	0.01954	1.044
0.1175	1.009	0.01961	1.035
0.1225	1.001	0.01953	1.028
0.1275	0.9989	0.0196	1.022
0.1325	1.008	0.01983	1.016
0.1375	1.008	0.02008	1.012
0.1425	1.014	0.02012	1.008
0.1475	0.9999	0.02007	1.005
0.1525	1.015	0.02027	1.002
0.1575	0.9939	0.02026	0.9999
0.1625	1.002	0.02033	0.9982
0.1675	0.9869	0.02028	0.9968
0.1725	1.016	0.0209	0.9957
0.1775	0.9955	0.02083	0.9948
0.1825	1.017	0.02105	0.9941
0.1875	0.9651	0.02033	0.9936
0.1925	0.9724	0.02067	0.9932
0.1975	0.9624	0.02063	0.9929
0.2025	1.007	0.02148	0.9926
0.2075	1.012	0.02171	0.9925
0.2125	0.994	0.02162	0.9923
0.2175	0.9926	0.02162	0.9922
0.2225	0.968	0.02158	0.9922
0.2275	1.01	0.02229	0.9921
0.2325	1.002	0.02218	0.9921
0.2375	0.9795	0.02204	0.9921
0.2425	1.041	0.02304	0.992
0.2475	1.003	0.0228	0.992
0.2525	1.011	0.023	0.992
0.2575	0.9641	0.02246	0.992
0.2625	0.9822	0.02285	0.992
0.2675	0.9658	0.02289	0.992
0.2725	1.005	0.02376	0.992
0.2775	1.018	0.02406	0.992
0.2825	1.018	0.02443	0.992
0.2875	0.9745	0.02366	0.992
0.2925	0.9844	0.02386	0.992
0.2975	0.9789	0.0244	0.992
0.3025	0.9933	0.02479	0.992
0.3075	1.01	0.02527	0.992
0.3125	1.017	0.02563	0.992
0.3175	0.9998	0.02562	0.992
0.3225	0.9985	0.0256	0.992
0.3275	0.9939	0.02583	0.992
0.3325	1.003	0.0263	0.992
0.3375	1.013	0.02674	0.992
0.3425	0.9981	0.02667	0.992
0.3475	0.9806	0.02655	0.992
0.3525	0.99	0.02685	0.992
0.3575	0.9743	0.02691	0.992
0.3625	1.029	0.02827	0.992
0.3675	1.003	0.02803	0.992
0.3725	0.9887	0.02812	0.992
0.3775	0.9689	0.02823	0.992
0.3825	0.9566	0.02819	0.992
0.3875	1.011	0.02938	0.992
0.3925	0.9916	0.02918	0.992
0.3975	0.9743	0.02929	0.992

0.0025	1.293	0.06316	1.393
0.0075	1.399	0.06173	1.39
0.0125	1.457	0.05378	1.384
0.0175	1.395	0.04316	1.375
0.0225	1.336	0.03585	1.363
0.0275	1.412	0.03329	1.349
0.0325	1.361	0.02943	1.332
0.0375	1.343	0.02749	1.314
0.0425	1.312	0.02573	1.295
0.0475	1.29	0.0249	1.274
0.0525	1.259	0.02446	1.253
0.0575	1.247	0.02436	1.231
0.0625	1.225	0.02408	1.21
0.0675	1.193	0.02373	1.189
0.0725	1.16	0.0234	1.168
0.0775	1.218	0.02431	1.149
0.0825	1.134	0.02314	1.13
0.0875	1.085	0.02251	1.113
0.0925	1.074	0.02266	1.097
0.0975	1.066	0.02257	1.083
0.1025	1.045	0.02232	1.07
0.1075	1.05	0.02225	1.058
0.1125	1.04	0.02221	1.048
0.1175	1.051	0.02265	1.038
0.1225	1.041	0.02262	1.031
0.1275	1.024	0.02238	1.024
0.1325	0.9986	0.02191	1.018
0.1375	0.9981	0.02207	1.013
0.1425	0.9617	0.0216	1.009
0.1475	1.009	0.02235	1.006
0.1525	0.9948	0.02236	1.003
0.1575	0.9975	0.02253	1.001
0.1625	0.9678	0.02222	0.9988
0.1675	0.9841	0.02242	0.9973
0.1725	1.014	0.02314	0.9962
0.1775	0.9664	0.02239	0.9953
0.1825	0.9608	0.02224	0.9946
0.1875	0.9831	0.02295	0.994
0.1925	1.03	0.02375	0.9936
0.1975	1.063	0.02453	0.9933
0.2025	0.9885	0.02333	0.993
0.2075	0.9968	0.02371	0.9929
0.2125	0.9882	0.02373	0.9927
0.2175	1.026	0.02439	0.9926
0.2225	1.033	0.0249	0.9926
0.2275	1.022	0.02477	0.9925
0.2325	0.9774	0.024	0.9925
0.2375	1.002	0.02468	0.9924
0.2425	1.014	0.02493	0.9924
0.2475	0.9844	0.02455	0.9924
0.2525	1.038	0.02574	0.9924
0.2575	0.9956	0.02503	0.9924
0.2625	0.9666	0.02484	0.9924
0.2675	0.9929	0.02543	0.9924
0.2725	0.9724	0.02521	0.9924
0.2775	1.012	0.02604	0.9924
0.2825	0.995	0.02628	0.9924
0.2875	0.9898	0.02621	0.9924
0.2925	1.031	0.02719	0.9924
0.2975	1.001	0.0266	0.9924
0.3025	0.9932	0.02681	0.9924
0.3075	0.9988	0.0273	0.9924
0.3125	0.9606	0.02651	0.9924
0.3175	1.007	0.02734	0.9924
0.3225	1.013	0.02769	0.9924
0.3275	1.022	0.02843	0.9924
0.3325	1.035	0.02855	0.9924
0.3375	0.9858	0.02827	0.9924
0.3425	1.024	0.02927	0.9924
0.3475	0.9669	0.02815	0.9924
0.3525	1.012	0.02935	0.9924
0.3575	0.9676	0.02865	0.9924
0.3625	0.9952	0.02976	0.9924
0.3675	1.029	0.03064	0.9924
0.3725	0.9752	0.02941	0.9924
0.3775	1.008	0.03104	0.9924
0.3825	0.9888	0.03056	0.9924
0.3875	0.991	0.03074	0.9924
0.3925	0.9788	0.03079	0.9924
0.3975	1.027	0.03254	0.9924

0.0025	1.348	0.1622	1.397
0.0075	1.387	0.1434	1.394
0.0125	1.427	0.1131	1.389
0.0175	1.38	0.08378	1.381
0.0225	1.291	0.05526	1.371
0.0275	1.427	0.04632	1.359
0.0325	1.384	0.03629	1.346
0.0375	1.302	0.02981	1.33
0.0425	1.349	0.02679	1.313
0.0475	1.348	0.02457	1.295
0.0525	1.302	0.0227	1.276
0.0575	1.309	0.02242	1.257
0.0625	1.268	0.02178	1.238
0.0675	1.213	0.02102	1.218
0.0725	1.217	0.02116	1.199
0.0775	1.189	0.02085	1.18
0.0825	1.174	0.02065	1.162
0.0875	1.136	0.02031	1.144
0.0925	1.124	0.0202	1.128
0.0975	1.147	0.02057	1.112
0.1025	1.101	0.01996	1.098
0.1075	1.098	0.02008	1.085
0.1125	1.049	0.01951	1.073
0.1175	1.088	0.02001	1.062
0.1225	1.052	0.01973	1.052
0.1275	1.055	0.01972	1.043
0.1325	1.024	0.0194	1.036
0.1375	1.03	0.0196	1.029
0.1425	1.013	0.01939	1.023
0.1475	0.9913	0.01908	1.018
0.1525	1.044	0.02	1.014
0.1575	0.9859	0.01928	1.01
0.1625	1.022	0.01971	1.007
0.1675	0.9925	0.01953	1.005
0.1725	0.99	0.01956	1.002
0.1775	0.9578	0.0192	1.001
0.1825	0.9805	0.01953	0.9993
0.1875	1.024	0.0201	0.9981
0.1925	1.011	0.02007	0.9971
0.1975	0.9764	0.01978	0.9964
0.2025	1.019	0.02046	0.9958
0.2075	0.9661	0.0198	0.9953
0.2125	0.9887	0.02003	0.9949
0.2175	0.9734	0.02017	0.9946
0.2225	0.9734	0.02026	0.9944
0.2275	0.9749	0.02032	0.9942
0.2325	1.008	0.02077	0.9941
0.2375	1.006	0.02109	0.994
0.2425	0.9582	0.02047	0.9939
0.2475	0.9899	0.02095	0.9939
0.2525	1.046	0.02191	0.9938
0.2575	1.015	0.02158	0.9938
0.2625	1.004	0.02142	0.9938
0.2675	0.9464	0.02065	0.9938
0.2725	0.9686	0.02127	0.9937
0.2775	1.023	0.02213	0.9937
0.2825	0.9821	0.02163	0.9937
0.2875	1.006	0.02233	0.9937
0.2925	1.005	0.02243	0.9937
0.2975	1.012	0.02265	0.9937
0.3025	0.988	0.02223	0.9937
0.3075	0.9848	0.02224	0.9937
0.3125	1.01	0.02297	0.9937
0.3175	0.9954	0.02286	0.9937
0.3225	1.003	0.02315	0.9937
0.3275	0.9984	0.02322	0.9937
0.3325	1.02	0.02382	0.9937
0.3375	1.007	0.02367	0.9937
0.3425	1.022	0.02414	0.9937
0.3475	1.022	0.02419	0.9937
0.3525	1.035	0.02476	0.9937
0.3575	1.004	0.02438	0.9937
0.3625	1.021	0.02488	0.9937
0.3675	0.9946	0.02495	0.9937
0.3725	0.9842	0.02433	0.9937
0.3775	1.024	0.02541	0.9937
0.3825	0.9947	0.02502	0.9937
0.3875	1	0.02531	0.9937
0.3925	0.9796	0.02543	0.9937
0.3975	1.003	0.02587	0.9937

