%!PS-Adobe-2.0
%%Title: image.eps
%%Creator: gnuplot 5.0 patchlevel 3
%%CreationDate: Wed Jan 31 12:36:07 2018
%%DocumentFonts: (atend)
%%BoundingBox: 50 50 554 770
%%Orientation: Landscape
%%Pages: (atend)
%%EndComments
%%BeginProlog
/gnudict 256 dict def
gnudict begin
%
% The following true/false flags may be edited by hand if desired.
% The unit line width and grayscale image gamma correction may also be changed.
%
/Color true def
/Blacktext false def
/Solid false def
/Dashlength 1 def
/Landscape true def
/Level1 false def
/Level3 false def
/Rounded false def
/ClipToBoundingBox false def
/SuppressPDFMark false def
/TransparentPatterns false def
/gnulinewidth 5.000 def
/userlinewidth gnulinewidth def
/Gamma 1.0 def
/BackgroundColor {-1.000 -1.000 -1.000} def
%
/vshift -80 def
/dl1 {
  10.0 Dashlength userlinewidth gnulinewidth div mul mul mul
  Rounded { currentlinewidth 0.75 mul sub dup 0 le { pop 0.01 } if } if
} def
/dl2 {
  10.0 Dashlength userlinewidth gnulinewidth div mul mul mul
  Rounded { currentlinewidth 0.75 mul add } if
} def
/hpt_ 31.5 def
/vpt_ 31.5 def
/hpt hpt_ def
/vpt vpt_ def
/doclip {
  ClipToBoundingBox {
    newpath 50 50 moveto 554 50 lineto 554 770 lineto 50 770 lineto closepath
    clip
  } if
} def
%
% Gnuplot Prolog Version 5.1 (Oct 2015)
%
%/SuppressPDFMark true def
%
/M {moveto} bind def
/L {lineto} bind def
/R {rmoveto} bind def
/V {rlineto} bind def
/N {newpath moveto} bind def
/Z {closepath} bind def
/C {setrgbcolor} bind def
/f {rlineto fill} bind def
/g {setgray} bind def
/Gshow {show} def   % May be redefined later in the file to support UTF-8
/vpt2 vpt 2 mul def
/hpt2 hpt 2 mul def
/Lshow {currentpoint stroke M 0 vshift R 
	Blacktext {gsave 0 setgray textshow grestore} {textshow} ifelse} def
/Rshow {currentpoint stroke M dup stringwidth pop neg vshift R
	Blacktext {gsave 0 setgray textshow grestore} {textshow} ifelse} def
/Cshow {currentpoint stroke M dup stringwidth pop -2 div vshift R 
	Blacktext {gsave 0 setgray textshow grestore} {textshow} ifelse} def
/UP {dup vpt_ mul /vpt exch def hpt_ mul /hpt exch def
  /hpt2 hpt 2 mul def /vpt2 vpt 2 mul def} def
/DL {Color {setrgbcolor Solid {pop []} if 0 setdash}
 {pop pop pop 0 setgray Solid {pop []} if 0 setdash} ifelse} def
/BL {stroke userlinewidth 2 mul setlinewidth
	Rounded {1 setlinejoin 1 setlinecap} if} def
/AL {stroke userlinewidth 2 div setlinewidth
	Rounded {1 setlinejoin 1 setlinecap} if} def
/UL {dup gnulinewidth mul /userlinewidth exch def
	dup 1 lt {pop 1} if 10 mul /udl exch def} def
/PL {stroke userlinewidth setlinewidth
	Rounded {1 setlinejoin 1 setlinecap} if} def
3.8 setmiterlimit
% Classic Line colors (version 5.0)
/LCw {1 1 1} def
/LCb {0 0 0} def
/LCa {0 0 0} def
/LC0 {1 0 0} def
/LC1 {0 1 0} def
/LC2 {0 0 1} def
/LC3 {1 0 1} def
/LC4 {0 1 1} def
/LC5 {1 1 0} def
/LC6 {0 0 0} def
/LC7 {1 0.3 0} def
/LC8 {0.5 0.5 0.5} def
% Default dash patterns (version 5.0)
/LTB {BL [] LCb DL} def
/LTw {PL [] 1 setgray} def
/LTb {PL [] LCb DL} def
/LTa {AL [1 udl mul 2 udl mul] 0 setdash LCa setrgbcolor} def
/LT0 {PL [] LC0 DL} def
/LT1 {PL [2 dl1 3 dl2] LC1 DL} def
/LT2 {PL [1 dl1 1.5 dl2] LC2 DL} def
/LT3 {PL [6 dl1 2 dl2 1 dl1 2 dl2] LC3 DL} def
/LT4 {PL [1 dl1 2 dl2 6 dl1 2 dl2 1 dl1 2 dl2] LC4 DL} def
/LT5 {PL [4 dl1 2 dl2] LC5 DL} def
/LT6 {PL [1.5 dl1 1.5 dl2 1.5 dl1 1.5 dl2 1.5 dl1 6 dl2] LC6 DL} def
/LT7 {PL [3 dl1 3 dl2 1 dl1 3 dl2] LC7 DL} def
/LT8 {PL [2 dl1 2 dl2 2 dl1 6 dl2] LC8 DL} def
/SL {[] 0 setdash} def
/Pnt {stroke [] 0 setdash gsave 1 setlinecap M 0 0 V stroke grestore} def
/Dia {stroke [] 0 setdash 2 copy vpt add M
  hpt neg vpt neg V hpt vpt neg V
  hpt vpt V hpt neg vpt V closepath stroke
  Pnt} def
/Pls {stroke [] 0 setdash vpt sub M 0 vpt2 V
  currentpoint stroke M
  hpt neg vpt neg R hpt2 0 V stroke
 } def
/Box {stroke [] 0 setdash 2 copy exch hpt sub exch vpt add M
  0 vpt2 neg V hpt2 0 V 0 vpt2 V
  hpt2 neg 0 V closepath stroke
  Pnt} def
/Crs {stroke [] 0 setdash exch hpt sub exch vpt add M
  hpt2 vpt2 neg V currentpoint stroke M
  hpt2 neg 0 R hpt2 vpt2 V stroke} def
/TriU {stroke [] 0 setdash 2 copy vpt 1.12 mul add M
  hpt neg vpt -1.62 mul V
  hpt 2 mul 0 V
  hpt neg vpt 1.62 mul V closepath stroke
  Pnt} def
/Star {2 copy Pls Crs} def
/BoxF {stroke [] 0 setdash exch hpt sub exch vpt add M
  0 vpt2 neg V hpt2 0 V 0 vpt2 V
  hpt2 neg 0 V closepath fill} def
/TriUF {stroke [] 0 setdash vpt 1.12 mul add M
  hpt neg vpt -1.62 mul V
  hpt 2 mul 0 V
  hpt neg vpt 1.62 mul V closepath fill} def
/TriD {stroke [] 0 setdash 2 copy vpt 1.12 mul sub M
  hpt neg vpt 1.62 mul V
  hpt 2 mul 0 V
  hpt neg vpt -1.62 mul V closepath stroke
  Pnt} def
/TriDF {stroke [] 0 setdash vpt 1.12 mul sub M
  hpt neg vpt 1.62 mul V
  hpt 2 mul 0 V
  hpt neg vpt -1.62 mul V closepath fill} def
/DiaF {stroke [] 0 setdash vpt add M
  hpt neg vpt neg V hpt vpt neg V
  hpt vpt V hpt neg vpt V closepath fill} def
/Pent {stroke [] 0 setdash 2 copy gsave
  translate 0 hpt M 4 {72 rotate 0 hpt L} repeat
  closepath stroke grestore Pnt} def
/PentF {stroke [] 0 setdash gsave
  translate 0 hpt M 4 {72 rotate 0 hpt L} repeat
  closepath fill grestore} def
/Circle {stroke [] 0 setdash 2 copy
  hpt 0 360 arc stroke Pnt} def
/CircleF {stroke [] 0 setdash hpt 0 360 arc fill} def
/C0 {BL [] 0 setdash 2 copy moveto vpt 90 450 arc} bind def
/C1 {BL [] 0 setdash 2 copy moveto
	2 copy vpt 0 90 arc closepath fill
	vpt 0 360 arc closepath} bind def
/C2 {BL [] 0 setdash 2 copy moveto
	2 copy vpt 90 180 arc closepath fill
	vpt 0 360 arc closepath} bind def
/C3 {BL [] 0 setdash 2 copy moveto
	2 copy vpt 0 180 arc closepath fill
	vpt 0 360 arc closepath} bind def
/C4 {BL [] 0 setdash 2 copy moveto
	2 copy vpt 180 270 arc closepath fill
	vpt 0 360 arc closepath} bind def
/C5 {BL [] 0 setdash 2 copy moveto
	2 copy vpt 0 90 arc
	2 copy moveto
	2 copy vpt 180 270 arc closepath fill
	vpt 0 360 arc} bind def
/C6 {BL [] 0 setdash 2 copy moveto
	2 copy vpt 90 270 arc closepath fill
	vpt 0 360 arc closepath} bind def
/C7 {BL [] 0 setdash 2 copy moveto
	2 copy vpt 0 270 arc closepath fill
	vpt 0 360 arc closepath} bind def
/C8 {BL [] 0 setdash 2 copy moveto
	2 copy vpt 270 360 arc closepath fill
	vpt 0 360 arc closepath} bind def
/C9 {BL [] 0 setdash 2 copy moveto
	2 copy vpt 270 450 arc closepath fill
	vpt 0 360 arc closepath} bind def
/C10 {BL [] 0 setdash 2 copy 2 copy moveto vpt 270 360 arc closepath fill
	2 copy moveto
	2 copy vpt 90 180 arc closepath fill
	vpt 0 360 arc closepath} bind def
/C11 {BL [] 0 setdash 2 copy moveto
	2 copy vpt 0 180 arc closepath fill
	2 copy moveto
	2 copy vpt 270 360 arc closepath fill
	vpt 0 360 arc closepath} bind def
/C12 {BL [] 0 setdash 2 copy moveto
	2 copy vpt 180 360 arc closepath fill
	vpt 0 360 arc closepath} bind def
/C13 {BL [] 0 setdash 2 copy moveto
	2 copy vpt 0 90 arc closepath fill
	2 copy moveto
	2 copy vpt 180 360 arc closepath fill
	vpt 0 360 arc closepath} bind def
/C14 {BL [] 0 setdash 2 copy moveto
	2 copy vpt 90 360 arc closepath fill
	vpt 0 360 arc} bind def
/C15 {BL [] 0 setdash 2 copy vpt 0 360 arc closepath fill
	vpt 0 360 arc closepath} bind def
/Rec {newpath 4 2 roll moveto 1 index 0 rlineto 0 exch rlineto
	neg 0 rlineto closepath} bind def
/Square {dup Rec} bind def
/Bsquare {vpt sub exch vpt sub exch vpt2 Square} bind def
/S0 {BL [] 0 setdash 2 copy moveto 0 vpt rlineto BL Bsquare} bind def
/S1 {BL [] 0 setdash 2 copy vpt Square fill Bsquare} bind def
/S2 {BL [] 0 setdash 2 copy exch vpt sub exch vpt Square fill Bsquare} bind def
/S3 {BL [] 0 setdash 2 copy exch vpt sub exch vpt2 vpt Rec fill Bsquare} bind def
/S4 {BL [] 0 setdash 2 copy exch vpt sub exch vpt sub vpt Square fill Bsquare} bind def
/S5 {BL [] 0 setdash 2 copy 2 copy vpt Square fill
	exch vpt sub exch vpt sub vpt Square fill Bsquare} bind def
/S6 {BL [] 0 setdash 2 copy exch vpt sub exch vpt sub vpt vpt2 Rec fill Bsquare} bind def
/S7 {BL [] 0 setdash 2 copy exch vpt sub exch vpt sub vpt vpt2 Rec fill
	2 copy vpt Square fill Bsquare} bind def
/S8 {BL [] 0 setdash 2 copy vpt sub vpt Square fill Bsquare} bind def
/S9 {BL [] 0 setdash 2 copy vpt sub vpt vpt2 Rec fill Bsquare} bind def
/S10 {BL [] 0 setdash 2 copy vpt sub vpt Square fill 2 copy exch vpt sub exch vpt Square fill
	Bsquare} bind def
/S11 {BL [] 0 setdash 2 copy vpt sub vpt Square fill 2 copy exch vpt sub exch vpt2 vpt Rec fill
	Bsquare} bind def
/S12 {BL [] 0 setdash 2 copy exch vpt sub exch vpt sub vpt2 vpt Rec fill Bsquare} bind def
/S13 {BL [] 0 setdash 2 copy exch vpt sub exch vpt sub vpt2 vpt Rec fill
	2 copy vpt Square fill Bsquare} bind def
/S14 {BL [] 0 setdash 2 copy exch vpt sub exch vpt sub vpt2 vpt Rec fill
	2 copy exch vpt sub exch vpt Square fill Bsquare} bind def
/S15 {BL [] 0 setdash 2 copy Bsquare fill Bsquare} bind def
/D0 {gsave translate 45 rotate 0 0 S0 stroke grestore} bind def
/D1 {gsave translate 45 rotate 0 0 S1 stroke grestore} bind def
/D2 {gsave translate 45 rotate 0 0 S2 stroke grestore} bind def
/D3 {gsave translate 45 rotate 0 0 S3 stroke grestore} bind def
/D4 {gsave translate 45 rotate 0 0 S4 stroke grestore} bind def
/D5 {gsave translate 45 rotate 0 0 S5 stroke grestore} bind def
/D6 {gsave translate 45 rotate 0 0 S6 stroke grestore} bind def
/D7 {gsave translate 45 rotate 0 0 S7 stroke grestore} bind def
/D8 {gsave translate 45 rotate 0 0 S8 stroke grestore} bind def
/D9 {gsave translate 45 rotate 0 0 S9 stroke grestore} bind def
/D10 {gsave translate 45 rotate 0 0 S10 stroke grestore} bind def
/D11 {gsave translate 45 rotate 0 0 S11 stroke grestore} bind def
/D12 {gsave translate 45 rotate 0 0 S12 stroke grestore} bind def
/D13 {gsave translate 45 rotate 0 0 S13 stroke grestore} bind def
/D14 {gsave translate 45 rotate 0 0 S14 stroke grestore} bind def
/D15 {gsave translate 45 rotate 0 0 S15 stroke grestore} bind def
/DiaE {stroke [] 0 setdash vpt add M
  hpt neg vpt neg V hpt vpt neg V
  hpt vpt V hpt neg vpt V closepath stroke} def
/BoxE {stroke [] 0 setdash exch hpt sub exch vpt add M
  0 vpt2 neg V hpt2 0 V 0 vpt2 V
  hpt2 neg 0 V closepath stroke} def
/TriUE {stroke [] 0 setdash vpt 1.12 mul add M
  hpt neg vpt -1.62 mul V
  hpt 2 mul 0 V
  hpt neg vpt 1.62 mul V closepath stroke} def
/TriDE {stroke [] 0 setdash vpt 1.12 mul sub M
  hpt neg vpt 1.62 mul V
  hpt 2 mul 0 V
  hpt neg vpt -1.62 mul V closepath stroke} def
/PentE {stroke [] 0 setdash gsave
  translate 0 hpt M 4 {72 rotate 0 hpt L} repeat
  closepath stroke grestore} def
/CircE {stroke [] 0 setdash 
  hpt 0 360 arc stroke} def
/Opaque {gsave closepath 1 setgray fill grestore 0 setgray closepath} def
/DiaW {stroke [] 0 setdash vpt add M
  hpt neg vpt neg V hpt vpt neg V
  hpt vpt V hpt neg vpt V Opaque stroke} def
/BoxW {stroke [] 0 setdash exch hpt sub exch vpt add M
  0 vpt2 neg V hpt2 0 V 0 vpt2 V
  hpt2 neg 0 V Opaque stroke} def
/TriUW {stroke [] 0 setdash vpt 1.12 mul add M
  hpt neg vpt -1.62 mul V
  hpt 2 mul 0 V
  hpt neg vpt 1.62 mul V Opaque stroke} def
/TriDW {stroke [] 0 setdash vpt 1.12 mul sub M
  hpt neg vpt 1.62 mul V
  hpt 2 mul 0 V
  hpt neg vpt -1.62 mul V Opaque stroke} def
/PentW {stroke [] 0 setdash gsave
  translate 0 hpt M 4 {72 rotate 0 hpt L} repeat
  Opaque stroke grestore} def
/CircW {stroke [] 0 setdash 
  hpt 0 360 arc Opaque stroke} def
/BoxFill {gsave Rec 1 setgray fill grestore} def
/Density {
  /Fillden exch def
  currentrgbcolor
  /ColB exch def /ColG exch def /ColR exch def
  /ColR ColR Fillden mul Fillden sub 1 add def
  /ColG ColG Fillden mul Fillden sub 1 add def
  /ColB ColB Fillden mul Fillden sub 1 add def
  ColR ColG ColB setrgbcolor} def
/BoxColFill {gsave Rec PolyFill} def
/PolyFill {gsave Density fill grestore grestore} def
/h {rlineto rlineto rlineto gsave closepath fill grestore} bind def
%
% PostScript Level 1 Pattern Fill routine for rectangles
% Usage: x y w h s a XX PatternFill
%	x,y = lower left corner of box to be filled
%	w,h = width and height of box
%	  a = angle in degrees between lines and x-axis
%	 XX = 0/1 for no/yes cross-hatch
%
/PatternFill {gsave /PFa [ 9 2 roll ] def
  PFa 0 get PFa 2 get 2 div add PFa 1 get PFa 3 get 2 div add translate
  PFa 2 get -2 div PFa 3 get -2 div PFa 2 get PFa 3 get Rec
  TransparentPatterns {} {gsave 1 setgray fill grestore} ifelse
  clip
  currentlinewidth 0.5 mul setlinewidth
  /PFs PFa 2 get dup mul PFa 3 get dup mul add sqrt def
  0 0 M PFa 5 get rotate PFs -2 div dup translate
  0 1 PFs PFa 4 get div 1 add floor cvi
	{PFa 4 get mul 0 M 0 PFs V} for
  0 PFa 6 get ne {
	0 1 PFs PFa 4 get div 1 add floor cvi
	{PFa 4 get mul 0 2 1 roll M PFs 0 V} for
 } if
  stroke grestore} def
%
/languagelevel where
 {pop languagelevel} {1} ifelse
dup 2 lt
	{/InterpretLevel1 true def
	 /InterpretLevel3 false def}
	{/InterpretLevel1 Level1 def
	 2 gt
	    {/InterpretLevel3 Level3 def}
	    {/InterpretLevel3 false def}
	 ifelse }
 ifelse
%
% PostScript level 2 pattern fill definitions
%
/Level2PatternFill {
/Tile8x8 {/PaintType 2 /PatternType 1 /TilingType 1 /BBox [0 0 8 8] /XStep 8 /YStep 8}
	bind def
/KeepColor {currentrgbcolor [/Pattern /DeviceRGB] setcolorspace} bind def
<< Tile8x8
 /PaintProc {0.5 setlinewidth pop 0 0 M 8 8 L 0 8 M 8 0 L stroke} 
>> matrix makepattern
/Pat1 exch def
<< Tile8x8
 /PaintProc {0.5 setlinewidth pop 0 0 M 8 8 L 0 8 M 8 0 L stroke
	0 4 M 4 8 L 8 4 L 4 0 L 0 4 L stroke}
>> matrix makepattern
/Pat2 exch def
<< Tile8x8
 /PaintProc {0.5 setlinewidth pop 0 0 M 0 8 L
	8 8 L 8 0 L 0 0 L fill}
>> matrix makepattern
/Pat3 exch def
<< Tile8x8
 /PaintProc {0.5 setlinewidth pop -4 8 M 8 -4 L
	0 12 M 12 0 L stroke}
>> matrix makepattern
/Pat4 exch def
<< Tile8x8
 /PaintProc {0.5 setlinewidth pop -4 0 M 8 12 L
	0 -4 M 12 8 L stroke}
>> matrix makepattern
/Pat5 exch def
<< Tile8x8
 /PaintProc {0.5 setlinewidth pop -2 8 M 4 -4 L
	0 12 M 8 -4 L 4 12 M 10 0 L stroke}
>> matrix makepattern
/Pat6 exch def
<< Tile8x8
 /PaintProc {0.5 setlinewidth pop -2 0 M 4 12 L
	0 -4 M 8 12 L 4 -4 M 10 8 L stroke}
>> matrix makepattern
/Pat7 exch def
<< Tile8x8
 /PaintProc {0.5 setlinewidth pop 8 -2 M -4 4 L
	12 0 M -4 8 L 12 4 M 0 10 L stroke}
>> matrix makepattern
/Pat8 exch def
<< Tile8x8
 /PaintProc {0.5 setlinewidth pop 0 -2 M 12 4 L
	-4 0 M 12 8 L -4 4 M 8 10 L stroke}
>> matrix makepattern
/Pat9 exch def
/Pattern1 {PatternBgnd KeepColor Pat1 setpattern} bind def
/Pattern2 {PatternBgnd KeepColor Pat2 setpattern} bind def
/Pattern3 {PatternBgnd KeepColor Pat3 setpattern} bind def
/Pattern4 {PatternBgnd KeepColor Landscape {Pat5} {Pat4} ifelse setpattern} bind def
/Pattern5 {PatternBgnd KeepColor Landscape {Pat4} {Pat5} ifelse setpattern} bind def
/Pattern6 {PatternBgnd KeepColor Landscape {Pat9} {Pat6} ifelse setpattern} bind def
/Pattern7 {PatternBgnd KeepColor Landscape {Pat8} {Pat7} ifelse setpattern} bind def
} def
%
%
%End of PostScript Level 2 code
%
/PatternBgnd {
  TransparentPatterns {} {gsave 1 setgray fill grestore} ifelse
} def
%
% Substitute for Level 2 pattern fill codes with
% grayscale if Level 2 support is not selected.
%
/Level1PatternFill {
/Pattern1 {0.250 Density} bind def
/Pattern2 {0.500 Density} bind def
/Pattern3 {0.750 Density} bind def
/Pattern4 {0.125 Density} bind def
/Pattern5 {0.375 Density} bind def
/Pattern6 {0.625 Density} bind def
/Pattern7 {0.875 Density} bind def
} def
%
% Now test for support of Level 2 code
%
Level1 {Level1PatternFill} {Level2PatternFill} ifelse
%
/Symbol-Oblique /Symbol findfont [1 0 .167 1 0 0] makefont
dup length dict begin {1 index /FID eq {pop pop} {def} ifelse} forall
currentdict end definefont pop
%
/MFshow {
   { dup 5 get 3 ge
     { 5 get 3 eq {gsave} {grestore} ifelse }
     {dup dup 0 get findfont exch 1 get scalefont setfont
     [ currentpoint ] exch dup 2 get 0 exch R dup 5 get 2 ne {dup dup 6
     get exch 4 get {textshow} {stringwidth pop 0 R} ifelse }if dup 5 get 0 eq
     {dup 3 get {2 get neg 0 exch R pop} {pop aload pop M} ifelse} {dup 5
     get 1 eq {dup 2 get exch dup 3 get exch 6 get stringwidth pop -2 div
     dup 0 R} {dup 6 get stringwidth pop -2 div 0 R 6 get
     textshow 2 index {aload pop M neg 3 -1 roll neg R pop pop} {pop pop pop
     pop aload pop M} ifelse }ifelse }ifelse }
     ifelse }
   forall} def
/Gswidth {dup type /stringtype eq {stringwidth} {pop (n) stringwidth} ifelse} def
/MFwidth {0 exch { dup 5 get 3 ge { 5 get 3 eq { 0 } { pop } ifelse }
 {dup 3 get{dup dup 0 get findfont exch 1 get scalefont setfont
     6 get Gswidth pop add} {pop} ifelse} ifelse} forall} def
/MLshow { currentpoint stroke M
  0 exch R
  Blacktext {gsave 0 setgray MFshow grestore} {MFshow} ifelse } bind def
/MRshow { currentpoint stroke M
  exch dup MFwidth neg 3 -1 roll R
  Blacktext {gsave 0 setgray MFshow grestore} {MFshow} ifelse } bind def
/MCshow { currentpoint stroke M
  exch dup MFwidth -2 div 3 -1 roll R
  Blacktext {gsave 0 setgray MFshow grestore} {MFshow} ifelse } bind def
/XYsave    { [( ) 1 2 true false 3 ()] } bind def
/XYrestore { [( ) 1 2 true false 4 ()] } bind def
Level1 SuppressPDFMark or 
{} {
/SDict 10 dict def
systemdict /pdfmark known not {
  userdict /pdfmark systemdict /cleartomark get put
} if
SDict begin [
  /Title (image.eps)
  /Subject (gnuplot plot)
  /Creator (gnuplot 5.0 patchlevel 3)
  /Author (bad)
%  /Producer (gnuplot)
%  /Keywords ()
  /CreationDate (Wed Jan 31 12:36:07 2018)
  /DOCINFO pdfmark
end
} ifelse
%
% Support for boxed text - Ethan A Merritt May 2005
%
/InitTextBox { userdict /TBy2 3 -1 roll put userdict /TBx2 3 -1 roll put
           userdict /TBy1 3 -1 roll put userdict /TBx1 3 -1 roll put
	   /Boxing true def } def
/ExtendTextBox { Boxing
    { gsave dup false charpath pathbbox
      dup TBy2 gt {userdict /TBy2 3 -1 roll put} {pop} ifelse
      dup TBx2 gt {userdict /TBx2 3 -1 roll put} {pop} ifelse
      dup TBy1 lt {userdict /TBy1 3 -1 roll put} {pop} ifelse
      dup TBx1 lt {userdict /TBx1 3 -1 roll put} {pop} ifelse
      grestore } if } def
/PopTextBox { newpath TBx1 TBxmargin sub TBy1 TBymargin sub M
               TBx1 TBxmargin sub TBy2 TBymargin add L
	       TBx2 TBxmargin add TBy2 TBymargin add L
	       TBx2 TBxmargin add TBy1 TBymargin sub L closepath } def
/DrawTextBox { PopTextBox stroke /Boxing false def} def
/FillTextBox { gsave PopTextBox 1 1 1 setrgbcolor fill grestore /Boxing false def} def
0 0 0 0 InitTextBox
/TBxmargin 20 def
/TBymargin 20 def
/Boxing false def
/textshow { ExtendTextBox Gshow } def
%
% redundant definitions for compatibility with prologue.ps older than 5.0.2
/LTB {BL [] LCb DL} def
/LTb {PL [] LCb DL} def
end
%%EndProlog
%%Page: 1 1
gnudict begin
gsave
doclip
50 50 translate
0.100 0.100 scale
90 rotate
0 -5040 translate
0 setgray
newpath
(Times-Roman) findfont 240 scalefont setfont
BackgroundColor 0 lt 3 1 roll 0 lt exch 0 lt or or not {gsave BackgroundColor C clippath fill grestore} if
1.000 UL
LTb
LCb setrgbcolor
936 2916 M
31 0 V
1480 0 R
-31 0 V
936 2984 M
31 0 V
1480 0 R
-31 0 V
936 3053 M
31 0 V
1480 0 R
-31 0 V
936 3121 M
63 0 V
1448 0 R
-63 0 V
stroke
907 3121 M
[ [(Times-Roman) 200.0 0.0 true true 0 ( 1)]
] -66.7 MRshow
1.000 UL
LTb
LCb setrgbcolor
936 3189 M
31 0 V
1480 0 R
-31 0 V
936 3258 M
31 0 V
1480 0 R
-31 0 V
936 3326 M
31 0 V
1480 0 R
-31 0 V
936 3394 M
31 0 V
1480 0 R
-31 0 V
936 3463 M
63 0 V
1448 0 R
-63 0 V
stroke
907 3463 M
[ [(Times-Roman) 200.0 0.0 true true 0 ( 1.2)]
] -66.7 MRshow
1.000 UL
LTb
LCb setrgbcolor
936 3531 M
31 0 V
1480 0 R
-31 0 V
936 3599 M
31 0 V
1480 0 R
-31 0 V
936 3668 M
31 0 V
1480 0 R
-31 0 V
936 3736 M
31 0 V
1480 0 R
-31 0 V
936 3804 M
63 0 V
1448 0 R
-63 0 V
stroke
907 3804 M
[ [(Times-Roman) 200.0 0.0 true true 0 ( 1.4)]
] -66.7 MRshow
1.000 UL
LTb
LCb setrgbcolor
936 3873 M
31 0 V
1480 0 R
-31 0 V
936 3941 M
31 0 V
1480 0 R
-31 0 V
936 4009 M
31 0 V
1480 0 R
-31 0 V
936 4078 M
31 0 V
1480 0 R
-31 0 V
936 4146 M
63 0 V
1448 0 R
-63 0 V
stroke
907 4146 M
[ [(Times-Roman) 200.0 0.0 true true 0 ( 1.6)]
] -66.7 MRshow
1.000 UL
LTb
LCb setrgbcolor
1029 2899 M
0 31 V
0 1216 R
0 -31 V
1152 2899 M
0 31 V
0 1216 R
0 -31 V
1275 2899 M
0 31 V
0 1216 R
0 -31 V
1399 2899 M
0 31 V
0 1216 R
0 -31 V
1522 2899 M
0 63 V
0 1184 R
0 -63 V
stroke
1522 2779 M
[ [(Times-Roman) 10.0 0.0 true true 0 ( 0.1)]
] -3.3 MCshow
1.000 UL
LTb
LCb setrgbcolor
1645 2899 M
0 31 V
0 1216 R
0 -31 V
1769 2899 M
0 31 V
0 1216 R
0 -31 V
1892 2899 M
0 31 V
0 1216 R
0 -31 V
2015 2899 M
0 31 V
0 1216 R
0 -31 V
2139 2899 M
0 63 V
0 1184 R
0 -63 V
stroke
2139 2779 M
[ [(Times-Roman) 10.0 0.0 true true 0 ( 0.2)]
] -3.3 MCshow
1.000 UL
LTb
LCb setrgbcolor
2262 2899 M
0 31 V
0 1216 R
0 -31 V
2385 2899 M
0 31 V
0 1216 R
0 -31 V
stroke
LTB
LCb setrgbcolor
936 4146 N
0 -1247 V
1511 0 V
0 1247 V
-1511 0 V
Z stroke
1.000 UP
LCb setrgbcolor
1522 3429 M
[ [(Times-Roman) 180.0 0.0 true true 0 (Rside)]
] -60.0 MLshow
1.000 UL
LTb
LCb setrgbcolor
LCb setrgbcolor
528 3522 M
currentpoint gsave translate -270 rotate 0 0 moveto
[ [(Times-Roman) 220.0 0.0 true true 0 (C\(q\))]
] -73.3 MCshow
grestore
LTb
% Begin plot #1
1.000 UP
2.000 UL
LTb
0.34 0.71 0.91 C LCb setrgbcolor
1827 3876 M
[ [(Times-Roman) 130.0 0.0 true true 0 (CorrFunc)]
] -43.3 MRshow
1.000 UP
2.000 UL
LTb
0.34 0.71 0.91 C 1905 3876 M
156 0 V
-156 31 R
0 -62 V
156 62 R
0 -62 V
951 3439 M
0 27 V
-15 -27 R
46 0 V
-46 27 R
46 0 V
0 -27 R
0 24 V
-31 -24 R
62 0 V
-62 24 R
62 0 V
0 -11 R
0 22 V
-31 -22 R
62 0 V
-62 22 R
62 0 V
0 -1 R
0 20 V
-31 -20 R
62 0 V
-62 20 R
62 0 V
0 -40 R
0 19 V
-31 -19 R
62 0 V
-62 19 R
62 0 V
0 -47 R
0 18 V
-31 -18 R
62 0 V
-62 18 R
62 0 V
-1 -69 R
0 17 V
-31 -17 R
62 0 V
-62 17 R
62 0 V
0 -78 R
0 16 V
-31 -16 R
62 0 V
-62 16 R
62 0 V
0 -44 R
0 17 V
-31 -17 R
62 0 V
-62 17 R
62 0 V
0 -42 R
0 16 V
-31 -16 R
62 0 V
-62 16 R
62 0 V
0 -67 R
0 16 V
-31 -16 R
62 0 V
-62 16 R
62 0 V
0 -40 R
0 16 V
-31 -16 R
62 0 V
-62 16 R
62 0 V
-1 -37 R
0 16 V
-31 -16 R
62 0 V
-62 16 R
62 0 V
0 -16 R
0 16 V
-31 -16 R
62 0 V
-62 16 R
62 0 V
0 -40 R
0 16 V
-31 -16 R
62 0 V
-62 16 R
62 0 V
0 -19 R
0 16 V
-31 -16 R
62 0 V
-62 16 R
62 0 V
0 -38 R
0 16 V
-31 -16 R
62 0 V
stroke 1476 3115 M
-62 16 R
62 0 V
0 -28 R
0 16 V
-31 -16 R
62 0 V
-62 16 R
62 0 V
-1 -11 R
0 16 V
-31 -16 R
62 0 V
-62 16 R
62 0 V
0 -12 R
0 16 V
-31 -16 R
62 0 V
-62 16 R
62 0 V
0 -11 R
0 15 V
-31 -15 R
62 0 V
-62 15 R
62 0 V
0 -19 R
0 15 V
-31 -15 R
62 0 V
-62 15 R
62 0 V
0 -22 R
0 16 V
-31 -16 R
62 0 V
-62 16 R
62 0 V
0 -14 R
0 15 V
-31 -15 R
62 0 V
-62 15 R
62 0 V
0 -20 R
0 16 V
-31 -16 R
62 0 V
-62 16 R
62 0 V
-1 -4 R
0 16 V
-31 -16 R
62 0 V
-62 16 R
62 0 V
0 -20 R
0 16 V
-31 -16 R
62 0 V
-62 16 R
62 0 V
0 -12 R
0 16 V
-31 -16 R
62 0 V
-62 16 R
62 0 V
0 -24 R
0 16 V
-31 -16 R
62 0 V
-62 16 R
62 0 V
0 -7 R
0 17 V
-31 -17 R
62 0 V
-62 17 R
62 0 V
0 -27 R
0 16 V
-31 -16 R
62 0 V
-62 16 R
62 0 V
-1 -25 R
0 16 V
-31 -16 R
62 0 V
-62 16 R
62 0 V
0 -10 R
0 16 V
-31 -16 R
62 0 V
-62 16 R
62 0 V
0 -12 R
0 17 V
-31 -17 R
62 0 V
-62 17 R
62 0 V
stroke 2000 3124 M
0 -9 R
0 16 V
-31 -16 R
62 0 V
-62 16 R
62 0 V
0 -30 R
0 16 V
-31 -16 R
62 0 V
-62 16 R
62 0 V
0 -11 R
0 17 V
-31 -17 R
62 0 V
-62 17 R
62 0 V
-1 -16 R
0 16 V
-31 -16 R
62 0 V
-62 16 R
62 0 V
0 -17 R
0 16 V
-31 -16 R
62 0 V
-62 16 R
62 0 V
0 -28 R
0 16 V
-31 -16 R
62 0 V
-62 16 R
62 0 V
0 -5 R
0 17 V
-31 -17 R
62 0 V
-62 17 R
62 0 V
0 -26 R
0 17 V
-31 -17 R
62 0 V
-62 17 R
62 0 V
0 3 R
0 17 V
-31 -17 R
62 0 V
-62 17 R
62 0 V
-1 -31 R
0 17 V
-31 -17 R
62 0 V
-62 17 R
62 0 V
0 -22 R
0 17 V
-31 -17 R
62 0 V
-62 17 R
62 0 V
0 -3 R
0 17 V
-31 -17 R
62 0 V
-62 17 R
62 0 V
0 -23 R
0 18 V
-31 -18 R
62 0 V
-62 18 R
62 0 V
0 -11 R
0 18 V
-31 -18 R
62 0 V
-62 18 R
62 0 V
0 -14 R
0 17 V
-31 -17 R
46 0 V
-46 17 R
46 0 V
951 3452 TriU
982 3451 TriU
1013 3463 TriU
1044 3483 TriU
1075 3463 TriU
1106 3434 TriU
1136 3382 TriU
1167 3321 TriU
1198 3294 TriU
1229 3268 TriU
1260 3217 TriU
1291 3193 TriU
1321 3172 TriU
1352 3172 TriU
1383 3148 TriU
1414 3145 TriU
1445 3123 TriU
1476 3111 TriU
1506 3116 TriU
1537 3120 TriU
1568 3124 TriU
1599 3120 TriU
1630 3114 TriU
1661 3115 TriU
1692 3111 TriU
1722 3123 TriU
1753 3119 TriU
1784 3123 TriU
1815 3115 TriU
1846 3124 TriU
1877 3114 TriU
1907 3105 TriU
1938 3111 TriU
1969 3116 TriU
2000 3123 TriU
2031 3109 TriU
2062 3115 TriU
2092 3115 TriU
2123 3114 TriU
2154 3102 TriU
2185 3114 TriU
2216 3105 TriU
2247 3124 TriU
2277 3110 TriU
2308 3106 TriU
2339 3119 TriU
2370 3114 TriU
2401 3121 TriU
2432 3124 TriU
1983 3876 TriU
% End plot #1
% Begin plot #2
2.400 UL
LTb
0.58 0.00 0.83 C LCb setrgbcolor
1827 3746 M
[ [(Times-Roman) 130.0 0.0 true true 0 (3DFit)]
] -43.3 MRshow
2.400 UL
LTb
0.58 0.00 0.83 C 1905 3746 M
156 0 V
936 3636 M
15 -6 V
31 -22 V
31 -33 V
31 -39 V
31 -44 V
31 -48 V
30 -48 V
31 -46 V
31 -44 V
31 -38 V
31 -34 V
31 -28 V
30 -23 V
31 -18 V
31 -15 V
31 -10 V
31 -7 V
31 -7 V
30 -3 V
31 -3 V
31 -2 V
31 -1 V
31 0 V
31 -1 V
31 0 V
30 0 V
31 0 V
31 0 V
31 0 V
31 0 V
31 0 V
30 0 V
31 0 V
31 0 V
31 0 V
31 0 V
31 0 V
30 0 V
31 0 V
31 0 V
31 0 V
31 0 V
31 0 V
30 0 V
31 0 V
31 0 V
31 0 V
31 0 V
31 0 V
15 0 V
% End plot #2
stroke
2.000 UL
LTb
LCb setrgbcolor
1.000 UL
LTB
LCb setrgbcolor
936 4146 N
0 -1247 V
1511 0 V
0 1247 V
-1511 0 V
Z stroke
1.000 UP
1.000 UL
LTb
LCb setrgbcolor
1.000 UL
LTb
LCb setrgbcolor
2448 2916 M
31 0 V
1480 0 R
-31 0 V
-1480 68 R
31 0 V
1480 0 R
-31 0 V
-1480 69 R
31 0 V
1480 0 R
-31 0 V
-1480 68 R
63 0 V
1448 0 R
-63 0 V
stroke
2419 3121 M
[ [(Times-Roman) 10.0 0.0 true true 0 ( 1)]
] -3.3 MRshow
1.000 UL
LTb
LCb setrgbcolor
2448 3189 M
31 0 V
1480 0 R
-31 0 V
-1480 69 R
31 0 V
1480 0 R
-31 0 V
-1480 68 R
31 0 V
1480 0 R
-31 0 V
-1480 68 R
31 0 V
1480 0 R
-31 0 V
-1480 69 R
63 0 V
1448 0 R
-63 0 V
stroke
2419 3463 M
[ [(Times-Roman) 10.0 0.0 true true 0 ( 1.2)]
] -3.3 MRshow
1.000 UL
LTb
LCb setrgbcolor
2448 3531 M
31 0 V
1480 0 R
-31 0 V
-1480 68 R
31 0 V
1480 0 R
-31 0 V
-1480 69 R
31 0 V
1480 0 R
-31 0 V
-1480 68 R
31 0 V
1480 0 R
-31 0 V
-1480 68 R
63 0 V
1448 0 R
-63 0 V
stroke
2419 3804 M
[ [(Times-Roman) 10.0 0.0 true true 0 ( 1.4)]
] -3.3 MRshow
1.000 UL
LTb
LCb setrgbcolor
2448 3873 M
31 0 V
1480 0 R
-31 0 V
-1480 68 R
31 0 V
1480 0 R
-31 0 V
-1480 68 R
31 0 V
1480 0 R
-31 0 V
-1480 69 R
31 0 V
1480 0 R
-31 0 V
-1480 68 R
63 0 V
1448 0 R
-63 0 V
stroke
2419 4146 M
[ [(Times-Roman) 10.0 0.0 true true 0 ( 1.6)]
] -3.3 MRshow
1.000 UL
LTb
LCb setrgbcolor
2541 2899 M
0 31 V
0 1216 R
0 -31 V
2664 2899 M
0 31 V
0 1216 R
0 -31 V
2787 2899 M
0 31 V
0 1216 R
0 -31 V
2911 2899 M
0 31 V
0 1216 R
0 -31 V
3034 2899 M
0 63 V
0 1184 R
0 -63 V
stroke
3034 2779 M
[ [(Times-Roman) 10.0 0.0 true true 0 ( 0.1)]
] -3.3 MCshow
1.000 UL
LTb
LCb setrgbcolor
3157 2899 M
0 31 V
0 1216 R
0 -31 V
3281 2899 M
0 31 V
0 1216 R
0 -31 V
3404 2899 M
0 31 V
0 1216 R
0 -31 V
3527 2899 M
0 31 V
0 1216 R
0 -31 V
3651 2899 M
0 63 V
0 1184 R
0 -63 V
stroke
3651 2779 M
[ [(Times-Roman) 10.0 0.0 true true 0 ( 0.2)]
] -3.3 MCshow
1.000 UL
LTb
LCb setrgbcolor
3774 2899 M
0 31 V
0 1216 R
0 -31 V
3897 2899 M
0 31 V
0 1216 R
0 -31 V
stroke
LTB
LCb setrgbcolor
2448 4146 N
0 -1247 V
1511 0 V
0 1247 V
-1511 0 V
Z stroke
1.000 UP
LCb setrgbcolor
3034 3429 M
[ [(Times-Roman) 180.0 0.0 true true 0 (Rside)]
] -60.0 MLshow
1.000 UL
LTb
LCb setrgbcolor
LCb setrgbcolor
2040 3522 M
currentpoint gsave translate -270 rotate 0 0 moveto
[ [(Times-Roman) 10.0 0.0 true true 0 (C\(q\))]
] -3.3 MCshow
grestore
LTb
% Begin plot #1
1.000 UP
2.000 UL
LTb
0.34 0.71 0.91 C LCb setrgbcolor
10739 -7165 M
[ [(Times-Roman) 130.0 0.0 true true 0 (CorrFunc)]
] -43.3 MRshow
1.000 UP
2.000 UL
LTb
0.34 0.71 0.91 C 10817 -7165 M
156 0 V
-156 31 R
0 -62 V
156 62 R
0 -62 V
2463 3583 M
0 39 V
-15 -39 R
46 0 V
-46 39 R
46 0 V
0 -16 R
0 35 V
-31 -35 R
62 0 V
-62 35 R
62 0 V
0 -55 R
0 30 V
-31 -30 R
62 0 V
-62 30 R
62 0 V
0 -36 R
0 28 V
-31 -28 R
62 0 V
-62 28 R
62 0 V
0 -42 R
0 26 V
-31 -26 R
62 0 V
-62 26 R
62 0 V
0 -80 R
0 24 V
-31 -24 R
62 0 V
-62 24 R
62 0 V
-1 -92 R
0 24 V
-31 -24 R
62 0 V
-62 24 R
62 0 V
0 -84 R
0 24 V
-31 -24 R
62 0 V
-62 24 R
62 0 V
0 -49 R
0 23 V
-31 -23 R
62 0 V
-62 23 R
62 0 V
0 -98 R
0 23 V
-31 -23 R
62 0 V
-62 23 R
62 0 V
0 -42 R
0 23 V
-31 -23 R
62 0 V
-62 23 R
62 0 V
0 -55 R
0 22 V
-31 -22 R
62 0 V
-62 22 R
62 0 V
-1 -53 R
0 22 V
-31 -22 R
62 0 V
-62 22 R
62 0 V
0 -49 R
0 22 V
-31 -22 R
62 0 V
-62 22 R
62 0 V
0 -47 R
0 21 V
-31 -21 R
62 0 V
-62 21 R
62 0 V
0 -23 R
0 22 V
-31 -22 R
62 0 V
-62 22 R
62 0 V
0 -24 R
0 22 V
-31 -22 R
62 0 V
stroke 2988 3146 M
-62 22 R
62 0 V
0 -41 R
0 22 V
-31 -22 R
62 0 V
-62 22 R
62 0 V
-1 -59 R
0 21 V
-31 -21 R
62 0 V
-62 21 R
62 0 V
0 -10 R
0 22 V
-31 -22 R
62 0 V
-62 22 R
62 0 V
0 6 R
0 22 V
-31 -22 R
62 0 V
-62 22 R
62 0 V
0 -43 R
0 21 V
-31 -21 R
62 0 V
-62 21 R
62 0 V
0 -31 R
0 21 V
-31 -21 R
62 0 V
-62 21 R
62 0 V
0 -25 R
0 22 V
-31 -22 R
62 0 V
-62 22 R
62 0 V
0 -4 R
0 22 V
-31 -22 R
62 0 V
-62 22 R
62 0 V
-1 -17 R
0 22 V
-31 -22 R
62 0 V
-62 22 R
62 0 V
0 -24 R
0 22 V
-31 -22 R
62 0 V
-62 22 R
62 0 V
0 -25 R
0 22 V
-31 -22 R
62 0 V
-62 22 R
62 0 V
0 -26 R
0 22 V
-31 -22 R
62 0 V
-62 22 R
62 0 V
0 -13 R
0 22 V
-31 -22 R
62 0 V
-62 22 R
62 0 V
0 -22 R
0 22 V
-31 -22 R
62 0 V
-62 22 R
62 0 V
-1 -35 R
0 22 V
-31 -22 R
62 0 V
-62 22 R
62 0 V
0 -39 R
0 23 V
-31 -23 R
62 0 V
-62 23 R
62 0 V
0 10 R
0 23 V
-31 -23 R
62 0 V
-62 23 R
62 0 V
stroke 3512 3143 M
0 -32 R
0 23 V
-31 -23 R
62 0 V
-62 23 R
62 0 V
0 -19 R
0 23 V
-31 -23 R
62 0 V
-62 23 R
62 0 V
0 -41 R
0 23 V
-31 -23 R
62 0 V
-62 23 R
62 0 V
-1 5 R
0 23 V
-31 -23 R
62 0 V
-62 23 R
62 0 V
0 -45 R
0 23 V
-31 -23 R
62 0 V
-62 23 R
62 0 V
0 -30 R
0 24 V
-31 -24 R
62 0 V
-62 24 R
62 0 V
0 23 V
-31 -23 R
62 0 V
-62 23 R
62 0 V
0 -20 R
0 24 V
-31 -24 R
62 0 V
-62 24 R
62 0 V
0 -60 R
0 24 V
-31 -24 R
62 0 V
-62 24 R
62 0 V
-1 12 R
0 24 V
-31 -24 R
62 0 V
-62 24 R
62 0 V
0 -43 R
0 24 V
-31 -24 R
62 0 V
-62 24 R
62 0 V
0 -10 R
0 24 V
-31 -24 R
62 0 V
-62 24 R
62 0 V
0 -28 R
0 24 V
-31 -24 R
62 0 V
-62 24 R
62 0 V
0 -54 R
0 24 V
-31 -24 R
62 0 V
-62 24 R
62 0 V
0 11 R
0 25 V
-31 -25 R
46 0 V
-46 25 R
46 0 V
2463 3603 TriU
2494 3623 TriU
2525 3601 TriU
2556 3594 TriU
2587 3579 TriU
2618 3524 TriU
2648 3456 TriU
2679 3396 TriU
2710 3370 TriU
2741 3295 TriU
2772 3277 TriU
2803 3244 TriU
2833 3213 TriU
2864 3186 TriU
2895 3160 TriU
2926 3159 TriU
2957 3157 TriU
2988 3138 TriU
3018 3100 TriU
3049 3112 TriU
3080 3140 TriU
3111 3119 TriU
3142 3108 TriU
3173 3105 TriU
3204 3123 TriU
3234 3128 TriU
3265 3126 TriU
3296 3123 TriU
3327 3119 TriU
3358 3128 TriU
3389 3128 TriU
3419 3115 TriU
3450 3098 TriU
3481 3131 TriU
3512 3123 TriU
3543 3126 TriU
3574 3109 TriU
3604 3136 TriU
3635 3114 TriU
3666 3108 TriU
3697 3131 TriU
3728 3135 TriU
3759 3099 TriU
3789 3135 TriU
3820 3116 TriU
3851 3130 TriU
3882 3126 TriU
3913 3096 TriU
3944 3131 TriU
10895 -7165 TriU
% End plot #1
% Begin plot #2
2.400 UL
LTb
0.58 0.00 0.83 C LCb setrgbcolor
10739 -7243 M
[ [(Times-Roman) 130.0 0.0 true true 0 (3DFit)]
] -43.3 MRshow
2.400 UL
LTb
0.58 0.00 0.83 C 10817 -7243 M
156 0 V
2448 3774 M
15 -7 V
31 -26 V
31 -36 V
31 -46 V
31 -51 V
31 -56 V
30 -57 V
31 -56 V
31 -53 V
31 -50 V
31 -42 V
31 -38 V
30 -32 V
31 -26 V
31 -21 V
31 -17 V
31 -12 V
31 -10 V
30 -5 V
31 -5 V
31 -4 V
31 -1 V
31 -2 V
31 -1 V
31 -1 V
30 0 V
31 -1 V
31 0 V
31 0 V
31 0 V
31 0 V
30 0 V
31 0 V
31 0 V
31 0 V
31 0 V
31 0 V
30 0 V
31 0 V
31 0 V
31 0 V
31 0 V
31 0 V
30 0 V
31 0 V
31 0 V
31 0 V
31 0 V
31 0 V
15 0 V
% End plot #2
stroke
2.000 UL
LTb
LCb setrgbcolor
1.000 UL
LTB
LCb setrgbcolor
2448 4146 N
0 -1247 V
1511 0 V
0 1247 V
-1511 0 V
Z stroke
1.000 UP
1.000 UL
LTb
LCb setrgbcolor
1.000 UL
LTb
LCb setrgbcolor
3960 2916 M
31 0 V
1480 0 R
-31 0 V
-1480 68 R
31 0 V
1480 0 R
-31 0 V
-1480 69 R
31 0 V
1480 0 R
-31 0 V
-1480 68 R
63 0 V
1448 0 R
-63 0 V
stroke
3931 3121 M
[ [(Times-Roman) 10.0 0.0 true true 0 ( 1)]
] -3.3 MRshow
1.000 UL
LTb
LCb setrgbcolor
3960 3189 M
31 0 V
1480 0 R
-31 0 V
-1480 69 R
31 0 V
1480 0 R
-31 0 V
-1480 68 R
31 0 V
1480 0 R
-31 0 V
-1480 68 R
31 0 V
1480 0 R
-31 0 V
-1480 69 R
63 0 V
1448 0 R
-63 0 V
stroke
3931 3463 M
[ [(Times-Roman) 10.0 0.0 true true 0 ( 1.2)]
] -3.3 MRshow
1.000 UL
LTb
LCb setrgbcolor
3960 3531 M
31 0 V
1480 0 R
-31 0 V
-1480 68 R
31 0 V
1480 0 R
-31 0 V
-1480 69 R
31 0 V
1480 0 R
-31 0 V
-1480 68 R
31 0 V
1480 0 R
-31 0 V
-1480 68 R
63 0 V
1448 0 R
-63 0 V
stroke
3931 3804 M
[ [(Times-Roman) 10.0 0.0 true true 0 ( 1.4)]
] -3.3 MRshow
1.000 UL
LTb
LCb setrgbcolor
3960 3873 M
31 0 V
1480 0 R
-31 0 V
-1480 68 R
31 0 V
1480 0 R
-31 0 V
-1480 68 R
31 0 V
1480 0 R
-31 0 V
-1480 69 R
31 0 V
1480 0 R
-31 0 V
-1480 68 R
63 0 V
1448 0 R
-63 0 V
stroke
3931 4146 M
[ [(Times-Roman) 10.0 0.0 true true 0 ( 1.6)]
] -3.3 MRshow
1.000 UL
LTb
LCb setrgbcolor
4053 2899 M
0 31 V
0 1216 R
0 -31 V
4176 2899 M
0 31 V
0 1216 R
0 -31 V
4299 2899 M
0 31 V
0 1216 R
0 -31 V
4423 2899 M
0 31 V
0 1216 R
0 -31 V
4546 2899 M
0 63 V
0 1184 R
0 -63 V
stroke
4546 2779 M
[ [(Times-Roman) 10.0 0.0 true true 0 ( 0.1)]
] -3.3 MCshow
1.000 UL
LTb
LCb setrgbcolor
4669 2899 M
0 31 V
0 1216 R
0 -31 V
4793 2899 M
0 31 V
0 1216 R
0 -31 V
4916 2899 M
0 31 V
0 1216 R
0 -31 V
5039 2899 M
0 31 V
0 1216 R
0 -31 V
5163 2899 M
0 63 V
0 1184 R
0 -63 V
stroke
5163 2779 M
[ [(Times-Roman) 10.0 0.0 true true 0 ( 0.2)]
] -3.3 MCshow
1.000 UL
LTb
LCb setrgbcolor
5286 2899 M
0 31 V
0 1216 R
0 -31 V
5409 2899 M
0 31 V
0 1216 R
0 -31 V
stroke
LTB
LCb setrgbcolor
3960 4146 N
0 -1247 V
1511 0 V
0 1247 V
-1511 0 V
Z stroke
1.000 UP
LCb setrgbcolor
4546 3429 M
[ [(Times-Roman) 180.0 0.0 true true 0 (Rside)]
] -60.0 MLshow
1.000 UL
LTb
LCb setrgbcolor
LCb setrgbcolor
3552 3522 M
currentpoint gsave translate -270 rotate 0 0 moveto
[ [(Times-Roman) 10.0 0.0 true true 0 (C\(q\))]
] -3.3 MCshow
grestore
LTb
% Begin plot #1
1.000 UP
2.000 UL
LTb
0.34 0.71 0.91 C LCb setrgbcolor
12251 -7158 M
[ [(Times-Roman) 130.0 0.0 true true 0 (CorrFunc)]
] -43.3 MRshow
1.000 UP
2.000 UL
LTb
0.34 0.71 0.91 C 12329 -7158 M
156 0 V
-156 31 R
0 -62 V
156 62 R
0 -62 V
3975 3739 M
0 59 V
-15 -59 R
46 0 V
-46 59 R
46 0 V
0 -76 R
0 52 V
-31 -52 R
62 0 V
-62 52 R
62 0 V
0 -71 R
0 45 V
-31 -45 R
62 0 V
-62 45 R
62 0 V
0 2 R
0 40 V
-31 -40 R
62 0 V
-62 40 R
62 0 V
0 -91 R
0 36 V
-31 -36 R
62 0 V
-62 36 R
62 0 V
0 -127 R
0 34 V
-31 -34 R
62 0 V
-62 34 R
62 0 V
-1 -90 R
0 33 V
-31 -33 R
62 0 V
-62 33 R
62 0 V
0 -91 R
0 33 V
-31 -33 R
62 0 V
-62 33 R
62 0 V
0 -87 R
0 32 V
-31 -32 R
62 0 V
-62 32 R
62 0 V
0 -94 R
0 32 V
-31 -32 R
62 0 V
-62 32 R
62 0 V
0 -83 R
0 32 V
-31 -32 R
62 0 V
-62 32 R
62 0 V
0 -84 R
0 31 V
-31 -31 R
62 0 V
-62 31 R
62 0 V
-1 -67 R
0 31 V
-31 -31 R
62 0 V
-62 31 R
62 0 V
0 -79 R
0 31 V
-31 -31 R
62 0 V
-62 31 R
62 0 V
0 -27 R
0 30 V
-31 -30 R
62 0 V
-62 30 R
62 0 V
0 -78 R
0 30 V
-31 -30 R
62 0 V
-62 30 R
62 0 V
0 -33 R
0 30 V
-31 -30 R
62 0 V
stroke 4500 3144 M
-62 30 R
62 0 V
0 -12 R
0 30 V
-31 -30 R
62 0 V
-62 30 R
62 0 V
-1 -69 R
0 30 V
-31 -30 R
62 0 V
-62 30 R
62 0 V
0 -31 R
0 29 V
-31 -29 R
62 0 V
-62 29 R
62 0 V
0 -33 R
0 30 V
-31 -30 R
62 0 V
-62 30 R
62 0 V
0 -32 R
0 30 V
-31 -30 R
62 0 V
-62 30 R
62 0 V
0 -42 R
0 30 V
-31 -30 R
62 0 V
-62 30 R
62 0 V
0 -34 R
0 30 V
-31 -30 R
62 0 V
-62 30 R
62 0 V
0 -29 R
0 30 V
-31 -30 R
62 0 V
-62 30 R
62 0 V
-1 -35 R
0 30 V
-31 -30 R
62 0 V
-62 30 R
62 0 V
0 31 V
-31 -31 R
62 0 V
-62 31 R
62 0 V
0 -46 R
0 30 V
-31 -30 R
62 0 V
-62 30 R
62 0 V
0 -28 R
0 30 V
-31 -30 R
62 0 V
-62 30 R
62 0 V
0 -38 R
0 31 V
-31 -31 R
62 0 V
-62 31 R
62 0 V
0 -28 R
0 30 V
-31 -30 R
62 0 V
-62 30 R
62 0 V
-1 -19 R
0 31 V
-31 -31 R
62 0 V
-62 31 R
62 0 V
0 -60 R
0 31 V
-31 -31 R
62 0 V
-62 31 R
62 0 V
0 -31 R
0 31 V
-31 -31 R
62 0 V
-62 31 R
62 0 V
0 -21 R
0 31 V
stroke 5024 3131 M
-31 -31 R
62 0 V
-62 31 R
62 0 V
0 -29 R
0 30 V
-31 -30 R
62 0 V
-62 30 R
62 0 V
0 -29 R
0 30 V
-31 -30 R
62 0 V
-62 30 R
62 0 V
-1 -39 R
0 31 V
-31 -31 R
62 0 V
-62 31 R
62 0 V
0 -31 R
0 31 V
-31 -31 R
62 0 V
-62 31 R
62 0 V
0 -18 R
0 31 V
-31 -31 R
62 0 V
-62 31 R
62 0 V
0 -38 R
0 31 V
-31 -31 R
62 0 V
-62 31 R
62 0 V
0 -21 R
0 32 V
-31 -32 R
62 0 V
-62 32 R
62 0 V
0 -30 R
0 32 V
-31 -32 R
62 0 V
-62 32 R
62 0 V
-1 -68 R
0 32 V
-31 -32 R
62 0 V
-62 32 R
62 0 V
0 -1 R
0 32 V
-31 -32 R
62 0 V
-62 32 R
62 0 V
0 -32 R
0 32 V
-31 -32 R
62 0 V
-62 32 R
62 0 V
0 -39 R
0 32 V
-31 -32 R
62 0 V
-62 32 R
62 0 V
0 -28 R
0 32 V
-31 -32 R
62 0 V
-62 32 R
62 0 V
0 -33 R
0 32 V
-31 -32 R
46 0 V
-46 32 R
46 0 V
3975 3768 TriU
4006 3748 TriU
4037 3726 TriU
4068 3770 TriU
4099 3717 TriU
4130 3625 TriU
4160 3569 TriU
4191 3511 TriU
4222 3456 TriU
4253 3394 TriU
4284 3343 TriU
4315 3290 TriU
4345 3254 TriU
4376 3206 TriU
4407 3210 TriU
4438 3162 TriU
4469 3159 TriU
4500 3177 TriU
4530 3138 TriU
4561 3136 TriU
4592 3133 TriU
4623 3131 TriU
4654 3119 TriU
4685 3115 TriU
4716 3116 TriU
4746 3111 TriU
4777 3142 TriU
4808 3126 TriU
4839 3128 TriU
4870 3120 TriU
4901 3123 TriU
4931 3135 TriU
4962 3106 TriU
4993 3106 TriU
5024 3116 TriU
5055 3117 TriU
5086 3118 TriU
5116 3109 TriU
5147 3110 TriU
5178 3123 TriU
5209 3116 TriU
5240 3126 TriU
5271 3128 TriU
5301 3092 TriU
5332 3123 TriU
5363 3123 TriU
5394 3116 TriU
5425 3120 TriU
5456 3119 TriU
12407 -7158 TriU
% End plot #1
% Begin plot #2
2.400 UL
LTb
0.58 0.00 0.83 C LCb setrgbcolor
12251 -7223 M
[ [(Times-Roman) 130.0 0.0 true true 0 (3DFit)]
] -43.3 MRshow
2.400 UL
LTb
0.58 0.00 0.83 C 12329 -7223 M
156 0 V
3960 3866 M
15 -7 V
31 -24 V
31 -37 V
31 -47 V
31 -51 V
31 -58 V
30 -60 V
31 -61 V
31 -58 V
31 -55 V
31 -51 V
31 -45 V
30 -39 V
31 -34 V
31 -27 V
31 -23 V
31 -18 V
31 -14 V
30 -12 V
31 -9 V
31 -5 V
31 -5 V
31 -2 V
31 -3 V
31 -1 V
30 -1 V
31 0 V
31 -1 V
31 0 V
31 0 V
31 0 V
30 0 V
31 0 V
31 0 V
31 0 V
31 0 V
31 0 V
30 0 V
31 0 V
31 0 V
31 0 V
31 0 V
31 0 V
30 0 V
31 0 V
31 0 V
31 0 V
31 0 V
31 0 V
15 0 V
% End plot #2
stroke
2.000 UL
LTb
LCb setrgbcolor
1.000 UL
LTB
LCb setrgbcolor
3960 4146 N
0 -1247 V
1511 0 V
0 1247 V
-1511 0 V
Z stroke
1.000 UP
1.000 UL
LTb
LCb setrgbcolor
1.000 UL
LTb
LCb setrgbcolor
5472 2916 M
31 0 V
1479 0 R
-31 0 V
-1479 68 R
31 0 V
1479 0 R
-31 0 V
-1479 69 R
31 0 V
1479 0 R
-31 0 V
-1479 68 R
63 0 V
1447 0 R
-63 0 V
stroke
5443 3121 M
[ [(Times-Roman) 10.0 0.0 true true 0 ( 1)]
] -3.3 MRshow
1.000 UL
LTb
LCb setrgbcolor
5472 3189 M
31 0 V
1479 0 R
-31 0 V
-1479 69 R
31 0 V
1479 0 R
-31 0 V
-1479 68 R
31 0 V
1479 0 R
-31 0 V
-1479 68 R
31 0 V
1479 0 R
-31 0 V
-1479 69 R
63 0 V
1447 0 R
-63 0 V
stroke
5443 3463 M
[ [(Times-Roman) 10.0 0.0 true true 0 ( 1.2)]
] -3.3 MRshow
1.000 UL
LTb
LCb setrgbcolor
5472 3531 M
31 0 V
1479 0 R
-31 0 V
-1479 68 R
31 0 V
1479 0 R
-31 0 V
-1479 69 R
31 0 V
1479 0 R
-31 0 V
-1479 68 R
31 0 V
1479 0 R
-31 0 V
-1479 68 R
63 0 V
1447 0 R
-63 0 V
stroke
5443 3804 M
[ [(Times-Roman) 10.0 0.0 true true 0 ( 1.4)]
] -3.3 MRshow
1.000 UL
LTb
LCb setrgbcolor
5472 3873 M
31 0 V
1479 0 R
-31 0 V
-1479 68 R
31 0 V
1479 0 R
-31 0 V
-1479 68 R
31 0 V
1479 0 R
-31 0 V
-1479 69 R
31 0 V
1479 0 R
-31 0 V
-1479 68 R
63 0 V
1447 0 R
-63 0 V
stroke
5443 4146 M
[ [(Times-Roman) 10.0 0.0 true true 0 ( 1.6)]
] -3.3 MRshow
1.000 UL
LTb
LCb setrgbcolor
5564 2899 M
0 31 V
0 1216 R
0 -31 V
5688 2899 M
0 31 V
0 1216 R
0 -31 V
5811 2899 M
0 31 V
0 1216 R
0 -31 V
5934 2899 M
0 31 V
0 1216 R
0 -31 V
6058 2899 M
0 63 V
0 1184 R
0 -63 V
stroke
6058 2779 M
[ [(Times-Roman) 10.0 0.0 true true 0 ( 0.1)]
] -3.3 MCshow
1.000 UL
LTb
LCb setrgbcolor
6181 2899 M
0 31 V
0 1216 R
0 -31 V
6304 2899 M
0 31 V
0 1216 R
0 -31 V
6427 2899 M
0 31 V
0 1216 R
0 -31 V
6551 2899 M
0 31 V
0 1216 R
0 -31 V
6674 2899 M
0 63 V
0 1184 R
0 -63 V
stroke
6674 2779 M
[ [(Times-Roman) 10.0 0.0 true true 0 ( 0.2)]
] -3.3 MCshow
1.000 UL
LTb
LCb setrgbcolor
6797 2899 M
0 31 V
0 1216 R
0 -31 V
6920 2899 M
0 31 V
0 1216 R
0 -31 V
stroke
LTB
LCb setrgbcolor
5472 4146 N
0 -1247 V
1510 0 V
0 1247 V
-1510 0 V
Z stroke
1.000 UP
LCb setrgbcolor
6058 3429 M
[ [(Times-Roman) 180.0 0.0 true true 0 (Rside)]
] -60.0 MLshow
1.000 UL
LTb
LCb setrgbcolor
LCb setrgbcolor
5064 3522 M
currentpoint gsave translate -270 rotate 0 0 moveto
[ [(Times-Roman) 10.0 0.0 true true 0 (C\(q\))]
] -3.3 MCshow
grestore
LTb
% Begin plot #1
1.000 UP
2.000 UL
LTb
0.34 0.71 0.91 C LCb setrgbcolor
13758 -7158 M
[ [(Times-Roman) 130.0 0.0 true true 0 (CorrFunc)]
] -43.3 MRshow
1.000 UP
2.000 UL
LTb
0.34 0.71 0.91 C 13836 -7158 M
156 0 V
-156 31 R
0 -62 V
156 62 R
0 -62 V
5487 3728 M
0 146 V
-15 -146 R
46 0 V
-46 146 R
46 0 V
0 -208 R
0 127 V
-31 -127 R
62 0 V
-62 127 R
62 0 V
0 23 R
0 110 V
-31 -110 R
62 0 V
-62 110 R
62 0 V
0 -214 R
0 86 V
-31 -86 R
62 0 V
-62 86 R
62 0 V
0 -5 R
0 71 V
-31 -71 R
62 0 V
-62 71 R
62 0 V
-1 -91 R
0 60 V
-31 -60 R
62 0 V
-62 60 R
62 0 V
0 -224 R
0 52 V
-31 -52 R
62 0 V
-62 52 R
62 0 V
0 -51 R
0 51 V
-31 -51 R
62 0 V
-62 51 R
62 0 V
0 -120 R
0 49 V
-31 -49 R
62 0 V
-62 49 R
62 0 V
0 -132 R
0 47 V
-31 -47 R
62 0 V
-62 47 R
62 0 V
0 -134 R
0 46 V
-31 -46 R
62 0 V
-62 46 R
62 0 V
-1 7 R
0 47 V
-31 -47 R
62 0 V
-62 47 R
62 0 V
0 -124 R
0 47 V
-31 -47 R
62 0 V
-62 47 R
62 0 V
0 -133 R
0 45 V
-31 -45 R
62 0 V
-62 45 R
62 0 V
0 -47 R
0 45 V
-31 -45 R
62 0 V
-62 45 R
62 0 V
0 -104 R
0 44 V
-31 -44 R
62 0 V
-62 44 R
62 0 V
-1 -19 R
0 45 V
-31 -45 R
62 0 V
stroke 6011 3225 M
-62 45 R
62 0 V
0 -159 R
0 44 V
-31 -44 R
62 0 V
-62 44 R
62 0 V
0 44 V
-31 -44 R
62 0 V
-62 44 R
62 0 V
0 -50 R
0 44 V
-31 -44 R
62 0 V
-62 44 R
62 0 V
0 -43 R
0 44 V
-31 -44 R
62 0 V
-62 44 R
62 0 V
0 -100 R
0 43 V
-31 -43 R
62 0 V
-62 43 R
62 0 V
-1 -27 R
0 43 V
-31 -43 R
62 0 V
-62 43 R
62 0 V
0 -66 R
0 43 V
-31 -43 R
62 0 V
-62 43 R
62 0 V
0 -35 R
0 44 V
-31 -44 R
62 0 V
-62 44 R
62 0 V
0 -11 R
0 44 V
-31 -44 R
62 0 V
-62 44 R
62 0 V
0 -88 R
0 44 V
-31 -44 R
62 0 V
-62 44 R
62 0 V
-1 -33 R
0 44 V
-31 -44 R
62 0 V
-62 44 R
62 0 V
0 -16 R
0 44 V
-31 -44 R
62 0 V
-62 44 R
62 0 V
0 -5 R
0 45 V
-31 -45 R
62 0 V
-62 45 R
62 0 V
0 -127 R
0 44 V
-31 -44 R
62 0 V
-62 44 R
62 0 V
0 -30 R
0 44 V
-31 -44 R
62 0 V
-62 44 R
62 0 V
0 -14 R
0 45 V
-31 -45 R
62 0 V
-62 45 R
62 0 V
-1 -86 R
0 44 V
-31 -44 R
62 0 V
-62 44 R
62 0 V
0 -28 R
0 43 V
stroke 6535 3142 M
-31 -43 R
62 0 V
-62 43 R
62 0 V
0 -66 R
0 44 V
-31 -44 R
62 0 V
-62 44 R
62 0 V
0 -4 R
0 45 V
-31 -45 R
62 0 V
-62 45 R
62 0 V
0 -37 R
0 45 V
-31 -45 R
62 0 V
-62 45 R
62 0 V
-1 -65 R
0 45 V
-31 -45 R
62 0 V
-62 45 R
62 0 V
0 -51 R
0 44 V
-31 -44 R
62 0 V
-62 44 R
62 0 V
0 -67 R
0 44 V
-31 -44 R
62 0 V
-62 44 R
62 0 V
0 -30 R
0 45 V
-31 -45 R
62 0 V
-62 45 R
62 0 V
0 -65 R
0 45 V
-31 -45 R
62 0 V
-62 45 R
62 0 V
0 -10 R
0 45 V
-31 -45 R
62 0 V
-62 45 R
62 0 V
-1 -62 R
0 45 V
-31 -45 R
62 0 V
-62 45 R
62 0 V
0 -17 R
0 46 V
-31 -46 R
62 0 V
-62 46 R
62 0 V
0 -56 R
0 46 V
-31 -46 R
62 0 V
-62 46 R
62 0 V
0 -74 R
0 45 V
-31 -45 R
62 0 V
-62 45 R
62 0 V
0 -22 R
0 46 V
-31 -46 R
46 0 V
-46 46 R
46 0 V
5487 3801 TriU
5518 3729 TriU
5549 3871 TriU
5580 3755 TriU
5611 3828 TriU
5641 3803 TriU
5672 3635 TriU
5703 3635 TriU
5734 3565 TriU
5765 3482 TriU
5796 3394 TriU
5826 3447 TriU
5857 3370 TriU
5888 3283 TriU
5919 3282 TriU
5950 3222 TriU
5980 3247 TriU
6011 3133 TriU
6042 3177 TriU
6073 3171 TriU
6104 3172 TriU
6135 3115 TriU
6165 3131 TriU
6196 3109 TriU
6227 3117 TriU
6258 3150 TriU
6289 3106 TriU
6319 3117 TriU
6350 3145 TriU
6381 3184 TriU
6412 3102 TriU
6443 3116 TriU
6474 3147 TriU
6504 3105 TriU
6535 3121 TriU
6566 3098 TriU
6597 3138 TriU
6628 3147 TriU
6658 3126 TriU
6689 3120 TriU
6720 3097 TriU
6751 3112 TriU
6782 3091 TriU
6813 3126 TriU
6843 3109 TriU
6874 3138 TriU
6905 3128 TriU
6936 3100 TriU
6967 3123 TriU
13914 -7158 TriU
% End plot #1
% Begin plot #2
2.400 UL
LTb
0.58 0.00 0.83 C LCb setrgbcolor
13758 -7223 M
[ [(Times-Roman) 130.0 0.0 true true 0 (3DFit)]
] -43.3 MRshow
2.400 UL
LTb
0.58 0.00 0.83 C 13836 -7223 M
156 0 V
5472 3903 M
15 -5 V
31 -20 V
31 -29 V
31 -40 V
31 -44 V
30 -49 V
31 -53 V
31 -55 V
31 -55 V
31 -54 V
31 -52 V
30 -49 V
31 -45 V
31 -39 V
31 -36 V
31 -31 V
30 -27 V
31 -22 V
31 -17 V
31 -16 V
31 -11 V
31 -11 V
30 -7 V
31 -5 V
31 -5 V
31 -3 V
31 -2 V
30 -1 V
31 -1 V
31 -1 V
31 -1 V
31 0 V
31 -1 V
30 0 V
31 0 V
31 0 V
31 0 V
31 0 V
30 0 V
31 0 V
31 0 V
31 0 V
31 0 V
31 0 V
30 0 V
31 0 V
31 0 V
31 0 V
31 0 V
15 0 V
% End plot #2
stroke
2.000 UL
LTb
LCb setrgbcolor
1.000 UL
LTB
LCb setrgbcolor
5472 4146 N
0 -1247 V
1510 0 V
0 1247 V
-1510 0 V
Z stroke
1.000 UP
1.000 UL
LTb
LCb setrgbcolor
1.000 UL
LTb
LCb setrgbcolor
936 1671 M
31 0 V
1480 0 R
-31 0 V
936 1739 M
31 0 V
1480 0 R
-31 0 V
936 1808 M
31 0 V
1480 0 R
-31 0 V
936 1876 M
63 0 V
1448 0 R
-63 0 V
stroke
907 1876 M
[ [(Times-Roman) 200.0 0.0 true true 0 ( 1)]
] -66.7 MRshow
1.000 UL
LTb
LCb setrgbcolor
936 1945 M
31 0 V
1480 0 R
-31 0 V
936 2013 M
31 0 V
1480 0 R
-31 0 V
936 2081 M
31 0 V
1480 0 R
-31 0 V
936 2150 M
31 0 V
1480 0 R
-31 0 V
936 2218 M
63 0 V
1448 0 R
-63 0 V
stroke
907 2218 M
[ [(Times-Roman) 200.0 0.0 true true 0 ( 1.2)]
] -66.7 MRshow
1.000 UL
LTb
LCb setrgbcolor
936 2287 M
31 0 V
1480 0 R
-31 0 V
936 2355 M
31 0 V
1480 0 R
-31 0 V
936 2423 M
31 0 V
1480 0 R
-31 0 V
936 2492 M
31 0 V
1480 0 R
-31 0 V
936 2560 M
63 0 V
1448 0 R
-63 0 V
stroke
907 2560 M
[ [(Times-Roman) 200.0 0.0 true true 0 ( 1.4)]
] -66.7 MRshow
1.000 UL
LTb
LCb setrgbcolor
936 2628 M
31 0 V
1480 0 R
-31 0 V
936 2697 M
31 0 V
1480 0 R
-31 0 V
936 2765 M
31 0 V
1480 0 R
-31 0 V
936 2834 M
31 0 V
1480 0 R
-31 0 V
936 2902 M
63 0 V
1448 0 R
-63 0 V
stroke
907 2902 M
[ [(Times-Roman) 200.0 0.0 true true 0 ( 1.6)]
] -66.7 MRshow
1.000 UL
LTb
LCb setrgbcolor
1029 1654 M
0 31 V
0 1217 R
0 -31 V
1152 1654 M
0 31 V
0 1217 R
0 -31 V
1275 1654 M
0 31 V
0 1217 R
0 -31 V
1399 1654 M
0 31 V
0 1217 R
0 -31 V
1522 1654 M
0 63 V
0 1185 R
0 -63 V
stroke
1522 1534 M
[ [(Times-Roman) 10.0 0.0 true true 0 ( 0.1)]
] -3.3 MCshow
1.000 UL
LTb
LCb setrgbcolor
1645 1654 M
0 31 V
0 1217 R
0 -31 V
1769 1654 M
0 31 V
0 1217 R
0 -31 V
1892 1654 M
0 31 V
0 1217 R
0 -31 V
2015 1654 M
0 31 V
0 1217 R
0 -31 V
2139 1654 M
0 63 V
0 1185 R
0 -63 V
stroke
2139 1534 M
[ [(Times-Roman) 10.0 0.0 true true 0 ( 0.2)]
] -3.3 MCshow
1.000 UL
LTb
LCb setrgbcolor
2262 1654 M
0 31 V
0 1217 R
0 -31 V
2385 1654 M
0 31 V
0 1217 R
0 -31 V
stroke
LTB
LCb setrgbcolor
936 2902 N
0 -1248 V
1511 0 V
0 1248 V
-1511 0 V
Z stroke
1.000 UP
LCb setrgbcolor
1522 2184 M
[ [(Times-Roman) 180.0 0.0 true true 0 (Rout)]
] -60.0 MLshow
1.000 UL
LTb
LCb setrgbcolor
LCb setrgbcolor
528 2278 M
currentpoint gsave translate -270 rotate 0 0 moveto
[ [(Times-Roman) 220.0 0.0 true true 0 (C\(q\))]
] -73.3 MCshow
grestore
LTb
% Begin plot #1
1.000 UP
2.000 UL
LTb
0.34 0.71 0.91 C LCb setrgbcolor
9227 -8411 M
[ [(Times-Roman) 130.0 0.0 true true 0 (CorrFunc)]
] -43.3 MRshow
1.000 UP
2.000 UL
LTb
0.34 0.71 0.91 C 9305 -8411 M
156 0 V
-156 31 R
0 -62 V
156 62 R
0 -62 V
951 2262 M
0 22 V
-15 -22 R
46 0 V
-46 22 R
46 0 V
0 -43 R
0 23 V
-31 -23 R
62 0 V
-62 23 R
62 0 V
0 -59 R
0 23 V
-31 -23 R
62 0 V
-62 23 R
62 0 V
0 -64 R
0 23 V
-31 -23 R
62 0 V
-62 23 R
62 0 V
0 -78 R
0 23 V
-31 -23 R
62 0 V
-62 23 R
62 0 V
0 -57 R
0 23 V
-31 -23 R
62 0 V
-62 23 R
62 0 V
-1 -79 R
0 22 V
-31 -22 R
62 0 V
-62 22 R
62 0 V
0 -53 R
0 23 V
-31 -23 R
62 0 V
-62 23 R
62 0 V
0 -81 R
0 22 V
-31 -22 R
62 0 V
-62 22 R
62 0 V
0 -49 R
0 22 V
-31 -22 R
62 0 V
-62 22 R
62 0 V
0 -56 R
0 22 V
-31 -22 R
62 0 V
-62 22 R
62 0 V
0 -41 R
0 23 V
-31 -23 R
62 0 V
-62 23 R
62 0 V
-1 -14 R
0 22 V
-31 -22 R
62 0 V
-62 22 R
62 0 V
0 -33 R
0 22 V
-31 -22 R
62 0 V
-62 22 R
62 0 V
0 -34 R
0 23 V
-31 -23 R
62 0 V
-62 23 R
62 0 V
0 -18 R
0 24 V
-31 -24 R
62 0 V
-62 24 R
62 0 V
0 -42 R
0 24 V
-31 -24 R
62 0 V
stroke 1476 1823 M
-62 24 R
62 0 V
0 -13 R
0 24 V
-31 -24 R
62 0 V
-62 24 R
62 0 V
-1 -64 R
0 25 V
-31 -25 R
62 0 V
-62 25 R
62 0 V
0 -11 R
0 26 V
-31 -26 R
62 0 V
-62 26 R
62 0 V
0 -11 R
0 27 V
-31 -27 R
62 0 V
-62 27 R
62 0 V
0 14 R
0 28 V
-31 -28 R
62 0 V
-62 28 R
62 0 V
0 -47 R
0 30 V
-31 -30 R
62 0 V
-62 30 R
62 0 V
0 -40 R
0 31 V
-31 -31 R
62 0 V
-62 31 R
62 0 V
0 -48 R
0 33 V
-31 -33 R
62 0 V
-62 33 R
62 0 V
-1 -20 R
0 35 V
-31 -35 R
62 0 V
-62 35 R
62 0 V
0 -23 R
0 38 V
-31 -38 R
62 0 V
-62 38 R
62 0 V
0 -53 R
0 41 V
-31 -41 R
62 0 V
-62 41 R
62 0 V
0 -22 R
0 45 V
-31 -45 R
62 0 V
-62 45 R
62 0 V
0 -37 R
0 50 V
-31 -50 R
62 0 V
-62 50 R
62 0 V
0 -92 R
0 56 V
-31 -56 R
62 0 V
-62 56 R
62 0 V
-1 -61 R
0 67 V
-31 -67 R
62 0 V
-62 67 R
62 0 V
0 -94 R
0 85 V
-31 -85 R
62 0 V
-62 85 R
62 0 V
0 -84 R
0 148 V
-31 -148 R
62 0 V
-62 148 R
62 0 V
stroke 2000 1930 M
0 -276 R
0 772 V
-31 0 R
62 0 V
951 2273 TriU
982 2252 TriU
1013 2216 TriU
1044 2175 TriU
1075 2121 TriU
1106 2087 TriU
1136 2030 TriU
1167 1999 TriU
1198 1941 TriU
1229 1914 TriU
1260 1880 TriU
1291 1862 TriU
1321 1870 TriU
1352 1859 TriU
1383 1848 TriU
1414 1853 TriU
1445 1835 TriU
1476 1846 TriU
1506 1806 TriU
1537 1821 TriU
1568 1836 TriU
1599 1878 TriU
1630 1860 TriU
1661 1850 TriU
1692 1834 TriU
1722 1849 TriU
1753 1862 TriU
1784 1848 TriU
1815 1870 TriU
1846 1880 TriU
1877 1841 TriU
1907 1842 TriU
1938 1823 TriU
1969 1856 TriU
2000 1669 TriU
9383 -8411 TriU
% End plot #1
% Begin plot #2
2.400 UL
LTb
0.58 0.00 0.83 C LCb setrgbcolor
9227 -8476 M
[ [(Times-Roman) 130.0 0.0 true true 0 (3DFit)]
] -43.3 MRshow
2.400 UL
LTb
0.58 0.00 0.83 C 9305 -8476 M
156 0 V
936 2418 M
15 -8 V
31 -36 V
31 -46 V
31 -59 V
31 -59 V
31 -62 V
30 -58 V
31 -50 V
31 -44 V
31 -36 V
31 -27 V
31 -21 V
30 -14 V
31 -10 V
31 -7 V
31 -5 V
31 -2 V
31 -1 V
30 -1 V
31 -1 V
31 0 V
31 0 V
31 0 V
31 0 V
31 0 V
30 0 V
31 0 V
31 0 V
31 0 V
31 0 V
31 0 V
30 0 V
31 0 V
31 0 V
31 0 V
% End plot #2
stroke
2.000 UL
LTb
LCb setrgbcolor
1.000 UL
LTB
LCb setrgbcolor
936 2902 N
0 -1248 V
1511 0 V
0 1248 V
-1511 0 V
Z stroke
1.000 UP
1.000 UL
LTb
LCb setrgbcolor
1.000 UL
LTb
LCb setrgbcolor
2448 1671 M
31 0 V
1480 0 R
-31 0 V
-1480 68 R
31 0 V
1480 0 R
-31 0 V
-1480 69 R
31 0 V
1480 0 R
-31 0 V
-1480 68 R
63 0 V
1448 0 R
-63 0 V
stroke
2419 1876 M
[ [(Times-Roman) 10.0 0.0 true true 0 ( 1)]
] -3.3 MRshow
1.000 UL
LTb
LCb setrgbcolor
2448 1945 M
31 0 V
1480 0 R
-31 0 V
-1480 68 R
31 0 V
1480 0 R
-31 0 V
-1480 68 R
31 0 V
1480 0 R
-31 0 V
-1480 69 R
31 0 V
1480 0 R
-31 0 V
-1480 68 R
63 0 V
1448 0 R
-63 0 V
stroke
2419 2218 M
[ [(Times-Roman) 10.0 0.0 true true 0 ( 1.2)]
] -3.3 MRshow
1.000 UL
LTb
LCb setrgbcolor
2448 2287 M
31 0 V
1480 0 R
-31 0 V
-1480 68 R
31 0 V
1480 0 R
-31 0 V
-1480 68 R
31 0 V
1480 0 R
-31 0 V
-1480 69 R
31 0 V
1480 0 R
-31 0 V
-1480 68 R
63 0 V
1448 0 R
-63 0 V
stroke
2419 2560 M
[ [(Times-Roman) 10.0 0.0 true true 0 ( 1.4)]
] -3.3 MRshow
1.000 UL
LTb
LCb setrgbcolor
2448 2628 M
31 0 V
1480 0 R
-31 0 V
-1480 69 R
31 0 V
1480 0 R
-31 0 V
-1480 68 R
31 0 V
1480 0 R
-31 0 V
-1480 69 R
31 0 V
1480 0 R
-31 0 V
-1480 68 R
63 0 V
1448 0 R
-63 0 V
stroke
2419 2902 M
[ [(Times-Roman) 10.0 0.0 true true 0 ( 1.6)]
] -3.3 MRshow
1.000 UL
LTb
LCb setrgbcolor
2541 1654 M
0 31 V
0 1217 R
0 -31 V
2664 1654 M
0 31 V
0 1217 R
0 -31 V
2787 1654 M
0 31 V
0 1217 R
0 -31 V
2911 1654 M
0 31 V
0 1217 R
0 -31 V
3034 1654 M
0 63 V
0 1185 R
0 -63 V
stroke
3034 1534 M
[ [(Times-Roman) 10.0 0.0 true true 0 ( 0.1)]
] -3.3 MCshow
1.000 UL
LTb
LCb setrgbcolor
3157 1654 M
0 31 V
0 1217 R
0 -31 V
3281 1654 M
0 31 V
0 1217 R
0 -31 V
3404 1654 M
0 31 V
0 1217 R
0 -31 V
3527 1654 M
0 31 V
0 1217 R
0 -31 V
3651 1654 M
0 63 V
0 1185 R
0 -63 V
stroke
3651 1534 M
[ [(Times-Roman) 10.0 0.0 true true 0 ( 0.2)]
] -3.3 MCshow
1.000 UL
LTb
LCb setrgbcolor
3774 1654 M
0 31 V
0 1217 R
0 -31 V
3897 1654 M
0 31 V
0 1217 R
0 -31 V
stroke
LTB
LCb setrgbcolor
2448 2902 N
0 -1248 V
1511 0 V
0 1248 V
-1511 0 V
Z stroke
1.000 UP
LCb setrgbcolor
3034 2184 M
[ [(Times-Roman) 180.0 0.0 true true 0 (Rout)]
] -60.0 MLshow
1.000 UL
LTb
LCb setrgbcolor
LCb setrgbcolor
2040 2278 M
currentpoint gsave translate -270 rotate 0 0 moveto
[ [(Times-Roman) 10.0 0.0 true true 0 (C\(q\))]
] -3.3 MCshow
grestore
LTb
% Begin plot #1
1.000 UP
2.000 UL
LTb
0.34 0.71 0.91 C LCb setrgbcolor
10739 -8418 M
[ [(Times-Roman) 130.0 0.0 true true 0 (CorrFunc)]
] -43.3 MRshow
1.000 UP
2.000 UL
LTb
0.34 0.71 0.91 C 10817 -8418 M
156 0 V
-156 31 R
0 -62 V
156 62 R
0 -62 V
2463 2432 M
0 33 V
-15 -33 R
46 0 V
-46 33 R
46 0 V
0 -95 R
0 32 V
-31 -32 R
62 0 V
-62 32 R
62 0 V
0 -99 R
0 32 V
-31 -32 R
62 0 V
-62 32 R
62 0 V
0 -59 R
0 31 V
-31 -31 R
62 0 V
-62 31 R
62 0 V
0 -82 R
0 31 V
-31 -31 R
62 0 V
-62 31 R
62 0 V
0 -109 R
0 29 V
-31 -29 R
62 0 V
-62 29 R
62 0 V
-1 -76 R
0 28 V
-31 -28 R
62 0 V
-62 28 R
62 0 V
0 -95 R
0 28 V
-31 -28 R
62 0 V
-62 28 R
62 0 V
0 -99 R
0 27 V
-31 -27 R
62 0 V
-62 27 R
62 0 V
0 -25 R
0 26 V
-31 -26 R
62 0 V
-62 26 R
62 0 V
0 -70 R
0 25 V
-31 -25 R
62 0 V
-62 25 R
62 0 V
0 -52 R
0 25 V
-31 -25 R
62 0 V
-62 25 R
62 0 V
-1 -61 R
0 24 V
-31 -24 R
62 0 V
-62 24 R
62 0 V
0 -40 R
0 24 V
-31 -24 R
62 0 V
-62 24 R
62 0 V
0 -36 R
0 23 V
-31 -23 R
62 0 V
-62 23 R
62 0 V
0 -8 R
0 23 V
-31 -23 R
62 0 V
-62 23 R
62 0 V
0 -31 R
0 23 V
-31 -23 R
62 0 V
stroke 2988 1836 M
-62 23 R
62 0 V
0 -25 R
0 22 V
-31 -22 R
62 0 V
-62 22 R
62 0 V
-1 -22 R
0 23 V
-31 -23 R
62 0 V
-62 23 R
62 0 V
0 -36 R
0 22 V
-31 -22 R
62 0 V
-62 22 R
62 0 V
0 -21 R
0 22 V
-31 -22 R
62 0 V
-62 22 R
62 0 V
0 -20 R
0 22 V
-31 -22 R
62 0 V
-62 22 R
62 0 V
0 -12 R
0 22 V
-31 -22 R
62 0 V
-62 22 R
62 0 V
0 -41 R
0 22 V
-31 -22 R
62 0 V
-62 22 R
62 0 V
0 9 R
0 21 V
-31 -21 R
62 0 V
-62 21 R
62 0 V
-1 -44 R
0 21 V
-31 -21 R
62 0 V
-62 21 R
62 0 V
0 -9 R
0 21 V
-31 -21 R
62 0 V
-62 21 R
62 0 V
0 -5 R
0 21 V
-31 -21 R
62 0 V
-62 21 R
62 0 V
0 -9 R
0 21 V
-31 -21 R
62 0 V
-62 21 R
62 0 V
0 -29 R
0 22 V
-31 -22 R
62 0 V
-62 22 R
62 0 V
0 -35 R
0 22 V
-31 -22 R
62 0 V
-62 22 R
62 0 V
-1 -2 R
0 22 V
-31 -22 R
62 0 V
-62 22 R
62 0 V
0 -55 R
0 22 V
-31 -22 R
62 0 V
-62 22 R
62 0 V
0 -17 R
0 21 V
-31 -21 R
62 0 V
-62 21 R
62 0 V
stroke 3512 1855 M
0 -13 R
0 22 V
-31 -22 R
62 0 V
-62 22 R
62 0 V
0 -36 R
0 22 V
-31 -22 R
62 0 V
-62 22 R
62 0 V
0 -10 R
0 23 V
-31 -23 R
62 0 V
-62 23 R
62 0 V
-1 0 R
0 23 V
-31 -23 R
62 0 V
-62 23 R
62 0 V
0 -39 R
0 24 V
-31 -24 R
62 0 V
-62 24 R
62 0 V
0 -24 R
0 25 V
-31 -25 R
62 0 V
-62 25 R
62 0 V
0 -45 R
0 25 V
-31 -25 R
62 0 V
-62 25 R
62 0 V
0 -3 R
0 26 V
-31 -26 R
62 0 V
-62 26 R
62 0 V
0 -42 R
0 26 V
-31 -26 R
62 0 V
-62 26 R
62 0 V
-1 -24 R
0 27 V
-31 -27 R
62 0 V
-62 27 R
62 0 V
0 -18 R
0 27 V
-31 -27 R
62 0 V
-62 27 R
62 0 V
0 -34 R
0 28 V
-31 -28 R
62 0 V
-62 28 R
62 0 V
0 -44 R
0 29 V
-31 -29 R
62 0 V
-62 29 R
62 0 V
0 -15 R
0 30 V
-31 -30 R
62 0 V
-62 30 R
62 0 V
0 -24 R
0 31 V
-31 -31 R
46 0 V
-46 31 R
46 0 V
2463 2449 TriU
2494 2386 TriU
2525 2319 TriU
2556 2292 TriU
2587 2240 TriU
2618 2162 TriU
2648 2114 TriU
2679 2047 TriU
2710 1975 TriU
2741 1977 TriU
2772 1933 TriU
2803 1905 TriU
2833 1869 TriU
2864 1853 TriU
2895 1841 TriU
2926 1855 TriU
2957 1848 TriU
2988 1845 TriU
3018 1845 TriU
3049 1832 TriU
3080 1833 TriU
3111 1835 TriU
3142 1845 TriU
3173 1826 TriU
3204 1857 TriU
3234 1834 TriU
3265 1846 TriU
3296 1862 TriU
3327 1874 TriU
3358 1866 TriU
3389 1853 TriU
3419 1873 TriU
3450 1840 TriU
3481 1845 TriU
3512 1853 TriU
3543 1839 TriU
3574 1852 TriU
3604 1874 TriU
3635 1859 TriU
3666 1859 TriU
3697 1840 TriU
3728 1862 TriU
3759 1846 TriU
3789 1848 TriU
3820 1857 TriU
3851 1851 TriU
3882 1836 TriU
3913 1850 TriU
3944 1856 TriU
10895 -8418 TriU
% End plot #1
% Begin plot #2
2.400 UL
LTb
0.58 0.00 0.83 C LCb setrgbcolor
10739 -8496 M
[ [(Times-Roman) 130.0 0.0 true true 0 (3DFit)]
] -43.3 MRshow
2.400 UL
LTb
0.58 0.00 0.83 C 10817 -8496 M
156 0 V
2448 2556 M
15 -10 V
31 -37 V
31 -51 V
31 -64 V
31 -70 V
31 -70 V
30 -68 V
31 -65 V
31 -55 V
31 -48 V
31 -39 V
31 -31 V
30 -24 V
31 -15 V
31 -14 V
31 -7 V
31 -7 V
31 -3 V
30 -2 V
31 -1 V
31 -1 V
31 0 V
31 -1 V
31 0 V
31 0 V
30 0 V
31 0 V
31 0 V
31 0 V
31 0 V
31 0 V
30 0 V
31 0 V
31 0 V
31 0 V
31 0 V
31 0 V
30 0 V
31 0 V
31 0 V
31 0 V
31 0 V
31 0 V
30 0 V
31 0 V
31 0 V
31 0 V
31 0 V
31 0 V
15 0 V
% End plot #2
stroke
2.000 UL
LTb
LCb setrgbcolor
1.000 UL
LTB
LCb setrgbcolor
2448 2902 N
0 -1248 V
1511 0 V
0 1248 V
-1511 0 V
Z stroke
1.000 UP
1.000 UL
LTb
LCb setrgbcolor
1.000 UL
LTb
LCb setrgbcolor
3960 1671 M
31 0 V
1480 0 R
-31 0 V
-1480 68 R
31 0 V
1480 0 R
-31 0 V
-1480 69 R
31 0 V
1480 0 R
-31 0 V
-1480 68 R
63 0 V
1448 0 R
-63 0 V
stroke
3931 1876 M
[ [(Times-Roman) 10.0 0.0 true true 0 ( 1)]
] -3.3 MRshow
1.000 UL
LTb
LCb setrgbcolor
3960 1945 M
31 0 V
1480 0 R
-31 0 V
-1480 68 R
31 0 V
1480 0 R
-31 0 V
-1480 68 R
31 0 V
1480 0 R
-31 0 V
-1480 69 R
31 0 V
1480 0 R
-31 0 V
-1480 68 R
63 0 V
1448 0 R
-63 0 V
stroke
3931 2218 M
[ [(Times-Roman) 10.0 0.0 true true 0 ( 1.2)]
] -3.3 MRshow
1.000 UL
LTb
LCb setrgbcolor
3960 2287 M
31 0 V
1480 0 R
-31 0 V
-1480 68 R
31 0 V
1480 0 R
-31 0 V
-1480 68 R
31 0 V
1480 0 R
-31 0 V
-1480 69 R
31 0 V
1480 0 R
-31 0 V
-1480 68 R
63 0 V
1448 0 R
-63 0 V
stroke
3931 2560 M
[ [(Times-Roman) 10.0 0.0 true true 0 ( 1.4)]
] -3.3 MRshow
1.000 UL
LTb
LCb setrgbcolor
3960 2628 M
31 0 V
1480 0 R
-31 0 V
-1480 69 R
31 0 V
1480 0 R
-31 0 V
-1480 68 R
31 0 V
1480 0 R
-31 0 V
-1480 69 R
31 0 V
1480 0 R
-31 0 V
-1480 68 R
63 0 V
1448 0 R
-63 0 V
stroke
3931 2902 M
[ [(Times-Roman) 10.0 0.0 true true 0 ( 1.6)]
] -3.3 MRshow
1.000 UL
LTb
LCb setrgbcolor
4053 1654 M
0 31 V
0 1217 R
0 -31 V
4176 1654 M
0 31 V
0 1217 R
0 -31 V
4299 1654 M
0 31 V
0 1217 R
0 -31 V
4423 1654 M
0 31 V
0 1217 R
0 -31 V
4546 1654 M
0 63 V
0 1185 R
0 -63 V
stroke
4546 1534 M
[ [(Times-Roman) 10.0 0.0 true true 0 ( 0.1)]
] -3.3 MCshow
1.000 UL
LTb
LCb setrgbcolor
4669 1654 M
0 31 V
0 1217 R
0 -31 V
4793 1654 M
0 31 V
0 1217 R
0 -31 V
4916 1654 M
0 31 V
0 1217 R
0 -31 V
5039 1654 M
0 31 V
0 1217 R
0 -31 V
5163 1654 M
0 63 V
0 1185 R
0 -63 V
stroke
5163 1534 M
[ [(Times-Roman) 10.0 0.0 true true 0 ( 0.2)]
] -3.3 MCshow
1.000 UL
LTb
LCb setrgbcolor
5286 1654 M
0 31 V
0 1217 R
0 -31 V
5409 1654 M
0 31 V
0 1217 R
0 -31 V
stroke
LTB
LCb setrgbcolor
3960 2902 N
0 -1248 V
1511 0 V
0 1248 V
-1511 0 V
Z stroke
1.000 UP
LCb setrgbcolor
4546 2184 M
[ [(Times-Roman) 180.0 0.0 true true 0 (Rout)]
] -60.0 MLshow
1.000 UL
LTb
LCb setrgbcolor
LCb setrgbcolor
3552 2278 M
currentpoint gsave translate -270 rotate 0 0 moveto
[ [(Times-Roman) 10.0 0.0 true true 0 (C\(q\))]
] -3.3 MCshow
grestore
LTb
% Begin plot #1
1.000 UP
2.000 UL
LTb
0.34 0.71 0.91 C LCb setrgbcolor
12251 -8411 M
[ [(Times-Roman) 130.0 0.0 true true 0 (CorrFunc)]
] -43.3 MRshow
1.000 UP
2.000 UL
LTb
0.34 0.71 0.91 C 12329 -8411 M
156 0 V
-156 31 R
0 -62 V
156 62 R
0 -62 V
3975 2553 M
0 48 V
-15 -48 R
46 0 V
-46 48 R
46 0 V
0 -134 R
0 46 V
-31 -46 R
62 0 V
-62 46 R
62 0 V
0 -22 R
0 46 V
-31 -46 R
62 0 V
-62 46 R
62 0 V
0 -136 R
0 45 V
-31 -45 R
62 0 V
-62 45 R
62 0 V
0 -122 R
0 45 V
-31 -45 R
62 0 V
-62 45 R
62 0 V
0 -104 R
0 43 V
-31 -43 R
62 0 V
-62 43 R
62 0 V
-1 -99 R
0 42 V
-31 -42 R
62 0 V
-62 42 R
62 0 V
0 -103 R
0 41 V
-31 -41 R
62 0 V
-62 41 R
62 0 V
0 -131 R
0 40 V
-31 -40 R
62 0 V
-62 40 R
62 0 V
0 -99 R
0 38 V
-31 -38 R
62 0 V
-62 38 R
62 0 V
0 -29 R
0 38 V
-31 -38 R
62 0 V
-62 38 R
62 0 V
0 -98 R
0 37 V
-31 -37 R
62 0 V
-62 37 R
62 0 V
-1 -57 R
0 36 V
-31 -36 R
62 0 V
-62 36 R
62 0 V
0 -80 R
0 36 V
-31 -36 R
62 0 V
-62 36 R
62 0 V
0 -29 R
0 35 V
-31 -35 R
62 0 V
-62 35 R
62 0 V
0 -82 R
0 34 V
-31 -34 R
62 0 V
-62 34 R
62 0 V
0 -36 R
0 34 V
-31 -34 R
62 0 V
stroke 4500 1842 M
-62 34 R
62 0 V
0 -51 R
0 33 V
-31 -33 R
62 0 V
-62 33 R
62 0 V
-1 -39 R
0 33 V
-31 -33 R
62 0 V
-62 33 R
62 0 V
0 -30 R
0 32 V
-31 -32 R
62 0 V
-62 32 R
62 0 V
0 -62 R
0 31 V
-31 -31 R
62 0 V
-62 31 R
62 0 V
0 -4 R
0 32 V
-31 -32 R
62 0 V
-62 32 R
62 0 V
0 -24 R
0 31 V
-31 -31 R
62 0 V
-62 31 R
62 0 V
0 -54 R
0 31 V
-31 -31 R
62 0 V
-62 31 R
62 0 V
0 -39 R
0 30 V
-31 -30 R
62 0 V
-62 30 R
62 0 V
-1 -12 R
0 31 V
-31 -31 R
62 0 V
-62 31 R
62 0 V
0 -22 R
0 30 V
-31 -30 R
62 0 V
-62 30 R
62 0 V
0 -30 R
0 30 V
-31 -30 R
62 0 V
-62 30 R
62 0 V
0 -29 R
0 29 V
-31 -29 R
62 0 V
-62 29 R
62 0 V
0 -36 R
0 29 V
-31 -29 R
62 0 V
-62 29 R
62 0 V
0 -8 R
0 29 V
-31 -29 R
62 0 V
-62 29 R
62 0 V
-1 -39 R
0 29 V
-31 -29 R
62 0 V
-62 29 R
62 0 V
0 -32 R
0 29 V
-31 -29 R
62 0 V
-62 29 R
62 0 V
0 -38 R
0 29 V
-31 -29 R
62 0 V
-62 29 R
62 0 V
stroke 5024 1845 M
0 -34 R
0 29 V
-31 -29 R
62 0 V
-62 29 R
62 0 V
0 -10 R
0 29 V
-31 -29 R
62 0 V
-62 29 R
62 0 V
0 -23 R
0 29 V
-31 -29 R
62 0 V
-62 29 R
62 0 V
-1 -15 R
0 29 V
-31 -29 R
62 0 V
-62 29 R
62 0 V
0 -42 R
0 29 V
-31 -29 R
62 0 V
-62 29 R
62 0 V
0 -38 R
0 29 V
-31 -29 R
62 0 V
-62 29 R
62 0 V
0 -24 R
0 29 V
-31 -29 R
62 0 V
-62 29 R
62 0 V
0 -34 R
0 28 V
-31 -28 R
62 0 V
-62 28 R
62 0 V
0 -16 R
0 29 V
-31 -29 R
62 0 V
-62 29 R
62 0 V
-1 -34 R
0 28 V
-31 -28 R
62 0 V
-62 28 R
62 0 V
0 -18 R
0 28 V
-31 -28 R
62 0 V
-62 28 R
62 0 V
0 -30 R
0 28 V
-31 -28 R
62 0 V
-62 28 R
62 0 V
0 -46 R
0 29 V
-31 -29 R
62 0 V
-62 29 R
62 0 V
0 -42 R
0 29 V
-31 -29 R
62 0 V
-62 29 R
62 0 V
0 18 R
0 28 V
-31 -28 R
46 0 V
-46 28 R
46 0 V
3975 2577 TriU
4006 2490 TriU
4037 2514 TriU
4068 2423 TriU
4099 2346 TriU
4130 2287 TriU
4160 2230 TriU
4191 2169 TriU
4222 2078 TriU
4253 2018 TriU
4284 2027 TriU
4315 1967 TriU
4345 1946 TriU
4376 1902 TriU
4407 1909 TriU
4438 1861 TriU
4469 1859 TriU
4500 1841 TriU
4530 1836 TriU
4561 1838 TriU
4592 1808 TriU
4623 1835 TriU
4654 1842 TriU
4685 1820 TriU
4716 1811 TriU
4746 1830 TriU
4777 1838 TriU
4808 1838 TriU
4839 1838 TriU
4870 1832 TriU
4901 1852 TriU
4931 1842 TriU
4962 1839 TriU
4993 1830 TriU
5024 1825 TriU
5055 1845 TriU
5086 1850 TriU
5116 1865 TriU
5147 1851 TriU
5178 1843 TriU
5209 1847 TriU
5240 1842 TriU
5271 1854 TriU
5301 1849 TriU
5332 1859 TriU
5363 1857 TriU
5394 1840 TriU
5425 1826 TriU
5456 1873 TriU
12407 -8411 TriU
% End plot #1
% Begin plot #2
2.400 UL
LTb
0.58 0.00 0.83 C LCb setrgbcolor
12251 -8476 M
[ [(Times-Roman) 130.0 0.0 true true 0 (3DFit)]
] -43.3 MRshow
2.400 UL
LTb
0.58 0.00 0.83 C 12329 -8476 M
156 0 V
3960 2640 M
15 -8 V
31 -34 V
31 -46 V
31 -59 V
31 -65 V
31 -70 V
30 -70 V
31 -68 V
31 -63 V
31 -57 V
31 -49 V
31 -41 V
30 -35 V
31 -27 V
31 -22 V
31 -16 V
31 -12 V
31 -8 V
30 -5 V
31 -5 V
31 -2 V
31 -2 V
31 -1 V
31 -1 V
31 -1 V
30 0 V
31 0 V
31 0 V
31 0 V
31 0 V
31 0 V
30 0 V
31 0 V
31 0 V
31 0 V
31 0 V
31 0 V
30 0 V
31 0 V
31 0 V
31 0 V
31 0 V
31 0 V
30 0 V
31 0 V
31 0 V
31 0 V
31 0 V
31 0 V
15 0 V
% End plot #2
stroke
2.000 UL
LTb
LCb setrgbcolor
1.000 UL
LTB
LCb setrgbcolor
3960 2902 N
0 -1248 V
1511 0 V
0 1248 V
-1511 0 V
Z stroke
1.000 UP
1.000 UL
LTb
LCb setrgbcolor
1.000 UL
LTb
LCb setrgbcolor
5472 1671 M
31 0 V
1479 0 R
-31 0 V
-1479 68 R
31 0 V
1479 0 R
-31 0 V
-1479 69 R
31 0 V
1479 0 R
-31 0 V
-1479 68 R
63 0 V
1447 0 R
-63 0 V
stroke
5443 1876 M
[ [(Times-Roman) 10.0 0.0 true true 0 ( 1)]
] -3.3 MRshow
1.000 UL
LTb
LCb setrgbcolor
5472 1945 M
31 0 V
1479 0 R
-31 0 V
-1479 68 R
31 0 V
1479 0 R
-31 0 V
-1479 68 R
31 0 V
1479 0 R
-31 0 V
-1479 69 R
31 0 V
1479 0 R
-31 0 V
-1479 68 R
63 0 V
1447 0 R
-63 0 V
stroke
5443 2218 M
[ [(Times-Roman) 10.0 0.0 true true 0 ( 1.2)]
] -3.3 MRshow
1.000 UL
LTb
LCb setrgbcolor
5472 2287 M
31 0 V
1479 0 R
-31 0 V
-1479 68 R
31 0 V
1479 0 R
-31 0 V
-1479 68 R
31 0 V
1479 0 R
-31 0 V
-1479 69 R
31 0 V
1479 0 R
-31 0 V
-1479 68 R
63 0 V
1447 0 R
-63 0 V
stroke
5443 2560 M
[ [(Times-Roman) 10.0 0.0 true true 0 ( 1.4)]
] -3.3 MRshow
1.000 UL
LTb
LCb setrgbcolor
5472 2628 M
31 0 V
1479 0 R
-31 0 V
-1479 69 R
31 0 V
1479 0 R
-31 0 V
-1479 68 R
31 0 V
1479 0 R
-31 0 V
-1479 69 R
31 0 V
1479 0 R
-31 0 V
-1479 68 R
63 0 V
1447 0 R
-63 0 V
stroke
5443 2902 M
[ [(Times-Roman) 10.0 0.0 true true 0 ( 1.6)]
] -3.3 MRshow
1.000 UL
LTb
LCb setrgbcolor
5564 1654 M
0 31 V
0 1217 R
0 -31 V
5688 1654 M
0 31 V
0 1217 R
0 -31 V
5811 1654 M
0 31 V
0 1217 R
0 -31 V
5934 1654 M
0 31 V
0 1217 R
0 -31 V
6058 1654 M
0 63 V
0 1185 R
0 -63 V
stroke
6058 1534 M
[ [(Times-Roman) 10.0 0.0 true true 0 ( 0.1)]
] -3.3 MCshow
1.000 UL
LTb
LCb setrgbcolor
6181 1654 M
0 31 V
0 1217 R
0 -31 V
6304 1654 M
0 31 V
0 1217 R
0 -31 V
6427 1654 M
0 31 V
0 1217 R
0 -31 V
6551 1654 M
0 31 V
0 1217 R
0 -31 V
6674 1654 M
0 63 V
0 1185 R
0 -63 V
stroke
6674 1534 M
[ [(Times-Roman) 10.0 0.0 true true 0 ( 0.2)]
] -3.3 MCshow
1.000 UL
LTb
LCb setrgbcolor
6797 1654 M
0 31 V
0 1217 R
0 -31 V
6920 1654 M
0 31 V
0 1217 R
0 -31 V
stroke
LTB
LCb setrgbcolor
5472 2902 N
0 -1248 V
1510 0 V
0 1248 V
-1510 0 V
Z stroke
1.000 UP
LCb setrgbcolor
6058 2184 M
[ [(Times-Roman) 180.0 0.0 true true 0 (Rout)]
] -60.0 MLshow
1.000 UL
LTb
LCb setrgbcolor
LCb setrgbcolor
5064 2278 M
currentpoint gsave translate -270 rotate 0 0 moveto
[ [(Times-Roman) 10.0 0.0 true true 0 (C\(q\))]
] -3.3 MCshow
grestore
LTb
% Begin plot #1
1.000 UP
2.000 UL
LTb
0.34 0.71 0.91 C LCb setrgbcolor
13758 -8411 M
[ [(Times-Roman) 130.0 0.0 true true 0 (CorrFunc)]
] -43.3 MRshow
1.000 UP
2.000 UL
LTb
0.34 0.71 0.91 C 13836 -8411 M
156 0 V
-156 31 R
0 -62 V
156 62 R
0 -62 V
5487 2552 M
0 105 V
-15 -105 R
46 0 V
-46 105 R
46 0 V
0 -73 R
0 106 V
-31 -106 R
62 0 V
-62 106 R
62 0 V
0 -179 R
0 105 V
-31 -105 R
62 0 V
-62 105 R
62 0 V
0 -210 R
0 99 V
-31 -99 R
62 0 V
-62 99 R
62 0 V
0 -50 R
0 101 V
-31 -101 R
62 0 V
-62 101 R
62 0 V
-1 -231 R
0 94 V
-31 -94 R
62 0 V
-62 94 R
62 0 V
0 -96 R
0 94 V
-31 -94 R
62 0 V
-62 94 R
62 0 V
0 -259 R
0 86 V
-31 -86 R
62 0 V
-62 86 R
62 0 V
0 -96 R
0 85 V
-31 -85 R
62 0 V
-62 85 R
62 0 V
0 -189 R
0 81 V
-31 -81 R
62 0 V
-62 81 R
62 0 V
0 -121 R
0 79 V
-31 -79 R
62 0 V
-62 79 R
62 0 V
-1 -97 R
0 78 V
-31 -78 R
62 0 V
-62 78 R
62 0 V
0 -117 R
0 74 V
-31 -74 R
62 0 V
-62 74 R
62 0 V
0 -89 R
0 73 V
-31 -73 R
62 0 V
-62 73 R
62 0 V
0 -90 R
0 70 V
-31 -70 R
62 0 V
-62 70 R
62 0 V
0 -149 R
0 67 V
-31 -67 R
62 0 V
-62 67 R
62 0 V
-1 -41 R
0 66 V
-31 -66 R
62 0 V
stroke 6011 1862 M
-62 66 R
62 0 V
0 -95 R
0 64 V
-31 -64 R
62 0 V
-62 64 R
62 0 V
0 -85 R
0 63 V
-31 -63 R
62 0 V
-62 63 R
62 0 V
0 14 R
0 64 V
-31 -64 R
62 0 V
-62 64 R
62 0 V
0 -143 R
0 60 V
-31 -60 R
62 0 V
-62 60 R
62 0 V
0 -59 R
0 60 V
-31 -60 R
62 0 V
-62 60 R
62 0 V
-1 -91 R
0 58 V
-31 -58 R
62 0 V
-62 58 R
62 0 V
0 -32 R
0 57 V
-31 -57 R
62 0 V
-62 57 R
62 0 V
0 -16 R
0 57 V
-31 -57 R
62 0 V
-62 57 R
62 0 V
0 -74 R
0 56 V
-31 -56 R
62 0 V
-62 56 R
62 0 V
0 -57 R
0 56 V
-31 -56 R
62 0 V
-62 56 R
62 0 V
-1 -44 R
0 55 V
-31 -55 R
62 0 V
-62 55 R
62 0 V
0 -82 R
0 54 V
-31 -54 R
62 0 V
-62 54 R
62 0 V
0 -75 R
0 53 V
-31 -53 R
62 0 V
-62 53 R
62 0 V
0 -23 R
0 53 V
-31 -53 R
62 0 V
-62 53 R
62 0 V
0 -57 R
0 52 V
-31 -52 R
62 0 V
-62 52 R
62 0 V
0 -108 R
0 50 V
-31 -50 R
62 0 V
-62 50 R
62 0 V
-1 1 R
0 50 V
-31 -50 R
62 0 V
-62 50 R
62 0 V
stroke 6535 1864 M
0 -63 R
0 50 V
-31 -50 R
62 0 V
-62 50 R
62 0 V
0 -54 R
0 49 V
-31 -49 R
62 0 V
-62 49 R
62 0 V
0 -54 R
0 48 V
-31 -48 R
62 0 V
-62 48 R
62 0 V
0 -61 R
0 48 V
-31 -48 R
62 0 V
-62 48 R
62 0 V
-1 -43 R
0 47 V
-31 -47 R
62 0 V
-62 47 R
62 0 V
0 -9 R
0 48 V
-31 -48 R
62 0 V
-62 48 R
62 0 V
0 -60 R
0 48 V
-31 -48 R
62 0 V
-62 48 R
62 0 V
0 -65 R
0 46 V
-31 -46 R
62 0 V
-62 46 R
62 0 V
0 -32 R
0 46 V
-31 -46 R
62 0 V
-62 46 R
62 0 V
0 -74 R
0 45 V
-31 -45 R
62 0 V
-62 45 R
62 0 V
-1 -19 R
0 45 V
-31 -45 R
62 0 V
-62 45 R
62 0 V
0 -37 R
0 45 V
-31 -45 R
62 0 V
-62 45 R
62 0 V
0 -63 R
0 44 V
-31 -44 R
62 0 V
-62 44 R
62 0 V
0 -55 R
0 44 V
-31 -44 R
62 0 V
-62 44 R
62 0 V
0 -24 R
0 44 V
-31 -44 R
46 0 V
-46 44 R
46 0 V
5487 2605 TriU
5518 2637 TriU
5549 2564 TriU
5580 2456 TriU
5611 2505 TriU
5641 2372 TriU
5672 2370 TriU
5703 2201 TriU
5734 2191 TriU
5765 2085 TriU
5796 2044 TriU
5826 2025 TriU
5857 1984 TriU
5888 1969 TriU
5919 1950 TriU
5950 1870 TriU
5980 1895 TriU
6011 1865 TriU
6042 1844 TriU
6073 1921 TriU
6104 1840 TriU
6135 1841 TriU
6165 1809 TriU
6196 1834 TriU
6227 1875 TriU
6258 1858 TriU
6289 1857 TriU
6319 1869 TriU
6350 1841 TriU
6381 1819 TriU
6412 1849 TriU
6443 1845 TriU
6474 1788 TriU
6504 1839 TriU
6535 1826 TriU
6566 1822 TriU
6597 1816 TriU
6628 1803 TriU
6658 1808 TriU
6689 1846 TriU
6720 1834 TriU
6751 1816 TriU
6782 1830 TriU
6813 1801 TriU
6843 1828 TriU
6874 1836 TriU
6905 1817 TriU
6936 1806 TriU
6967 1826 TriU
13914 -8411 TriU
% End plot #1
% Begin plot #2
2.400 UL
LTb
0.58 0.00 0.83 C LCb setrgbcolor
13758 -8476 M
[ [(Times-Roman) 130.0 0.0 true true 0 (3DFit)]
] -43.3 MRshow
2.400 UL
LTb
0.58 0.00 0.83 C 13836 -8476 M
156 0 V
5472 2669 M
15 -6 V
31 -24 V
31 -36 V
31 -45 V
31 -53 V
30 -56 V
31 -62 V
31 -61 V
31 -60 V
31 -58 V
31 -53 V
30 -50 V
31 -42 V
31 -38 V
31 -33 V
31 -27 V
30 -22 V
31 -17 V
31 -16 V
31 -10 V
31 -8 V
31 -5 V
30 -6 V
31 -3 V
31 -2 V
31 -2 V
31 -1 V
30 -1 V
31 0 V
31 0 V
31 -1 V
31 0 V
31 0 V
30 0 V
31 0 V
31 0 V
31 0 V
31 0 V
30 0 V
31 0 V
31 0 V
31 0 V
31 0 V
31 0 V
30 0 V
31 0 V
31 0 V
31 0 V
31 0 V
15 0 V
% End plot #2
stroke
2.000 UL
LTb
LCb setrgbcolor
1.000 UL
LTB
LCb setrgbcolor
5472 2902 N
0 -1248 V
1510 0 V
0 1248 V
-1510 0 V
Z stroke
1.000 UP
1.000 UL
LTb
LCb setrgbcolor
1.000 UL
LTb
LCb setrgbcolor
936 422 M
31 0 V
1480 0 R
-31 0 V
936 490 M
31 0 V
1480 0 R
-31 0 V
936 559 M
31 0 V
1480 0 R
-31 0 V
936 627 M
63 0 V
1448 0 R
-63 0 V
stroke
907 627 M
[ [(Times-Roman) 200.0 0.0 true true 0 ( 1)]
] -66.7 MRshow
1.000 UL
LTb
LCb setrgbcolor
936 695 M
31 0 V
1480 0 R
-31 0 V
936 764 M
31 0 V
1480 0 R
-31 0 V
936 832 M
31 0 V
1480 0 R
-31 0 V
936 900 M
31 0 V
1480 0 R
-31 0 V
936 969 M
63 0 V
1448 0 R
-63 0 V
stroke
907 969 M
[ [(Times-Roman) 200.0 0.0 true true 0 ( 1.2)]
] -66.7 MRshow
1.000 UL
LTb
LCb setrgbcolor
936 1037 M
31 0 V
1480 0 R
-31 0 V
936 1105 M
31 0 V
1480 0 R
-31 0 V
936 1174 M
31 0 V
1480 0 R
-31 0 V
936 1242 M
31 0 V
1480 0 R
-31 0 V
936 1310 M
63 0 V
1448 0 R
-63 0 V
stroke
907 1310 M
[ [(Times-Roman) 200.0 0.0 true true 0 ( 1.4)]
] -66.7 MRshow
1.000 UL
LTb
LCb setrgbcolor
936 1379 M
31 0 V
1480 0 R
-31 0 V
936 1447 M
31 0 V
1480 0 R
-31 0 V
936 1515 M
31 0 V
1480 0 R
-31 0 V
936 1584 M
31 0 V
1480 0 R
-31 0 V
936 1652 M
63 0 V
1448 0 R
-63 0 V
stroke
907 1652 M
[ [(Times-Roman) 200.0 0.0 true true 0 ( 1.6)]
] -66.7 MRshow
1.000 UL
LTb
LCb setrgbcolor
1029 405 M
0 31 V
0 1216 R
0 -31 V
1152 405 M
0 31 V
0 1216 R
0 -31 V
1275 405 M
0 31 V
0 1216 R
0 -31 V
1399 405 M
0 31 V
0 1216 R
0 -31 V
1522 405 M
0 63 V
0 1184 R
0 -63 V
stroke
1522 285 M
[ [(Times-Roman) 150.0 0.0 true true 0 ( 0.1)]
] -50.0 MCshow
1.000 UL
LTb
LCb setrgbcolor
1645 405 M
0 31 V
0 1216 R
0 -31 V
1769 405 M
0 31 V
0 1216 R
0 -31 V
1892 405 M
0 31 V
0 1216 R
0 -31 V
2015 405 M
0 31 V
0 1216 R
0 -31 V
2139 405 M
0 63 V
0 1184 R
0 -63 V
stroke
2139 285 M
[ [(Times-Roman) 150.0 0.0 true true 0 ( 0.2)]
] -50.0 MCshow
1.000 UL
LTb
LCb setrgbcolor
2262 405 M
0 31 V
0 1216 R
0 -31 V
2385 405 M
0 31 V
0 1216 R
0 -31 V
stroke
LTB
LCb setrgbcolor
936 1652 N
936 405 L
1511 0 V
0 1247 V
-1511 0 V
Z stroke
1.000 UP
LCb setrgbcolor
1522 935 M
[ [(Times-Roman) 180.0 0.0 true true 0 (Rlong)]
] -60.0 MLshow
1.000 UL
LTb
LCb setrgbcolor
LCb setrgbcolor
528 1028 M
currentpoint gsave translate -270 rotate 0 0 moveto
[ [(Times-Roman) 220.0 0.0 true true 0 (C\(q\))]
] -73.3 MCshow
grestore
LTb
% Begin plot #1
1.000 UP
2.000 UL
LTb
0.34 0.71 0.91 C LCb setrgbcolor
9227 -9652 M
[ [(Times-Roman) 130.0 0.0 true true 0 (CorrFunc)]
] -43.3 MRshow
1.000 UP
2.000 UL
LTb
0.34 0.71 0.91 C 9305 -9652 M
156 0 V
-156 31 R
0 -62 V
156 62 R
0 -62 V
951 1042 M
0 31 V
-15 -31 R
46 0 V
-46 31 R
46 0 V
0 -61 R
0 27 V
-31 -27 R
62 0 V
-62 27 R
62 0 V
0 -71 R
0 22 V
982 968 M
62 0 V
-62 22 R
62 0 V
0 -53 R
0 19 V
-31 -19 R
62 0 V
-62 19 R
62 0 V
0 -66 R
0 18 V
-31 -18 R
62 0 V
-62 18 R
62 0 V
0 -80 R
0 18 V
-31 -18 R
62 0 V
-62 18 R
62 0 V
-1 -67 R
0 17 V
-31 -17 R
62 0 V
-62 17 R
62 0 V
0 -63 R
0 17 V
-31 -17 R
62 0 V
-62 17 R
62 0 V
0 -26 R
0 18 V
-31 -18 R
62 0 V
-62 18 R
62 0 V
0 -64 R
0 18 V
-31 -18 R
62 0 V
-62 18 R
62 0 V
0 -25 R
0 18 V
-31 -18 R
62 0 V
-62 18 R
62 0 V
0 -30 R
0 18 V
-31 -18 R
62 0 V
-62 18 R
62 0 V
-1 -32 R
0 19 V
-31 -19 R
62 0 V
-62 19 R
62 0 V
0 -29 R
0 19 V
-31 -19 R
62 0 V
-62 19 R
62 0 V
0 -30 R
0 19 V
-31 -19 R
62 0 V
-62 19 R
62 0 V
0 -26 R
0 20 V
-31 -20 R
62 0 V
-62 20 R
62 0 V
0 12 R
0 21 V
-31 -21 R
62 0 V
stroke 1476 649 M
-62 21 R
62 0 V
0 -54 R
0 20 V
-31 -20 R
62 0 V
-62 20 R
62 0 V
-1 -16 R
0 21 V
-31 -21 R
62 0 V
-62 21 R
62 0 V
0 -23 R
0 21 V
-31 -21 R
62 0 V
-62 21 R
62 0 V
0 -19 R
0 21 V
-31 -21 R
62 0 V
-62 21 R
62 0 V
0 -13 R
0 22 V
-31 -22 R
62 0 V
-62 22 R
62 0 V
0 -24 R
0 23 V
-31 -23 R
62 0 V
-62 23 R
62 0 V
0 -15 R
0 24 V
-31 -24 R
62 0 V
-62 24 R
62 0 V
0 -54 R
0 25 V
-31 -25 R
62 0 V
-62 25 R
62 0 V
-1 1 R
0 25 V
-31 -25 R
62 0 V
-62 25 R
62 0 V
0 -44 R
0 26 V
-31 -26 R
62 0 V
-62 26 R
62 0 V
0 -40 R
0 27 V
-31 -27 R
62 0 V
-62 27 R
62 0 V
0 -16 R
0 29 V
-31 -29 R
62 0 V
-62 29 R
62 0 V
0 -13 R
0 30 V
-31 -30 R
62 0 V
-62 30 R
62 0 V
0 -44 R
0 30 V
-31 -30 R
62 0 V
-62 30 R
62 0 V
-1 5 R
0 33 V
-31 -33 R
62 0 V
-62 33 R
62 0 V
0 -81 R
0 34 V
-31 -34 R
62 0 V
-62 34 R
62 0 V
0 -50 R
0 36 V
-31 -36 R
62 0 V
-62 36 R
62 0 V
stroke 2000 617 M
0 4 R
0 39 V
-31 -39 R
62 0 V
-62 39 R
62 0 V
0 -43 R
0 41 V
-31 -41 R
62 0 V
-62 41 R
62 0 V
0 -48 R
0 44 V
-31 -44 R
62 0 V
-62 44 R
62 0 V
-1 -84 R
0 47 V
-31 -47 R
62 0 V
-62 47 R
62 0 V
0 -38 R
0 51 V
-31 -51 R
62 0 V
-62 51 R
62 0 V
0 -109 R
0 55 V
-31 -55 R
62 0 V
-62 55 R
62 0 V
0 23 R
0 63 V
-31 -63 R
62 0 V
-62 63 R
62 0 V
0 -100 R
0 68 V
-31 -68 R
62 0 V
-62 68 R
62 0 V
0 -16 R
0 78 V
-31 -78 R
62 0 V
-62 78 R
62 0 V
-1 -86 R
0 87 V
-31 -87 R
62 0 V
-62 87 R
62 0 V
0 -93 R
0 99 V
-31 -99 R
62 0 V
-62 99 R
62 0 V
0 -216 R
0 109 V
2308 483 M
62 0 V
-62 109 R
62 0 V
0 -64 R
0 130 V
2339 528 M
62 0 V
-62 130 R
62 0 V
0 -141 R
0 151 V
2370 517 M
62 0 V
-62 151 R
62 0 V
0 -41 R
0 188 V
2401 627 M
46 0 V
-46 188 R
46 0 V
951 1058 TriU
982 1025 TriU
1013 979 TriU
1044 947 TriU
1075 899 TriU
1106 837 TriU
1136 788 TriU
1167 742 TriU
1198 733 TriU
1229 687 TriU
1260 680 TriU
1291 668 TriU
1321 654 TriU
1352 644 TriU
1383 634 TriU
1414 627 TriU
1445 660 TriU
1476 626 TriU
1506 630 TriU
1537 629 TriU
1568 630 TriU
1599 639 TriU
1630 637 TriU
1661 646 TriU
1692 616 TriU
1722 642 TriU
1753 624 TriU
1784 610 TriU
1815 622 TriU
1846 639 TriU
1877 625 TriU
1907 661 TriU
1938 614 TriU
1969 599 TriU
2000 641 TriU
2031 637 TriU
2062 632 TriU
2092 593 TriU
2123 605 TriU
2154 549 TriU
2185 630 TriU
2216 596 TriU
2247 653 TriU
2277 649 TriU
2308 649 TriU
2339 537 TriU
2370 593 TriU
2401 592 TriU
2432 721 TriU
9383 -9652 TriU
% End plot #1
% Begin plot #2
2.400 UL
LTb
0.58 0.00 0.83 C LCb setrgbcolor
9227 -9717 M
[ [(Times-Roman) 130.0 0.0 true true 0 (3DFit)]
] -43.3 MRshow
2.400 UL
LTb
0.58 0.00 0.83 C 9305 -9717 M
156 0 V
936 1173 M
15 -10 V
31 -37 V
31 -50 V
31 -58 V
31 -63 V
31 -63 V
30 -58 V
31 -51 V
31 -45 V
31 -34 V
31 -26 V
31 -18 V
30 -14 V
31 -10 V
31 -6 V
31 -3 V
31 -3 V
31 -1 V
30 -1 V
31 0 V
31 0 V
31 0 V
31 0 V
31 0 V
31 0 V
30 0 V
31 0 V
31 0 V
31 0 V
31 0 V
31 0 V
30 0 V
31 0 V
31 0 V
31 0 V
31 0 V
31 0 V
30 0 V
31 0 V
31 0 V
31 0 V
31 0 V
31 0 V
30 0 V
31 0 V
31 0 V
31 0 V
31 0 V
31 0 V
15 0 V
% End plot #2
stroke
2.000 UL
LTb
LCb setrgbcolor
1.000 UL
LTB
LCb setrgbcolor
936 1652 N
936 405 L
1511 0 V
0 1247 V
-1511 0 V
Z stroke
1.000 UP
1.000 UL
LTb
LCb setrgbcolor
1.000 UL
LTb
LCb setrgbcolor
2448 422 M
31 0 V
1480 0 R
-31 0 V
2448 490 M
31 0 V
1480 0 R
-31 0 V
2448 559 M
31 0 V
1480 0 R
-31 0 V
2448 627 M
63 0 V
1448 0 R
-63 0 V
stroke
2419 627 M
[ [(Times-Roman) 10.0 0.0 true true 0 ( 1)]
] -3.3 MRshow
1.000 UL
LTb
LCb setrgbcolor
2448 695 M
31 0 V
1480 0 R
-31 0 V
2448 764 M
31 0 V
1480 0 R
-31 0 V
2448 832 M
31 0 V
1480 0 R
-31 0 V
2448 900 M
31 0 V
1480 0 R
-31 0 V
2448 969 M
63 0 V
1448 0 R
-63 0 V
stroke
2419 969 M
[ [(Times-Roman) 10.0 0.0 true true 0 ( 1.2)]
] -3.3 MRshow
1.000 UL
LTb
LCb setrgbcolor
2448 1037 M
31 0 V
1480 0 R
-31 0 V
-1480 68 R
31 0 V
1480 0 R
-31 0 V
-1480 69 R
31 0 V
1480 0 R
-31 0 V
-1480 68 R
31 0 V
1480 0 R
-31 0 V
-1480 68 R
63 0 V
1448 0 R
-63 0 V
stroke
2419 1310 M
[ [(Times-Roman) 10.0 0.0 true true 0 ( 1.4)]
] -3.3 MRshow
1.000 UL
LTb
LCb setrgbcolor
2448 1379 M
31 0 V
1480 0 R
-31 0 V
-1480 68 R
31 0 V
1480 0 R
-31 0 V
-1480 68 R
31 0 V
1480 0 R
-31 0 V
-1480 69 R
31 0 V
1480 0 R
-31 0 V
-1480 68 R
63 0 V
1448 0 R
-63 0 V
stroke
2419 1652 M
[ [(Times-Roman) 10.0 0.0 true true 0 ( 1.6)]
] -3.3 MRshow
1.000 UL
LTb
LCb setrgbcolor
2541 405 M
0 31 V
0 1216 R
0 -31 V
2664 405 M
0 31 V
0 1216 R
0 -31 V
2787 405 M
0 31 V
0 1216 R
0 -31 V
2911 405 M
0 31 V
0 1216 R
0 -31 V
3034 405 M
0 63 V
0 1184 R
0 -63 V
stroke
3034 285 M
[ [(Times-Roman) 150.0 0.0 true true 0 ( 0.1)]
] -50.0 MCshow
1.000 UL
LTb
LCb setrgbcolor
3157 405 M
0 31 V
0 1216 R
0 -31 V
3281 405 M
0 31 V
0 1216 R
0 -31 V
3404 405 M
0 31 V
0 1216 R
0 -31 V
3527 405 M
0 31 V
0 1216 R
0 -31 V
3651 405 M
0 63 V
0 1184 R
0 -63 V
stroke
3651 285 M
[ [(Times-Roman) 150.0 0.0 true true 0 ( 0.2)]
] -50.0 MCshow
1.000 UL
LTb
LCb setrgbcolor
3774 405 M
0 31 V
0 1216 R
0 -31 V
3897 405 M
0 31 V
0 1216 R
0 -31 V
stroke
LTB
LCb setrgbcolor
2448 1652 N
0 -1247 V
1511 0 V
0 1247 V
-1511 0 V
Z stroke
1.000 UP
LCb setrgbcolor
3034 935 M
[ [(Times-Roman) 180.0 0.0 true true 0 (Rlong)]
] -60.0 MLshow
1.000 UL
LTb
LCb setrgbcolor
LCb setrgbcolor
2040 1028 M
currentpoint gsave translate -270 rotate 0 0 moveto
[ [(Times-Roman) 10.0 0.0 true true 0 (C\(q\))]
] -3.3 MCshow
grestore
LTb
% Begin plot #1
1.000 UP
2.000 UL
LTb
0.34 0.71 0.91 C LCb setrgbcolor
10739 -9659 M
[ [(Times-Roman) 130.0 0.0 true true 0 (CorrFunc)]
] -43.3 MRshow
1.000 UP
2.000 UL
LTb
0.34 0.71 0.91 C 10817 -9659 M
156 0 V
-156 31 R
0 -62 V
156 62 R
0 -62 V
2463 1194 M
0 45 V
-15 -45 R
46 0 V
-46 45 R
46 0 V
0 -84 R
0 38 V
-31 -38 R
62 0 V
-62 38 R
62 0 V
0 -81 R
0 31 V
-31 -31 R
62 0 V
-62 31 R
62 0 V
0 -71 R
0 26 V
-31 -26 R
62 0 V
-62 26 R
62 0 V
0 -104 R
0 24 V
-31 -24 R
62 0 V
-62 24 R
62 0 V
0 -75 R
0 24 V
-31 -24 R
62 0 V
-62 24 R
62 0 V
-1 -85 R
0 24 V
-31 -24 R
62 0 V
-62 24 R
62 0 V
0 -72 R
0 24 V
-31 -24 R
62 0 V
-62 24 R
62 0 V
0 -87 R
0 23 V
-31 -23 R
62 0 V
-62 23 R
62 0 V
0 -59 R
0 23 V
-31 -23 R
62 0 V
-62 23 R
62 0 V
0 -35 R
0 24 V
-31 -24 R
62 0 V
-62 24 R
62 0 V
0 -46 R
0 23 V
-31 -23 R
62 0 V
-62 23 R
62 0 V
-1 -68 R
0 24 V
-31 -24 R
62 0 V
-62 24 R
62 0 V
0 -5 R
0 24 V
-31 -24 R
62 0 V
-62 24 R
62 0 V
0 -38 R
0 24 V
-31 -24 R
62 0 V
-62 24 R
62 0 V
0 -38 R
0 25 V
-31 -25 R
62 0 V
-62 25 R
62 0 V
0 -30 R
0 25 V
-31 -25 R
62 0 V
stroke 2988 642 M
-62 25 R
62 0 V
0 -37 R
0 25 V
-31 -25 R
62 0 V
-62 25 R
62 0 V
-1 -25 R
0 25 V
-31 -25 R
62 0 V
-62 25 R
62 0 V
0 -39 R
0 26 V
-31 -26 R
62 0 V
-62 26 R
62 0 V
0 6 R
0 26 V
-31 -26 R
62 0 V
-62 26 R
62 0 V
0 -63 R
0 26 V
-31 -26 R
62 0 V
-62 26 R
62 0 V
0 -31 R
0 26 V
-31 -26 R
62 0 V
-62 26 R
62 0 V
0 -19 R
0 27 V
-31 -27 R
62 0 V
-62 27 R
62 0 V
0 -28 R
0 28 V
-31 -28 R
62 0 V
-62 28 R
62 0 V
-1 -38 R
0 28 V
-31 -28 R
62 0 V
-62 28 R
62 0 V
0 -7 R
0 29 V
-31 -29 R
62 0 V
-62 29 R
62 0 V
0 -49 R
0 29 V
-31 -29 R
62 0 V
-62 29 R
62 0 V
0 -13 R
0 30 V
-31 -30 R
62 0 V
-62 30 R
62 0 V
0 -37 R
0 30 V
-31 -30 R
62 0 V
-62 30 R
62 0 V
0 -18 R
0 30 V
-31 -30 R
62 0 V
-62 30 R
62 0 V
-1 -51 R
0 31 V
-31 -31 R
62 0 V
-62 31 R
62 0 V
0 -11 R
0 32 V
-31 -32 R
62 0 V
-62 32 R
62 0 V
0 -48 R
0 33 V
-31 -33 R
62 0 V
-62 33 R
62 0 V
stroke 3512 640 M
0 -37 R
0 34 V
-31 -34 R
62 0 V
-62 34 R
62 0 V
0 -55 R
0 34 V
-31 -34 R
62 0 V
-62 34 R
62 0 V
0 -10 R
0 35 V
-31 -35 R
62 0 V
-62 35 R
62 0 V
-1 -38 R
0 37 V
-31 -37 R
62 0 V
-62 37 R
62 0 V
0 -49 R
0 37 V
-31 -37 R
62 0 V
-62 37 R
62 0 V
0 -29 R
0 38 V
-31 -38 R
62 0 V
-62 38 R
62 0 V
0 -50 R
0 39 V
-31 -39 R
62 0 V
-62 39 R
62 0 V
0 -29 R
0 40 V
-31 -40 R
62 0 V
-62 40 R
62 0 V
0 -7 R
0 42 V
-31 -42 R
62 0 V
-62 42 R
62 0 V
-1 -60 R
0 44 V
-31 -44 R
62 0 V
-62 44 R
62 0 V
0 -23 R
0 46 V
-31 -46 R
62 0 V
-62 46 R
62 0 V
0 -76 R
0 48 V
-31 -48 R
62 0 V
-62 48 R
62 0 V
0 -18 R
0 50 V
-31 -50 R
62 0 V
-62 50 R
62 0 V
0 -43 R
0 53 V
-31 -53 R
62 0 V
-62 53 R
62 0 V
0 -63 R
0 56 V
-31 -56 R
46 0 V
-46 56 R
46 0 V
2463 1216 TriU
2494 1174 TriU
2525 1128 TriU
2556 1085 TriU
2587 1006 TriU
2618 955 TriU
2648 894 TriU
2679 846 TriU
2710 783 TriU
2741 747 TriU
2772 735 TriU
2803 712 TriU
2833 668 TriU
2864 687 TriU
2895 673 TriU
2926 660 TriU
2957 654 TriU
2988 642 TriU
3018 642 TriU
3049 629 TriU
3080 661 TriU
3111 624 TriU
3142 619 TriU
3173 627 TriU
3204 626 TriU
3234 616 TriU
3265 637 TriU
3296 617 TriU
3327 634 TriU
3358 627 TriU
3389 639 TriU
3419 619 TriU
3450 639 TriU
3481 623 TriU
3512 620 TriU
3543 599 TriU
3574 623 TriU
3604 622 TriU
3635 609 TriU
3666 618 TriU
3697 607 TriU
3728 617 TriU
3759 651 TriU
3789 634 TriU
3820 656 TriU
3851 627 TriU
3882 658 TriU
3913 666 TriU
3944 658 TriU
10895 -9659 TriU
% End plot #1
% Begin plot #2
2.400 UL
LTb
0.58 0.00 0.83 C LCb setrgbcolor
10739 -9737 M
[ [(Times-Roman) 130.0 0.0 true true 0 (3DFit)]
] -43.3 MRshow
2.400 UL
LTb
0.58 0.00 0.83 C 10817 -9737 M
156 0 V
2448 1298 M
15 -8 V
31 -34 V
31 -48 V
31 -58 V
31 -63 V
31 -67 V
30 -67 V
31 -61 V
31 -57 V
31 -47 V
31 -41 V
31 -33 V
30 -25 V
31 -21 V
31 -14 V
31 -10 V
31 -7 V
31 -5 V
30 -3 V
31 -2 V
31 -1 V
31 -1 V
31 0 V
31 -1 V
31 0 V
30 0 V
31 0 V
31 0 V
31 0 V
31 0 V
31 0 V
30 0 V
31 0 V
31 0 V
31 0 V
31 0 V
31 0 V
30 0 V
31 0 V
31 0 V
31 0 V
31 0 V
31 0 V
30 0 V
31 0 V
31 0 V
31 0 V
31 0 V
31 0 V
15 0 V
% End plot #2
stroke
2.000 UL
LTb
LCb setrgbcolor
1.000 UL
LTB
LCb setrgbcolor
2448 1652 N
0 -1247 V
1511 0 V
0 1247 V
-1511 0 V
Z stroke
1.000 UP
1.000 UL
LTb
LCb setrgbcolor
1.000 UL
LTb
LCb setrgbcolor
3960 422 M
31 0 V
1480 0 R
-31 0 V
3960 490 M
31 0 V
1480 0 R
-31 0 V
3960 559 M
31 0 V
1480 0 R
-31 0 V
3960 627 M
63 0 V
1448 0 R
-63 0 V
stroke
3931 627 M
[ [(Times-Roman) 10.0 0.0 true true 0 ( 1)]
] -3.3 MRshow
1.000 UL
LTb
LCb setrgbcolor
3960 695 M
31 0 V
1480 0 R
-31 0 V
3960 764 M
31 0 V
1480 0 R
-31 0 V
3960 832 M
31 0 V
1480 0 R
-31 0 V
3960 900 M
31 0 V
1480 0 R
-31 0 V
3960 969 M
63 0 V
1448 0 R
-63 0 V
stroke
3931 969 M
[ [(Times-Roman) 10.0 0.0 true true 0 ( 1.2)]
] -3.3 MRshow
1.000 UL
LTb
LCb setrgbcolor
3960 1037 M
31 0 V
1480 0 R
-31 0 V
-1480 68 R
31 0 V
1480 0 R
-31 0 V
-1480 69 R
31 0 V
1480 0 R
-31 0 V
-1480 68 R
31 0 V
1480 0 R
-31 0 V
-1480 68 R
63 0 V
1448 0 R
-63 0 V
stroke
3931 1310 M
[ [(Times-Roman) 10.0 0.0 true true 0 ( 1.4)]
] -3.3 MRshow
1.000 UL
LTb
LCb setrgbcolor
3960 1379 M
31 0 V
1480 0 R
-31 0 V
-1480 68 R
31 0 V
1480 0 R
-31 0 V
-1480 68 R
31 0 V
1480 0 R
-31 0 V
-1480 69 R
31 0 V
1480 0 R
-31 0 V
-1480 68 R
63 0 V
1448 0 R
-63 0 V
stroke
3931 1652 M
[ [(Times-Roman) 10.0 0.0 true true 0 ( 1.6)]
] -3.3 MRshow
1.000 UL
LTb
LCb setrgbcolor
4053 405 M
0 31 V
0 1216 R
0 -31 V
4176 405 M
0 31 V
0 1216 R
0 -31 V
4299 405 M
0 31 V
0 1216 R
0 -31 V
4423 405 M
0 31 V
0 1216 R
0 -31 V
4546 405 M
0 63 V
0 1184 R
0 -63 V
stroke
4546 285 M
[ [(Times-Roman) 150.0 0.0 true true 0 ( 0.1)]
] -50.0 MCshow
1.000 UL
LTb
LCb setrgbcolor
4669 405 M
0 31 V
0 1216 R
0 -31 V
4793 405 M
0 31 V
0 1216 R
0 -31 V
4916 405 M
0 31 V
0 1216 R
0 -31 V
5039 405 M
0 31 V
0 1216 R
0 -31 V
5163 405 M
0 63 V
0 1184 R
0 -63 V
stroke
5163 285 M
[ [(Times-Roman) 150.0 0.0 true true 0 ( 0.2)]
] -50.0 MCshow
1.000 UL
LTb
LCb setrgbcolor
5286 405 M
0 31 V
0 1216 R
0 -31 V
5409 405 M
0 31 V
0 1216 R
0 -31 V
stroke
LTB
LCb setrgbcolor
3960 1652 N
0 -1247 V
1511 0 V
0 1247 V
-1511 0 V
Z stroke
1.000 UP
LCb setrgbcolor
4546 935 M
[ [(Times-Roman) 180.0 0.0 true true 0 (Rlong)]
] -60.0 MLshow
1.000 UL
LTb
LCb setrgbcolor
LCb setrgbcolor
3552 1028 M
currentpoint gsave translate -270 rotate 0 0 moveto
[ [(Times-Roman) 10.0 0.0 true true 0 (C\(q\))]
] -3.3 MCshow
grestore
LTb
% Begin plot #1
1.000 UP
2.000 UL
LTb
0.34 0.71 0.91 C LCb setrgbcolor
12251 -9652 M
[ [(Times-Roman) 130.0 0.0 true true 0 (CorrFunc)]
] -43.3 MRshow
1.000 UP
2.000 UL
LTb
0.34 0.71 0.91 C 12329 -9652 M
156 0 V
-156 31 R
0 -62 V
156 62 R
0 -62 V
3975 1286 M
0 66 V
-15 -66 R
46 0 V
-46 66 R
46 0 V
0 3 R
0 58 V
-31 -58 R
62 0 V
-62 58 R
62 0 V
0 -169 R
0 44 V
-31 -44 R
62 0 V
-62 44 R
62 0 V
0 -66 R
0 37 V
-31 -37 R
62 0 V
-62 37 R
62 0 V
0 -138 R
0 34 V
-31 -34 R
62 0 V
-62 34 R
62 0 V
0 -116 R
0 34 V
-31 -34 R
62 0 V
-62 34 R
62 0 V
-1 -73 R
0 33 V
-31 -33 R
62 0 V
-62 33 R
62 0 V
0 -95 R
0 34 V
-31 -34 R
62 0 V
-62 34 R
62 0 V
0 -115 R
0 32 V
-31 -32 R
62 0 V
-62 32 R
62 0 V
0 -83 R
0 32 V
-31 -32 R
62 0 V
-62 32 R
62 0 V
0 -70 R
0 32 V
-31 -32 R
62 0 V
-62 32 R
62 0 V
0 -13 R
0 32 V
-31 -32 R
62 0 V
-62 32 R
62 0 V
-1 -78 R
0 32 V
-31 -32 R
62 0 V
-62 32 R
62 0 V
0 -43 R
0 33 V
-31 -33 R
62 0 V
-62 33 R
62 0 V
0 -77 R
0 33 V
-31 -33 R
62 0 V
-62 33 R
62 0 V
0 -33 R
0 33 V
-31 -33 R
62 0 V
-62 33 R
62 0 V
0 -49 R
0 33 V
-31 -33 R
62 0 V
stroke 4500 670 M
-62 33 R
62 0 V
0 -62 R
0 33 V
-31 -33 R
62 0 V
-62 33 R
62 0 V
-1 -38 R
0 33 V
-31 -33 R
62 0 V
-62 33 R
62 0 V
0 -35 R
0 34 V
-31 -34 R
62 0 V
-62 34 R
62 0 V
0 -36 R
0 34 V
-31 -34 R
62 0 V
-62 34 R
62 0 V
0 -3 R
0 34 V
-31 -34 R
62 0 V
-62 34 R
62 0 V
0 -60 R
0 35 V
-31 -35 R
62 0 V
-62 35 R
62 0 V
0 -69 R
0 34 V
-31 -34 R
62 0 V
-62 34 R
62 0 V
0 -33 R
0 35 V
-31 -35 R
62 0 V
-62 35 R
62 0 V
-1 -13 R
0 36 V
-31 -36 R
62 0 V
-62 36 R
62 0 V
0 -72 R
0 35 V
-31 -35 R
62 0 V
-62 35 R
62 0 V
0 -4 R
0 36 V
-31 -36 R
62 0 V
-62 36 R
62 0 V
0 -29 R
0 36 V
-31 -36 R
62 0 V
-62 36 R
62 0 V
0 -40 R
0 37 V
-31 -37 R
62 0 V
-62 37 R
62 0 V
0 -32 R
0 37 V
-31 -37 R
62 0 V
-62 37 R
62 0 V
-1 -79 R
0 37 V
-31 -37 R
62 0 V
-62 37 R
62 0 V
0 23 R
0 39 V
-31 -39 R
62 0 V
-62 39 R
62 0 V
0 -89 R
0 39 V
-31 -39 R
62 0 V
-62 39 R
62 0 V
stroke 5024 636 M
0 -35 R
0 39 V
-31 -39 R
62 0 V
-62 39 R
62 0 V
0 -41 R
0 40 V
-31 -40 R
62 0 V
-62 40 R
62 0 V
0 -29 R
0 41 V
-31 -41 R
62 0 V
-62 41 R
62 0 V
-1 -17 R
0 41 V
-31 -41 R
62 0 V
-62 41 R
62 0 V
0 -64 R
0 42 V
-31 -42 R
62 0 V
-62 42 R
62 0 V
0 -53 R
0 42 V
-31 -42 R
62 0 V
-62 42 R
62 0 V
0 -59 R
0 42 V
-31 -42 R
62 0 V
-62 42 R
62 0 V
0 7 R
0 44 V
-31 -44 R
62 0 V
-62 44 R
62 0 V
0 -54 R
0 44 V
-31 -44 R
62 0 V
-62 44 R
62 0 V
-1 -85 R
0 44 V
-31 -44 R
62 0 V
-62 44 R
62 0 V
0 -23 R
0 45 V
-31 -45 R
62 0 V
-62 45 R
62 0 V
0 -63 R
0 46 V
-31 -46 R
62 0 V
-62 46 R
62 0 V
0 -36 R
0 47 V
-31 -47 R
62 0 V
-62 47 R
62 0 V
0 -53 R
0 48 V
-31 -48 R
62 0 V
-62 48 R
62 0 V
0 -10 R
0 50 V
-31 -50 R
46 0 V
-46 50 R
46 0 V
3975 1319 TriU
4006 1384 TriU
4037 1266 TriU
4068 1240 TriU
4099 1138 TriU
4130 1056 TriU
4160 1017 TriU
4191 955 TriU
4222 873 TriU
4253 822 TriU
4284 784 TriU
4315 803 TriU
4345 757 TriU
4376 747 TriU
4407 702 TriU
4438 702 TriU
4469 687 TriU
4500 658 TriU
4530 653 TriU
4561 651 TriU
4592 649 TriU
4623 680 TriU
4654 654 TriU
4685 620 TriU
4716 621 TriU
4746 644 TriU
4777 607 TriU
4808 639 TriU
4839 646 TriU
4870 642 TriU
4901 648 TriU
4931 605 TriU
4962 666 TriU
4993 617 TriU
5024 620 TriU
5055 619 TriU
5086 630 TriU
5116 654 TriU
5147 632 TriU
5178 621 TriU
5209 604 TriU
5240 654 TriU
5271 644 TriU
5301 603 TriU
5332 625 TriU
5363 607 TriU
5394 618 TriU
5425 612 TriU
5456 651 TriU
12407 -9652 TriU
% End plot #1
% Begin plot #2
2.400 UL
LTb
0.58 0.00 0.83 C LCb setrgbcolor
12251 -9717 M
[ [(Times-Roman) 130.0 0.0 true true 0 (3DFit)]
] -43.3 MRshow
2.400 UL
LTb
0.58 0.00 0.83 C 12329 -9717 M
156 0 V
3960 1377 M
15 -7 V
31 -27 V
31 -39 V
31 -50 V
31 -56 V
31 -62 V
30 -63 V
31 -62 V
31 -61 V
31 -55 V
31 -51 V
31 -44 V
30 -38 V
31 -32 V
31 -26 V
31 -21 V
31 -17 V
31 -12 V
30 -8 V
31 -7 V
31 -5 V
31 -4 V
31 -1 V
31 -3 V
31 -1 V
30 0 V
31 -1 V
31 0 V
31 0 V
31 0 V
31 0 V
30 0 V
31 0 V
31 0 V
31 0 V
31 0 V
31 0 V
30 0 V
31 0 V
31 0 V
31 0 V
31 0 V
31 0 V
30 0 V
31 0 V
31 0 V
31 0 V
31 0 V
31 0 V
15 0 V
% End plot #2
stroke
2.000 UL
LTb
LCb setrgbcolor
1.000 UL
LTB
LCb setrgbcolor
3960 1652 N
0 -1247 V
1511 0 V
0 1247 V
-1511 0 V
Z stroke
1.000 UP
1.000 UL
LTb
LCb setrgbcolor
1.000 UL
LTb
LCb setrgbcolor
5472 422 M
31 0 V
1479 0 R
-31 0 V
5472 490 M
31 0 V
1479 0 R
-31 0 V
5472 559 M
31 0 V
1479 0 R
-31 0 V
5472 627 M
63 0 V
1447 0 R
-63 0 V
stroke
5443 627 M
[ [(Times-Roman) 10.0 0.0 true true 0 ( 1)]
] -3.3 MRshow
1.000 UL
LTb
LCb setrgbcolor
5472 695 M
31 0 V
1479 0 R
-31 0 V
5472 764 M
31 0 V
1479 0 R
-31 0 V
5472 832 M
31 0 V
1479 0 R
-31 0 V
5472 900 M
31 0 V
1479 0 R
-31 0 V
5472 969 M
63 0 V
1447 0 R
-63 0 V
stroke
5443 969 M
[ [(Times-Roman) 10.0 0.0 true true 0 ( 1.2)]
] -3.3 MRshow
1.000 UL
LTb
LCb setrgbcolor
5472 1037 M
31 0 V
1479 0 R
-31 0 V
-1479 68 R
31 0 V
1479 0 R
-31 0 V
-1479 69 R
31 0 V
1479 0 R
-31 0 V
-1479 68 R
31 0 V
1479 0 R
-31 0 V
-1479 68 R
63 0 V
1447 0 R
-63 0 V
stroke
5443 1310 M
[ [(Times-Roman) 10.0 0.0 true true 0 ( 1.4)]
] -3.3 MRshow
1.000 UL
LTb
LCb setrgbcolor
5472 1379 M
31 0 V
1479 0 R
-31 0 V
-1479 68 R
31 0 V
1479 0 R
-31 0 V
-1479 68 R
31 0 V
1479 0 R
-31 0 V
-1479 69 R
31 0 V
1479 0 R
-31 0 V
-1479 68 R
63 0 V
1447 0 R
-63 0 V
stroke
5443 1652 M
[ [(Times-Roman) 10.0 0.0 true true 0 ( 1.6)]
] -3.3 MRshow
1.000 UL
LTb
LCb setrgbcolor
5564 405 M
0 31 V
0 1216 R
0 -31 V
5688 405 M
0 31 V
0 1216 R
0 -31 V
5811 405 M
0 31 V
0 1216 R
0 -31 V
5934 405 M
0 31 V
0 1216 R
0 -31 V
6058 405 M
0 63 V
0 1184 R
0 -63 V
stroke
6058 285 M
[ [(Times-Roman) 150.0 0.0 true true 0 ( 0.1)]
] -50.0 MCshow
1.000 UL
LTb
LCb setrgbcolor
6181 405 M
0 31 V
0 1216 R
0 -31 V
6304 405 M
0 31 V
0 1216 R
0 -31 V
6427 405 M
0 31 V
0 1216 R
0 -31 V
6551 405 M
0 31 V
0 1216 R
0 -31 V
6674 405 M
0 63 V
0 1184 R
0 -63 V
stroke
6674 285 M
[ [(Times-Roman) 150.0 0.0 true true 0 ( 0.2)]
] -50.0 MCshow
1.000 UL
LTb
LCb setrgbcolor
6797 405 M
0 31 V
0 1216 R
0 -31 V
6920 405 M
0 31 V
0 1216 R
0 -31 V
stroke
LTB
LCb setrgbcolor
5472 1652 N
0 -1247 V
1510 0 V
0 1247 V
-1510 0 V
Z stroke
1.000 UP
LCb setrgbcolor
6058 935 M
[ [(Times-Roman) 180.0 0.0 true true 0 (Rlong)]
] -60.0 MLshow
1.000 UL
LTb
LCb setrgbcolor
LCb setrgbcolor
5064 1028 M
currentpoint gsave translate -270 rotate 0 0 moveto
[ [(Times-Roman) 10.0 0.0 true true 0 (C\(q\))]
] -3.3 MCshow
grestore
LTb
% Begin plot #1
1.000 UP
2.000 UL
LTb
0.34 0.71 0.91 C LCb setrgbcolor
13758 -9652 M
[ [(Times-Roman) 130.0 0.0 true true 0 (CorrFunc)]
] -43.3 MRshow
1.000 UP
2.000 UL
LTb
0.34 0.71 0.91 C 13836 -9652 M
156 0 V
-156 31 R
0 -62 V
156 62 R
0 -62 V
5487 1419 M
0 223 V
-15 -223 R
46 0 V
-46 223 R
46 0 V
0 -422 R
0 161 V
-31 -161 R
62 0 V
-62 161 R
62 0 V
0 -6 R
0 120 V
-31 -120 R
62 0 V
-62 120 R
62 0 V
0 -193 R
0 81 V
-31 -81 R
62 0 V
-62 81 R
62 0 V
0 -163 R
0 61 V
-31 -61 R
62 0 V
-62 61 R
62 0 V
-1 -58 R
0 55 V
-31 -55 R
62 0 V
-62 55 R
62 0 V
0 -113 R
0 52 V
-31 -52 R
62 0 V
-62 52 R
62 0 V
0 -156 R
0 51 V
-31 -51 R
62 0 V
-62 51 R
62 0 V
0 -56 R
0 51 V
-31 -51 R
62 0 V
-62 51 R
62 0 V
0 -110 R
0 49 V
-31 -49 R
62 0 V
-62 49 R
62 0 V
0 -97 R
0 49 V
-31 -49 R
62 0 V
-62 49 R
62 0 V
-1 -122 R
0 48 V
-31 -48 R
62 0 V
-62 48 R
62 0 V
0 -75 R
0 48 V
-31 -48 R
62 0 V
-62 48 R
62 0 V
0 -53 R
0 48 V
-31 -48 R
62 0 V
-62 48 R
62 0 V
0 -119 R
0 47 V
-31 -47 R
62 0 V
-62 47 R
62 0 V
0 -29 R
0 48 V
-31 -48 R
62 0 V
-62 48 R
62 0 V
-1 -114 R
0 47 V
-31 -47 R
62 0 V
stroke 6011 725 M
-62 47 R
62 0 V
0 -74 R
0 46 V
-31 -46 R
62 0 V
-62 46 R
62 0 V
0 -80 R
0 46 V
-31 -46 R
62 0 V
-62 46 R
62 0 V
0 -30 R
0 47 V
-31 -47 R
62 0 V
-62 47 R
62 0 V
0 -47 R
0 48 V
-31 -48 R
62 0 V
-62 48 R
62 0 V
0 -14 R
0 48 V
-31 -48 R
62 0 V
-62 48 R
62 0 V
-1 -89 R
0 48 V
-31 -48 R
62 0 V
-62 48 R
62 0 V
0 -119 R
0 47 V
-31 -47 R
62 0 V
-62 47 R
62 0 V
0 12 R
0 48 V
-31 -48 R
62 0 V
-62 48 R
62 0 V
0 -74 R
0 49 V
-31 -49 R
62 0 V
-62 49 R
62 0 V
0 -61 R
0 49 V
-31 -49 R
62 0 V
-62 49 R
62 0 V
-1 -23 R
0 49 V
-31 -49 R
62 0 V
-62 49 R
62 0 V
0 -61 R
0 49 V
-31 -49 R
62 0 V
-62 49 R
62 0 V
0 -55 R
0 50 V
-31 -50 R
62 0 V
-62 50 R
62 0 V
0 -82 R
0 49 V
-31 -49 R
62 0 V
-62 49 R
62 0 V
0 -22 R
0 50 V
-31 -50 R
62 0 V
-62 50 R
62 0 V
0 -50 R
0 50 V
-31 -50 R
62 0 V
-62 50 R
62 0 V
-1 -59 R
0 51 V
-31 -51 R
62 0 V
-62 51 R
62 0 V
stroke 6535 668 M
0 -101 R
0 51 V
-31 -51 R
62 0 V
-62 51 R
62 0 V
0 9 R
0 52 V
-31 -52 R
62 0 V
-62 52 R
62 0 V
0 -100 R
0 52 V
-31 -52 R
62 0 V
-62 52 R
62 0 V
0 -30 R
0 52 V
-31 -52 R
62 0 V
-62 52 R
62 0 V
-1 -64 R
0 53 V
-31 -53 R
62 0 V
-62 53 R
62 0 V
0 -85 R
0 52 V
-31 -52 R
62 0 V
-62 52 R
62 0 V
0 42 R
0 55 V
-31 -55 R
62 0 V
-62 55 R
62 0 V
0 -87 R
0 54 V
-31 -54 R
62 0 V
-62 54 R
62 0 V
0 -65 R
0 55 V
-31 -55 R
62 0 V
-62 55 R
62 0 V
0 -99 R
0 54 V
-31 -54 R
62 0 V
-62 54 R
62 0 V
-1 -33 R
0 56 V
-31 -56 R
62 0 V
-62 56 R
62 0 V
0 -53 R
0 55 V
-31 -55 R
62 0 V
-62 55 R
62 0 V
0 -20 R
0 56 V
-31 -56 R
62 0 V
-62 56 R
62 0 V
0 -116 R
0 56 V
-31 -56 R
62 0 V
-62 56 R
62 0 V
0 -38 R
0 57 V
-31 -57 R
46 0 V
-46 57 R
46 0 V
5487 1531 TriU
5518 1300 TriU
5549 1435 TriU
5580 1343 TriU
5611 1251 TriU
5641 1251 TriU
5672 1191 TriU
5703 1087 TriU
5734 1081 TriU
5765 1022 TriU
5796 974 TriU
5826 900 TriU
5857 873 TriU
5888 868 TriU
5919 796 TriU
5950 815 TriU
5980 748 TriU
6011 721 TriU
6042 687 TriU
6073 704 TriU
6104 704 TriU
6135 738 TriU
6165 697 TriU
6196 625 TriU
6227 685 TriU
6258 660 TriU
6289 648 TriU
6319 673 TriU
6350 661 TriU
6381 656 TriU
6412 623 TriU
6443 651 TriU
6474 651 TriU
6504 642 TriU
6535 592 TriU
6566 653 TriU
6597 605 TriU
6628 627 TriU
6658 615 TriU
6689 583 TriU
6720 678 TriU
6751 646 TriU
6782 636 TriU
6813 591 TriU
6843 613 TriU
6874 615 TriU
6905 651 TriU
6936 591 TriU
6967 609 TriU
13914 -9652 TriU
% End plot #1
% Begin plot #2
2.400 UL
LTb
0.58 0.00 0.83 C LCb setrgbcolor
13758 -9717 M
[ [(Times-Roman) 130.0 0.0 true true 0 (3DFit)]
] -43.3 MRshow
2.400 UL
LTb
0.58 0.00 0.83 C 13836 -9717 M
156 0 V
5472 1398 M
15 -4 V
31 -15 V
31 -24 V
31 -31 V
31 -36 V
30 -41 V
31 -44 V
31 -48 V
31 -48 V
31 -49 V
31 -48 V
30 -46 V
31 -45 V
31 -41 V
31 -37 V
31 -35 V
30 -30 V
31 -28 V
31 -22 V
31 -20 V
31 -17 V
31 -14 V
30 -12 V
31 -9 V
31 -6 V
31 -7 V
31 -5 V
30 -4 V
31 -2 V
31 -3 V
31 -1 V
31 -1 V
31 -1 V
30 -1 V
31 0 V
31 0 V
31 -1 V
31 0 V
30 0 V
31 0 V
31 0 V
31 0 V
31 0 V
31 0 V
30 0 V
31 0 V
31 0 V
31 0 V
31 0 V
15 0 V
% End plot #2
stroke
2.000 UL
LTb
LCb setrgbcolor
1.000 UL
LTB
LCb setrgbcolor
5472 1652 N
0 -1247 V
1510 0 V
0 1247 V
-1510 0 V
Z stroke
1.000 UP
1.000 UL
LTb
LCb setrgbcolor
stroke
grestore
end
showpage
%%Trailer
%%DocumentFonts: Times-Roman
%%Pages: 1
