0.0025	1.094	0.002493	1.149
0.0075	1.139	0.002531	1.146
0.0125	1.155	0.002498	1.138
0.0175	1.162	0.002485	1.128
0.0225	1.14	0.002442	1.116
0.0275	1.122	0.002421	1.102
0.0325	1.1	0.002392	1.087
0.0375	1.078	0.002368	1.073
0.0425	1.057	0.002346	1.059
0.0475	1.04	0.002327	1.047
0.0525	1.026	0.002315	1.036
0.0575	1.02	0.002314	1.027
0.0625	1.016	0.002314	1.02
0.0675	1.009	0.00231	1.014
0.0725	1.005	0.002311	1.009
0.0775	1.003	0.002315	1.006
0.0825	1	0.002317	1.004
0.0875	0.9999	0.002326	1.002
0.0925	1	0.002334	1.001
0.0975	0.9979	0.00234	1
0.1025	0.9998	0.002354	0.9997
0.1075	0.9983	0.002365	0.9994
0.1125	0.9998	0.002383	0.9993
0.1175	1.004	0.002402	0.9991
0.1225	0.9975	0.002404	0.9991
0.1275	0.9972	0.002411	0.9991
0.1325	1.004	0.002433	0.999
0.1375	1.005	0.002449	0.999
0.1425	1.003	0.002454	0.999
0.1475	0.9995	0.002463	0.999
0.1525	0.9994	0.00247	0.999
0.1575	1	0.002481	0.999
0.1625	0.9972	0.002485	0.999
0.1675	0.9989	0.002505	0.999
0.1725	0.9997	0.00252	0.999
0.1775	0.998	0.002532	0.999
0.1825	0.9995	0.002551	0.999
0.1875	0.9979	0.002564	0.999
0.1925	0.9955	0.002577	0.999
0.1975	0.9981	0.002598	0.999
0.2025	0.9969	0.002612	0.999
0.2075	0.9985	0.002634	0.999
0.2125	1	0.002655	0.999
0.2175	1.003	0.002679	0.999
0.2225	0.9987	0.002694	0.999
0.2275	0.9973	0.00271	0.999
0.2325	0.9986	0.002734	0.999
0.2375	0.9954	0.002753	0.999
0.2425	0.9982	0.002779	0.999
0.2475	1	0.002807	0.999
0.2525	0.9989	0.002828	0.999
0.2575	1.004	0.002856	0.999
0.2625	1	0.002872	0.999
0.2675	0.9985	0.002889	0.999
0.2725	1.002	0.002918	0.999
0.2775	1.002	0.002941	0.999
0.2825	1.002	0.002967	0.999
0.2875	0.9993	0.002987	0.999
0.2925	1.002	0.00301	0.999
0.2975	1.003	0.003042	0.999

0.0025	1.103	0.003902	1.193
0.0075	1.152	0.003772	1.189
0.0125	1.209	0.003761	1.181
0.0175	1.219	0.003734	1.17
0.0225	1.206	0.003704	1.156
0.0275	1.181	0.003673	1.139
0.0325	1.14	0.003588	1.122
0.0375	1.116	0.003554	1.105
0.0425	1.085	0.003496	1.088
0.0475	1.063	0.003459	1.072
0.0525	1.046	0.003434	1.058
0.0575	1.036	0.003415	1.045
0.0625	1.026	0.003401	1.035
0.0675	1.02	0.003404	1.026
0.0725	1.008	0.003379	1.019
0.0775	1.005	0.003375	1.013
0.0825	1.004	0.003383	1.009
0.0875	0.9994	0.00338	1.006
0.0925	0.995	0.003377	1.004
0.0975	1.003	0.003408	1.002
0.1025	1.003	0.003415	1.001
0.1075	1.001	0.00342	1
0.1125	0.9974	0.003418	0.9999
0.1175	0.998	0.003429	0.9996
0.1225	0.9985	0.003439	0.9994
0.1275	0.9983	0.003451	0.9993
0.1325	1.004	0.003474	0.9992
0.1375	0.9942	0.003459	0.9991
0.1425	1	0.003484	0.9991
0.1475	1.002	0.003509	0.9991
0.1525	0.9985	0.003523	0.9991
0.1575	0.9985	0.003547	0.9991
0.1625	0.9921	0.003551	0.9991
0.1675	1.003	0.003588	0.9991
0.1725	0.9994	0.003592	0.9991
0.1775	0.9959	0.003593	0.9991
0.1825	1.006	0.003632	0.9991
0.1875	1.002	0.003638	0.9991
0.1925	0.9996	0.003648	0.9991
0.1975	1	0.003656	0.9991
0.2025	1.001	0.003659	0.9991
0.2075	1.001	0.003667	0.9991
0.2125	1.002	0.003686	0.9991
0.2175	1.008	0.003723	0.9991
0.2225	1.003	0.003736	0.9991
0.2275	1.002	0.003749	0.9991
0.2325	1.003	0.003769	0.9991
0.2375	1.005	0.003795	0.9991
0.2425	0.9968	0.003796	0.9991
0.2475	1	0.00383	0.9991
0.2525	0.9923	0.003824	0.9991
0.2575	0.9971	0.003862	0.9991
0.2625	0.993	0.003868	0.9991
0.2675	1.001	0.003913	0.9991
0.2725	0.9979	0.00393	0.9991
0.2775	1.001	0.003961	0.9991
0.2825	0.9936	0.003961	0.9991
0.2875	0.9967	0.00399	0.9991
0.2925	1.004	0.004041	0.9991
0.2975	0.997	0.004045	0.9991

0.0025	1.121	0.00594	1.231
0.0075	1.142	0.005238	1.226
0.0125	1.233	0.005215	1.218
0.0175	1.263	0.005255	1.207
0.0225	1.264	0.005272	1.192
0.0275	1.232	0.005198	1.176
0.0325	1.196	0.005107	1.157
0.0375	1.158	0.005011	1.139
0.0425	1.125	0.00493	1.12
0.0475	1.099	0.004882	1.102
0.0525	1.082	0.004841	1.085
0.0575	1.056	0.00477	1.069
0.0625	1.042	0.004738	1.055
0.0675	1.029	0.004712	1.044
0.0725	1.016	0.004682	1.034
0.0775	1.012	0.004685	1.025
0.0825	1.006	0.004669	1.019
0.0875	1.008	0.004689	1.013
0.0925	1.014	0.004718	1.009
0.0975	1.006	0.004701	1.006
0.1025	1.009	0.00472	1.004
0.1075	0.9985	0.004709	1.002
0.1125	1.013	0.004755	1.001
0.1175	1.011	0.004766	1
0.1225	1.005	0.00476	0.9998
0.1275	1	0.00475	0.9994
0.1325	0.9948	0.004745	0.9992
0.1375	0.9932	0.004747	0.999
0.1425	0.999	0.004785	0.9989
0.1475	0.9985	0.004796	0.9988
0.1525	1.007	0.004847	0.9988
0.1575	0.9957	0.004812	0.9988
0.1625	0.9985	0.004839	0.9988
0.1675	0.9992	0.004851	0.9988
0.1725	0.9978	0.004865	0.9988
0.1775	0.9977	0.004873	0.9987
0.1825	1.001	0.004903	0.9987
0.1875	1.003	0.004934	0.9987
0.1925	0.9965	0.004924	0.9987
0.1975	0.9958	0.004951	0.9987
0.2025	0.9936	0.005003	0.9987
0.2075	1.002	0.005062	0.9987
0.2125	0.9964	0.005059	0.9987
0.2175	1.001	0.005086	0.9987
0.2225	1.002	0.005107	0.9987
0.2275	1.007	0.005133	0.9987
0.2325	0.9996	0.005135	0.9987
0.2375	1.005	0.005168	0.9987
0.2425	1.003	0.005196	0.9987
0.2475	1.005	0.005221	0.9987
0.2525	0.9998	0.005227	0.9987
0.2575	1	0.005258	0.9987
0.2625	0.9934	0.005237	0.9987
0.2675	1.002	0.005289	0.9987
0.2725	0.9981	0.005302	0.9987
0.2775	0.9953	0.005324	0.9987
0.2825	1.009	0.005408	0.9987
0.2875	0.9901	0.005365	0.9987
0.2925	1.001	0.005433	0.9987
0.2975	0.9971	0.005449	0.9987

0.0025	1.177	0.01267	1.25
0.0075	1.022	0.008645	1.247
0.0125	1.121	0.008055	1.241
0.0175	1.275	0.00869	1.232
0.0225	1.326	0.008949	1.221
0.0275	1.324	0.008969	1.207
0.0325	1.28	0.008779	1.192
0.0375	1.228	0.008573	1.176
0.0425	1.199	0.008463	1.16
0.0475	1.163	0.008327	1.143
0.0525	1.133	0.008223	1.126
0.0575	1.116	0.008171	1.11
0.0625	1.085	0.008017	1.094
0.0675	1.06	0.007922	1.08
0.0725	1.044	0.007874	1.067
0.0775	1.055	0.00796	1.056
0.0825	1.025	0.007818	1.045
0.0875	1.038	0.007913	1.036
0.0925	1.015	0.007822	1.029
0.0975	1.027	0.007869	1.022
0.1025	1.013	0.007818	1.017
0.1075	1.014	0.007844	1.013
0.1125	0.9906	0.00773	1.009
0.1175	1.016	0.00788	1.007
0.1225	1.004	0.007833	1.004
0.1275	1.004	0.007843	1.003
0.1325	1.014	0.007923	1.002
0.1375	1.017	0.007953	1.001
0.1425	0.9994	0.007884	0.9999
0.1475	0.9876	0.00781	0.9994
0.1525	1.001	0.007908	0.999
0.1575	0.9955	0.007899	0.9988
0.1625	1.005	0.007983	0.9986
0.1675	1.003	0.007997	0.9985
0.1725	1.005	0.008033	0.9984
0.1775	1.004	0.008042	0.9983
0.1825	1.001	0.008053	0.9983
0.1875	1.019	0.008178	0.9983
0.1925	0.9958	0.008062	0.9983
0.1975	0.9921	0.008054	0.9982
0.2025	0.9906	0.008065	0.9982
0.2075	1.005	0.008162	0.9982
0.2125	1.01	0.008242	0.9982
0.2175	1.003	0.008192	0.9982
0.2225	1.011	0.008276	0.9982
0.2275	0.9882	0.008172	0.9982
0.2325	0.9983	0.008261	0.9982
0.2375	0.9919	0.008247	0.9982
0.2425	1.009	0.008363	0.9982
0.2475	1.002	0.008356	0.9982
0.2525	1.011	0.008403	0.9982
0.2575	1.002	0.008412	0.9982
0.2625	0.9967	0.008464	0.9982
0.2675	1.006	0.008571	0.9982
0.2725	1.012	0.008624	0.9982
0.2775	0.9894	0.008505	0.9982
0.2825	0.9989	0.008616	0.9982
0.2875	1.012	0.008718	0.9982
0.2925	0.9925	0.008633	0.9982
0.2975	1.003	0.008699	0.9982

0.0025	1.107	0.002403	1.164
0.0075	1.148	0.002433	1.161
0.0125	1.174	0.002417	1.153
0.0175	1.172	0.002389	1.142
0.0225	1.158	0.002359	1.129
0.0275	1.139	0.002334	1.115
0.0325	1.115	0.002308	1.099
0.0375	1.093	0.002283	1.084
0.0425	1.068	0.002258	1.069
0.0475	1.049	0.002236	1.055
0.0525	1.039	0.002229	1.043
0.0575	1.02	0.002208	1.033
0.0625	1.013	0.002205	1.024
0.0675	1.009	0.002206	1.018
0.0725	1.004	0.002206	1.012
0.0775	1.006	0.002215	1.008
0.0825	0.9989	0.002214	1.005
0.0875	1.002	0.002226	1.003
0.0925	1.002	0.002234	1.002
0.0975	1.001	0.002241	1.001
0.1025	0.9975	0.002247	0.9999
0.1075	0.9994	0.002262	0.9995
0.1125	1.001	0.002278	0.9992
0.1175	1	0.002292	0.9991
0.1225	1.001	0.002301	0.999
0.1275	1.001	0.002313	0.9989
0.1325	0.9969	0.002315	0.9989
0.1375	0.9978	0.002329	0.9988
0.1425	0.9952	0.002337	0.9988
0.1475	1.004	0.002361	0.9988
0.1525	1.002	0.002367	0.9988
0.1575	0.9999	0.002372	0.9988
0.1625	0.9975	0.00238	0.9988
0.1675	0.9947	0.002385	0.9988
0.1725	0.9998	0.002409	0.9988
0.1775	0.9954	0.002417	0.9988
0.1825	1	0.00244	0.9988
0.1875	1.003	0.002462	0.9988
0.1925	0.9997	0.002471	0.9988
0.1975	1	0.002486	0.9988
0.2025	0.9966	0.002498	0.9988
0.2075	1	0.002522	0.9988
0.2125	1.001	0.002544	0.9988
0.2175	0.9951	0.002548	0.9988
0.2225	0.9985	0.002573	0.9988
0.2275	1.001	0.002596	0.9988
0.2325	1.004	0.002624	0.9988
0.2375	0.9946	0.002632	0.9988
0.2425	0.9979	0.002659	0.9988
0.2475	0.9977	0.002677	0.9988
0.2525	1	0.002706	0.9988
0.2575	1.002	0.002731	0.9988
0.2625	1.005	0.002755	0.9988
0.2675	0.9998	0.002768	0.9988
0.2725	0.9979	0.002785	0.9988
0.2775	1.005	0.002822	0.9988
0.2825	0.999	0.002832	0.9988
0.2875	0.9983	0.002855	0.9988
0.2925	1.005	0.002892	0.9988
0.2975	0.9978	0.002896	0.9988

0.0025	1.114	0.003778	1.203
0.0075	1.161	0.003641	1.199
0.0125	1.209	0.003617	1.191
0.0175	1.225	0.003602	1.18
0.0225	1.216	0.00359	1.166
0.0275	1.192	0.003549	1.15
0.0325	1.164	0.0035	1.133
0.0375	1.127	0.003434	1.116
0.0425	1.1	0.003386	1.098
0.0475	1.082	0.003363	1.082
0.0525	1.055	0.003317	1.067
0.0575	1.042	0.003295	1.053
0.0625	1.027	0.003271	1.042
0.0675	1.023	0.003271	1.032
0.0725	1.01	0.003253	1.024
0.0775	1.005	0.003252	1.017
0.0825	1.001	0.003244	1.012
0.0875	1.004	0.003264	1.008
0.0925	1.005	0.00327	1.006
0.0975	1.001	0.003269	1.003
0.1025	1.005	0.003287	1.002
0.1075	1.002	0.003287	1.001
0.1125	1.002	0.003297	1
0.1175	0.9968	0.003289	0.9997
0.1225	0.9978	0.003305	0.9994
0.1275	0.9968	0.00332	0.9992
0.1325	1.002	0.003332	0.9991
0.1375	1.001	0.00334	0.999
0.1425	1	0.003353	0.999
0.1475	1.003	0.003375	0.999
0.1525	1.007	0.003407	0.9989
0.1575	1.001	0.003417	0.9989
0.1625	0.9977	0.003428	0.9989
0.1675	0.9942	0.003434	0.9989
0.1725	0.9991	0.003454	0.9989
0.1775	1.001	0.003473	0.9989
0.1825	0.998	0.003479	0.9989
0.1875	1.003	0.003503	0.9989
0.1925	0.9987	0.003504	0.9989
0.1975	0.9999	0.003514	0.9989
0.2025	0.9986	0.00352	0.9989
0.2075	0.9883	0.003502	0.9989
0.2125	0.999	0.00354	0.9989
0.2175	0.9948	0.003546	0.9989
0.2225	1.001	0.003583	0.9989
0.2275	0.9946	0.003584	0.9989
0.2325	1.004	0.003632	0.9989
0.2375	1.001	0.003646	0.9989
0.2425	0.998	0.003655	0.9989
0.2475	1.003	0.003685	0.9989
0.2525	1.003	0.003702	0.9989
0.2575	0.9946	0.003705	0.9989
0.2625	0.9975	0.00373	0.9989
0.2675	0.9949	0.00375	0.9989
0.2725	0.9923	0.003764	0.9989
0.2775	0.9957	0.003801	0.9989
0.2825	0.9996	0.003832	0.9989
0.2875	1.004	0.003865	0.9989
0.2925	0.9948	0.003863	0.9989
0.2975	0.9971	0.003898	0.9989

0.0025	1.137	0.005792	1.241
0.0075	1.135	0.005048	1.237
0.0125	1.235	0.005045	1.229
0.0175	1.288	0.005162	1.218
0.0225	1.267	0.005102	1.203
0.0275	1.24	0.005041	1.187
0.0325	1.213	0.004977	1.169
0.0375	1.172	0.004879	1.15
0.0425	1.14	0.004808	1.131
0.0475	1.116	0.004752	1.112
0.0525	1.087	0.004678	1.095
0.0575	1.076	0.00467	1.078
0.0625	1.053	0.004616	1.064
0.0675	1.032	0.004558	1.051
0.0725	1.029	0.004557	1.04
0.0775	1.019	0.004543	1.031
0.0825	1.012	0.004529	1.023
0.0875	1.002	0.004516	1.017
0.0925	1.007	0.004534	1.012
0.0975	0.9995	0.00452	1.008
0.1025	1.005	0.004549	1.006
0.1075	1.002	0.004544	1.004
0.1125	1	0.00455	1.002
0.1175	1.003	0.004567	1.001
0.1225	1.002	0.004586	1
0.1275	0.9999	0.004585	0.9996
0.1325	1	0.004602	0.9992
0.1375	0.9972	0.004606	0.999
0.1425	1.001	0.004618	0.9988
0.1475	0.994	0.00462	0.9987
0.1525	0.9938	0.004622	0.9987
0.1575	0.9884	0.004626	0.9986
0.1625	1.002	0.004679	0.9986
0.1675	0.9975	0.004676	0.9986
0.1725	1.006	0.004723	0.9986
0.1775	0.9985	0.004711	0.9986
0.1825	1	0.00474	0.9986
0.1875	1.01	0.004785	0.9986
0.1925	0.9995	0.004767	0.9986
0.1975	1.001	0.004817	0.9986
0.2025	1.001	0.004857	0.9986
0.2075	1.009	0.004929	0.9986
0.2125	1.004	0.00492	0.9986
0.2175	0.9948	0.004905	0.9986
0.2225	1.001	0.004943	0.9986
0.2275	0.9986	0.004953	0.9986
0.2325	0.9955	0.004959	0.9986
0.2375	0.9964	0.004969	0.9986
0.2425	0.9973	0.005006	0.9986
0.2475	0.9999	0.005038	0.9986
0.2525	1.007	0.005074	0.9986
0.2575	0.9981	0.005075	0.9986
0.2625	1.008	0.005122	0.9986
0.2675	1.004	0.005123	0.9986
0.2725	1	0.005121	0.9986
0.2775	0.9991	0.005143	0.9986
0.2825	0.992	0.005167	0.9986
0.2875	1.003	0.005238	0.9986
0.2925	1.004	0.005262	0.9986
0.2975	1.003	0.005289	0.9986

0.0025	1.19	0.01236	1.262
0.0075	1.034	0.008406	1.259
0.0125	1.112	0.007747	1.253
0.0175	1.274	0.008399	1.244
0.0225	1.347	0.008719	1.232
0.0275	1.328	0.008648	1.219
0.0325	1.297	0.008551	1.204
0.0375	1.259	0.008411	1.188
0.0425	1.22	0.008233	1.17
0.0475	1.179	0.008092	1.153
0.0525	1.141	0.007945	1.136
0.0575	1.137	0.007927	1.119
0.0625	1.105	0.007802	1.103
0.0675	1.085	0.007763	1.088
0.0725	1.053	0.00761	1.074
0.0775	1.039	0.007556	1.062
0.0825	1.024	0.007523	1.051
0.0875	1.026	0.007542	1.041
0.0925	1.016	0.007514	1.033
0.0975	1.015	0.007521	1.026
0.1025	1.007	0.007498	1.02
0.1075	1.021	0.007573	1.015
0.1125	1.007	0.007501	1.011
0.1175	1.005	0.007514	1.008
0.1225	1.003	0.007513	1.006
0.1275	1.007	0.007589	1.004
0.1325	0.9942	0.007547	1.002
0.1375	0.9958	0.00756	1.001
0.1425	1.014	0.007665	1
0.1475	1.002	0.007608	0.9994
0.1525	0.9948	0.007594	0.999
0.1575	0.9932	0.007582	0.9986
0.1625	1.006	0.007672	0.9984
0.1675	1	0.007664	0.9982
0.1725	1.001	0.007693	0.9981
0.1775	0.9875	0.00764	0.998
0.1825	0.9982	0.007732	0.998
0.1875	0.9928	0.007707	0.9979
0.1925	0.9954	0.007743	0.9979
0.1975	1.008	0.007847	0.9979
0.2025	0.9934	0.007773	0.9979
0.2075	1.007	0.007882	0.9979
0.2125	1.006	0.007894	0.9979
0.2175	1.008	0.007919	0.9979
0.2225	1.006	0.007939	0.9979
0.2275	1.011	0.007984	0.9979
0.2325	1.012	0.008036	0.9979
0.2375	1.002	0.008022	0.9979
0.2425	1.006	0.008052	0.9979
0.2475	0.9943	0.007987	0.9979
0.2525	1.001	0.008064	0.9979
0.2575	0.9901	0.008047	0.9979
0.2625	1.01	0.008268	0.9979
0.2675	1.002	0.00827	0.9979
0.2725	1.015	0.008363	0.9979
0.2775	1.013	0.008374	0.9979
0.2825	1.008	0.008345	0.9979
0.2875	1.001	0.008338	0.9979
0.2925	1.012	0.008462	0.9979
0.2975	1.002	0.008404	0.9979

0.0025	1.121	0.002154	1.186
0.0075	1.168	0.002186	1.182
0.0125	1.189	0.002164	1.174
0.0175	1.191	0.002145	1.163
0.0225	1.184	0.002125	1.15
0.0275	1.167	0.002108	1.135
0.0325	1.142	0.002084	1.119
0.0375	1.112	0.002052	1.102
0.0425	1.086	0.002025	1.086
0.0475	1.067	0.002008	1.071
0.0525	1.051	0.001995	1.057
0.0575	1.035	0.00198	1.045
0.0625	1.023	0.001972	1.035
0.0675	1.02	0.001976	1.026
0.0725	1.007	0.001964	1.019
0.0775	1.009	0.001974	1.013
0.0825	1.002	0.001971	1.009
0.0875	0.9997	0.001974	1.006
0.0925	0.9984	0.00198	1.004
0.0975	1.003	0.001994	1.002
0.1025	0.9996	0.002001	1.001
0.1075	0.9988	0.00201	0.9999
0.1125	1.001	0.002025	0.9994
0.1175	0.9978	0.002032	0.999
0.1225	0.9995	0.002044	0.9988
0.1275	1.003	0.002058	0.9987
0.1325	1	0.002066	0.9986
0.1375	0.9992	0.002072	0.9985
0.1425	0.9962	0.002077	0.9985
0.1475	0.9984	0.00209	0.9985
0.1525	0.9993	0.002098	0.9985
0.1575	1	0.002109	0.9985
0.1625	0.9986	0.002116	0.9985
0.1675	0.9996	0.002129	0.9985
0.1725	1	0.002142	0.9985
0.1775	0.9988	0.002153	0.9985
0.1825	0.9971	0.002165	0.9985
0.1875	1.001	0.002183	0.9985
0.1925	1.001	0.002199	0.9985
0.1975	1	0.002211	0.9985
0.2025	1.002	0.002231	0.9985
0.2075	1.001	0.002244	0.9985
0.2125	0.9964	0.002252	0.9985
0.2175	1.001	0.002275	0.9985
0.2225	0.9982	0.002288	0.9985
0.2275	0.9992	0.002309	0.9985
0.2325	1.002	0.002334	0.9985
0.2375	0.9962	0.002344	0.9985
0.2425	0.9997	0.002371	0.9985
0.2475	0.9982	0.002387	0.9985
0.2525	0.9982	0.002405	0.9985
0.2575	0.9992	0.002425	0.9985
0.2625	1.003	0.002453	0.9985
0.2675	1.002	0.00247	0.9985
0.2725	1.003	0.002493	0.9985
0.2775	1.002	0.00251	0.9985
0.2825	0.997	0.002521	0.9985
0.2875	0.9984	0.002544	0.9985
0.2925	0.9997	0.002569	0.9985
0.2975	1.001	0.002593	0.9985

0.0025	1.123	0.003403	1.226
0.0075	1.179	0.003296	1.222
0.0125	1.232	0.003278	1.214
0.0175	1.246	0.00326	1.203
0.0225	1.242	0.003254	1.189
0.0275	1.218	0.003215	1.173
0.0325	1.189	0.003176	1.155
0.0375	1.153	0.003117	1.137
0.0425	1.126	0.003076	1.119
0.0475	1.101	0.003039	1.101
0.0525	1.082	0.003013	1.085
0.0575	1.061	0.002981	1.07
0.0625	1.045	0.00296	1.056
0.0675	1.028	0.002931	1.044
0.0725	1.02	0.002926	1.034
0.0775	1.017	0.002926	1.026
0.0825	1.011	0.002922	1.019
0.0875	1.005	0.002918	1.014
0.0925	0.9988	0.002909	1.01
0.0975	1.002	0.002924	1.007
0.1025	1.002	0.002931	1.004
0.1075	1.004	0.002943	1.002
0.1125	0.9924	0.002926	1.001
0.1175	1.003	0.002957	1
0.1225	0.9994	0.002961	0.9997
0.1275	0.9962	0.00296	0.9993
0.1325	1.001	0.002981	0.999
0.1375	1.002	0.00299	0.9989
0.1425	1.005	0.00301	0.9988
0.1475	1.003	0.003017	0.9987
0.1525	0.9945	0.00302	0.9986
0.1575	0.9962	0.003047	0.9986
0.1625	0.9988	0.003072	0.9986
0.1675	1.001	0.003084	0.9986
0.1725	0.9996	0.003097	0.9986
0.1775	0.9998	0.003107	0.9986
0.1825	0.9987	0.003118	0.9986
0.1875	1.002	0.003136	0.9986
0.1925	0.9969	0.003137	0.9986
0.1975	0.9972	0.003144	0.9986
0.2025	1	0.003152	0.9986
0.2075	0.989	0.003135	0.9986
0.2125	0.9981	0.003174	0.9986
0.2175	1.002	0.003195	0.9986
0.2225	1	0.003205	0.9986
0.2275	1.001	0.003225	0.9986
0.2325	1.003	0.003248	0.9986
0.2375	1.006	0.003273	0.9986
0.2425	1.003	0.003281	0.9986
0.2475	1.003	0.003298	0.9986
0.2525	0.9971	0.003305	0.9986
0.2575	1.005	0.003341	0.9986
0.2625	1	0.003347	0.9986
0.2675	0.9999	0.003367	0.9986
0.2725	0.9966	0.003382	0.9986
0.2775	0.9978	0.003407	0.9986
0.2825	1.004	0.003442	0.9986
0.2875	0.9962	0.003445	0.9986
0.2925	0.9984	0.003469	0.9986
0.2975	1.004	0.00351	0.9986

0.0025	1.155	0.005296	1.263
0.0075	1.15	0.00458	1.259
0.0125	1.25	0.004586	1.251
0.0175	1.293	0.004647	1.24
0.0225	1.297	0.004663	1.226
0.0275	1.285	0.004647	1.209
0.0325	1.233	0.004524	1.191
0.0375	1.203	0.00447	1.172
0.0425	1.179	0.004426	1.152
0.0475	1.134	0.004314	1.132
0.0525	1.113	0.004279	1.114
0.0575	1.087	0.00422	1.096
0.0625	1.06	0.004157	1.08
0.0675	1.053	0.004156	1.065
0.0725	1.036	0.004112	1.052
0.0775	1.032	0.004114	1.041
0.0825	1.024	0.004102	1.032
0.0875	1.016	0.004091	1.024
0.0925	1.009	0.004086	1.018
0.0975	1.009	0.004087	1.013
0.1025	1	0.004079	1.009
0.1075	1.004	0.004101	1.006
0.1125	0.9984	0.004089	1.004
0.1175	0.9979	0.004099	1.002
0.1225	1.002	0.004122	1.001
0.1275	0.9986	0.004122	1
0.1325	0.9966	0.004125	0.9994
0.1375	1.002	0.004151	0.999
0.1425	0.9918	0.004132	0.9987
0.1475	1.003	0.004177	0.9985
0.1525	1.002	0.004184	0.9984
0.1575	0.9991	0.004191	0.9983
0.1625	0.9996	0.004204	0.9982
0.1675	1.006	0.004239	0.9982
0.1725	0.9977	0.004227	0.9982
0.1775	0.9984	0.004237	0.9981
0.1825	1	0.004261	0.9981
0.1875	1.001	0.004283	0.9981
0.1925	0.9942	0.004272	0.9981
0.1975	0.9954	0.00431	0.9981
0.2025	0.9931	0.004354	0.9981
0.2075	0.9933	0.004381	0.9981
0.2125	1.002	0.00443	0.9981
0.2175	0.9897	0.004407	0.9981
0.2225	1	0.004455	0.9981
0.2275	0.9895	0.004437	0.9981
0.2325	1.001	0.004488	0.9981
0.2375	1.002	0.004509	0.9981
0.2425	0.9988	0.004508	0.9981
0.2475	0.9961	0.00453	0.9981
0.2525	1.005	0.004573	0.9981
0.2575	0.9931	0.004548	0.9981
0.2625	0.9999	0.004578	0.9981
0.2675	1.005	0.004609	0.9981
0.2725	0.9962	0.004614	0.9981
0.2775	1.003	0.004656	0.9981
0.2825	1	0.00467	0.9981
0.2875	1.008	0.004719	0.9981
0.2925	0.9992	0.004725	0.9981
0.2975	0.9988	0.004752	0.9981

0.0025	1.207	0.01124	1.285
0.0075	1.017	0.007466	1.282
0.0125	1.131	0.007031	1.276
0.0175	1.298	0.007644	1.267
0.0225	1.362	0.007887	1.256
0.0275	1.36	0.007887	1.242
0.0325	1.318	0.007758	1.227
0.0375	1.287	0.007655	1.21
0.0425	1.248	0.007508	1.192
0.0475	1.208	0.007366	1.174
0.0525	1.176	0.007262	1.156
0.0575	1.149	0.007153	1.138
0.0625	1.125	0.007072	1.121
0.0675	1.086	0.006933	1.105
0.0725	1.08	0.006932	1.09
0.0775	1.059	0.006868	1.076
0.0825	1.05	0.006848	1.063
0.0875	1.03	0.006763	1.052
0.0925	1.01	0.006694	1.043
0.0975	1.018	0.006743	1.034
0.1025	1.013	0.006731	1.027
0.1075	1.007	0.006711	1.021
0.1125	0.9963	0.00666	1.016
0.1175	1.008	0.006738	1.012
0.1225	1.004	0.006738	1.008
0.1275	1.011	0.006766	1.006
0.1325	0.9962	0.00673	1.004
0.1375	1.021	0.006875	1.002
0.1425	1.003	0.006807	1.001
0.1475	1.007	0.006853	0.9999
0.1525	1.014	0.006885	0.9991
0.1575	0.9979	0.006817	0.9986
0.1625	0.9983	0.006842	0.9982
0.1675	0.9931	0.006817	0.9979
0.1725	0.9982	0.006871	0.9977
0.1775	1.008	0.006934	0.9976
0.1825	0.9899	0.006866	0.9975
0.1875	0.9958	0.0069	0.9974
0.1925	0.995	0.006948	0.9974
0.1975	0.9883	0.006929	0.9973
0.2025	1.004	0.007029	0.9973
0.2075	1.008	0.00705	0.9973
0.2125	1.01	0.007083	0.9973
0.2175	1.006	0.007077	0.9973
0.2225	1.008	0.007102	0.9973
0.2275	0.991	0.007062	0.9973
0.2325	1.003	0.007132	0.9973
0.2375	1.002	0.007136	0.9973
0.2425	1.009	0.007213	0.9973
0.2475	1.004	0.007201	0.9973
0.2525	0.995	0.007187	0.9973
0.2575	1.001	0.007271	0.9973
0.2625	1.006	0.007365	0.9973
0.2675	0.9974	0.00737	0.9973
0.2725	0.9991	0.007381	0.9973
0.2775	0.9976	0.007435	0.9973
0.2825	0.9913	0.007399	0.9973
0.2875	0.9962	0.007452	0.9973
0.2925	1.005	0.00753	0.9973
0.2975	0.9951	0.007512	0.9973

0.0025	1.147	0.003065	1.216
0.0075	1.195	0.003112	1.212
0.0125	1.217	0.003079	1.205
0.0175	1.214	0.003043	1.194
0.0225	1.217	0.003033	1.181
0.0275	1.2	0.003003	1.165
0.0325	1.173	0.002965	1.148
0.0375	1.149	0.002935	1.131
0.0425	1.121	0.002895	1.113
0.0475	1.099	0.002865	1.096
0.0525	1.075	0.002833	1.08
0.0575	1.058	0.002811	1.065
0.0625	1.044	0.002797	1.052
0.0675	1.031	0.002784	1.041
0.0725	1.018	0.00277	1.032
0.0775	1.015	0.002774	1.024
0.0825	1.016	0.002787	1.017
0.0875	1.008	0.002781	1.012
0.0925	1.005	0.002786	1.008
0.0975	0.9995	0.00279	1.005
0.1025	0.9978	0.002796	1.003
0.1075	0.9937	0.002806	1.001
0.1125	1.004	0.002841	1
0.1175	0.9991	0.002851	0.9994
0.1225	1.001	0.002869	0.9988
0.1275	0.9994	0.002879	0.9984
0.1325	0.999	0.002888	0.9982
0.1375	0.994	0.002893	0.998
0.1425	0.9961	0.00291	0.9979
0.1475	0.9979	0.00293	0.9979
0.1525	0.9965	0.002936	0.9978
0.1575	0.994	0.002942	0.9978
0.1625	1.003	0.002975	0.9978
0.1675	0.9999	0.002986	0.9978
0.1725	1	0.003002	0.9978
0.1775	1.003	0.003028	0.9978
0.1825	1	0.003041	0.9978
0.1875	0.9965	0.003053	0.9978
0.1925	0.9931	0.003067	0.9978
0.1975	0.9964	0.003089	0.9978
0.2025	1	0.003122	0.9978
0.2075	1.005	0.003157	0.9978
0.2125	1.002	0.003175	0.9978
0.2175	1	0.003186	0.9978
0.2225	1	0.003218	0.9978
0.2275	1.002	0.003245	0.9978
0.2325	0.9994	0.003268	0.9978
0.2375	1.001	0.003308	0.9978
0.2425	0.9995	0.003325	0.9978
0.2475	0.9955	0.003348	0.9978
0.2525	1.006	0.003401	0.9978
0.2575	0.9999	0.003405	0.9978
0.2625	0.9955	0.003427	0.9978
0.2675	1.003	0.003471	0.9978
0.2725	0.9957	0.00348	0.9978
0.2775	1.006	0.00354	0.9978
0.2825	1.009	0.003575	0.9978
0.2875	0.9969	0.00357	0.9978
0.2925	1.006	0.003626	0.9978
0.2975	0.9909	0.003623	0.9978

0.0025	1.142	0.004871	1.253
0.0075	1.196	0.004704	1.249
0.0125	1.257	0.004699	1.242
0.0175	1.281	0.004701	1.231
0.0225	1.269	0.004662	1.218
0.0275	1.253	0.004634	1.202
0.0325	1.226	0.004576	1.185
0.0375	1.193	0.004508	1.166
0.0425	1.16	0.004428	1.147
0.0475	1.135	0.004384	1.129
0.0525	1.105	0.004313	1.11
0.0575	1.085	0.004274	1.093
0.0625	1.066	0.004232	1.078
0.0675	1.056	0.00421	1.064
0.0725	1.042	0.004193	1.051
0.0775	1.032	0.004174	1.041
0.0825	1.016	0.004138	1.032
0.0875	1.014	0.004143	1.024
0.0925	1.007	0.004142	1.018
0.0975	1.009	0.00416	1.013
0.1025	1.001	0.004139	1.009
0.1075	1.002	0.004156	1.006
0.1125	0.9964	0.004149	1.004
0.1175	0.9952	0.004158	1.002
0.1225	1.008	0.004214	1.001
0.1275	0.9991	0.004196	1
0.1325	0.9927	0.004188	0.9993
0.1375	0.9943	0.00421	0.9989
0.1425	1.002	0.004245	0.9986
0.1475	0.9978	0.004253	0.9984
0.1525	1.005	0.004304	0.9982
0.1575	0.9984	0.004323	0.9981
0.1625	0.997	0.004335	0.9981
0.1675	1.007	0.00439	0.998
0.1725	1.004	0.004402	0.998
0.1775	0.9914	0.004374	0.998
0.1825	0.9955	0.004408	0.998
0.1875	0.9987	0.004429	0.998
0.1925	0.9983	0.004443	0.998
0.1975	0.9986	0.004457	0.998
0.2025	0.9985	0.004464	0.998
0.2075	0.991	0.004447	0.998
0.2125	0.9961	0.004489	0.998
0.2175	0.9986	0.004519	0.998
0.2225	0.9959	0.004532	0.998
0.2275	1.004	0.004574	0.998
0.2325	0.9994	0.004587	0.998
0.2375	1.008	0.004642	0.998
0.2425	1.001	0.004638	0.998
0.2475	0.9912	0.004633	0.998
0.2525	1.006	0.00471	0.998
0.2575	0.996	0.004705	0.998
0.2625	0.9946	0.004731	0.998
0.2675	1.005	0.004795	0.998
0.2725	1.004	0.004818	0.998
0.2775	0.9934	0.004819	0.998
0.2825	0.9991	0.004869	0.998
0.2875	1.007	0.004922	0.998
0.2925	0.9997	0.004925	0.998
0.2975	1.004	0.004975	0.998

0.0025	1.16	0.007572	1.289
0.0075	1.168	0.006613	1.285
0.0125	1.265	0.006592	1.278
0.0175	1.327	0.006758	1.268
0.0225	1.326	0.006752	1.254
0.0275	1.305	0.00669	1.238
0.0325	1.271	0.006595	1.221
0.0375	1.246	0.006519	1.202
0.0425	1.216	0.006413	1.182
0.0475	1.191	0.006357	1.162
0.0525	1.149	0.006227	1.143
0.0575	1.117	0.006114	1.124
0.0625	1.095	0.006051	1.106
0.0675	1.072	0.005988	1.089
0.0725	1.065	0.005978	1.074
0.0775	1.045	0.005906	1.061
0.0825	1.047	0.005937	1.049
0.0875	1.034	0.005892	1.039
0.0925	1.028	0.005882	1.031
0.0975	1.011	0.005835	1.024
0.1025	1.013	0.005853	1.018
0.1075	1.008	0.00585	1.013
0.1125	0.995	0.005811	1.009
0.1175	0.9942	0.005834	1.006
0.1225	0.9992	0.005855	1.004
0.1275	1.007	0.005895	1.002
0.1325	0.9889	0.005855	1.001
0.1375	1.005	0.005935	0.9998
0.1425	1.008	0.005973	0.999
0.1475	1	0.005943	0.9985
0.1525	0.9959	0.005937	0.9981
0.1575	0.9906	0.005932	0.9979
0.1625	0.9998	0.006005	0.9977
0.1675	1.001	0.006022	0.9976
0.1725	0.9948	0.006005	0.9975
0.1775	0.9866	0.006	0.9974
0.1825	1.01	0.006123	0.9974
0.1875	0.9934	0.006076	0.9974
0.1925	1.007	0.006172	0.9973
0.1975	0.9892	0.006143	0.9973
0.2025	1.004	0.006256	0.9973
0.2075	1.001	0.006301	0.9973
0.2125	1.003	0.006317	0.9973
0.2175	1.003	0.006358	0.9973
0.2225	1.009	0.006398	0.9973
0.2275	0.9916	0.006341	0.9973
0.2325	0.9991	0.006397	0.9973
0.2375	0.9983	0.006415	0.9973
0.2425	0.9941	0.006431	0.9973
0.2475	0.9965	0.006463	0.9973
0.2525	0.9952	0.006497	0.9973
0.2575	0.9951	0.0065	0.9973
0.2625	1.004	0.006576	0.9973
0.2675	1.008	0.006597	0.9973
0.2725	1.005	0.006621	0.9973
0.2775	0.9974	0.006622	0.9973
0.2825	1.003	0.006685	0.9973
0.2875	0.9924	0.006665	0.9973
0.2925	0.9912	0.006697	0.9973
0.2975	0.9894	0.006729	0.9973

0.0025	1.198	0.01594	1.315
0.0075	1.017	0.0106	1.312
0.0125	1.133	0.01003	1.306
0.0175	1.322	0.011	1.298
0.0225	1.379	0.01132	1.286
0.0275	1.383	0.01135	1.273
0.0325	1.372	0.01135	1.257
0.0375	1.334	0.0111	1.24
0.0425	1.271	0.01078	1.222
0.0475	1.27	0.01085	1.204
0.0525	1.222	0.01056	1.185
0.0575	1.191	0.01038	1.166
0.0625	1.154	0.01019	1.148
0.0675	1.131	0.01013	1.13
0.0725	1.109	0.01003	1.113
0.0775	1.069	0.009777	1.098
0.0825	1.059	0.009734	1.083
0.0875	1.069	0.009846	1.07
0.0925	1.039	0.009691	1.058
0.0975	1.029	0.009672	1.048
0.1025	1.018	0.009568	1.039
0.1075	1.032	0.009674	1.031
0.1125	0.9993	0.009496	1.025
0.1175	0.9978	0.009518	1.019
0.1225	0.9984	0.00951	1.014
0.1275	1.004	0.009574	1.01
0.1325	1.009	0.009654	1.007
0.1375	1.014	0.009693	1.005
0.1425	1.016	0.009737	1.003
0.1475	0.9959	0.009616	1.001
0.1525	0.9986	0.009668	0.9999
0.1575	0.9991	0.009713	0.9989
0.1625	1.009	0.009801	0.9982
0.1675	1.013	0.009831	0.9976
0.1725	1.006	0.00982	0.9972
0.1775	1.007	0.009822	0.9969
0.1825	0.9936	0.009726	0.9967
0.1875	1.023	0.01002	0.9965
0.1925	0.991	0.009793	0.9964
0.1975	0.9867	0.00984	0.9963
0.2025	1.002	0.009955	0.9963
0.2075	0.9911	0.009842	0.9962
0.2125	1.002	0.009998	0.9962
0.2175	1.004	0.01007	0.9962
0.2225	1.009	0.01012	0.9962
0.2275	1.004	0.01011	0.9962
0.2325	0.9987	0.01007	0.9961
0.2375	1.003	0.01017	0.9961
0.2425	1.001	0.01016	0.9961
0.2475	0.9947	0.01015	0.9961
0.2525	1.01	0.01033	0.9961
0.2575	0.9899	0.01023	0.9961
0.2625	1.015	0.01054	0.9961
0.2675	0.9842	0.01041	0.9961
0.2725	0.9836	0.01045	0.9961
0.2775	1.01	0.01065	0.9961
0.2825	1.001	0.01061	0.9961
0.2875	1.004	0.01066	0.9961
0.2925	1.013	0.01072	0.9961
0.2975	0.9791	0.01055	0.9961

0.0025	1.169	0.004463	1.242
0.0075	1.209	0.004499	1.239
0.0125	1.244	0.004496	1.232
0.0175	1.246	0.00445	1.222
0.0225	1.237	0.004406	1.21
0.0275	1.232	0.004394	1.195
0.0325	1.21	0.004359	1.179
0.0375	1.186	0.004304	1.162
0.0425	1.161	0.004255	1.144
0.0475	1.14	0.004226	1.126
0.0525	1.114	0.004165	1.109
0.0575	1.095	0.004129	1.093
0.0625	1.065	0.004075	1.078
0.0675	1.055	0.004057	1.064
0.0725	1.044	0.004045	1.052
0.0775	1.035	0.004036	1.041
0.0825	1.021	0.004019	1.032
0.0875	1.017	0.004027	1.025
0.0925	1.011	0.004023	1.018
0.0975	1.006	0.004033	1.013
0.1025	1.004	0.004044	1.009
0.1075	1.004	0.004064	1.006
0.1125	0.9962	0.004071	1.003
0.1175	1.002	0.00411	1.002
0.1225	1.001	0.004124	1
0.1275	0.9961	0.004136	0.9992
0.1325	0.9989	0.004162	0.9984
0.1375	0.9997	0.00418	0.9979
0.1425	1.003	0.00421	0.9975
0.1475	0.9938	0.004199	0.9972
0.1525	0.9989	0.004241	0.9971
0.1575	0.9943	0.004245	0.9969
0.1625	0.9958	0.004261	0.9969
0.1675	0.9948	0.004285	0.9968
0.1725	1.001	0.004324	0.9968
0.1775	0.9944	0.004342	0.9968
0.1825	1.001	0.004385	0.9967
0.1875	0.9907	0.004377	0.9967
0.1925	0.9966	0.004429	0.9967
0.1975	0.9943	0.004455	0.9967
0.2025	0.996	0.004491	0.9967
0.2075	1	0.00454	0.9967
0.2125	0.9885	0.004541	0.9967
0.2175	1.004	0.004619	0.9967
0.2225	0.9976	0.004629	0.9967
0.2275	0.9961	0.00466	0.9967
0.2325	0.9997	0.004721	0.9967
0.2375	0.9987	0.004751	0.9967
0.2425	0.9965	0.004801	0.9967
0.2475	1.004	0.004862	0.9967
0.2525	0.9931	0.00486	0.9967
0.2575	0.9963	0.004905	0.9967
0.2625	0.9954	0.004949	0.9967
0.2675	0.9999	0.005005	0.9967
0.2725	0.9989	0.005044	0.9967
0.2775	0.9979	0.005083	0.9967
0.2825	0.9963	0.005115	0.9967
0.2875	0.9986	0.005171	0.9967
0.2925	1.002	0.00522	0.9967
0.2975	1.003	0.005275	0.9967

0.0025	1.169	0.00717	1.281
0.0075	1.222	0.006935	1.277
0.0125	1.273	0.006878	1.27
0.0175	1.293	0.006865	1.26
0.0225	1.309	0.006917	1.247
0.0275	1.278	0.006811	1.232
0.0325	1.253	0.006727	1.215
0.0375	1.24	0.006713	1.197
0.0425	1.215	0.006632	1.178
0.0475	1.174	0.006485	1.158
0.0525	1.145	0.006415	1.139
0.0575	1.129	0.006366	1.121
0.0625	1.095	0.006245	1.104
0.0675	1.079	0.006196	1.088
0.0725	1.065	0.006169	1.073
0.0775	1.039	0.006077	1.06
0.0825	1.043	0.006119	1.049
0.0875	1.023	0.006045	1.039
0.0925	1.021	0.006057	1.03
0.0975	1.022	0.00608	1.023
0.1025	1.007	0.006046	1.018
0.1075	1.002	0.006034	1.013
0.1125	0.9962	0.006026	1.009
0.1175	0.9971	0.006051	1.006
0.1225	1.003	0.006088	1.004
0.1275	1.002	0.0061	1.002
0.1325	0.9859	0.006057	1.001
0.1375	0.9979	0.006142	0.9996
0.1425	1.004	0.006185	0.9989
0.1475	1.001	0.006201	0.9983
0.1525	1.003	0.006265	0.9979
0.1575	0.9884	0.006226	0.9977
0.1625	0.9884	0.006283	0.9975
0.1675	0.9981	0.006349	0.9974
0.1725	1.004	0.006389	0.9973
0.1775	0.9914	0.006375	0.9972
0.1825	0.988	0.006366	0.9972
0.1875	0.9921	0.006405	0.9972
0.1925	0.9982	0.006463	0.9971
0.1975	1.009	0.006526	0.9971
0.2025	1.001	0.006501	0.9971
0.2075	1.003	0.006532	0.9971
0.2125	0.9999	0.006534	0.9971
0.2175	1.008	0.00661	0.9971
0.2225	0.9896	0.006561	0.9971
0.2275	1.006	0.006678	0.9971
0.2325	1.002	0.00671	0.9971
0.2375	0.9955	0.006696	0.9971
0.2425	0.9943	0.006734	0.9971
0.2475	1.004	0.006805	0.9971
0.2525	0.9957	0.006823	0.9971
0.2575	0.9944	0.006843	0.9971
0.2625	0.9924	0.006868	0.9971
0.2675	0.9944	0.006934	0.9971
0.2725	1.001	0.007003	0.9971
0.2775	1.016	0.007124	0.9971
0.2825	0.9955	0.007051	0.9971
0.2875	0.9978	0.007122	0.9971
0.2925	0.9995	0.007186	0.9971
0.2975	0.9945	0.007185	0.9971

0.0025	1.173	0.01116	1.318
0.0075	1.202	0.009853	1.315
0.0125	1.292	0.00979	1.308
0.0175	1.348	0.00999	1.298
0.0225	1.361	0.0101	1.285
0.0275	1.331	0.009902	1.27
0.0325	1.315	0.009878	1.253
0.0375	1.283	0.009729	1.235
0.0425	1.249	0.00959	1.215
0.0475	1.24	0.009537	1.195
0.0525	1.204	0.009373	1.175
0.0575	1.162	0.009166	1.155
0.0625	1.14	0.009123	1.136
0.0675	1.11	0.008947	1.118
0.0725	1.088	0.008854	1.101
0.0775	1.066	0.00878	1.085
0.0825	1.057	0.008736	1.071
0.0875	1.051	0.008754	1.059
0.0925	1.037	0.008667	1.048
0.0975	1.035	0.008684	1.038
0.1025	1.015	0.008596	1.03
0.1075	1.007	0.00856	1.023
0.1125	1.008	0.008594	1.018
0.1175	1.007	0.008622	1.013
0.1225	0.9981	0.0086	1.009
0.1275	0.9905	0.008553	1.006
0.1325	1.012	0.008706	1.004
0.1375	0.9983	0.008669	1.002
0.1425	0.9929	0.008646	1
0.1475	1.003	0.008718	0.9993
0.1525	1	0.008743	0.9984
0.1575	1.008	0.008803	0.9978
0.1625	0.9901	0.008719	0.9973
0.1675	0.9963	0.008789	0.997
0.1725	1.001	0.008858	0.9968
0.1775	1.007	0.008935	0.9966
0.1825	0.9777	0.008744	0.9965
0.1875	1.001	0.008952	0.9964
0.1925	0.9807	0.008849	0.9963
0.1975	0.999	0.009067	0.9963
0.2025	0.9981	0.009165	0.9963
0.2075	1.001	0.009243	0.9963
0.2125	1.005	0.009279	0.9962
0.2175	1.002	0.009341	0.9962
0.2225	1.012	0.009417	0.9962
0.2275	0.9975	0.009337	0.9962
0.2325	1.004	0.009426	0.9962
0.2375	0.9865	0.009362	0.9962
0.2425	1.007	0.009531	0.9962
0.2475	1	0.009536	0.9962
0.2525	1.022	0.009704	0.9962
0.2575	0.9891	0.009534	0.9962
0.2625	1.007	0.00969	0.9962
0.2675	1.013	0.009729	0.9962
0.2725	0.9985	0.009696	0.9962
0.2775	0.9904	0.009653	0.9962
0.2825	0.9973	0.009781	0.9962
0.2875	1.016	0.009961	0.9962
0.2925	1.013	0.009988	0.9962
0.2975	1.008	0.01001	0.9962

0.0025	1.261	0.02428	1.34
0.0075	1.024	0.01568	1.337
0.0125	1.138	0.01475	1.331
0.0175	1.325	0.01624	1.323
0.0225	1.407	0.01689	1.313
0.0275	1.407	0.01692	1.3
0.0325	1.396	0.01687	1.286
0.0375	1.337	0.01634	1.27
0.0425	1.316	0.01625	1.252
0.0475	1.271	0.01579	1.234
0.0525	1.263	0.01587	1.216
0.0575	1.226	0.01558	1.197
0.0625	1.201	0.01532	1.178
0.0675	1.193	0.01534	1.16
0.0725	1.153	0.01509	1.142
0.0775	1.116	0.01484	1.125
0.0825	1.12	0.01488	1.109
0.0875	1.076	0.01452	1.094
0.0925	1.078	0.0146	1.081
0.0975	1.045	0.01426	1.069
0.1025	1.032	0.01417	1.057
0.1075	1.039	0.01429	1.048
0.1125	1.017	0.01414	1.039
0.1175	1.031	0.01433	1.031
0.1225	1.048	0.01441	1.025
0.1275	1.043	0.01439	1.019
0.1325	1.008	0.01418	1.015
0.1375	1.017	0.01425	1.011
0.1425	1.013	0.01426	1.007
0.1475	0.9795	0.01399	1.005
0.1525	0.9993	0.01428	1.003
0.1575	1.016	0.01442	1.001
0.1625	1.012	0.01442	0.9993
0.1675	0.991	0.01412	0.9982
0.1725	0.9816	0.0141	0.9973
0.1775	0.9923	0.01427	0.9966
0.1825	0.9948	0.01437	0.9961
0.1875	0.9846	0.01435	0.9957
0.1925	1.001	0.01449	0.9954
0.1975	0.967	0.01419	0.9952
0.2025	1.013	0.01476	0.995
0.2075	0.9778	0.01443	0.9949
0.2125	0.9815	0.01451	0.9948
0.2175	0.9672	0.01426	0.9947
0.2225	0.9972	0.01475	0.9946
0.2275	0.9868	0.01469	0.9946
0.2325	1.004	0.01489	0.9946
0.2375	0.9986	0.01487	0.9946
0.2425	0.9862	0.0149	0.9946
0.2475	0.9791	0.0148	0.9945
0.2525	0.9858	0.01493	0.9945
0.2575	1.004	0.01528	0.9945
0.2625	0.9854	0.01517	0.9945
0.2675	0.9723	0.01512	0.9945
0.2725	1.004	0.01549	0.9945
0.2775	0.9785	0.0153	0.9945
0.2825	0.9912	0.0155	0.9945
0.2875	0.9988	0.0156	0.9945
0.2925	1.017	0.0158	0.9945
0.2975	1.026	0.01608	0.9945

0.0025	1.193	0.006991	1.272
0.0075	1.245	0.007096	1.269
0.0125	1.271	0.007044	1.263
0.0175	1.272	0.006957	1.254
0.0225	1.277	0.006949	1.243
0.0275	1.268	0.006912	1.229
0.0325	1.253	0.006892	1.214
0.0375	1.228	0.006795	1.197
0.0425	1.206	0.006755	1.18
0.0475	1.18	0.006658	1.162
0.0525	1.166	0.006636	1.144
0.0575	1.129	0.006525	1.127
0.0625	1.112	0.006474	1.11
0.0675	1.089	0.006405	1.095
0.0725	1.069	0.006343	1.08
0.0775	1.055	0.006302	1.067
0.0825	1.039	0.006277	1.055
0.0875	1.039	0.006307	1.045
0.0925	1.025	0.00628	1.036
0.0975	1.007	0.00623	1.028
0.1025	1.028	0.006359	1.021
0.1075	1.003	0.006271	1.016
0.1125	1.006	0.006326	1.011
0.1175	1.003	0.006356	1.008
0.1225	1.005	0.006392	1.005
0.1275	0.9944	0.006388	1.002
0.1325	0.9868	0.006378	1
0.1375	0.9992	0.00647	0.999
0.1425	0.9994	0.006512	0.9979
0.1475	1.003	0.006555	0.9971
0.1525	0.9898	0.006512	0.9965
0.1575	0.9935	0.006555	0.9961
0.1625	0.9858	0.006565	0.9958
0.1675	0.9975	0.006669	0.9955
0.1725	0.9916	0.006657	0.9954
0.1775	0.9896	0.006697	0.9953
0.1825	1.009	0.006853	0.9952
0.1875	1.003	0.006839	0.9951
0.1925	1.002	0.006901	0.9951
0.1975	0.9999	0.006949	0.9951
0.2025	0.9984	0.006971	0.9951
0.2075	0.9971	0.007014	0.9951
0.2125	0.9895	0.007044	0.995
0.2175	0.9846	0.007056	0.995
0.2225	1.001	0.007217	0.995
0.2275	0.9938	0.007218	0.995
0.2325	0.9985	0.007322	0.995
0.2375	0.9986	0.007372	0.995
0.2425	0.999	0.007473	0.995
0.2475	0.9953	0.00747	0.995
0.2525	0.9911	0.007529	0.995
0.2575	1.005	0.007679	0.995
0.2625	0.9876	0.007646	0.995
0.2675	0.9986	0.007764	0.995
0.2725	1.006	0.007876	0.995
0.2775	1.017	0.008023	0.995
0.2825	1.004	0.008017	0.995
0.2875	1.006	0.008084	0.995
0.2925	0.9995	0.008141	0.995
0.2975	0.9884	0.00814	0.995

0.0025	1.188	0.01133	1.314
0.0075	1.263	0.01108	1.311
0.0125	1.306	0.01093	1.304
0.0175	1.332	0.01091	1.295
0.0225	1.344	0.01099	1.283
0.0275	1.323	0.0109	1.269
0.0325	1.295	0.01078	1.253
0.0375	1.271	0.01058	1.235
0.0425	1.26	0.01063	1.216
0.0475	1.218	0.01038	1.197
0.0525	1.207	0.01035	1.178
0.0575	1.16	0.01008	1.158
0.0625	1.136	0.01001	1.14
0.0675	1.118	0.009903	1.122
0.0725	1.105	0.009852	1.105
0.0775	1.088	0.009791	1.09
0.0825	1.055	0.009602	1.075
0.0875	1.042	0.009546	1.063
0.0925	1.045	0.009604	1.052
0.0975	1.026	0.009536	1.042
0.1025	1.013	0.009461	1.033
0.1075	1.004	0.009486	1.026
0.1125	0.9969	0.009436	1.02
0.1175	1.012	0.009562	1.015
0.1225	1.003	0.009572	1.011
0.1275	1.009	0.009571	1.007
0.1325	0.9954	0.009529	1.005
0.1375	1.018	0.009744	1.002
0.1425	1.001	0.009697	1.001
0.1475	0.9855	0.009594	0.9995
0.1525	0.988	0.00966	0.9984
0.1575	0.9874	0.009764	0.9977
0.1625	1.017	0.01008	0.9971
0.1675	0.9934	0.009884	0.9967
0.1725	0.9889	0.009914	0.9964
0.1775	0.9827	0.009894	0.9962
0.1825	0.9902	0.01002	0.996
0.1875	1.001	0.01012	0.9959
0.1925	0.9878	0.01004	0.9958
0.1975	0.9973	0.01016	0.9958
0.2025	0.9895	0.01011	0.9957
0.2075	0.9958	0.01019	0.9957
0.2125	1.007	0.01027	0.9957
0.2175	0.9972	0.01036	0.9957
0.2225	1.013	0.01045	0.9957
0.2275	0.9789	0.01025	0.9957
0.2325	0.996	0.01048	0.9956
0.2375	0.9844	0.01039	0.9956
0.2425	0.962	0.0103	0.9956
0.2475	0.9906	0.0106	0.9956
0.2525	0.9868	0.01062	0.9956
0.2575	0.9891	0.01071	0.9956
0.2625	0.9838	0.01076	0.9956
0.2675	0.9951	0.01089	0.9956
0.2725	0.9976	0.01097	0.9956
0.2775	1.009	0.01112	0.9956
0.2825	0.9964	0.0111	0.9956
0.2875	0.9993	0.01123	0.9956
0.2925	0.9965	0.01125	0.9956
0.2975	1.002	0.01141	0.9956

0.0025	1.212	0.01804	1.345
0.0075	1.225	0.01584	1.342
0.0125	1.332	0.01577	1.336
0.0175	1.369	0.01593	1.327
0.0225	1.374	0.01604	1.316
0.0275	1.385	0.01613	1.302
0.0325	1.354	0.0159	1.286
0.0375	1.334	0.01575	1.269
0.0425	1.294	0.01549	1.25
0.0475	1.268	0.01539	1.231
0.0525	1.247	0.01518	1.211
0.0575	1.219	0.01503	1.191
0.0625	1.183	0.01471	1.171
0.0675	1.143	0.0144	1.152
0.0725	1.121	0.01424	1.134
0.0775	1.116	0.01425	1.117
0.0825	1.091	0.01407	1.101
0.0875	1.064	0.01393	1.086
0.0925	1.036	0.01368	1.073
0.0975	1.02	0.01351	1.061
0.1025	1.04	0.0138	1.05
0.1075	1.033	0.01376	1.041
0.1125	1.039	0.01383	1.033
0.1175	1.006	0.01365	1.026
0.1225	1.019	0.01372	1.02
0.1275	1.011	0.01368	1.015
0.1325	1.022	0.01388	1.011
0.1375	0.9803	0.01351	1.007
0.1425	0.9899	0.01369	1.004
0.1475	0.9981	0.01374	1.002
0.1525	0.9955	0.01376	1
0.1575	1.013	0.01396	0.999
0.1625	1.017	0.01409	0.9979
0.1675	1.021	0.01419	0.997
0.1725	1.026	0.01433	0.9964
0.1775	0.9807	0.0139	0.9959
0.1825	1.023	0.01432	0.9955
0.1875	0.9843	0.01401	0.9952
0.1925	0.9972	0.01421	0.995
0.1975	0.9878	0.01427	0.9949
0.2025	0.9704	0.01427	0.9948
0.2075	0.9985	0.01463	0.9947
0.2125	0.9985	0.01467	0.9946
0.2175	0.9976	0.01469	0.9946
0.2225	1.009	0.01492	0.9946
0.2275	1.012	0.01493	0.9945
0.2325	0.9742	0.01453	0.9945
0.2375	0.9865	0.0148	0.9945
0.2425	0.9721	0.01477	0.9945
0.2475	1.015	0.01518	0.9945
0.2525	1.014	0.01528	0.9945
0.2575	0.9771	0.01502	0.9945
0.2625	0.9974	0.01519	0.9945
0.2675	1.024	0.01558	0.9945
0.2725	0.9959	0.01533	0.9945
0.2775	0.9879	0.01533	0.9945
0.2825	0.994	0.01549	0.9945
0.2875	1.004	0.01574	0.9945
0.2925	1.004	0.01578	0.9945
0.2975	0.9864	0.01568	0.9945

0.0025	1.158	0.03607	1.378
0.0075	1.053	0.02551	1.376
0.0125	1.203	0.02445	1.37
0.0175	1.332	0.02584	1.363
0.0225	1.456	0.02757	1.353
0.0275	1.483	0.02795	1.34
0.0325	1.426	0.02718	1.326
0.0375	1.405	0.02702	1.311
0.0425	1.38	0.02656	1.294
0.0475	1.331	0.02588	1.276
0.0525	1.281	0.02556	1.257
0.0575	1.27	0.02537	1.238
0.0625	1.258	0.02515	1.218
0.0675	1.237	0.02505	1.199
0.0725	1.187	0.02446	1.18
0.0775	1.207	0.02463	1.162
0.0825	1.119	0.02342	1.144
0.0875	1.122	0.02373	1.127
0.0925	1.056	0.02282	1.112
0.0975	1.107	0.02354	1.097
0.1025	1.045	0.02257	1.084
0.1075	1.074	0.02315	1.071
0.1125	1.045	0.02273	1.06
0.1175	1.094	0.02364	1.05
0.1225	1.024	0.02248	1.041
0.1275	1.048	0.02312	1.034
0.1325	1.083	0.02382	1.027
0.1375	0.9965	0.02248	1.021
0.1425	1.001	0.02261	1.016
0.1475	1.012	0.02263	1.012
0.1525	1.021	0.02303	1.008
0.1575	0.9597	0.02201	1.005
0.1625	0.9977	0.02262	1.002
0.1675	1.009	0.02279	1
0.1725	1.007	0.023	0.9986
0.1775	0.9805	0.02249	0.9972
0.1825	0.9918	0.02266	0.9961
0.1875	0.9813	0.02264	0.9952
0.1925	0.9842	0.02301	0.9945
0.1975	0.9983	0.02314	0.9939
0.2025	1.031	0.0239	0.9935
0.2075	1.005	0.02334	0.9931
0.2125	1.05	0.02411	0.9929
0.2175	0.9865	0.02299	0.9927
0.2225	0.9425	0.02251	0.9925
0.2275	1.002	0.02365	0.9924
0.2325	1.023	0.02431	0.9923
0.2375	0.9846	0.02356	0.9923
0.2425	1.007	0.02401	0.9922
0.2475	1.013	0.0242	0.9922
0.2525	1.025	0.02431	0.9922
0.2575	0.9875	0.02405	0.9921
0.2625	0.9932	0.02432	0.9921
0.2675	1.023	0.02503	0.9921
0.2725	0.9649	0.02416	0.9921
0.2775	0.9629	0.02418	0.9921
0.2825	0.9951	0.02471	0.9921
0.2875	0.9889	0.02474	0.9921
0.2925	0.9911	0.02502	0.9921
0.2975	1.004	0.02534	0.9921

0.0025	1.231	0.01195	1.296
0.0075	1.27	0.01201	1.293
0.0125	1.282	0.01178	1.288
0.0175	1.308	0.01183	1.28
0.0225	1.306	0.01182	1.27
0.0275	1.292	0.01169	1.258
0.0325	1.262	0.0115	1.244
0.0375	1.258	0.01151	1.229
0.0425	1.24	0.01143	1.213
0.0475	1.212	0.01133	1.196
0.0525	1.176	0.0111	1.179
0.0575	1.182	0.01122	1.162
0.0625	1.179	0.01121	1.145
0.0675	1.137	0.01101	1.128
0.0725	1.12	0.01092	1.112
0.0775	1.113	0.01097	1.097
0.0825	1.087	0.01075	1.084
0.0875	1.065	0.0107	1.071
0.0925	1.052	0.01064	1.059
0.0975	1.047	0.0107	1.049
0.1025	1.044	0.01071	1.04
0.1075	1.02	0.01061	1.032
0.1125	1.005	0.01058	1.025
0.1175	1.032	0.01084	1.019
0.1225	1.001	0.01065	1.014
0.1275	1.023	0.01085	1.01
0.1325	0.9982	0.01077	1.006
0.1375	1.002	0.0109	1.003
0.1425	1.003	0.01093	1.001
0.1475	0.9913	0.01093	0.9992
0.1525	1	0.01099	0.9977
0.1575	1.004	0.01112	0.9966
0.1625	0.9819	0.01093	0.9956
0.1675	1.006	0.01119	0.9949
0.1725	0.994	0.01122	0.9944
0.1775	0.985	0.01115	0.994
0.1825	0.997	0.01134	0.9937
0.1875	0.9869	0.01133	0.9934
0.1925	0.9877	0.01144	0.9933
0.1975	0.9883	0.01156	0.9931
0.2025	0.9956	0.01165	0.9931
0.2075	0.9799	0.01163	0.993
0.2125	0.9975	0.01186	0.9929
0.2175	0.9965	0.01192	0.9929
0.2225	1	0.01211	0.9929
0.2275	0.9584	0.01183	0.9929
0.2325	0.9854	0.01218	0.9929
0.2375	1.011	0.01246	0.9929
0.2425	1.002	0.01253	0.9929
0.2475	1.007	0.01271	0.9929
0.2525	1	0.01276	0.9928
0.2575	1.005	0.01288	0.9928
0.2625	0.9979	0.01299	0.9928
0.2675	1.009	0.01311	0.9928
0.2725	0.9878	0.01308	0.9928
0.2775	0.9884	0.01321	0.9928
0.2825	0.9937	0.01337	0.9928
0.2875	0.997	0.01349	0.9928
0.2925	0.9843	0.01352	0.9928
0.2975	0.996	0.01374	0.9928

0.0025	1.18	0.01903	1.342
0.0075	1.282	0.01882	1.34
0.0125	1.344	0.0188	1.334
0.0175	1.355	0.01873	1.326
0.0225	1.372	0.01884	1.316
0.0275	1.367	0.0188	1.304
0.0325	1.364	0.01896	1.29
0.0375	1.366	0.01898	1.274
0.0425	1.306	0.0183	1.257
0.0475	1.289	0.01829	1.239
0.0525	1.237	0.01781	1.221
0.0575	1.197	0.01731	1.202
0.0625	1.221	0.01772	1.183
0.0675	1.183	0.01744	1.165
0.0725	1.147	0.01706	1.147
0.0775	1.143	0.01705	1.13
0.0825	1.084	0.01649	1.114
0.0875	1.089	0.01661	1.099
0.0925	1.086	0.01671	1.085
0.0975	1.083	0.01669	1.073
0.1025	1.042	0.01644	1.061
0.1075	1.031	0.01622	1.051
0.1125	1.046	0.01645	1.042
0.1175	1.005	0.01606	1.034
0.1225	1.022	0.01635	1.027
0.1275	1.005	0.01624	1.021
0.1325	0.9943	0.01617	1.016
0.1375	0.996	0.01614	1.012
0.1425	1.012	0.01644	1.008
0.1475	1.005	0.01652	1.005
0.1525	1.013	0.01666	1.003
0.1575	0.9674	0.0163	1.001
0.1625	0.989	0.01669	0.9992
0.1675	0.9835	0.01657	0.9979
0.1725	1.004	0.01696	0.9969
0.1775	1.007	0.01709	0.9961
0.1825	0.9688	0.01674	0.9955
0.1875	0.9549	0.01659	0.995
0.1925	1.005	0.01725	0.9946
0.1975	1.017	0.01753	0.9943
0.2025	0.9844	0.01706	0.9941
0.2075	0.9894	0.01713	0.994
0.2125	1.008	0.01754	0.9939
0.2175	1.005	0.01749	0.9938
0.2225	1.004	0.01771	0.9937
0.2275	1.025	0.01804	0.9937
0.2325	0.9909	0.01776	0.9936
0.2375	0.9601	0.01727	0.9936
0.2425	0.9891	0.01783	0.9936
0.2475	0.9727	0.01776	0.9936
0.2525	0.9853	0.01801	0.9936
0.2575	0.9862	0.01814	0.9936
0.2625	1.018	0.01881	0.9936
0.2675	1.021	0.01896	0.9936
0.2725	1.02	0.01897	0.9936
0.2775	1.02	0.01895	0.9936
0.2825	0.9833	0.01875	0.9936
0.2875	0.9802	0.01875	0.9936
0.2925	0.9929	0.01906	0.9936
0.2975	1	0.01931	0.9936

0.0025	1.225	0.03105	1.366
0.0075	1.254	0.02758	1.363
0.0125	1.342	0.02708	1.358
0.0175	1.395	0.02778	1.351
0.0225	1.386	0.0275	1.341
0.0275	1.428	0.02838	1.33
0.0325	1.396	0.02783	1.316
0.0375	1.331	0.02686	1.301
0.0425	1.309	0.02665	1.285
0.0475	1.285	0.02645	1.267
0.0525	1.284	0.02635	1.249
0.0575	1.293	0.02676	1.231
0.0625	1.223	0.02565	1.212
0.0675	1.196	0.02537	1.193
0.0725	1.187	0.0255	1.175
0.0775	1.188	0.02537	1.157
0.0825	1.141	0.02482	1.14
0.0875	1.126	0.02474	1.124
0.0925	1.124	0.02488	1.109
0.0975	1.098	0.02437	1.094
0.1025	1.135	0.02506	1.081
0.1075	1.035	0.02362	1.069
0.1125	1.04	0.02362	1.059
0.1175	1.048	0.02401	1.049
0.1225	1.104	0.02478	1.04
0.1275	0.9965	0.02341	1.033
0.1325	1.011	0.02356	1.026
0.1375	1.043	0.02414	1.02
0.1425	1.001	0.02346	1.015
0.1475	0.9981	0.02369	1.011
0.1525	0.9848	0.02364	1.008
0.1575	1.01	0.02405	1.005
0.1625	0.9739	0.02358	1.002
0.1675	0.9568	0.02324	0.9999
0.1725	1.004	0.02408	0.9982
0.1775	0.9737	0.02384	0.9969
0.1825	1.04	0.02496	0.9957
0.1875	0.9976	0.02415	0.9948
0.1925	0.9645	0.02384	0.9941
0.1975	1.026	0.025	0.9936
0.2025	0.9913	0.02487	0.9931
0.2075	0.9524	0.02434	0.9928
0.2125	0.9706	0.02434	0.9925
0.2175	0.9658	0.02476	0.9923
0.2225	1.004	0.02552	0.9922
0.2275	1.009	0.02572	0.992
0.2325	0.9944	0.02529	0.9919
0.2375	0.9887	0.02553	0.9919
0.2425	1.027	0.02635	0.9918
0.2475	0.9766	0.0255	0.9918
0.2525	1.043	0.02672	0.9918
0.2575	1.028	0.02665	0.9918
0.2625	0.9826	0.02585	0.9917
0.2675	1.012	0.0263	0.9917
0.2725	1.002	0.02649	0.9917
0.2775	0.9903	0.02664	0.9917
0.2825	1.011	0.02685	0.9917
0.2875	0.9749	0.02657	0.9917
0.2925	1.024	0.02759	0.9917
0.2975	1.031	0.02774	0.9917

0.0025	1.298	0.06851	1.396
0.0075	1.122	0.04656	1.393
0.0125	1.141	0.04169	1.389
0.0175	1.338	0.04552	1.382
0.0225	1.35	0.04526	1.373
0.0275	1.334	0.04462	1.362
0.0325	1.455	0.04744	1.35
0.0375	1.457	0.04759	1.336
0.0425	1.435	0.04766	1.32
0.0475	1.402	0.04697	1.304
0.0525	1.327	0.04469	1.286
0.0575	1.295	0.0449	1.268
0.0625	1.348	0.0457	1.25
0.0675	1.311	0.04487	1.231
0.0725	1.245	0.04409	1.213
0.0775	1.194	0.04234	1.194
0.0825	1.116	0.04027	1.176
0.0875	1.119	0.04054	1.159
0.0925	1.16	0.0424	1.143
0.0975	1.125	0.04142	1.127
0.1025	1.147	0.04204	1.112
0.1075	1.099	0.04026	1.098
0.1125	1.013	0.03858	1.085
0.1175	1.101	0.04106	1.073
0.1225	1.117	0.04168	1.063
0.1275	0.9683	0.03739	1.053
0.1325	1.053	0.04046	1.044
0.1375	0.9866	0.03799	1.036
0.1425	1.008	0.03935	1.029
0.1475	1.009	0.03942	1.023
0.1525	1.044	0.04028	1.018
0.1575	0.9822	0.03812	1.013
0.1625	1.021	0.03998	1.009
0.1675	1.009	0.04035	1.005
0.1725	0.97	0.0386	1.002
0.1775	0.977	0.03916	0.9999
0.1825	1.077	0.04221	0.9978
0.1875	0.9386	0.03763	0.996
0.1925	0.9509	0.0384	0.9946
0.1975	1.026	0.04125	0.9934
0.2025	0.952	0.03867	0.9924
0.2075	1.022	0.04109	0.9916
0.2125	1.057	0.04246	0.991
0.2175	1.012	0.04098	0.9904
0.2225	1.035	0.04149	0.99
0.2275	0.9143	0.03791	0.9897
0.2325	1.01	0.04198	0.9894
0.2375	1.038	0.04202	0.9892
0.2425	0.9806	0.04041	0.9891
0.2475	0.9995	0.04184	0.989
0.2525	0.9627	0.04066	0.9889
0.2575	0.9593	0.04151	0.9888
0.2625	1.028	0.04362	0.9887
0.2675	0.9707	0.04196	0.9887
0.2725	1.059	0.0446	0.9887
0.2775	1.031	0.04468	0.9886
0.2825	0.9461	0.0417	0.9886
0.2875	0.9951	0.04365	0.9886
0.2925	1.008	0.04375	0.9886
0.2975	0.9701	0.04273	0.9886

0.0025	1.207	0.02153	1.312
0.0075	1.284	0.02208	1.31
0.0125	1.298	0.02181	1.306
0.0175	1.3	0.02177	1.299
0.0225	1.384	0.02255	1.29
0.0275	1.328	0.02179	1.28
0.0325	1.302	0.02165	1.268
0.0375	1.285	0.0215	1.255
0.0425	1.282	0.02145	1.24
0.0475	1.274	0.02147	1.225
0.0525	1.265	0.02151	1.209
0.0575	1.21	0.02084	1.192
0.0625	1.211	0.02094	1.176
0.0675	1.116	0.01968	1.16
0.0725	1.17	0.02053	1.144
0.0775	1.144	0.02033	1.128
0.0825	1.095	0.01992	1.114
0.0875	1.103	0.02017	1.1
0.0925	1.079	0.01993	1.087
0.0975	1.115	0.02052	1.075
0.1025	1.056	0.01982	1.064
0.1075	1.078	0.02027	1.054
0.1125	1.018	0.01962	1.045
0.1175	1.029	0.0198	1.036
0.1225	1.01	0.01973	1.029
0.1275	1.032	0.02009	1.023
0.1325	1.058	0.02053	1.018
0.1375	0.9872	0.01978	1.013
0.1425	1.024	0.02042	1.009
0.1475	1	0.02027	1.006
0.1525	1.004	0.02031	1.003
0.1575	0.9921	0.02007	1.001
0.1625	0.9925	0.02046	0.9986
0.1675	0.9944	0.02039	0.997
0.1725	0.9928	0.02054	0.9957
0.1775	0.9765	0.02037	0.9946
0.1825	0.985	0.02063	0.9938
0.1875	0.9894	0.02089	0.9931
0.1925	1.019	0.02154	0.9926
0.1975	0.9392	0.02057	0.9922
0.2025	1.004	0.02163	0.9919
0.2075	0.9543	0.0212	0.9916
0.2125	1.02	0.02226	0.9914
0.2175	1.016	0.02222	0.9913
0.2225	0.9876	0.02228	0.9912
0.2275	0.989	0.02224	0.9911
0.2325	0.9765	0.02222	0.9911
0.2375	1.002	0.02309	0.991
0.2425	0.9659	0.02232	0.991
0.2475	0.965	0.02263	0.991
0.2525	0.9755	0.02308	0.9909
0.2575	1.075	0.02489	0.9909
0.2625	0.9694	0.02337	0.9909
0.2675	0.9906	0.0237	0.9909
0.2725	0.9857	0.02423	0.9909
0.2775	0.9735	0.0243	0.9909
0.2825	0.97	0.02421	0.9909
0.2875	0.9807	0.02486	0.9909
0.2925	1.011	0.02541	0.9909
0.2975	1.012	0.02566	0.9909

0.0025	1.254	0.03701	1.366
0.0075	1.259	0.0343	1.364
0.0125	1.279	0.03363	1.36
0.0175	1.424	0.03623	1.353
0.0225	1.445	0.03673	1.345
0.0275	1.363	0.03458	1.335
0.0325	1.376	0.03529	1.323
0.0375	1.389	0.03564	1.31
0.0425	1.365	0.03528	1.295
0.0475	1.299	0.0341	1.28
0.0525	1.272	0.03366	1.264
0.0575	1.218	0.03255	1.247
0.0625	1.246	0.03321	1.229
0.0675	1.194	0.03209	1.212
0.0725	1.2	0.03243	1.195
0.0775	1.134	0.03122	1.178
0.0825	1.184	0.03246	1.161
0.0875	1.151	0.03167	1.145
0.0925	1.105	0.03127	1.13
0.0975	1.122	0.03185	1.115
0.1025	1.029	0.02978	1.102
0.1075	1.1	0.03166	1.089
0.1125	1.098	0.03126	1.077
0.1175	1.01	0.03008	1.066
0.1225	1.088	0.03152	1.057
0.1275	1.048	0.03119	1.048
0.1325	1.03	0.03051	1.04
0.1375	1.102	0.03207	1.033
0.1425	1.046	0.03123	1.026
0.1475	0.9541	0.02958	1.021
0.1525	0.9875	0.03058	1.016
0.1575	1.006	0.03129	1.012
0.1625	1.009	0.03071	1.008
0.1675	1.025	0.03213	1.005
0.1725	0.9753	0.03075	1.003
0.1775	0.9745	0.0314	1.001
0.1825	1.03	0.03245	0.9987
0.1875	1.001	0.03217	0.9972
0.1925	1.023	0.03274	0.9959
0.1975	0.9841	0.0321	0.9949
0.2025	0.9667	0.03141	0.9941
0.2075	0.9917	0.03198	0.9934
0.2125	0.9638	0.03142	0.9928
0.2175	1.04	0.03346	0.9924
0.2225	1.084	0.03436	0.9921
0.2275	1.05	0.03398	0.9918
0.2325	1.004	0.03342	0.9916
0.2375	1.003	0.03388	0.9914
0.2425	1.011	0.03389	0.9913
0.2475	1.008	0.03411	0.9912
0.2525	0.9682	0.03328	0.9911
0.2575	0.9384	0.03268	0.991
0.2625	1.035	0.03521	0.991
0.2675	0.9868	0.03384	0.991
0.2725	0.9867	0.03482	0.9909
0.2775	1.057	0.03675	0.9909
0.2825	1.052	0.0371	0.9909
0.2875	1.076	0.03762	0.9909
0.2925	1.011	0.03633	0.9909
0.2975	0.994	0.03575	0.9909

0.0025	1.213	0.05844	1.385
0.0075	1.298	0.05377	1.383
0.0125	1.325	0.05095	1.379
0.0175	1.39	0.05111	1.372
0.0225	1.473	0.05395	1.364
0.0275	1.404	0.05245	1.354
0.0325	1.259	0.04803	1.342
0.0375	1.474	0.05487	1.328
0.0425	1.339	0.04995	1.314
0.0475	1.397	0.05335	1.298
0.0525	1.344	0.05163	1.281
0.0575	1.294	0.05021	1.264
0.0625	1.297	0.05093	1.246
0.0675	1.233	0.0484	1.228
0.0725	1.226	0.04866	1.21
0.0775	1.204	0.04847	1.193
0.0825	1.257	0.05056	1.176
0.0875	1.121	0.04552	1.159
0.0925	1.247	0.05041	1.143
0.0975	1.04	0.0439	1.127
0.1025	1.162	0.04799	1.113
0.1075	1.119	0.04654	1.099
0.1125	1.052	0.04549	1.087
0.1175	1.075	0.04573	1.075
0.1225	1.046	0.04494	1.064
0.1275	1.108	0.04643	1.055
0.1325	1.028	0.04425	1.046
0.1375	1.01	0.04428	1.038
0.1425	0.9658	0.04325	1.031
0.1475	1.051	0.04572	1.025
0.1525	1.007	0.04501	1.02
0.1575	1.037	0.04557	1.015
0.1625	1.035	0.04594	1.011
0.1675	0.9849	0.04541	1.007
0.1725	1.002	0.04546	1.004
0.1775	0.9548	0.04429	1.002
0.1825	1.033	0.04649	0.9994
0.1875	0.9562	0.04403	0.9976
0.1925	1.044	0.04848	0.996
0.1975	0.9821	0.04646	0.9948
0.2025	1.033	0.04773	0.9937
0.2075	0.9966	0.04692	0.9929
0.2125	1.009	0.04859	0.9922
0.2175	0.9125	0.04506	0.9916
0.2225	1.035	0.04875	0.9912
0.2275	1.056	0.04953	0.9908
0.2325	0.9657	0.04717	0.9905
0.2375	1.034	0.04997	0.9903
0.2425	0.9212	0.04562	0.9901
0.2475	0.9545	0.04711	0.99
0.2525	0.9269	0.0471	0.9899
0.2575	0.947	0.04734	0.9898
0.2625	1.02	0.05046	0.9897
0.2675	1.043	0.0514	0.9897
0.2725	1.033	0.05196	0.9897
0.2775	0.9861	0.05079	0.9896
0.2825	1.011	0.05074	0.9896
0.2875	1.039	0.05181	0.9896
0.2925	1.046	0.05261	0.9896
0.2975	0.9366	0.04924	0.9896

0.0025	1.379	0.1377	1.433
0.0075	1.195	0.09334	1.431
0.0125	1.115	0.07627	1.427
0.0175	1.425	0.09066	1.421
0.0225	1.39	0.08845	1.413
0.0275	1.466	0.09243	1.403
0.0325	1.509	0.0942	1.392
0.0375	1.503	0.09512	1.379
0.0425	1.469	0.09317	1.365
0.0475	1.507	0.09592	1.349
0.0525	1.33	0.08841	1.333
0.0575	1.356	0.08739	1.316
0.0625	1.27	0.08133	1.298
0.0675	1.292	0.08389	1.28
0.0725	1.403	0.09317	1.262
0.0775	1.248	0.08439	1.244
0.0825	1.3	0.0847	1.226
0.0875	1.174	0.08292	1.208
0.0925	1.23	0.08275	1.191
0.0975	1.089	0.07949	1.174
0.1025	0.9664	0.0716	1.158
0.1075	1.149	0.07888	1.143
0.1125	1.143	0.07982	1.129
0.1175	1.084	0.0772	1.115
0.1225	1.035	0.07347	1.103
0.1275	1.161	0.08395	1.091
0.1325	1.118	0.07892	1.08
0.1375	1.062	0.07698	1.071
0.1425	1.079	0.07785	1.062
0.1475	1.165	0.08154	1.054
0.1525	0.9363	0.0707	1.046
0.1575	0.9552	0.07294	1.04
0.1625	1.164	0.0847	1.034
0.1675	1.179	0.08831	1.029
0.1725	1.25	0.09009	1.025
0.1775	0.9285	0.07205	1.021
0.1825	1.052	0.07966	1.018
0.1875	0.9707	0.07357	1.015
0.1925	1.026	0.07746	1.012
0.1975	1.002	0.0763	1.01
0.2025	1.111	0.08284	1.008
0.2075	1.049	0.07923	1.007
0.2125	0.989	0.07615	1.005
0.2175	1.043	0.08148	1.004
0.2225	1.027	0.0803	1.003
0.2275	0.8614	0.06891	1.003
0.2325	1.012	0.07907	1.002
0.2375	0.9867	0.07895	1.002
0.2425	0.977	0.07695	1.001
0.2475	0.9311	0.07524	1.001
0.2525	1.058	0.08205	1.001
0.2575	1.03	0.08242	1
0.2625	0.947	0.07605	1
0.2675	0.9448	0.07919	1
0.2725	1.084	0.08856	1
0.2775	1.011	0.08439	0.9999
0.2825	0.838	0.07303	0.9998
0.2875	1.013	0.08344	0.9998
0.2925	0.8874	0.07725	0.9997
0.2975	1.129	0.09315	0.9997

