#Fitting for kt/mt dependence
#Fit_flag=0
#Fitting {++} and {- -} Pairs
#ich	ictval	ikt	irp	ktvalue	qpercet	Norm1D 	Lamda1D	Rinv   	Norm3D 	Lamda3D	Rside  	Rout  	Rlong  	RsE   	RoE   	RlE    
0	2.5	0	0	0.2463	0	0.2592	0.3892	6.126	0.2592	0.3892	4.697	6.363	5.964	0.03733	0.05804	0.05469	1	1	1	0.01124	0.0129	0.01297
0	2.5	1	0	0.3291	0	0.2593	0.4029	5.542	0.2593	0.4029	4.298	5.579	4.816	0.04005	0.05672	0.05228	1	1	1	0.01318	0.01438	0.01535
0	2.5	2	0	0.4258	0	0.2598	0.3923	4.516	0.2598	0.3923	3.916	4.774	3.997	0.04484	0.06299	0.05408	1	1	1	0.01619	0.01866	0.01914
0	2.5	3	0	0.643	0	0.2605	0.3459	3.575	0.2605	0.3459	3.487	3.886	2.83	0.04841	0.06907	0.04942	1	1	1	0.01964	0.02513	0.02469

0	7.5	0	0	0.2463	0	0.259	0.4079	5.871	0.259	0.4079	4.519	5.963	5.691	0.0378	0.05635	0.05545	1	1	1	0.01183	0.01336	0.01378
0	7.5	1	0	0.3291	0	0.2587	0.3893	5.234	0.2587	0.3893	3.997	5.217	4.455	0.03894	0.05571	0.05088	1	1	1	0.01378	0.0151	0.01615
0	7.5	2	0	0.4258	0	0.2591	0.4148	4.528	0.2591	0.4148	3.798	4.469	3.792	0.04334	0.05883	0.05089	1	1	1	0.01614	0.01862	0.01898
0	7.5	3	0	0.6435	0	0.2595	0.3672	3.604	0.2595	0.3672	3.334	3.663	2.782	0.04864	0.06745	0.04956	1	1	1	0.02063	0.02604	0.0252

0	15	0	0	0.2463	0	0.2559	0.3998	5.38	0.2559	0.3998	4.162	5.415	5.211	0.0266	0.03994	0.03934	1	1	1	0.009038	0.01043	0.01068
0	15	1	0	0.329	0	0.2557	0.4246	5.154	0.2557	0.4246	3.811	4.923	4.308	0.02836	0.039	0.03713	1	1	1	0.01052	0.0112	0.01219
0	15	2	0	0.4258	0	0.2559	0.4199	4.278	0.2559	0.4199	3.504	4.205	3.481	0.03009	0.04088	0.03562	1	1	1	0.01215	0.01375	0.01447
0	15	3	0	0.6435	0	0.256	0.3878	3.523	0.256	0.3878	3.111	3.396	2.603	0.03286	0.04387	0.03378	1	1	1	0.01494	0.01827	0.01835

0	25	0	0	0.2462	0	0.2561	0.4062	4.737	0.2561	0.4062	3.666	4.876	4.725	0.02678	0.0424	0.04106	1	1	1	0.01033	0.0123	0.01229
0	25	1	0	0.329	0	0.2558	0.4413	4.683	0.2558	0.4413	3.462	4.415	3.923	0.029	0.03884	0.03883	1	1	1	0.01185	0.01244	0.014
0	25	2	0	0.4257	0	0.2559	0.4482	4.097	0.2559	0.4482	3.258	3.8	3.191	0.03171	0.04043	0.036	1	1	1	0.01377	0.01505	0.01596
0	25	3	0	0.6428	0	0.2558	0.4064	3.301	0.2558	0.4064	2.832	3.045	2.318	0.03265	0.04139	0.03189	1	1	1	0.01631	0.01923	0.01946

0	35	0	0	0.2462	0	0.2564	0.422	4.269	0.2564	0.422	3.377	4.353	4.159	0.03002	0.04769	0.04496	1	1	1	0.01257	0.01549	0.01529
0	35	1	0	0.3289	0	0.256	0.458	4.278	0.256	0.458	3.117	3.983	3.468	0.03067	0.04144	0.03943	1	1	1	0.01391	0.01471	0.01608
0	35	2	0	0.4256	0	0.2559	0.4639	3.713	0.2559	0.4639	2.922	3.41	2.849	0.03348	0.04265	0.03826	1	1	1	0.0162	0.01769	0.01899
0	35	3	0	0.6413	0	0.2554	0.4606	3.126	0.2554	0.4606	2.618	2.855	2.14	0.03482	0.0441	0.03466	1	1	1	0.01881	0.02184	0.0229

0	45	0	0	0.2462	0	0.2569	0.4236	3.765	0.2569	0.4236	2.969	3.936	3.665	0.03407	0.05374	0.05047	1	1	1	0.01623	0.01931	0.01948
0	45	1	0	0.3289	0	0.2561	0.4643	3.945	0.2561	0.4643	2.81	3.54	3.077	0.03591	0.0468	0.04596	1	1	1	0.01808	0.01869	0.02112
0	45	2	0	0.4255	0	0.2556	0.4948	3.424	0.2556	0.4948	2.6	3.204	2.56	0.03693	0.0485	0.045	1	1	1	0.02009	0.02141	0.02485
0	45	3	0	0.6395	0	0.2542	0.4749	2.863	0.2542	0.4749	2.328	2.627	1.837	0.04145	0.05076	0.03743	1	1	1	0.02518	0.02733	0.02882

0	60	0	0	0.2462	0	0.2584	0.4478	3.362	0.2584	0.4478	2.662	3.464	3.412	0.04059	0.06181	0.06074	1	1	1	0.02156	0.02524	0.02518
0	60	1	0	0.3288	0	0.2564	0.4743	3.507	0.2564	0.4743	2.517	3.204	2.722	0.04285	0.05392	0.0544	1	1	1	0.02407	0.0238	0.02826
0	60	2	0	0.4253	0	0.2551	0.487	3.14	0.2551	0.487	2.302	2.811	2.203	0.04585	0.05859	0.05055	1	1	1	0.02817	0.02948	0.03246
0	60	3	0	0.6363	0	0.2522	0.491	2.705	0.2522	0.491	2.118	2.214	1.64	0.04926	0.05517	0.04272	1	1	1	0.03289	0.03525	0.03683
