%!PS-Adobe-2.0
%%Title: image.eps
%%Creator: gnuplot 5.0 patchlevel 3
%%CreationDate: Mon Feb  5 14:56:15 2018
%%DocumentFonts: (atend)
%%BoundingBox: 50 50 554 770
%%Orientation: Landscape
%%Pages: (atend)
%%EndComments
%%BeginProlog
/gnudict 256 dict def
gnudict begin
%
% The following true/false flags may be edited by hand if desired.
% The unit line width and grayscale image gamma correction may also be changed.
%
/Color true def
/Blacktext false def
/Solid false def
/Dashlength 1 def
/Landscape true def
/Level1 false def
/Level3 false def
/Rounded false def
/ClipToBoundingBox false def
/SuppressPDFMark false def
/TransparentPatterns false def
/gnulinewidth 5.000 def
/userlinewidth gnulinewidth def
/Gamma 1.0 def
/BackgroundColor {-1.000 -1.000 -1.000} def
%
/vshift -80 def
/dl1 {
  10.0 Dashlength userlinewidth gnulinewidth div mul mul mul
  Rounded { currentlinewidth 0.75 mul sub dup 0 le { pop 0.01 } if } if
} def
/dl2 {
  10.0 Dashlength userlinewidth gnulinewidth div mul mul mul
  Rounded { currentlinewidth 0.75 mul add } if
} def
/hpt_ 31.5 def
/vpt_ 31.5 def
/hpt hpt_ def
/vpt vpt_ def
/doclip {
  ClipToBoundingBox {
    newpath 50 50 moveto 554 50 lineto 554 770 lineto 50 770 lineto closepath
    clip
  } if
} def
%
% Gnuplot Prolog Version 5.1 (Oct 2015)
%
%/SuppressPDFMark true def
%
/M {moveto} bind def
/L {lineto} bind def
/R {rmoveto} bind def
/V {rlineto} bind def
/N {newpath moveto} bind def
/Z {closepath} bind def
/C {setrgbcolor} bind def
/f {rlineto fill} bind def
/g {setgray} bind def
/Gshow {show} def   % May be redefined later in the file to support UTF-8
/vpt2 vpt 2 mul def
/hpt2 hpt 2 mul def
/Lshow {currentpoint stroke M 0 vshift R 
	Blacktext {gsave 0 setgray textshow grestore} {textshow} ifelse} def
/Rshow {currentpoint stroke M dup stringwidth pop neg vshift R
	Blacktext {gsave 0 setgray textshow grestore} {textshow} ifelse} def
/Cshow {currentpoint stroke M dup stringwidth pop -2 div vshift R 
	Blacktext {gsave 0 setgray textshow grestore} {textshow} ifelse} def
/UP {dup vpt_ mul /vpt exch def hpt_ mul /hpt exch def
  /hpt2 hpt 2 mul def /vpt2 vpt 2 mul def} def
/DL {Color {setrgbcolor Solid {pop []} if 0 setdash}
 {pop pop pop 0 setgray Solid {pop []} if 0 setdash} ifelse} def
/BL {stroke userlinewidth 2 mul setlinewidth
	Rounded {1 setlinejoin 1 setlinecap} if} def
/AL {stroke userlinewidth 2 div setlinewidth
	Rounded {1 setlinejoin 1 setlinecap} if} def
/UL {dup gnulinewidth mul /userlinewidth exch def
	dup 1 lt {pop 1} if 10 mul /udl exch def} def
/PL {stroke userlinewidth setlinewidth
	Rounded {1 setlinejoin 1 setlinecap} if} def
3.8 setmiterlimit
% Classic Line colors (version 5.0)
/LCw {1 1 1} def
/LCb {0 0 0} def
/LCa {0 0 0} def
/LC0 {1 0 0} def
/LC1 {0 1 0} def
/LC2 {0 0 1} def
/LC3 {1 0 1} def
/LC4 {0 1 1} def
/LC5 {1 1 0} def
/LC6 {0 0 0} def
/LC7 {1 0.3 0} def
/LC8 {0.5 0.5 0.5} def
% Default dash patterns (version 5.0)
/LTB {BL [] LCb DL} def
/LTw {PL [] 1 setgray} def
/LTb {PL [] LCb DL} def
/LTa {AL [1 udl mul 2 udl mul] 0 setdash LCa setrgbcolor} def
/LT0 {PL [] LC0 DL} def
/LT1 {PL [2 dl1 3 dl2] LC1 DL} def
/LT2 {PL [1 dl1 1.5 dl2] LC2 DL} def
/LT3 {PL [6 dl1 2 dl2 1 dl1 2 dl2] LC3 DL} def
/LT4 {PL [1 dl1 2 dl2 6 dl1 2 dl2 1 dl1 2 dl2] LC4 DL} def
/LT5 {PL [4 dl1 2 dl2] LC5 DL} def
/LT6 {PL [1.5 dl1 1.5 dl2 1.5 dl1 1.5 dl2 1.5 dl1 6 dl2] LC6 DL} def
/LT7 {PL [3 dl1 3 dl2 1 dl1 3 dl2] LC7 DL} def
/LT8 {PL [2 dl1 2 dl2 2 dl1 6 dl2] LC8 DL} def
/SL {[] 0 setdash} def
/Pnt {stroke [] 0 setdash gsave 1 setlinecap M 0 0 V stroke grestore} def
/Dia {stroke [] 0 setdash 2 copy vpt add M
  hpt neg vpt neg V hpt vpt neg V
  hpt vpt V hpt neg vpt V closepath stroke
  Pnt} def
/Pls {stroke [] 0 setdash vpt sub M 0 vpt2 V
  currentpoint stroke M
  hpt neg vpt neg R hpt2 0 V stroke
 } def
/Box {stroke [] 0 setdash 2 copy exch hpt sub exch vpt add M
  0 vpt2 neg V hpt2 0 V 0 vpt2 V
  hpt2 neg 0 V closepath stroke
  Pnt} def
/Crs {stroke [] 0 setdash exch hpt sub exch vpt add M
  hpt2 vpt2 neg V currentpoint stroke M
  hpt2 neg 0 R hpt2 vpt2 V stroke} def
/TriU {stroke [] 0 setdash 2 copy vpt 1.12 mul add M
  hpt neg vpt -1.62 mul V
  hpt 2 mul 0 V
  hpt neg vpt 1.62 mul V closepath stroke
  Pnt} def
/Star {2 copy Pls Crs} def
/BoxF {stroke [] 0 setdash exch hpt sub exch vpt add M
  0 vpt2 neg V hpt2 0 V 0 vpt2 V
  hpt2 neg 0 V closepath fill} def
/TriUF {stroke [] 0 setdash vpt 1.12 mul add M
  hpt neg vpt -1.62 mul V
  hpt 2 mul 0 V
  hpt neg vpt 1.62 mul V closepath fill} def
/TriD {stroke [] 0 setdash 2 copy vpt 1.12 mul sub M
  hpt neg vpt 1.62 mul V
  hpt 2 mul 0 V
  hpt neg vpt -1.62 mul V closepath stroke
  Pnt} def
/TriDF {stroke [] 0 setdash vpt 1.12 mul sub M
  hpt neg vpt 1.62 mul V
  hpt 2 mul 0 V
  hpt neg vpt -1.62 mul V closepath fill} def
/DiaF {stroke [] 0 setdash vpt add M
  hpt neg vpt neg V hpt vpt neg V
  hpt vpt V hpt neg vpt V closepath fill} def
/Pent {stroke [] 0 setdash 2 copy gsave
  translate 0 hpt M 4 {72 rotate 0 hpt L} repeat
  closepath stroke grestore Pnt} def
/PentF {stroke [] 0 setdash gsave
  translate 0 hpt M 4 {72 rotate 0 hpt L} repeat
  closepath fill grestore} def
/Circle {stroke [] 0 setdash 2 copy
  hpt 0 360 arc stroke Pnt} def
/CircleF {stroke [] 0 setdash hpt 0 360 arc fill} def
/C0 {BL [] 0 setdash 2 copy moveto vpt 90 450 arc} bind def
/C1 {BL [] 0 setdash 2 copy moveto
	2 copy vpt 0 90 arc closepath fill
	vpt 0 360 arc closepath} bind def
/C2 {BL [] 0 setdash 2 copy moveto
	2 copy vpt 90 180 arc closepath fill
	vpt 0 360 arc closepath} bind def
/C3 {BL [] 0 setdash 2 copy moveto
	2 copy vpt 0 180 arc closepath fill
	vpt 0 360 arc closepath} bind def
/C4 {BL [] 0 setdash 2 copy moveto
	2 copy vpt 180 270 arc closepath fill
	vpt 0 360 arc closepath} bind def
/C5 {BL [] 0 setdash 2 copy moveto
	2 copy vpt 0 90 arc
	2 copy moveto
	2 copy vpt 180 270 arc closepath fill
	vpt 0 360 arc} bind def
/C6 {BL [] 0 setdash 2 copy moveto
	2 copy vpt 90 270 arc closepath fill
	vpt 0 360 arc closepath} bind def
/C7 {BL [] 0 setdash 2 copy moveto
	2 copy vpt 0 270 arc closepath fill
	vpt 0 360 arc closepath} bind def
/C8 {BL [] 0 setdash 2 copy moveto
	2 copy vpt 270 360 arc closepath fill
	vpt 0 360 arc closepath} bind def
/C9 {BL [] 0 setdash 2 copy moveto
	2 copy vpt 270 450 arc closepath fill
	vpt 0 360 arc closepath} bind def
/C10 {BL [] 0 setdash 2 copy 2 copy moveto vpt 270 360 arc closepath fill
	2 copy moveto
	2 copy vpt 90 180 arc closepath fill
	vpt 0 360 arc closepath} bind def
/C11 {BL [] 0 setdash 2 copy moveto
	2 copy vpt 0 180 arc closepath fill
	2 copy moveto
	2 copy vpt 270 360 arc closepath fill
	vpt 0 360 arc closepath} bind def
/C12 {BL [] 0 setdash 2 copy moveto
	2 copy vpt 180 360 arc closepath fill
	vpt 0 360 arc closepath} bind def
/C13 {BL [] 0 setdash 2 copy moveto
	2 copy vpt 0 90 arc closepath fill
	2 copy moveto
	2 copy vpt 180 360 arc closepath fill
	vpt 0 360 arc closepath} bind def
/C14 {BL [] 0 setdash 2 copy moveto
	2 copy vpt 90 360 arc closepath fill
	vpt 0 360 arc} bind def
/C15 {BL [] 0 setdash 2 copy vpt 0 360 arc closepath fill
	vpt 0 360 arc closepath} bind def
/Rec {newpath 4 2 roll moveto 1 index 0 rlineto 0 exch rlineto
	neg 0 rlineto closepath} bind def
/Square {dup Rec} bind def
/Bsquare {vpt sub exch vpt sub exch vpt2 Square} bind def
/S0 {BL [] 0 setdash 2 copy moveto 0 vpt rlineto BL Bsquare} bind def
/S1 {BL [] 0 setdash 2 copy vpt Square fill Bsquare} bind def
/S2 {BL [] 0 setdash 2 copy exch vpt sub exch vpt Square fill Bsquare} bind def
/S3 {BL [] 0 setdash 2 copy exch vpt sub exch vpt2 vpt Rec fill Bsquare} bind def
/S4 {BL [] 0 setdash 2 copy exch vpt sub exch vpt sub vpt Square fill Bsquare} bind def
/S5 {BL [] 0 setdash 2 copy 2 copy vpt Square fill
	exch vpt sub exch vpt sub vpt Square fill Bsquare} bind def
/S6 {BL [] 0 setdash 2 copy exch vpt sub exch vpt sub vpt vpt2 Rec fill Bsquare} bind def
/S7 {BL [] 0 setdash 2 copy exch vpt sub exch vpt sub vpt vpt2 Rec fill
	2 copy vpt Square fill Bsquare} bind def
/S8 {BL [] 0 setdash 2 copy vpt sub vpt Square fill Bsquare} bind def
/S9 {BL [] 0 setdash 2 copy vpt sub vpt vpt2 Rec fill Bsquare} bind def
/S10 {BL [] 0 setdash 2 copy vpt sub vpt Square fill 2 copy exch vpt sub exch vpt Square fill
	Bsquare} bind def
/S11 {BL [] 0 setdash 2 copy vpt sub vpt Square fill 2 copy exch vpt sub exch vpt2 vpt Rec fill
	Bsquare} bind def
/S12 {BL [] 0 setdash 2 copy exch vpt sub exch vpt sub vpt2 vpt Rec fill Bsquare} bind def
/S13 {BL [] 0 setdash 2 copy exch vpt sub exch vpt sub vpt2 vpt Rec fill
	2 copy vpt Square fill Bsquare} bind def
/S14 {BL [] 0 setdash 2 copy exch vpt sub exch vpt sub vpt2 vpt Rec fill
	2 copy exch vpt sub exch vpt Square fill Bsquare} bind def
/S15 {BL [] 0 setdash 2 copy Bsquare fill Bsquare} bind def
/D0 {gsave translate 45 rotate 0 0 S0 stroke grestore} bind def
/D1 {gsave translate 45 rotate 0 0 S1 stroke grestore} bind def
/D2 {gsave translate 45 rotate 0 0 S2 stroke grestore} bind def
/D3 {gsave translate 45 rotate 0 0 S3 stroke grestore} bind def
/D4 {gsave translate 45 rotate 0 0 S4 stroke grestore} bind def
/D5 {gsave translate 45 rotate 0 0 S5 stroke grestore} bind def
/D6 {gsave translate 45 rotate 0 0 S6 stroke grestore} bind def
/D7 {gsave translate 45 rotate 0 0 S7 stroke grestore} bind def
/D8 {gsave translate 45 rotate 0 0 S8 stroke grestore} bind def
/D9 {gsave translate 45 rotate 0 0 S9 stroke grestore} bind def
/D10 {gsave translate 45 rotate 0 0 S10 stroke grestore} bind def
/D11 {gsave translate 45 rotate 0 0 S11 stroke grestore} bind def
/D12 {gsave translate 45 rotate 0 0 S12 stroke grestore} bind def
/D13 {gsave translate 45 rotate 0 0 S13 stroke grestore} bind def
/D14 {gsave translate 45 rotate 0 0 S14 stroke grestore} bind def
/D15 {gsave translate 45 rotate 0 0 S15 stroke grestore} bind def
/DiaE {stroke [] 0 setdash vpt add M
  hpt neg vpt neg V hpt vpt neg V
  hpt vpt V hpt neg vpt V closepath stroke} def
/BoxE {stroke [] 0 setdash exch hpt sub exch vpt add M
  0 vpt2 neg V hpt2 0 V 0 vpt2 V
  hpt2 neg 0 V closepath stroke} def
/TriUE {stroke [] 0 setdash vpt 1.12 mul add M
  hpt neg vpt -1.62 mul V
  hpt 2 mul 0 V
  hpt neg vpt 1.62 mul V closepath stroke} def
/TriDE {stroke [] 0 setdash vpt 1.12 mul sub M
  hpt neg vpt 1.62 mul V
  hpt 2 mul 0 V
  hpt neg vpt -1.62 mul V closepath stroke} def
/PentE {stroke [] 0 setdash gsave
  translate 0 hpt M 4 {72 rotate 0 hpt L} repeat
  closepath stroke grestore} def
/CircE {stroke [] 0 setdash 
  hpt 0 360 arc stroke} def
/Opaque {gsave closepath 1 setgray fill grestore 0 setgray closepath} def
/DiaW {stroke [] 0 setdash vpt add M
  hpt neg vpt neg V hpt vpt neg V
  hpt vpt V hpt neg vpt V Opaque stroke} def
/BoxW {stroke [] 0 setdash exch hpt sub exch vpt add M
  0 vpt2 neg V hpt2 0 V 0 vpt2 V
  hpt2 neg 0 V Opaque stroke} def
/TriUW {stroke [] 0 setdash vpt 1.12 mul add M
  hpt neg vpt -1.62 mul V
  hpt 2 mul 0 V
  hpt neg vpt 1.62 mul V Opaque stroke} def
/TriDW {stroke [] 0 setdash vpt 1.12 mul sub M
  hpt neg vpt 1.62 mul V
  hpt 2 mul 0 V
  hpt neg vpt -1.62 mul V Opaque stroke} def
/PentW {stroke [] 0 setdash gsave
  translate 0 hpt M 4 {72 rotate 0 hpt L} repeat
  Opaque stroke grestore} def
/CircW {stroke [] 0 setdash 
  hpt 0 360 arc Opaque stroke} def
/BoxFill {gsave Rec 1 setgray fill grestore} def
/Density {
  /Fillden exch def
  currentrgbcolor
  /ColB exch def /ColG exch def /ColR exch def
  /ColR ColR Fillden mul Fillden sub 1 add def
  /ColG ColG Fillden mul Fillden sub 1 add def
  /ColB ColB Fillden mul Fillden sub 1 add def
  ColR ColG ColB setrgbcolor} def
/BoxColFill {gsave Rec PolyFill} def
/PolyFill {gsave Density fill grestore grestore} def
/h {rlineto rlineto rlineto gsave closepath fill grestore} bind def
%
% PostScript Level 1 Pattern Fill routine for rectangles
% Usage: x y w h s a XX PatternFill
%	x,y = lower left corner of box to be filled
%	w,h = width and height of box
%	  a = angle in degrees between lines and x-axis
%	 XX = 0/1 for no/yes cross-hatch
%
/PatternFill {gsave /PFa [ 9 2 roll ] def
  PFa 0 get PFa 2 get 2 div add PFa 1 get PFa 3 get 2 div add translate
  PFa 2 get -2 div PFa 3 get -2 div PFa 2 get PFa 3 get Rec
  TransparentPatterns {} {gsave 1 setgray fill grestore} ifelse
  clip
  currentlinewidth 0.5 mul setlinewidth
  /PFs PFa 2 get dup mul PFa 3 get dup mul add sqrt def
  0 0 M PFa 5 get rotate PFs -2 div dup translate
  0 1 PFs PFa 4 get div 1 add floor cvi
	{PFa 4 get mul 0 M 0 PFs V} for
  0 PFa 6 get ne {
	0 1 PFs PFa 4 get div 1 add floor cvi
	{PFa 4 get mul 0 2 1 roll M PFs 0 V} for
 } if
  stroke grestore} def
%
/languagelevel where
 {pop languagelevel} {1} ifelse
dup 2 lt
	{/InterpretLevel1 true def
	 /InterpretLevel3 false def}
	{/InterpretLevel1 Level1 def
	 2 gt
	    {/InterpretLevel3 Level3 def}
	    {/InterpretLevel3 false def}
	 ifelse }
 ifelse
%
% PostScript level 2 pattern fill definitions
%
/Level2PatternFill {
/Tile8x8 {/PaintType 2 /PatternType 1 /TilingType 1 /BBox [0 0 8 8] /XStep 8 /YStep 8}
	bind def
/KeepColor {currentrgbcolor [/Pattern /DeviceRGB] setcolorspace} bind def
<< Tile8x8
 /PaintProc {0.5 setlinewidth pop 0 0 M 8 8 L 0 8 M 8 0 L stroke} 
>> matrix makepattern
/Pat1 exch def
<< Tile8x8
 /PaintProc {0.5 setlinewidth pop 0 0 M 8 8 L 0 8 M 8 0 L stroke
	0 4 M 4 8 L 8 4 L 4 0 L 0 4 L stroke}
>> matrix makepattern
/Pat2 exch def
<< Tile8x8
 /PaintProc {0.5 setlinewidth pop 0 0 M 0 8 L
	8 8 L 8 0 L 0 0 L fill}
>> matrix makepattern
/Pat3 exch def
<< Tile8x8
 /PaintProc {0.5 setlinewidth pop -4 8 M 8 -4 L
	0 12 M 12 0 L stroke}
>> matrix makepattern
/Pat4 exch def
<< Tile8x8
 /PaintProc {0.5 setlinewidth pop -4 0 M 8 12 L
	0 -4 M 12 8 L stroke}
>> matrix makepattern
/Pat5 exch def
<< Tile8x8
 /PaintProc {0.5 setlinewidth pop -2 8 M 4 -4 L
	0 12 M 8 -4 L 4 12 M 10 0 L stroke}
>> matrix makepattern
/Pat6 exch def
<< Tile8x8
 /PaintProc {0.5 setlinewidth pop -2 0 M 4 12 L
	0 -4 M 8 12 L 4 -4 M 10 8 L stroke}
>> matrix makepattern
/Pat7 exch def
<< Tile8x8
 /PaintProc {0.5 setlinewidth pop 8 -2 M -4 4 L
	12 0 M -4 8 L 12 4 M 0 10 L stroke}
>> matrix makepattern
/Pat8 exch def
<< Tile8x8
 /PaintProc {0.5 setlinewidth pop 0 -2 M 12 4 L
	-4 0 M 12 8 L -4 4 M 8 10 L stroke}
>> matrix makepattern
/Pat9 exch def
/Pattern1 {PatternBgnd KeepColor Pat1 setpattern} bind def
/Pattern2 {PatternBgnd KeepColor Pat2 setpattern} bind def
/Pattern3 {PatternBgnd KeepColor Pat3 setpattern} bind def
/Pattern4 {PatternBgnd KeepColor Landscape {Pat5} {Pat4} ifelse setpattern} bind def
/Pattern5 {PatternBgnd KeepColor Landscape {Pat4} {Pat5} ifelse setpattern} bind def
/Pattern6 {PatternBgnd KeepColor Landscape {Pat9} {Pat6} ifelse setpattern} bind def
/Pattern7 {PatternBgnd KeepColor Landscape {Pat8} {Pat7} ifelse setpattern} bind def
} def
%
%
%End of PostScript Level 2 code
%
/PatternBgnd {
  TransparentPatterns {} {gsave 1 setgray fill grestore} ifelse
} def
%
% Substitute for Level 2 pattern fill codes with
% grayscale if Level 2 support is not selected.
%
/Level1PatternFill {
/Pattern1 {0.250 Density} bind def
/Pattern2 {0.500 Density} bind def
/Pattern3 {0.750 Density} bind def
/Pattern4 {0.125 Density} bind def
/Pattern5 {0.375 Density} bind def
/Pattern6 {0.625 Density} bind def
/Pattern7 {0.875 Density} bind def
} def
%
% Now test for support of Level 2 code
%
Level1 {Level1PatternFill} {Level2PatternFill} ifelse
%
/Symbol-Oblique /Symbol findfont [1 0 .167 1 0 0] makefont
dup length dict begin {1 index /FID eq {pop pop} {def} ifelse} forall
currentdict end definefont pop
%
/MFshow {
   { dup 5 get 3 ge
     { 5 get 3 eq {gsave} {grestore} ifelse }
     {dup dup 0 get findfont exch 1 get scalefont setfont
     [ currentpoint ] exch dup 2 get 0 exch R dup 5 get 2 ne {dup dup 6
     get exch 4 get {textshow} {stringwidth pop 0 R} ifelse }if dup 5 get 0 eq
     {dup 3 get {2 get neg 0 exch R pop} {pop aload pop M} ifelse} {dup 5
     get 1 eq {dup 2 get exch dup 3 get exch 6 get stringwidth pop -2 div
     dup 0 R} {dup 6 get stringwidth pop -2 div 0 R 6 get
     textshow 2 index {aload pop M neg 3 -1 roll neg R pop pop} {pop pop pop
     pop aload pop M} ifelse }ifelse }ifelse }
     ifelse }
   forall} def
/Gswidth {dup type /stringtype eq {stringwidth} {pop (n) stringwidth} ifelse} def
/MFwidth {0 exch { dup 5 get 3 ge { 5 get 3 eq { 0 } { pop } ifelse }
 {dup 3 get{dup dup 0 get findfont exch 1 get scalefont setfont
     6 get Gswidth pop add} {pop} ifelse} ifelse} forall} def
/MLshow { currentpoint stroke M
  0 exch R
  Blacktext {gsave 0 setgray MFshow grestore} {MFshow} ifelse } bind def
/MRshow { currentpoint stroke M
  exch dup MFwidth neg 3 -1 roll R
  Blacktext {gsave 0 setgray MFshow grestore} {MFshow} ifelse } bind def
/MCshow { currentpoint stroke M
  exch dup MFwidth -2 div 3 -1 roll R
  Blacktext {gsave 0 setgray MFshow grestore} {MFshow} ifelse } bind def
/XYsave    { [( ) 1 2 true false 3 ()] } bind def
/XYrestore { [( ) 1 2 true false 4 ()] } bind def
Level1 SuppressPDFMark or 
{} {
/SDict 10 dict def
systemdict /pdfmark known not {
  userdict /pdfmark systemdict /cleartomark get put
} if
SDict begin [
  /Title (image.eps)
  /Subject (gnuplot plot)
  /Creator (gnuplot 5.0 patchlevel 3)
  /Author (bad)
%  /Producer (gnuplot)
%  /Keywords ()
  /CreationDate (Mon Feb  5 14:56:15 2018)
  /DOCINFO pdfmark
end
} ifelse
%
% Support for boxed text - Ethan A Merritt May 2005
%
/InitTextBox { userdict /TBy2 3 -1 roll put userdict /TBx2 3 -1 roll put
           userdict /TBy1 3 -1 roll put userdict /TBx1 3 -1 roll put
	   /Boxing true def } def
/ExtendTextBox { Boxing
    { gsave dup false charpath pathbbox
      dup TBy2 gt {userdict /TBy2 3 -1 roll put} {pop} ifelse
      dup TBx2 gt {userdict /TBx2 3 -1 roll put} {pop} ifelse
      dup TBy1 lt {userdict /TBy1 3 -1 roll put} {pop} ifelse
      dup TBx1 lt {userdict /TBx1 3 -1 roll put} {pop} ifelse
      grestore } if } def
/PopTextBox { newpath TBx1 TBxmargin sub TBy1 TBymargin sub M
               TBx1 TBxmargin sub TBy2 TBymargin add L
	       TBx2 TBxmargin add TBy2 TBymargin add L
	       TBx2 TBxmargin add TBy1 TBymargin sub L closepath } def
/DrawTextBox { PopTextBox stroke /Boxing false def} def
/FillTextBox { gsave PopTextBox 1 1 1 setrgbcolor fill grestore /Boxing false def} def
0 0 0 0 InitTextBox
/TBxmargin 20 def
/TBymargin 20 def
/Boxing false def
/textshow { ExtendTextBox Gshow } def
%
% redundant definitions for compatibility with prologue.ps older than 5.0.2
/LTB {BL [] LCb DL} def
/LTb {PL [] LCb DL} def
end
%%EndProlog
%%Page: 1 1
gnudict begin
gsave
doclip
50 50 translate
0.100 0.100 scale
90 rotate
0 -5040 translate
0 setgray
newpath
(Times-Roman) findfont 240 scalefont setfont
BackgroundColor 0 lt 3 1 roll 0 lt exch 0 lt or or not {gsave BackgroundColor C clippath fill grestore} if
1.000 UL
LTb
LCb setrgbcolor
936 2916 M
31 0 V
1480 0 R
-31 0 V
936 2984 M
31 0 V
1480 0 R
-31 0 V
936 3053 M
31 0 V
1480 0 R
-31 0 V
936 3121 M
63 0 V
1448 0 R
-63 0 V
stroke
907 3121 M
[ [(Times-Roman) 200.0 0.0 true true 0 ( 1)]
] -66.7 MRshow
1.000 UL
LTb
LCb setrgbcolor
936 3189 M
31 0 V
1480 0 R
-31 0 V
936 3258 M
31 0 V
1480 0 R
-31 0 V
936 3326 M
31 0 V
1480 0 R
-31 0 V
936 3394 M
31 0 V
1480 0 R
-31 0 V
936 3463 M
63 0 V
1448 0 R
-63 0 V
stroke
907 3463 M
[ [(Times-Roman) 200.0 0.0 true true 0 ( 1.2)]
] -66.7 MRshow
1.000 UL
LTb
LCb setrgbcolor
936 3531 M
31 0 V
1480 0 R
-31 0 V
936 3599 M
31 0 V
1480 0 R
-31 0 V
936 3668 M
31 0 V
1480 0 R
-31 0 V
936 3736 M
31 0 V
1480 0 R
-31 0 V
936 3804 M
63 0 V
1448 0 R
-63 0 V
stroke
907 3804 M
[ [(Times-Roman) 200.0 0.0 true true 0 ( 1.4)]
] -66.7 MRshow
1.000 UL
LTb
LCb setrgbcolor
936 3873 M
31 0 V
1480 0 R
-31 0 V
936 3941 M
31 0 V
1480 0 R
-31 0 V
936 4009 M
31 0 V
1480 0 R
-31 0 V
936 4078 M
31 0 V
1480 0 R
-31 0 V
936 4146 M
63 0 V
1448 0 R
-63 0 V
stroke
907 4146 M
[ [(Times-Roman) 200.0 0.0 true true 0 ( 1.6)]
] -66.7 MRshow
1.000 UL
LTb
LCb setrgbcolor
1029 2899 M
0 31 V
0 1216 R
0 -31 V
1152 2899 M
0 31 V
0 1216 R
0 -31 V
1275 2899 M
0 31 V
0 1216 R
0 -31 V
1399 2899 M
0 31 V
0 1216 R
0 -31 V
1522 2899 M
0 63 V
0 1184 R
0 -63 V
stroke
1522 2779 M
[ [(Times-Roman) 10.0 0.0 true true 0 ( 0.1)]
] -3.3 MCshow
1.000 UL
LTb
LCb setrgbcolor
1645 2899 M
0 31 V
0 1216 R
0 -31 V
1769 2899 M
0 31 V
0 1216 R
0 -31 V
1892 2899 M
0 31 V
0 1216 R
0 -31 V
2015 2899 M
0 31 V
0 1216 R
0 -31 V
2139 2899 M
0 63 V
0 1184 R
0 -63 V
stroke
2139 2779 M
[ [(Times-Roman) 10.0 0.0 true true 0 ( 0.2)]
] -3.3 MCshow
1.000 UL
LTb
LCb setrgbcolor
2262 2899 M
0 31 V
0 1216 R
0 -31 V
2385 2899 M
0 31 V
0 1216 R
0 -31 V
stroke
LTB
LCb setrgbcolor
936 4146 N
0 -1247 V
1511 0 V
0 1247 V
-1511 0 V
Z stroke
1.000 UP
LCb setrgbcolor
1522 3429 M
[ [(Times-Roman) 180.0 0.0 true true 0 (Rside)]
] -60.0 MLshow
1.000 UL
LTb
LCb setrgbcolor
LCb setrgbcolor
528 3522 M
currentpoint gsave translate -270 rotate 0 0 moveto
[ [(Times-Roman) 220.0 0.0 true true 0 (C\(q\))]
] -73.3 MCshow
grestore
LTb
% Begin plot #1
1.000 UP
2.000 UL
LTb
0.34 0.71 0.91 C LCb setrgbcolor
1827 3876 M
[ [(Times-Roman) 130.0 0.0 true true 0 (CorrFunc)]
] -43.3 MRshow
1.000 UP
2.000 UL
LTb
0.34 0.71 0.91 C 1905 3876 M
156 0 V
-156 31 R
0 -62 V
156 62 R
0 -62 V
951 3539 M
0 148 V
936 3539 M
46 0 V
-46 148 R
46 0 V
0 -172 R
0 132 V
951 3515 M
62 0 V
-62 132 R
62 0 V
0 -153 R
0 119 V
982 3494 M
62 0 V
-62 119 R
62 0 V
0 50 R
0 115 V
-31 -115 R
62 0 V
-62 115 R
62 0 V
0 -264 R
0 102 V
-31 -102 R
62 0 V
-62 102 R
62 0 V
0 -100 R
0 98 V
-31 -98 R
62 0 V
-62 98 R
62 0 V
-1 -118 R
0 94 V
-31 -94 R
62 0 V
-62 94 R
62 0 V
0 -113 R
0 94 V
-31 -94 R
62 0 V
-62 94 R
62 0 V
0 -134 R
0 93 V
-31 -93 R
62 0 V
-62 93 R
62 0 V
0 -228 R
0 89 V
-31 -89 R
62 0 V
-62 89 R
62 0 V
0 -52 R
0 90 V
-31 -90 R
62 0 V
-62 90 R
62 0 V
0 -196 R
0 87 V
-31 -87 R
62 0 V
-62 87 R
62 0 V
-1 -68 R
0 87 V
-31 -87 R
62 0 V
-62 87 R
62 0 V
0 -70 R
0 87 V
-31 -87 R
62 0 V
-62 87 R
62 0 V
0 -141 R
0 86 V
-31 -86 R
62 0 V
-62 86 R
62 0 V
0 -88 R
0 86 V
-31 -86 R
62 0 V
-62 86 R
62 0 V
0 -202 R
0 82 V
-31 -82 R
62 0 V
stroke 1476 3097 M
-62 82 R
62 0 V
0 -5 R
0 85 V
-31 -85 R
62 0 V
-62 85 R
62 0 V
-1 -176 R
0 83 V
-31 -83 R
62 0 V
-62 83 R
62 0 V
0 -51 R
0 84 V
-31 -84 R
62 0 V
-62 84 R
62 0 V
0 -174 R
0 80 V
-31 -80 R
62 0 V
-62 80 R
62 0 V
0 9 R
0 83 V
-31 -83 R
62 0 V
-62 83 R
62 0 V
0 -106 R
0 84 V
-31 -84 R
62 0 V
-62 84 R
62 0 V
0 -147 R
0 81 V
-31 -81 R
62 0 V
-62 81 R
62 0 V
0 -105 R
0 81 V
-31 -81 R
62 0 V
-62 81 R
62 0 V
-1 -105 R
0 80 V
-31 -80 R
62 0 V
-62 80 R
62 0 V
0 -39 R
0 81 V
-31 -81 R
62 0 V
-62 81 R
62 0 V
0 -48 R
0 83 V
-31 -83 R
62 0 V
-62 83 R
62 0 V
0 -127 R
0 81 V
-31 -81 R
62 0 V
-62 81 R
62 0 V
0 -2 R
0 85 V
-31 -85 R
62 0 V
-62 85 R
62 0 V
0 -48 R
0 86 V
-31 -86 R
62 0 V
-62 86 R
62 0 V
-1 -161 R
0 84 V
-31 -84 R
62 0 V
-62 84 R
62 0 V
0 -57 R
0 87 V
-31 -87 R
62 0 V
-62 87 R
62 0 V
0 -161 R
0 84 V
-31 -84 R
62 0 V
-62 84 R
62 0 V
stroke 2000 3088 M
0 -90 R
0 84 V
-31 -84 R
62 0 V
-62 84 R
62 0 V
0 36 R
0 88 V
-31 -88 R
62 0 V
-62 88 R
62 0 V
0 -134 R
0 88 V
-31 -88 R
62 0 V
-62 88 R
62 0 V
-1 -130 R
0 87 V
-31 -87 R
62 0 V
-62 87 R
62 0 V
0 -45 R
0 89 V
-31 -89 R
62 0 V
-62 89 R
62 0 V
0 -83 R
0 89 V
-31 -89 R
62 0 V
-62 89 R
62 0 V
0 -114 R
0 89 V
-31 -89 R
62 0 V
-62 89 R
62 0 V
0 -76 R
0 90 V
-31 -90 R
62 0 V
-62 90 R
62 0 V
0 -81 R
0 91 V
-31 -91 R
62 0 V
-62 91 R
62 0 V
-1 -98 R
0 92 V
-31 -92 R
62 0 V
-62 92 R
62 0 V
0 -126 R
0 90 V
-31 -90 R
62 0 V
-62 90 R
62 0 V
0 -42 R
0 92 V
-31 -92 R
62 0 V
-62 92 R
62 0 V
0 -146 R
0 92 V
-31 -92 R
62 0 V
-62 92 R
62 0 V
0 1 R
0 96 V
-31 -96 R
62 0 V
-62 96 R
62 0 V
0 -165 R
0 95 V
-31 -95 R
46 0 V
-46 95 R
46 0 V
951 3613 TriU
982 3581 TriU
1013 3553 TriU
1044 3721 TriU
1075 3565 TriU
1106 3565 TriU
1136 3543 TriU
1167 3524 TriU
1198 3483 TriU
1229 3347 TriU
1260 3384 TriU
1291 3277 TriU
1321 3295 TriU
1352 3312 TriU
1383 3258 TriU
1414 3256 TriU
1445 3138 TriU
1476 3217 TriU
1506 3124 TriU
1537 3157 TriU
1568 3065 TriU
1599 3155 TriU
1630 3133 TriU
1661 3068 TriU
1692 3044 TriU
1722 3020 TriU
1753 3061 TriU
1784 3096 TriU
1815 3051 TriU
1846 3131 TriU
1877 3169 TriU
1907 3093 TriU
1938 3121 TriU
1969 3046 TriU
2000 3040 TriU
2031 3162 TriU
2062 3116 TriU
2092 3073 TriU
2123 3117 TriU
2154 3123 TriU
2185 3097 TriU
2216 3111 TriU
2247 3120 TriU
2277 3114 TriU
2308 3079 TriU
2339 3128 TriU
2370 3074 TriU
2401 3169 TriU
2432 3100 TriU
1983 3876 TriU
% End plot #1
% Begin plot #2
2.400 UL
LTb
0.58 0.00 0.83 C LCb setrgbcolor
1827 3746 M
[ [(Times-Roman) 130.0 0.0 true true 0 (3DFit)]
] -43.3 MRshow
2.400 UL
LTb
0.58 0.00 0.83 C 1905 3746 M
156 0 V
936 3693 M
15 -3 V
31 -15 V
31 -23 V
31 -29 V
31 -32 V
31 -38 V
30 -39 V
31 -41 V
31 -41 V
31 -39 V
31 -38 V
31 -36 V
30 -32 V
31 -29 V
31 -26 V
31 -22 V
31 -19 V
31 -17 V
30 -12 V
31 -10 V
31 -9 V
31 -7 V
31 -5 V
31 -3 V
31 -4 V
30 -1 V
31 -2 V
31 -1 V
31 -1 V
31 0 V
31 -1 V
30 0 V
31 0 V
31 0 V
31 0 V
31 0 V
31 0 V
30 0 V
31 0 V
31 0 V
31 0 V
31 0 V
31 0 V
30 0 V
31 0 V
31 0 V
31 0 V
31 0 V
31 0 V
15 0 V
% End plot #2
stroke
2.000 UL
LTb
LCb setrgbcolor
1.000 UL
LTB
LCb setrgbcolor
936 4146 N
0 -1247 V
1511 0 V
0 1247 V
-1511 0 V
Z stroke
1.000 UP
1.000 UL
LTb
LCb setrgbcolor
1.000 UL
LTb
LCb setrgbcolor
2448 2916 M
31 0 V
1480 0 R
-31 0 V
-1480 68 R
31 0 V
1480 0 R
-31 0 V
-1480 69 R
31 0 V
1480 0 R
-31 0 V
-1480 68 R
63 0 V
1448 0 R
-63 0 V
stroke
2419 3121 M
[ [(Times-Roman) 10.0 0.0 true true 0 ( 1)]
] -3.3 MRshow
1.000 UL
LTb
LCb setrgbcolor
2448 3189 M
31 0 V
1480 0 R
-31 0 V
-1480 69 R
31 0 V
1480 0 R
-31 0 V
-1480 68 R
31 0 V
1480 0 R
-31 0 V
-1480 68 R
31 0 V
1480 0 R
-31 0 V
-1480 69 R
63 0 V
1448 0 R
-63 0 V
stroke
2419 3463 M
[ [(Times-Roman) 10.0 0.0 true true 0 ( 1.2)]
] -3.3 MRshow
1.000 UL
LTb
LCb setrgbcolor
2448 3531 M
31 0 V
1480 0 R
-31 0 V
-1480 68 R
31 0 V
1480 0 R
-31 0 V
-1480 69 R
31 0 V
1480 0 R
-31 0 V
-1480 68 R
31 0 V
1480 0 R
-31 0 V
-1480 68 R
63 0 V
1448 0 R
-63 0 V
stroke
2419 3804 M
[ [(Times-Roman) 10.0 0.0 true true 0 ( 1.4)]
] -3.3 MRshow
1.000 UL
LTb
LCb setrgbcolor
2448 3873 M
31 0 V
1480 0 R
-31 0 V
-1480 68 R
31 0 V
1480 0 R
-31 0 V
-1480 68 R
31 0 V
1480 0 R
-31 0 V
-1480 69 R
31 0 V
1480 0 R
-31 0 V
-1480 68 R
63 0 V
1448 0 R
-63 0 V
stroke
2419 4146 M
[ [(Times-Roman) 10.0 0.0 true true 0 ( 1.6)]
] -3.3 MRshow
1.000 UL
LTb
LCb setrgbcolor
2541 2899 M
0 31 V
0 1216 R
0 -31 V
2664 2899 M
0 31 V
0 1216 R
0 -31 V
2787 2899 M
0 31 V
0 1216 R
0 -31 V
2911 2899 M
0 31 V
0 1216 R
0 -31 V
3034 2899 M
0 63 V
0 1184 R
0 -63 V
stroke
3034 2779 M
[ [(Times-Roman) 10.0 0.0 true true 0 ( 0.1)]
] -3.3 MCshow
1.000 UL
LTb
LCb setrgbcolor
3157 2899 M
0 31 V
0 1216 R
0 -31 V
3281 2899 M
0 31 V
0 1216 R
0 -31 V
3404 2899 M
0 31 V
0 1216 R
0 -31 V
3527 2899 M
0 31 V
0 1216 R
0 -31 V
3651 2899 M
0 63 V
0 1184 R
0 -63 V
stroke
3651 2779 M
[ [(Times-Roman) 10.0 0.0 true true 0 ( 0.2)]
] -3.3 MCshow
1.000 UL
LTb
LCb setrgbcolor
3774 2899 M
0 31 V
0 1216 R
0 -31 V
3897 2899 M
0 31 V
0 1216 R
0 -31 V
stroke
LTB
LCb setrgbcolor
2448 4146 N
0 -1247 V
1511 0 V
0 1247 V
-1511 0 V
Z stroke
1.000 UP
LCb setrgbcolor
3034 3429 M
[ [(Times-Roman) 180.0 0.0 true true 0 (Rside)]
] -60.0 MLshow
1.000 UL
LTb
LCb setrgbcolor
LCb setrgbcolor
2040 3522 M
currentpoint gsave translate -270 rotate 0 0 moveto
[ [(Times-Roman) 10.0 0.0 true true 0 (C\(q\))]
] -3.3 MCshow
grestore
LTb
% Begin plot #1
1.000 UP
2.000 UL
LTb
0.34 0.71 0.91 C LCb setrgbcolor
10739 -7165 M
[ [(Times-Roman) 130.0 0.0 true true 0 (CorrFunc)]
] -43.3 MRshow
1.000 UP
2.000 UL
LTb
0.34 0.71 0.91 C 10817 -7165 M
156 0 V
-156 31 R
0 -62 V
156 62 R
0 -62 V
2463 3627 M
0 221 V
-15 -221 R
46 0 V
-46 221 R
46 0 V
0 -143 R
0 199 V
-31 -199 R
62 0 V
-62 199 R
62 0 V
0 -163 R
0 178 V
-31 -178 R
62 0 V
-62 178 R
62 0 V
0 -408 R
0 149 V
-31 -149 R
62 0 V
-62 149 R
62 0 V
0 17 R
0 146 V
-31 -146 R
62 0 V
-62 146 R
62 0 V
0 -176 R
0 141 V
-31 -141 R
62 0 V
-62 141 R
62 0 V
-1 -370 R
0 130 V
-31 -130 R
62 0 V
-62 130 R
62 0 V
0 -40 R
0 132 V
-31 -132 R
62 0 V
-62 132 R
62 0 V
0 -186 R
0 130 V
-31 -130 R
62 0 V
-62 130 R
62 0 V
0 -128 R
0 130 V
-31 -130 R
62 0 V
-62 130 R
62 0 V
0 -193 R
0 129 V
-31 -129 R
62 0 V
-62 129 R
62 0 V
0 -96 R
0 131 V
-31 -131 R
62 0 V
-62 131 R
62 0 V
-1 -322 R
0 124 V
-31 -124 R
62 0 V
-62 124 R
62 0 V
0 -65 R
0 126 V
-31 -126 R
62 0 V
-62 126 R
62 0 V
0 -172 R
0 125 V
-31 -125 R
62 0 V
-62 125 R
62 0 V
0 -198 R
0 121 V
-31 -121 R
62 0 V
-62 121 R
62 0 V
0 -100 R
0 123 V
-31 -123 R
62 0 V
stroke 2988 3196 M
-62 123 R
62 0 V
0 -176 R
0 120 V
-31 -120 R
62 0 V
-62 120 R
62 0 V
-1 -89 R
0 123 V
-31 -123 R
62 0 V
-62 123 R
62 0 V
0 -329 R
0 113 V
-31 -113 R
62 0 V
-62 113 R
62 0 V
0 -59 R
0 114 V
-31 -114 R
62 0 V
-62 114 R
62 0 V
0 -78 R
0 119 V
-31 -119 R
62 0 V
-62 119 R
62 0 V
0 -168 R
0 115 V
-31 -115 R
62 0 V
-62 115 R
62 0 V
0 -23 R
0 122 V
-31 -122 R
62 0 V
-62 122 R
62 0 V
0 -187 R
0 118 V
-31 -118 R
62 0 V
-62 118 R
62 0 V
-1 -128 R
0 118 V
-31 -118 R
62 0 V
-62 118 R
62 0 V
0 -80 R
0 121 V
-31 -121 R
62 0 V
-62 121 R
62 0 V
0 -133 R
0 120 V
-31 -120 R
62 0 V
-62 120 R
62 0 V
0 -95 R
0 123 V
-31 -123 R
62 0 V
-62 123 R
62 0 V
0 -165 R
0 120 V
-31 -120 R
62 0 V
-62 120 R
62 0 V
0 -77 R
0 123 V
-31 -123 R
62 0 V
-62 123 R
62 0 V
-1 -90 R
0 126 V
-31 -126 R
62 0 V
-62 126 R
62 0 V
0 -208 R
0 122 V
-31 -122 R
62 0 V
-62 122 R
62 0 V
0 -52 R
0 126 V
-31 -126 R
62 0 V
-62 126 R
62 0 V
stroke 3512 3225 M
0 -142 R
0 124 V
-31 -124 R
62 0 V
-62 124 R
62 0 V
0 -152 R
0 126 V
-31 -126 R
62 0 V
-62 126 R
62 0 V
0 -72 R
0 127 V
-31 -127 R
62 0 V
-62 127 R
62 0 V
-1 -176 R
0 125 V
-31 -125 R
62 0 V
-62 125 R
62 0 V
0 -111 R
0 128 V
-31 -128 R
62 0 V
-62 128 R
62 0 V
0 -185 R
0 127 V
-31 -127 R
62 0 V
-62 127 R
62 0 V
0 -108 R
0 129 V
-31 -129 R
62 0 V
-62 129 R
62 0 V
0 -181 R
0 124 V
-31 -124 R
62 0 V
-62 124 R
62 0 V
0 -82 R
0 127 V
-31 -127 R
62 0 V
-62 127 R
62 0 V
-1 -84 R
0 131 V
-31 -131 R
62 0 V
-62 131 R
62 0 V
0 -168 R
0 130 V
-31 -130 R
62 0 V
-62 130 R
62 0 V
0 -154 R
0 128 V
-31 -128 R
62 0 V
-62 128 R
62 0 V
0 -153 R
0 129 V
-31 -129 R
62 0 V
-62 129 R
62 0 V
0 26 R
0 137 V
-31 -137 R
62 0 V
-62 137 R
62 0 V
0 -223 R
0 134 V
-31 -134 R
46 0 V
-46 134 R
46 0 V
2463 3738 TriU
2494 3804 TriU
2525 3830 TriU
2556 3586 TriU
2587 3750 TriU
2618 3717 TriU
2648 3483 TriU
2679 3574 TriU
2710 3519 TriU
2741 3521 TriU
2772 3458 TriU
2803 3492 TriU
2833 3297 TriU
2864 3357 TriU
2895 3311 TriU
2926 3236 TriU
2957 3258 TriU
2988 3203 TriU
3018 3236 TriU
3049 3025 TriU
3080 3079 TriU
3111 3118 TriU
3142 3066 TriU
3173 3162 TriU
3204 3095 TriU
3234 3085 TriU
3265 3124 TriU
3296 3112 TriU
3327 3138 TriU
3358 3095 TriU
3389 3140 TriU
3419 3174 TriU
3450 3090 TriU
3481 3162 TriU
3512 3145 TriU
3543 3118 TriU
3574 3172 TriU
3604 3123 TriU
3635 3138 TriU
3666 3081 TriU
3697 3100 TriU
3728 3046 TriU
3759 3090 TriU
3789 3135 TriU
3820 3097 TriU
3851 3072 TriU
3882 3048 TriU
3913 3206 TriU
3944 3119 TriU
10895 -7165 TriU
% End plot #1
% Begin plot #2
2.400 UL
LTb
0.58 0.00 0.83 C LCb setrgbcolor
10739 -7243 M
[ [(Times-Roman) 130.0 0.0 true true 0 (3DFit)]
] -43.3 MRshow
2.400 UL
LTb
0.58 0.00 0.83 C 10817 -7243 M
156 0 V
2448 3782 M
15 -3 V
31 -16 V
31 -24 V
31 -27 V
31 -36 V
31 -37 V
30 -41 V
31 -45 V
31 -44 V
31 -43 V
31 -43 V
31 -41 V
30 -37 V
31 -34 V
31 -33 V
31 -27 V
31 -24 V
31 -21 V
30 -17 V
31 -15 V
31 -12 V
31 -10 V
31 -7 V
31 -7 V
31 -5 V
30 -3 V
31 -4 V
31 -2 V
31 -1 V
31 0 V
31 -2 V
30 0 V
31 -1 V
31 0 V
31 0 V
31 0 V
31 0 V
30 0 V
31 0 V
31 0 V
31 0 V
31 0 V
31 0 V
30 0 V
31 0 V
31 0 V
31 0 V
31 0 V
31 0 V
15 0 V
% End plot #2
stroke
2.000 UL
LTb
LCb setrgbcolor
1.000 UL
LTB
LCb setrgbcolor
2448 4146 N
0 -1247 V
1511 0 V
0 1247 V
-1511 0 V
Z stroke
1.000 UP
1.000 UL
LTb
LCb setrgbcolor
1.000 UL
LTb
LCb setrgbcolor
3960 2916 M
31 0 V
1480 0 R
-31 0 V
-1480 68 R
31 0 V
1480 0 R
-31 0 V
-1480 69 R
31 0 V
1480 0 R
-31 0 V
-1480 68 R
63 0 V
1448 0 R
-63 0 V
stroke
3931 3121 M
[ [(Times-Roman) 10.0 0.0 true true 0 ( 1)]
] -3.3 MRshow
1.000 UL
LTb
LCb setrgbcolor
3960 3189 M
31 0 V
1480 0 R
-31 0 V
-1480 69 R
31 0 V
1480 0 R
-31 0 V
-1480 68 R
31 0 V
1480 0 R
-31 0 V
-1480 68 R
31 0 V
1480 0 R
-31 0 V
-1480 69 R
63 0 V
1448 0 R
-63 0 V
stroke
3931 3463 M
[ [(Times-Roman) 10.0 0.0 true true 0 ( 1.2)]
] -3.3 MRshow
1.000 UL
LTb
LCb setrgbcolor
3960 3531 M
31 0 V
1480 0 R
-31 0 V
-1480 68 R
31 0 V
1480 0 R
-31 0 V
-1480 69 R
31 0 V
1480 0 R
-31 0 V
-1480 68 R
31 0 V
1480 0 R
-31 0 V
-1480 68 R
63 0 V
1448 0 R
-63 0 V
stroke
3931 3804 M
[ [(Times-Roman) 10.0 0.0 true true 0 ( 1.4)]
] -3.3 MRshow
1.000 UL
LTb
LCb setrgbcolor
3960 3873 M
31 0 V
1480 0 R
-31 0 V
-1480 68 R
31 0 V
1480 0 R
-31 0 V
-1480 68 R
31 0 V
1480 0 R
-31 0 V
-1480 69 R
31 0 V
1480 0 R
-31 0 V
-1480 68 R
63 0 V
1448 0 R
-63 0 V
stroke
3931 4146 M
[ [(Times-Roman) 10.0 0.0 true true 0 ( 1.6)]
] -3.3 MRshow
1.000 UL
LTb
LCb setrgbcolor
4053 2899 M
0 31 V
0 1216 R
0 -31 V
4176 2899 M
0 31 V
0 1216 R
0 -31 V
4299 2899 M
0 31 V
0 1216 R
0 -31 V
4423 2899 M
0 31 V
0 1216 R
0 -31 V
4546 2899 M
0 63 V
0 1184 R
0 -63 V
stroke
4546 2779 M
[ [(Times-Roman) 10.0 0.0 true true 0 ( 0.1)]
] -3.3 MCshow
1.000 UL
LTb
LCb setrgbcolor
4669 2899 M
0 31 V
0 1216 R
0 -31 V
4793 2899 M
0 31 V
0 1216 R
0 -31 V
4916 2899 M
0 31 V
0 1216 R
0 -31 V
5039 2899 M
0 31 V
0 1216 R
0 -31 V
5163 2899 M
0 63 V
0 1184 R
0 -63 V
stroke
5163 2779 M
[ [(Times-Roman) 10.0 0.0 true true 0 ( 0.2)]
] -3.3 MCshow
1.000 UL
LTb
LCb setrgbcolor
5286 2899 M
0 31 V
0 1216 R
0 -31 V
5409 2899 M
0 31 V
0 1216 R
0 -31 V
stroke
LTB
LCb setrgbcolor
3960 4146 N
0 -1247 V
1511 0 V
0 1247 V
-1511 0 V
Z stroke
1.000 UP
LCb setrgbcolor
4546 3429 M
[ [(Times-Roman) 180.0 0.0 true true 0 (Rside)]
] -60.0 MLshow
1.000 UL
LTb
LCb setrgbcolor
LCb setrgbcolor
3552 3522 M
currentpoint gsave translate -270 rotate 0 0 moveto
[ [(Times-Roman) 10.0 0.0 true true 0 (C\(q\))]
] -3.3 MCshow
grestore
LTb
% Begin plot #1
1.000 UP
2.000 UL
LTb
0.34 0.71 0.91 C LCb setrgbcolor
12251 -7158 M
[ [(Times-Roman) 130.0 0.0 true true 0 (CorrFunc)]
] -43.3 MRshow
1.000 UP
2.000 UL
LTb
0.34 0.71 0.91 C 12329 -7158 M
156 0 V
-156 31 R
0 -62 V
156 62 R
0 -62 V
3975 3718 M
0 333 V
-15 -333 R
46 0 V
-46 333 R
46 0 V
0 -313 R
0 307 V
-31 -307 R
62 0 V
-62 307 R
62 0 V
0 -510 R
0 248 V
-31 -248 R
62 0 V
-62 248 R
62 0 V
0 -106 R
0 224 V
-31 -224 R
62 0 V
-62 224 R
62 0 V
0 -134 R
0 215 V
-31 -215 R
62 0 V
-62 215 R
62 0 V
0 -216 R
0 206 V
-31 -206 R
62 0 V
-62 206 R
62 0 V
-1 -388 R
0 191 V
-31 -191 R
62 0 V
-62 191 R
62 0 V
0 -211 R
0 190 V
-31 -190 R
62 0 V
-62 190 R
62 0 V
0 -289 R
0 187 V
-31 -187 R
62 0 V
-62 187 R
62 0 V
0 -31 R
0 196 V
-31 -196 R
62 0 V
-62 196 R
62 0 V
0 -212 R
0 200 V
-31 -200 R
62 0 V
-62 200 R
62 0 V
0 -498 R
0 179 V
-31 -179 R
62 0 V
-62 179 R
62 0 V
-1 -63 R
0 188 V
-31 -188 R
62 0 V
-62 188 R
62 0 V
0 -300 R
0 177 V
-31 -177 R
62 0 V
-62 177 R
62 0 V
0 -338 R
0 171 V
-31 -171 R
62 0 V
-62 171 R
62 0 V
0 -109 R
0 170 V
-31 -170 R
62 0 V
-62 170 R
62 0 V
0 -212 R
0 175 V
-31 -175 R
62 0 V
stroke 4500 3170 M
-62 175 R
62 0 V
0 -333 R
0 161 V
-31 -161 R
62 0 V
-62 161 R
62 0 V
-1 -161 R
0 158 V
-31 -158 R
62 0 V
-62 158 R
62 0 V
0 -119 R
0 164 V
-31 -164 R
62 0 V
-62 164 R
62 0 V
0 -98 R
0 169 V
-31 -169 R
62 0 V
-62 169 R
62 0 V
0 -289 R
0 164 V
-31 -164 R
62 0 V
-62 164 R
62 0 V
0 -101 R
0 167 V
-31 -167 R
62 0 V
-62 167 R
62 0 V
0 -192 R
0 170 V
-31 -170 R
62 0 V
-62 170 R
62 0 V
0 -101 R
0 175 V
-31 -175 R
62 0 V
-62 175 R
62 0 V
-1 -183 R
0 169 V
-31 -169 R
62 0 V
-62 169 R
62 0 V
0 -127 R
0 178 V
-31 -178 R
62 0 V
-62 178 R
62 0 V
0 -254 R
0 173 V
-31 -173 R
62 0 V
-62 173 R
62 0 V
0 -65 R
0 179 V
-31 -179 R
62 0 V
-62 179 R
62 0 V
0 -277 R
0 177 V
-31 -177 R
62 0 V
-62 177 R
62 0 V
0 -167 R
0 171 V
-31 -171 R
62 0 V
-62 171 R
62 0 V
-1 -194 R
0 175 V
-31 -175 R
62 0 V
-62 175 R
62 0 V
0 -263 R
0 165 V
-31 -165 R
62 0 V
-62 165 R
62 0 V
0 -213 R
0 165 V
-31 -165 R
62 0 V
-62 165 R
62 0 V
stroke 5024 3088 M
0 -71 R
0 172 V
-31 -172 R
62 0 V
-62 172 R
62 0 V
0 -248 R
0 172 V
-31 -172 R
62 0 V
-62 172 R
62 0 V
0 -39 R
0 176 V
-31 -176 R
62 0 V
-62 176 R
62 0 V
-1 14 R
0 192 V
-31 -192 R
62 0 V
-62 192 R
62 0 V
0 -440 R
0 172 V
-31 -172 R
62 0 V
-62 172 R
62 0 V
0 32 R
0 191 V
-31 -191 R
62 0 V
-62 191 R
62 0 V
0 -432 R
0 174 V
-31 -174 R
62 0 V
-62 174 R
62 0 V
0 -73 R
0 184 V
-31 -184 R
62 0 V
-62 184 R
62 0 V
0 -316 R
0 171 V
-31 -171 R
62 0 V
-62 171 R
62 0 V
-1 -13 R
0 184 V
-31 -184 R
62 0 V
-62 184 R
62 0 V
0 -310 R
0 175 V
-31 -175 R
62 0 V
-62 175 R
62 0 V
0 -146 R
0 180 V
-31 -180 R
62 0 V
-62 180 R
62 0 V
0 -103 R
0 183 V
-31 -183 R
62 0 V
-62 183 R
62 0 V
0 -365 R
0 172 V
-31 -172 R
62 0 V
-62 172 R
62 0 V
0 -134 R
0 175 V
-31 -175 R
46 0 V
-46 175 R
46 0 V
3975 3885 TriU
4006 3891 TriU
4037 3659 TriU
4068 3789 TriU
4099 3874 TriU
4130 3869 TriU
4160 3680 TriU
4191 3659 TriU
4222 3558 TriU
4253 3719 TriU
4284 3705 TriU
4315 3396 TriU
4345 3517 TriU
4376 3400 TriU
4407 3236 TriU
4438 3297 TriU
4469 3258 TriU
4500 3092 TriU
4530 3091 TriU
4561 3133 TriU
4592 3201 TriU
4623 3079 TriU
4654 3143 TriU
4685 3120 TriU
4716 3191 TriU
4746 3181 TriU
4777 3227 TriU
4808 3148 TriU
4839 3259 TriU
4870 3160 TriU
4901 3167 TriU
4931 3147 TriU
4962 3053 TriU
4993 3005 TriU
5024 3103 TriU
5055 3027 TriU
5086 3162 TriU
5116 3360 TriU
5147 3102 TriU
5178 3316 TriU
5209 3066 TriU
5240 3172 TriU
5271 3034 TriU
5301 3198 TriU
5332 3068 TriU
5363 3099 TriU
5394 3177 TriU
5425 2990 TriU
5456 3030 TriU
12407 -7158 TriU
% End plot #1
% Begin plot #2
2.400 UL
LTb
0.58 0.00 0.83 C LCb setrgbcolor
12251 -7223 M
[ [(Times-Roman) 130.0 0.0 true true 0 (3DFit)]
] -43.3 MRshow
2.400 UL
LTb
0.58 0.00 0.83 C 12329 -7223 M
156 0 V
3960 3892 M
15 -4 V
31 -17 V
31 -27 V
31 -33 V
31 -39 V
31 -45 V
30 -46 V
31 -51 V
31 -51 V
31 -50 V
31 -49 V
31 -48 V
30 -44 V
31 -41 V
31 -36 V
31 -34 V
31 -28 V
31 -25 V
30 -23 V
31 -17 V
31 -15 V
31 -12 V
31 -10 V
31 -7 V
31 -7 V
30 -3 V
31 -4 V
31 -3 V
31 -2 V
31 -2 V
31 -1 V
30 -1 V
31 0 V
31 -1 V
31 0 V
31 0 V
31 0 V
30 0 V
31 0 V
31 0 V
31 0 V
31 0 V
31 0 V
30 0 V
31 0 V
31 0 V
31 0 V
31 0 V
31 0 V
15 0 V
% End plot #2
stroke
2.000 UL
LTb
LCb setrgbcolor
1.000 UL
LTB
LCb setrgbcolor
3960 4146 N
0 -1247 V
1511 0 V
0 1247 V
-1511 0 V
Z stroke
1.000 UP
1.000 UL
LTb
LCb setrgbcolor
1.000 UL
LTb
LCb setrgbcolor
5472 2916 M
31 0 V
1479 0 R
-31 0 V
-1479 68 R
31 0 V
1479 0 R
-31 0 V
-1479 69 R
31 0 V
1479 0 R
-31 0 V
-1479 68 R
63 0 V
1447 0 R
-63 0 V
stroke
5443 3121 M
[ [(Times-Roman) 10.0 0.0 true true 0 ( 1)]
] -3.3 MRshow
1.000 UL
LTb
LCb setrgbcolor
5472 3189 M
31 0 V
1479 0 R
-31 0 V
-1479 69 R
31 0 V
1479 0 R
-31 0 V
-1479 68 R
31 0 V
1479 0 R
-31 0 V
-1479 68 R
31 0 V
1479 0 R
-31 0 V
-1479 69 R
63 0 V
1447 0 R
-63 0 V
stroke
5443 3463 M
[ [(Times-Roman) 10.0 0.0 true true 0 ( 1.2)]
] -3.3 MRshow
1.000 UL
LTb
LCb setrgbcolor
5472 3531 M
31 0 V
1479 0 R
-31 0 V
-1479 68 R
31 0 V
1479 0 R
-31 0 V
-1479 69 R
31 0 V
1479 0 R
-31 0 V
-1479 68 R
31 0 V
1479 0 R
-31 0 V
-1479 68 R
63 0 V
1447 0 R
-63 0 V
stroke
5443 3804 M
[ [(Times-Roman) 10.0 0.0 true true 0 ( 1.4)]
] -3.3 MRshow
1.000 UL
LTb
LCb setrgbcolor
5472 3873 M
31 0 V
1479 0 R
-31 0 V
-1479 68 R
31 0 V
1479 0 R
-31 0 V
-1479 68 R
31 0 V
1479 0 R
-31 0 V
-1479 69 R
31 0 V
1479 0 R
-31 0 V
-1479 68 R
63 0 V
1447 0 R
-63 0 V
stroke
5443 4146 M
[ [(Times-Roman) 10.0 0.0 true true 0 ( 1.6)]
] -3.3 MRshow
1.000 UL
LTb
LCb setrgbcolor
5564 2899 M
0 31 V
0 1216 R
0 -31 V
5688 2899 M
0 31 V
0 1216 R
0 -31 V
5811 2899 M
0 31 V
0 1216 R
0 -31 V
5934 2899 M
0 31 V
0 1216 R
0 -31 V
6058 2899 M
0 63 V
0 1184 R
0 -63 V
stroke
6058 2779 M
[ [(Times-Roman) 10.0 0.0 true true 0 ( 0.1)]
] -3.3 MCshow
1.000 UL
LTb
LCb setrgbcolor
6181 2899 M
0 31 V
0 1216 R
0 -31 V
6304 2899 M
0 31 V
0 1216 R
0 -31 V
6427 2899 M
0 31 V
0 1216 R
0 -31 V
6551 2899 M
0 31 V
0 1216 R
0 -31 V
6674 2899 M
0 63 V
0 1184 R
0 -63 V
stroke
6674 2779 M
[ [(Times-Roman) 10.0 0.0 true true 0 ( 0.2)]
] -3.3 MCshow
1.000 UL
LTb
LCb setrgbcolor
6797 2899 M
0 31 V
0 1216 R
0 -31 V
6920 2899 M
0 31 V
0 1216 R
0 -31 V
stroke
LTB
LCb setrgbcolor
5472 4146 N
0 -1247 V
1510 0 V
0 1247 V
-1510 0 V
Z stroke
1.000 UP
LCb setrgbcolor
6058 3429 M
[ [(Times-Roman) 180.0 0.0 true true 0 (Rside)]
] -60.0 MLshow
1.000 UL
LTb
LCb setrgbcolor
LCb setrgbcolor
5064 3522 M
currentpoint gsave translate -270 rotate 0 0 moveto
[ [(Times-Roman) 10.0 0.0 true true 0 (C\(q\))]
] -3.3 MCshow
grestore
LTb
% Begin plot #1
1.000 UP
2.000 UL
LTb
0.34 0.71 0.91 C LCb setrgbcolor
13758 -7158 M
[ [(Times-Roman) 130.0 0.0 true true 0 (CorrFunc)]
] -43.3 MRshow
1.000 UP
2.000 UL
LTb
0.34 0.71 0.91 C 13836 -7158 M
156 0 V
-156 31 R
0 -62 V
156 62 R
0 -62 V
5487 2970 M
0 726 V
-15 -726 R
46 0 V
-46 726 R
46 0 V
31 -28 R
0 478 V
-31 -478 R
62 0 V
0 -247 R
0 483 V
-31 -483 R
62 0 V
-62 483 R
62 0 V
30 -326 R
0 336 V
-31 -336 R
62 0 V
-62 336 R
62 0 V
0 -218 R
0 323 V
-31 -323 R
62 0 V
-62 323 R
62 0 V
0 -356 R
0 310 V
-31 -310 R
62 0 V
-62 310 R
62 0 V
0 -574 R
0 288 V
-31 -288 R
62 0 V
-62 288 R
62 0 V
0 -82 R
0 310 V
-31 -310 R
62 0 V
-62 310 R
62 0 V
0 -449 R
0 284 V
-31 -284 R
62 0 V
-62 284 R
62 0 V
-1 -338 R
0 283 V
-31 -283 R
62 0 V
-62 283 R
62 0 V
0 -393 R
0 273 V
-31 -273 R
62 0 V
-62 273 R
62 0 V
0 -25 R
0 300 V
-31 -300 R
62 0 V
-62 300 R
62 0 V
0 -711 R
0 258 V
-31 -258 R
62 0 V
-62 258 R
62 0 V
0 -278 R
0 257 V
-31 -257 R
62 0 V
-62 257 R
62 0 V
-1 -107 R
0 278 V
-31 -278 R
62 0 V
-62 278 R
62 0 V
0 -216 R
0 284 V
-31 -284 R
62 0 V
-62 284 R
62 0 V
0 -550 R
0 256 V
-31 -256 R
62 0 V
-62 256 R
62 0 V
stroke 6073 3321 M
0 -366 R
0 250 V
-31 -250 R
62 0 V
-62 250 R
62 0 V
0 -152 R
0 256 V
-31 -256 R
62 0 V
-62 256 R
62 0 V
0 -217 R
0 256 V
-31 -256 R
62 0 V
-62 256 R
62 0 V
-1 -260 R
0 258 V
-31 -258 R
62 0 V
-62 258 R
62 0 V
0 -439 R
0 241 V
-31 -241 R
62 0 V
-62 241 R
62 0 V
0 110 R
0 277 V
-31 -277 R
62 0 V
-62 277 R
62 0 V
0 -411 R
0 265 V
-31 -265 R
62 0 V
-62 265 R
62 0 V
0 -26 R
0 295 V
-31 -295 R
62 0 V
-62 295 R
62 0 V
-1 -748 R
0 258 V
-31 -258 R
62 0 V
-62 258 R
62 0 V
0 -269 R
0 229 V
-31 0 R
62 0 V
0 -229 R
0 166 V
-31 0 R
62 0 V
0 131 R
0 273 V
-31 -273 R
62 0 V
-62 273 R
62 0 V
0 -483 R
0 254 V
-31 -254 R
62 0 V
-62 254 R
62 0 V
0 -157 R
0 265 V
-31 -265 R
62 0 V
-62 265 R
62 0 V
-1 -313 R
0 265 V
-31 -265 R
62 0 V
-62 265 R
62 0 V
0 -197 R
0 272 V
-31 -272 R
62 0 V
-62 272 R
62 0 V
0 -71 R
0 297 V
-31 -297 R
62 0 V
-62 297 R
62 0 V
0 -452 R
0 276 V
-31 -276 R
62 0 V
-62 276 R
62 0 V
stroke 6628 3425 M
0 -292 R
0 280 V
-31 -280 R
62 0 V
-62 280 R
62 0 V
-1 -462 R
0 259 V
-31 -259 R
62 0 V
-62 259 R
62 0 V
0 -153 R
0 272 V
-31 -272 R
62 0 V
-62 272 R
62 0 V
0 -161 R
0 278 V
-31 -278 R
62 0 V
-62 278 R
62 0 V
0 -547 R
0 194 V
-31 0 R
62 0 V
0 -194 R
0 205 V
-31 0 R
62 0 V
0 -205 R
0 178 V
-31 0 R
62 0 V
-1 -178 R
0 230 V
-31 0 R
62 0 V
0 -183 R
0 262 V
-31 -262 R
62 0 V
-62 262 R
62 0 V
0 -309 R
0 149 V
-31 0 R
62 0 V
0 -135 R
0 250 V
-31 -250 R
62 0 V
-62 250 R
62 0 V
0 -11 R
0 297 V
-31 -297 R
46 0 V
-46 297 R
46 0 V
5487 3333 TriU
5549 3985 TriU
5580 3663 TriU
5641 3746 TriU
5672 3857 TriU
5703 3818 TriU
5734 3543 TriU
5765 3760 TriU
5796 3608 TriU
5826 3553 TriU
5857 3439 TriU
5888 3700 TriU
5919 3268 TriU
5950 3247 TriU
5980 3408 TriU
6011 3473 TriU
6042 3193 TriU
6073 3080 TriU
6104 3181 TriU
6135 3220 TriU
6165 3217 TriU
6196 3027 TriU
6227 3396 TriU
6258 3256 TriU
6289 3511 TriU
6319 3039 TriU
6350 3008 TriU
6381 2948 TriU
6412 3333 TriU
6443 3113 TriU
6474 3215 TriU
6504 3167 TriU
6535 3239 TriU
6566 3452 TriU
6597 3287 TriU
6628 3273 TriU
6658 3081 TriU
6689 3193 TriU
6720 3307 TriU
6751 2973 TriU
6782 2978 TriU
6813 2954 TriU
6843 3003 TriU
6874 3077 TriU
6905 2927 TriU
6936 3038 TriU
6967 3300 TriU
13914 -7158 TriU
% End plot #1
% Begin plot #2
2.400 UL
LTb
0.58 0.00 0.83 C LCb setrgbcolor
13758 -7223 M
[ [(Times-Roman) 130.0 0.0 true true 0 (3DFit)]
] -43.3 MRshow
2.400 UL
LTb
0.58 0.00 0.83 C 13836 -7223 M
156 0 V
5472 4135 M
15 -6 V
31 -24 V
31 -32 V
31 -45 V
31 -51 V
30 -58 V
31 -62 V
31 -65 V
31 -66 V
31 -67 V
31 -63 V
30 -62 V
31 -58 V
31 -51 V
31 -48 V
31 -42 V
30 -36 V
31 -33 V
31 -27 V
31 -22 V
31 -19 V
31 -14 V
30 -13 V
31 -9 V
31 -8 V
31 -6 V
31 -3 V
30 -3 V
31 -4 V
31 -2 V
31 -1 V
31 0 V
31 -2 V
30 0 V
31 0 V
31 0 V
31 0 V
31 0 V
30 0 V
31 0 V
31 0 V
31 0 V
31 0 V
31 0 V
30 0 V
31 0 V
31 0 V
31 0 V
31 0 V
15 0 V
% End plot #2
stroke
2.000 UL
LTb
LCb setrgbcolor
1.000 UL
LTB
LCb setrgbcolor
5472 4146 N
0 -1247 V
1510 0 V
0 1247 V
-1510 0 V
Z stroke
1.000 UP
1.000 UL
LTb
LCb setrgbcolor
1.000 UL
LTb
LCb setrgbcolor
936 1671 M
31 0 V
1480 0 R
-31 0 V
936 1739 M
31 0 V
1480 0 R
-31 0 V
936 1808 M
31 0 V
1480 0 R
-31 0 V
936 1876 M
63 0 V
1448 0 R
-63 0 V
stroke
907 1876 M
[ [(Times-Roman) 200.0 0.0 true true 0 ( 1)]
] -66.7 MRshow
1.000 UL
LTb
LCb setrgbcolor
936 1945 M
31 0 V
1480 0 R
-31 0 V
936 2013 M
31 0 V
1480 0 R
-31 0 V
936 2081 M
31 0 V
1480 0 R
-31 0 V
936 2150 M
31 0 V
1480 0 R
-31 0 V
936 2218 M
63 0 V
1448 0 R
-63 0 V
stroke
907 2218 M
[ [(Times-Roman) 200.0 0.0 true true 0 ( 1.2)]
] -66.7 MRshow
1.000 UL
LTb
LCb setrgbcolor
936 2287 M
31 0 V
1480 0 R
-31 0 V
936 2355 M
31 0 V
1480 0 R
-31 0 V
936 2423 M
31 0 V
1480 0 R
-31 0 V
936 2492 M
31 0 V
1480 0 R
-31 0 V
936 2560 M
63 0 V
1448 0 R
-63 0 V
stroke
907 2560 M
[ [(Times-Roman) 200.0 0.0 true true 0 ( 1.4)]
] -66.7 MRshow
1.000 UL
LTb
LCb setrgbcolor
936 2628 M
31 0 V
1480 0 R
-31 0 V
936 2697 M
31 0 V
1480 0 R
-31 0 V
936 2765 M
31 0 V
1480 0 R
-31 0 V
936 2834 M
31 0 V
1480 0 R
-31 0 V
936 2902 M
63 0 V
1448 0 R
-63 0 V
stroke
907 2902 M
[ [(Times-Roman) 200.0 0.0 true true 0 ( 1.6)]
] -66.7 MRshow
1.000 UL
LTb
LCb setrgbcolor
1029 1654 M
0 31 V
0 1217 R
0 -31 V
1152 1654 M
0 31 V
0 1217 R
0 -31 V
1275 1654 M
0 31 V
0 1217 R
0 -31 V
1399 1654 M
0 31 V
0 1217 R
0 -31 V
1522 1654 M
0 63 V
0 1185 R
0 -63 V
stroke
1522 1534 M
[ [(Times-Roman) 10.0 0.0 true true 0 ( 0.1)]
] -3.3 MCshow
1.000 UL
LTb
LCb setrgbcolor
1645 1654 M
0 31 V
0 1217 R
0 -31 V
1769 1654 M
0 31 V
0 1217 R
0 -31 V
1892 1654 M
0 31 V
0 1217 R
0 -31 V
2015 1654 M
0 31 V
0 1217 R
0 -31 V
2139 1654 M
0 63 V
0 1185 R
0 -63 V
stroke
2139 1534 M
[ [(Times-Roman) 10.0 0.0 true true 0 ( 0.2)]
] -3.3 MCshow
1.000 UL
LTb
LCb setrgbcolor
2262 1654 M
0 31 V
0 1217 R
0 -31 V
2385 1654 M
0 31 V
0 1217 R
0 -31 V
stroke
LTB
LCb setrgbcolor
936 2902 N
0 -1248 V
1511 0 V
0 1248 V
-1511 0 V
Z stroke
1.000 UP
LCb setrgbcolor
1522 2184 M
[ [(Times-Roman) 180.0 0.0 true true 0 (Rout)]
] -60.0 MLshow
1.000 UL
LTb
LCb setrgbcolor
LCb setrgbcolor
528 2278 M
currentpoint gsave translate -270 rotate 0 0 moveto
[ [(Times-Roman) 220.0 0.0 true true 0 (C\(q\))]
] -73.3 MCshow
grestore
LTb
% Begin plot #1
1.000 UP
2.000 UL
LTb
0.34 0.71 0.91 C LCb setrgbcolor
9227 -8411 M
[ [(Times-Roman) 130.0 0.0 true true 0 (CorrFunc)]
] -43.3 MRshow
1.000 UP
2.000 UL
LTb
0.34 0.71 0.91 C 9305 -8411 M
156 0 V
-156 31 R
0 -62 V
156 62 R
0 -62 V
951 2347 M
0 122 V
936 2347 M
46 0 V
-46 122 R
46 0 V
0 -190 R
0 124 V
951 2279 M
62 0 V
-62 124 R
62 0 V
0 -116 R
0 126 V
982 2287 M
62 0 V
-62 126 R
62 0 V
0 -189 R
0 125 V
-31 -125 R
62 0 V
-62 125 R
62 0 V
0 -159 R
0 124 V
-31 -124 R
62 0 V
-62 124 R
62 0 V
0 -142 R
0 123 V
-31 -123 R
62 0 V
-62 123 R
62 0 V
-1 -173 R
0 124 V
-31 -124 R
62 0 V
-62 124 R
62 0 V
0 -236 R
0 119 V
-31 -119 R
62 0 V
-62 119 R
62 0 V
0 -115 R
0 121 V
-31 -121 R
62 0 V
-62 121 R
62 0 V
0 -118 R
0 122 V
-31 -122 R
62 0 V
-62 122 R
62 0 V
0 -158 R
0 122 V
-31 -122 R
62 0 V
-62 122 R
62 0 V
0 -155 R
0 123 V
-31 -123 R
62 0 V
-62 123 R
62 0 V
-1 -220 R
0 119 V
-31 -119 R
62 0 V
-62 119 R
62 0 V
0 -197 R
0 118 V
-31 -118 R
62 0 V
-62 118 R
62 0 V
0 -6 R
0 126 V
-31 -126 R
62 0 V
-62 126 R
62 0 V
0 -93 R
0 129 V
-31 -129 R
62 0 V
-62 129 R
62 0 V
0 -212 R
0 131 V
-31 -131 R
62 0 V
stroke 1476 1835 M
-62 131 R
62 0 V
0 -218 R
0 126 V
-31 -126 R
62 0 V
-62 126 R
62 0 V
-1 -64 R
0 133 V
-31 -133 R
62 0 V
-62 133 R
62 0 V
0 -264 R
0 133 V
-31 -133 R
62 0 V
-62 133 R
62 0 V
0 55 R
0 148 V
-31 -148 R
62 0 V
-62 148 R
62 0 V
0 -267 R
0 148 V
-31 -148 R
62 0 V
-62 148 R
62 0 V
0 -242 R
0 148 V
-31 0 R
62 0 V
0 -35 R
0 165 V
-31 -165 R
62 0 V
-62 165 R
62 0 V
0 -147 R
0 177 V
-31 -177 R
62 0 V
-62 177 R
62 0 V
-1 -280 R
0 179 V
-31 -179 R
62 0 V
-62 179 R
62 0 V
0 -207 R
0 167 V
-31 0 R
62 0 V
0 73 R
0 231 V
-31 -231 R
62 0 V
-62 231 R
62 0 V
0 -378 R
0 243 V
-31 -243 R
62 0 V
-62 243 R
62 0 V
0 -175 R
0 269 V
-31 -269 R
62 0 V
-62 269 R
62 0 V
0 -430 R
0 279 V
-31 0 R
62 0 V
-1 -279 R
0 226 V
-31 0 R
62 0 V
31 -83 R
0 822 V
-31 -822 R
62 0 V
-62 822 R
62 0 V
951 2408 TriU
982 2341 TriU
1013 2350 TriU
1044 2287 TriU
1075 2252 TriU
1106 2234 TriU
1136 2184 TriU
1167 2069 TriU
1198 2075 TriU
1229 2078 TriU
1260 2042 TriU
1291 2010 TriU
1321 1910 TriU
1352 1832 TriU
1383 1948 TriU
1414 1982 TriU
1445 1900 TriU
1476 1811 TriU
1506 1876 TriU
1537 1746 TriU
1568 1941 TriU
1599 1822 TriU
1630 1727 TriU
1661 1849 TriU
1692 1874 TriU
1722 1772 TriU
1753 1726 TriU
1784 2010 TriU
1815 1869 TriU
1846 1950 TriU
1877 1790 TriU
1907 1713 TriU
1969 2208 TriU
9383 -8411 TriU
% End plot #1
% Begin plot #2
2.400 UL
LTb
0.58 0.00 0.83 C LCb setrgbcolor
9227 -8476 M
[ [(Times-Roman) 130.0 0.0 true true 0 (3DFit)]
] -43.3 MRshow
2.400 UL
LTb
0.58 0.00 0.83 C 9305 -8476 M
156 0 V
936 2469 M
15 -6 V
31 -24 V
31 -34 V
31 -43 V
31 -48 V
31 -51 V
30 -53 V
31 -53 V
31 -48 V
31 -45 V
31 -39 V
31 -34 V
30 -28 V
31 -23 V
31 -18 V
31 -13 V
31 -11 V
31 -8 V
30 -5 V
31 -5 V
31 -2 V
31 -2 V
31 -1 V
31 -1 V
31 0 V
30 -1 V
31 0 V
31 0 V
31 0 V
31 0 V
31 0 V
30 0 V
31 0 V
31 0 V
% End plot #2
stroke
2.000 UL
LTb
LCb setrgbcolor
1.000 UL
LTB
LCb setrgbcolor
936 2902 N
0 -1248 V
1511 0 V
0 1248 V
-1511 0 V
Z stroke
1.000 UP
1.000 UL
LTb
LCb setrgbcolor
1.000 UL
LTb
LCb setrgbcolor
2448 1671 M
31 0 V
1480 0 R
-31 0 V
-1480 68 R
31 0 V
1480 0 R
-31 0 V
-1480 69 R
31 0 V
1480 0 R
-31 0 V
-1480 68 R
63 0 V
1448 0 R
-63 0 V
stroke
2419 1876 M
[ [(Times-Roman) 10.0 0.0 true true 0 ( 1)]
] -3.3 MRshow
1.000 UL
LTb
LCb setrgbcolor
2448 1945 M
31 0 V
1480 0 R
-31 0 V
-1480 68 R
31 0 V
1480 0 R
-31 0 V
-1480 68 R
31 0 V
1480 0 R
-31 0 V
-1480 69 R
31 0 V
1480 0 R
-31 0 V
-1480 68 R
63 0 V
1448 0 R
-63 0 V
stroke
2419 2218 M
[ [(Times-Roman) 10.0 0.0 true true 0 ( 1.2)]
] -3.3 MRshow
1.000 UL
LTb
LCb setrgbcolor
2448 2287 M
31 0 V
1480 0 R
-31 0 V
-1480 68 R
31 0 V
1480 0 R
-31 0 V
-1480 68 R
31 0 V
1480 0 R
-31 0 V
-1480 69 R
31 0 V
1480 0 R
-31 0 V
-1480 68 R
63 0 V
1448 0 R
-63 0 V
stroke
2419 2560 M
[ [(Times-Roman) 10.0 0.0 true true 0 ( 1.4)]
] -3.3 MRshow
1.000 UL
LTb
LCb setrgbcolor
2448 2628 M
31 0 V
1480 0 R
-31 0 V
-1480 69 R
31 0 V
1480 0 R
-31 0 V
-1480 68 R
31 0 V
1480 0 R
-31 0 V
-1480 69 R
31 0 V
1480 0 R
-31 0 V
-1480 68 R
63 0 V
1448 0 R
-63 0 V
stroke
2419 2902 M
[ [(Times-Roman) 10.0 0.0 true true 0 ( 1.6)]
] -3.3 MRshow
1.000 UL
LTb
LCb setrgbcolor
2541 1654 M
0 31 V
0 1217 R
0 -31 V
2664 1654 M
0 31 V
0 1217 R
0 -31 V
2787 1654 M
0 31 V
0 1217 R
0 -31 V
2911 1654 M
0 31 V
0 1217 R
0 -31 V
3034 1654 M
0 63 V
0 1185 R
0 -63 V
stroke
3034 1534 M
[ [(Times-Roman) 10.0 0.0 true true 0 ( 0.1)]
] -3.3 MCshow
1.000 UL
LTb
LCb setrgbcolor
3157 1654 M
0 31 V
0 1217 R
0 -31 V
3281 1654 M
0 31 V
0 1217 R
0 -31 V
3404 1654 M
0 31 V
0 1217 R
0 -31 V
3527 1654 M
0 31 V
0 1217 R
0 -31 V
3651 1654 M
0 63 V
0 1185 R
0 -63 V
stroke
3651 1534 M
[ [(Times-Roman) 10.0 0.0 true true 0 ( 0.2)]
] -3.3 MCshow
1.000 UL
LTb
LCb setrgbcolor
3774 1654 M
0 31 V
0 1217 R
0 -31 V
3897 1654 M
0 31 V
0 1217 R
0 -31 V
stroke
LTB
LCb setrgbcolor
2448 2902 N
0 -1248 V
1511 0 V
0 1248 V
-1511 0 V
Z stroke
1.000 UP
LCb setrgbcolor
3034 2184 M
[ [(Times-Roman) 180.0 0.0 true true 0 (Rout)]
] -60.0 MLshow
1.000 UL
LTb
LCb setrgbcolor
LCb setrgbcolor
2040 2278 M
currentpoint gsave translate -270 rotate 0 0 moveto
[ [(Times-Roman) 10.0 0.0 true true 0 (C\(q\))]
] -3.3 MCshow
grestore
LTb
% Begin plot #1
1.000 UP
2.000 UL
LTb
0.34 0.71 0.91 C LCb setrgbcolor
10739 -8418 M
[ [(Times-Roman) 130.0 0.0 true true 0 (CorrFunc)]
] -43.3 MRshow
1.000 UP
2.000 UL
LTb
0.34 0.71 0.91 C 10817 -8418 M
156 0 V
-156 31 R
0 -62 V
156 62 R
0 -62 V
2463 2524 M
0 188 V
-15 -188 R
46 0 V
-46 188 R
46 0 V
0 -282 R
0 182 V
-31 -182 R
62 0 V
-62 182 R
62 0 V
0 -286 R
0 174 V
-31 -174 R
62 0 V
-62 174 R
62 0 V
0 -98 R
0 180 V
-31 -180 R
62 0 V
-62 180 R
62 0 V
0 -304 R
0 171 V
-31 -171 R
62 0 V
-62 171 R
62 0 V
0 -201 R
0 166 V
-31 -166 R
62 0 V
-62 166 R
62 0 V
-1 -238 R
0 163 V
-31 -163 R
62 0 V
-62 163 R
62 0 V
0 -286 R
0 153 V
-31 -153 R
62 0 V
-62 153 R
62 0 V
0 -107 R
0 156 V
-31 -156 R
62 0 V
-62 156 R
62 0 V
0 -282 R
0 145 V
-31 -145 R
62 0 V
-62 145 R
62 0 V
0 -197 R
0 140 V
-31 -140 R
62 0 V
-62 140 R
62 0 V
0 -113 R
0 141 V
-31 -141 R
62 0 V
-62 141 R
62 0 V
-1 -200 R
0 138 V
-31 -138 R
62 0 V
-62 138 R
62 0 V
0 -46 R
0 139 V
-31 -139 R
62 0 V
-62 139 R
62 0 V
0 -374 R
0 124 V
-31 -124 R
62 0 V
-62 124 R
62 0 V
0 -78 R
0 127 V
-31 -127 R
62 0 V
-62 127 R
62 0 V
0 -43 R
0 130 V
-31 -130 R
62 0 V
stroke 2988 1876 M
-62 130 R
62 0 V
0 -182 R
0 125 V
-31 -125 R
62 0 V
-62 125 R
62 0 V
-1 -51 R
0 128 V
-31 -128 R
62 0 V
-62 128 R
62 0 V
0 -277 R
0 117 V
-31 -117 R
62 0 V
-62 117 R
62 0 V
0 -145 R
0 116 V
-31 -116 R
62 0 V
-62 116 R
62 0 V
0 -79 R
0 116 V
-31 -116 R
62 0 V
-62 116 R
62 0 V
0 -107 R
0 115 V
-31 -115 R
62 0 V
-62 115 R
62 0 V
0 -134 R
0 115 V
-31 -115 R
62 0 V
-62 115 R
62 0 V
0 -123 R
0 114 V
-31 -114 R
62 0 V
-62 114 R
62 0 V
-1 -134 R
0 114 V
-31 -114 R
62 0 V
-62 114 R
62 0 V
0 -45 R
0 116 V
-31 -116 R
62 0 V
-62 116 R
62 0 V
0 -119 R
0 116 V
-31 -116 R
62 0 V
-62 116 R
62 0 V
0 -158 R
0 112 V
-31 -112 R
62 0 V
-62 112 R
62 0 V
0 -35 R
0 118 V
-31 -118 R
62 0 V
-62 118 R
62 0 V
0 -140 R
0 116 V
-31 -116 R
62 0 V
-62 116 R
62 0 V
-1 -151 R
0 114 V
-31 -114 R
62 0 V
-62 114 R
62 0 V
0 13 R
0 121 V
-31 -121 R
62 0 V
-62 121 R
62 0 V
0 -180 R
0 119 V
-31 -119 R
62 0 V
-62 119 R
62 0 V
stroke 3512 1951 M
0 -140 R
0 118 V
-31 -118 R
62 0 V
-62 118 R
62 0 V
0 -92 R
0 123 V
-31 -123 R
62 0 V
-62 123 R
62 0 V
0 -267 R
0 119 V
-31 -119 R
62 0 V
-62 119 R
62 0 V
-1 61 R
0 130 V
-31 -130 R
62 0 V
-62 130 R
62 0 V
0 -196 R
0 130 V
-31 -130 R
62 0 V
-62 130 R
62 0 V
0 -96 R
0 136 V
-31 -136 R
62 0 V
-62 136 R
62 0 V
0 -152 R
0 140 V
-31 -140 R
62 0 V
-62 140 R
62 0 V
0 -283 R
0 132 V
-31 -132 R
62 0 V
-62 132 R
62 0 V
0 -60 R
0 139 V
-31 -139 R
62 0 V
-62 139 R
62 0 V
-1 -175 R
0 143 V
-31 -143 R
62 0 V
-62 143 R
62 0 V
0 -134 R
0 149 V
-31 -149 R
62 0 V
-62 149 R
62 0 V
0 -34 R
0 161 V
-31 -161 R
62 0 V
-62 161 R
62 0 V
0 -234 R
0 160 V
-31 -160 R
62 0 V
-62 160 R
62 0 V
0 -145 R
0 167 V
-31 -167 R
62 0 V
-62 167 R
62 0 V
0 -238 R
0 169 V
-31 -169 R
46 0 V
-46 169 R
46 0 V
2463 2618 TriU
2494 2521 TriU
2525 2413 TriU
2556 2492 TriU
2587 2363 TriU
2618 2331 TriU
2648 2257 TriU
2679 2129 TriU
2710 2177 TriU
2741 2045 TriU
2772 1991 TriU
2803 2018 TriU
2833 1958 TriU
2864 2051 TriU
2895 1808 TriU
2926 1855 TriU
2957 1941 TriU
2988 1887 TriU
3018 1962 TriU
3049 1808 TriU
3080 1779 TriU
3111 1816 TriU
3142 1824 TriU
3173 1805 TriU
3204 1797 TriU
3234 1777 TriU
3265 1847 TriU
3296 1844 TriU
3327 1800 TriU
3358 1880 TriU
3389 1857 TriU
3419 1821 TriU
3450 1951 TriU
3481 1892 TriU
3512 1870 TriU
3543 1898 TriU
3574 1752 TriU
3604 1938 TriU
3635 1872 TriU
3666 1909 TriU
3697 1895 TriU
3728 1748 TriU
3759 1824 TriU
3789 1790 TriU
3820 1802 TriU
3851 1922 TriU
3882 1849 TriU
3913 1868 TriU
3944 1798 TriU
10895 -8418 TriU
% End plot #1
% Begin plot #2
2.400 UL
LTb
0.58 0.00 0.83 C LCb setrgbcolor
10739 -8496 M
[ [(Times-Roman) 130.0 0.0 true true 0 (3DFit)]
] -43.3 MRshow
2.400 UL
LTb
0.58 0.00 0.83 C 10817 -8496 M
156 0 V
2448 2564 M
15 -7 V
31 -26 V
31 -38 V
31 -47 V
31 -53 V
31 -59 V
30 -58 V
31 -58 V
31 -56 V
31 -52 V
31 -46 V
31 -39 V
30 -34 V
31 -28 V
31 -22 V
31 -19 V
31 -13 V
31 -11 V
30 -6 V
31 -5 V
31 -6 V
31 -1 V
31 -2 V
31 -2 V
31 0 V
30 0 V
31 -1 V
31 0 V
31 0 V
31 0 V
31 0 V
30 0 V
31 0 V
31 0 V
31 0 V
31 0 V
31 0 V
30 0 V
31 0 V
31 0 V
31 0 V
31 0 V
31 0 V
30 0 V
31 0 V
31 0 V
31 0 V
31 0 V
31 0 V
15 0 V
% End plot #2
stroke
2.000 UL
LTb
LCb setrgbcolor
1.000 UL
LTB
LCb setrgbcolor
2448 2902 N
0 -1248 V
1511 0 V
0 1248 V
-1511 0 V
Z stroke
1.000 UP
1.000 UL
LTb
LCb setrgbcolor
1.000 UL
LTb
LCb setrgbcolor
3960 1671 M
31 0 V
1480 0 R
-31 0 V
-1480 68 R
31 0 V
1480 0 R
-31 0 V
-1480 69 R
31 0 V
1480 0 R
-31 0 V
-1480 68 R
63 0 V
1448 0 R
-63 0 V
stroke
3931 1876 M
[ [(Times-Roman) 10.0 0.0 true true 0 ( 1)]
] -3.3 MRshow
1.000 UL
LTb
LCb setrgbcolor
3960 1945 M
31 0 V
1480 0 R
-31 0 V
-1480 68 R
31 0 V
1480 0 R
-31 0 V
-1480 68 R
31 0 V
1480 0 R
-31 0 V
-1480 69 R
31 0 V
1480 0 R
-31 0 V
-1480 68 R
63 0 V
1448 0 R
-63 0 V
stroke
3931 2218 M
[ [(Times-Roman) 10.0 0.0 true true 0 ( 1.2)]
] -3.3 MRshow
1.000 UL
LTb
LCb setrgbcolor
3960 2287 M
31 0 V
1480 0 R
-31 0 V
-1480 68 R
31 0 V
1480 0 R
-31 0 V
-1480 68 R
31 0 V
1480 0 R
-31 0 V
-1480 69 R
31 0 V
1480 0 R
-31 0 V
-1480 68 R
63 0 V
1448 0 R
-63 0 V
stroke
3931 2560 M
[ [(Times-Roman) 10.0 0.0 true true 0 ( 1.4)]
] -3.3 MRshow
1.000 UL
LTb
LCb setrgbcolor
3960 2628 M
31 0 V
1480 0 R
-31 0 V
-1480 69 R
31 0 V
1480 0 R
-31 0 V
-1480 68 R
31 0 V
1480 0 R
-31 0 V
-1480 69 R
31 0 V
1480 0 R
-31 0 V
-1480 68 R
63 0 V
1448 0 R
-63 0 V
stroke
3931 2902 M
[ [(Times-Roman) 10.0 0.0 true true 0 ( 1.6)]
] -3.3 MRshow
1.000 UL
LTb
LCb setrgbcolor
4053 1654 M
0 31 V
0 1217 R
0 -31 V
4176 1654 M
0 31 V
0 1217 R
0 -31 V
4299 1654 M
0 31 V
0 1217 R
0 -31 V
4423 1654 M
0 31 V
0 1217 R
0 -31 V
4546 1654 M
0 63 V
0 1185 R
0 -63 V
stroke
4546 1534 M
[ [(Times-Roman) 10.0 0.0 true true 0 ( 0.1)]
] -3.3 MCshow
1.000 UL
LTb
LCb setrgbcolor
4669 1654 M
0 31 V
0 1217 R
0 -31 V
4793 1654 M
0 31 V
0 1217 R
0 -31 V
4916 1654 M
0 31 V
0 1217 R
0 -31 V
5039 1654 M
0 31 V
0 1217 R
0 -31 V
5163 1654 M
0 63 V
0 1185 R
0 -63 V
stroke
5163 1534 M
[ [(Times-Roman) 10.0 0.0 true true 0 ( 0.2)]
] -3.3 MCshow
1.000 UL
LTb
LCb setrgbcolor
5286 1654 M
0 31 V
0 1217 R
0 -31 V
5409 1654 M
0 31 V
0 1217 R
0 -31 V
stroke
LTB
LCb setrgbcolor
3960 2902 N
0 -1248 V
1511 0 V
0 1248 V
-1511 0 V
Z stroke
1.000 UP
LCb setrgbcolor
4546 2184 M
[ [(Times-Roman) 180.0 0.0 true true 0 (Rout)]
] -60.0 MLshow
1.000 UL
LTb
LCb setrgbcolor
LCb setrgbcolor
3552 2278 M
currentpoint gsave translate -270 rotate 0 0 moveto
[ [(Times-Roman) 10.0 0.0 true true 0 (C\(q\))]
] -3.3 MCshow
grestore
LTb
% Begin plot #1
1.000 UP
2.000 UL
LTb
0.34 0.71 0.91 C LCb setrgbcolor
12251 -8411 M
[ [(Times-Roman) 130.0 0.0 true true 0 (CorrFunc)]
] -43.3 MRshow
1.000 UP
2.000 UL
LTb
0.34 0.71 0.91 C 12329 -8411 M
156 0 V
-156 31 R
0 -62 V
156 62 R
0 -62 V
3975 2536 M
0 274 V
-15 -274 R
46 0 V
-46 274 R
46 0 V
0 -416 R
0 267 V
-31 -267 R
62 0 V
-62 267 R
62 0 V
0 -353 R
0 255 V
-31 -255 R
62 0 V
-62 255 R
62 0 V
0 -89 R
0 268 V
-31 -268 R
62 0 V
-62 268 R
62 0 V
0 -451 R
0 251 V
-31 -251 R
62 0 V
-62 251 R
62 0 V
0 -342 R
0 242 V
-31 -242 R
62 0 V
-62 242 R
62 0 V
-1 -40 R
0 261 V
-31 -261 R
62 0 V
-62 261 R
62 0 V
0 -592 R
0 230 V
-31 -230 R
62 0 V
-62 230 R
62 0 V
0 -275 R
0 224 V
-31 -224 R
62 0 V
-62 224 R
62 0 V
0 -248 R
0 217 V
-31 -217 R
62 0 V
-62 217 R
62 0 V
0 -380 R
0 204 V
-31 -204 R
62 0 V
-62 204 R
62 0 V
0 20 R
0 222 V
-31 -222 R
62 0 V
-62 222 R
62 0 V
-1 -310 R
0 213 V
-31 -213 R
62 0 V
-62 213 R
62 0 V
0 -210 R
0 207 V
-31 -207 R
62 0 V
-62 207 R
62 0 V
0 -339 R
0 200 V
-31 -200 R
62 0 V
-62 200 R
62 0 V
0 -340 R
0 184 V
-31 -184 R
62 0 V
-62 184 R
62 0 V
0 -176 R
0 184 V
-31 -184 R
62 0 V
stroke 4500 1714 M
-62 184 R
62 0 V
0 -154 R
0 188 V
-31 -188 R
62 0 V
-62 188 R
62 0 V
-1 -57 R
0 190 V
-31 -190 R
62 0 V
-62 190 R
62 0 V
0 -345 R
0 179 V
-31 -179 R
62 0 V
-62 179 R
62 0 V
0 -163 R
0 175 V
-31 -175 R
62 0 V
-62 175 R
62 0 V
0 -157 R
0 179 V
-31 -179 R
62 0 V
-62 179 R
62 0 V
0 -36 R
0 191 V
-31 -191 R
62 0 V
-62 191 R
62 0 V
0 -434 R
0 111 V
-31 0 R
62 0 V
0 -71 R
0 167 V
-31 -167 R
62 0 V
-62 167 R
62 0 V
-1 65 R
0 181 V
-31 -181 R
62 0 V
-62 181 R
62 0 V
0 -435 R
0 160 V
-31 -160 R
62 0 V
-62 160 R
62 0 V
0 59 R
0 179 V
-31 -179 R
62 0 V
-62 179 R
62 0 V
0 -245 R
0 171 V
-31 -171 R
62 0 V
-62 171 R
62 0 V
0 -276 R
0 163 V
-31 -163 R
62 0 V
-62 163 R
62 0 V
0 -167 R
0 163 V
-31 -163 R
62 0 V
-62 163 R
62 0 V
-1 -225 R
0 130 V
-31 0 R
62 0 V
0 -130 R
0 138 V
-31 0 R
62 0 V
0 -78 R
0 158 V
-31 -158 R
62 0 V
-62 158 R
62 0 V
0 -91 R
0 164 V
-31 -164 R
62 0 V
-62 164 R
62 0 V
stroke 5055 1945 M
0 -186 R
0 160 V
-31 -160 R
62 0 V
-62 160 R
62 0 V
0 -246 R
0 151 V
-31 -151 R
62 0 V
-62 151 R
62 0 V
-1 -170 R
0 76 V
-31 0 R
62 0 V
0 178 R
0 166 V
-31 -166 R
62 0 V
-62 166 R
62 0 V
0 -235 R
0 164 V
-31 -164 R
62 0 V
-62 164 R
62 0 V
0 -118 R
0 167 V
-31 -167 R
62 0 V
-62 167 R
62 0 V
0 -253 R
0 161 V
-31 -161 R
62 0 V
-62 161 R
62 0 V
0 -95 R
0 163 V
-31 -163 R
62 0 V
-62 163 R
62 0 V
-1 -238 R
0 160 V
-31 -160 R
62 0 V
-62 160 R
62 0 V
0 -42 R
0 169 V
-31 -169 R
62 0 V
-62 169 R
62 0 V
0 -349 R
0 155 V
-31 -155 R
62 0 V
-62 155 R
62 0 V
0 -125 R
0 159 V
-31 -159 R
62 0 V
-62 159 R
62 0 V
0 -53 R
0 165 V
-31 -165 R
62 0 V
-62 165 R
62 0 V
0 -301 R
0 155 V
-31 -155 R
46 0 V
-46 155 R
46 0 V
3975 2673 TriU
4006 2528 TriU
4037 2435 TriU
4068 2608 TriU
4099 2416 TriU
4130 2321 TriU
4160 2533 TriU
4191 2186 TriU
4222 2138 TriU
4253 2110 TriU
4284 1941 TriU
4315 2174 TriU
4345 2081 TriU
4376 2081 TriU
4407 1946 TriU
4438 1798 TriU
4469 1806 TriU
4500 1838 TriU
4530 1970 TriU
4561 1809 TriU
4592 1824 TriU
4623 1843 TriU
4654 1992 TriU
4685 1683 TriU
4716 1777 TriU
4746 2016 TriU
4777 1752 TriU
4808 1981 TriU
4839 1910 TriU
4870 1801 TriU
4901 1798 TriU
4931 1707 TriU
4962 1716 TriU
4993 1793 TriU
5024 1863 TriU
5055 1839 TriU
5086 1748 TriU
5116 1657 TriU
5147 1991 TriU
5178 1921 TriU
5209 1969 TriU
5240 1880 TriU
5271 1946 TriU
5301 1870 TriU
5332 1992 TriU
5363 1806 TriU
5394 1838 TriU
5425 1946 TriU
5456 1806 TriU
12407 -8411 TriU
% End plot #1
% Begin plot #2
2.400 UL
LTb
0.58 0.00 0.83 C LCb setrgbcolor
12251 -8476 M
[ [(Times-Roman) 130.0 0.0 true true 0 (3DFit)]
] -43.3 MRshow
2.400 UL
LTb
0.58 0.00 0.83 C 12329 -8476 M
156 0 V
3960 2664 M
15 -6 V
31 -24 V
31 -35 V
31 -44 V
31 -53 V
31 -56 V
30 -60 V
31 -60 V
31 -62 V
31 -56 V
31 -53 V
31 -50 V
30 -42 V
31 -38 V
31 -33 V
31 -27 V
31 -22 V
31 -17 V
30 -16 V
31 -10 V
31 -8 V
31 -5 V
31 -6 V
31 -3 V
31 -2 V
30 -2 V
31 -1 V
31 -1 V
31 0 V
31 -1 V
31 0 V
30 0 V
31 0 V
31 0 V
31 0 V
31 0 V
31 0 V
30 0 V
31 0 V
31 0 V
31 0 V
31 0 V
31 0 V
30 0 V
31 0 V
31 0 V
31 0 V
31 0 V
31 0 V
15 0 V
% End plot #2
stroke
2.000 UL
LTb
LCb setrgbcolor
1.000 UL
LTB
LCb setrgbcolor
3960 2902 N
0 -1248 V
1511 0 V
0 1248 V
-1511 0 V
Z stroke
1.000 UP
1.000 UL
LTb
LCb setrgbcolor
1.000 UL
LTb
LCb setrgbcolor
5472 1671 M
31 0 V
1479 0 R
-31 0 V
-1479 68 R
31 0 V
1479 0 R
-31 0 V
-1479 69 R
31 0 V
1479 0 R
-31 0 V
-1479 68 R
63 0 V
1447 0 R
-63 0 V
stroke
5443 1876 M
[ [(Times-Roman) 10.0 0.0 true true 0 ( 1)]
] -3.3 MRshow
1.000 UL
LTb
LCb setrgbcolor
5472 1945 M
31 0 V
1479 0 R
-31 0 V
-1479 68 R
31 0 V
1479 0 R
-31 0 V
-1479 68 R
31 0 V
1479 0 R
-31 0 V
-1479 69 R
31 0 V
1479 0 R
-31 0 V
-1479 68 R
63 0 V
1447 0 R
-63 0 V
stroke
5443 2218 M
[ [(Times-Roman) 10.0 0.0 true true 0 ( 1.2)]
] -3.3 MRshow
1.000 UL
LTb
LCb setrgbcolor
5472 2287 M
31 0 V
1479 0 R
-31 0 V
-1479 68 R
31 0 V
1479 0 R
-31 0 V
-1479 68 R
31 0 V
1479 0 R
-31 0 V
-1479 69 R
31 0 V
1479 0 R
-31 0 V
-1479 68 R
63 0 V
1447 0 R
-63 0 V
stroke
5443 2560 M
[ [(Times-Roman) 10.0 0.0 true true 0 ( 1.4)]
] -3.3 MRshow
1.000 UL
LTb
LCb setrgbcolor
5472 2628 M
31 0 V
1479 0 R
-31 0 V
-1479 69 R
31 0 V
1479 0 R
-31 0 V
-1479 68 R
31 0 V
1479 0 R
-31 0 V
-1479 69 R
31 0 V
1479 0 R
-31 0 V
-1479 68 R
63 0 V
1447 0 R
-63 0 V
stroke
5443 2902 M
[ [(Times-Roman) 10.0 0.0 true true 0 ( 1.6)]
] -3.3 MRshow
1.000 UL
LTb
LCb setrgbcolor
5564 1654 M
0 31 V
0 1217 R
0 -31 V
5688 1654 M
0 31 V
0 1217 R
0 -31 V
5811 1654 M
0 31 V
0 1217 R
0 -31 V
5934 1654 M
0 31 V
0 1217 R
0 -31 V
6058 1654 M
0 63 V
0 1185 R
0 -63 V
stroke
6058 1534 M
[ [(Times-Roman) 10.0 0.0 true true 0 ( 0.1)]
] -3.3 MCshow
1.000 UL
LTb
LCb setrgbcolor
6181 1654 M
0 31 V
0 1217 R
0 -31 V
6304 1654 M
0 31 V
0 1217 R
0 -31 V
6427 1654 M
0 31 V
0 1217 R
0 -31 V
6551 1654 M
0 31 V
0 1217 R
0 -31 V
6674 1654 M
0 63 V
0 1185 R
0 -63 V
stroke
6674 1534 M
[ [(Times-Roman) 10.0 0.0 true true 0 ( 0.2)]
] -3.3 MCshow
1.000 UL
LTb
LCb setrgbcolor
6797 1654 M
0 31 V
0 1217 R
0 -31 V
6920 1654 M
0 31 V
0 1217 R
0 -31 V
stroke
LTB
LCb setrgbcolor
5472 2902 N
0 -1248 V
1510 0 V
0 1248 V
-1510 0 V
Z stroke
1.000 UP
LCb setrgbcolor
6058 2184 M
[ [(Times-Roman) 180.0 0.0 true true 0 (Rout)]
] -60.0 MLshow
1.000 UL
LTb
LCb setrgbcolor
LCb setrgbcolor
5064 2278 M
currentpoint gsave translate -270 rotate 0 0 moveto
[ [(Times-Roman) 10.0 0.0 true true 0 (C\(q\))]
] -3.3 MCshow
grestore
LTb
% Begin plot #1
1.000 UP
2.000 UL
LTb
0.34 0.71 0.91 C LCb setrgbcolor
13758 -8411 M
[ [(Times-Roman) 130.0 0.0 true true 0 (CorrFunc)]
] -43.3 MRshow
1.000 UP
2.000 UL
LTb
0.34 0.71 0.91 C 13836 -8411 M
156 0 V
-156 31 R
0 -62 V
156 62 R
0 -62 V
5518 2226 M
0 583 V
-31 -583 R
62 0 V
-62 583 R
62 0 V
0 -291 R
0 384 V
-31 -384 R
62 0 V
0 -27 R
0 411 V
-31 -411 R
62 0 V
30 -289 R
0 586 V
-31 -586 R
62 0 V
-62 586 R
62 0 V
0 -730 R
0 522 V
-31 -522 R
62 0 V
-62 522 R
62 0 V
0 -279 R
0 562 V
-31 -562 R
62 0 V
-62 562 R
62 0 V
0 -883 R
0 511 V
-31 -511 R
62 0 V
-62 511 R
62 0 V
0 -121 R
0 532 V
-31 -532 R
62 0 V
0 -464 R
0 461 V
-31 -461 R
62 0 V
-62 461 R
62 0 V
-1 -659 R
0 419 V
-31 -419 R
62 0 V
-62 419 R
62 0 V
0 -362 R
0 445 V
-31 -445 R
62 0 V
-62 445 R
62 0 V
0 -326 R
0 432 V
-31 -432 R
62 0 V
-62 432 R
62 0 V
0 -450 R
0 437 V
-31 -437 R
62 0 V
-62 437 R
62 0 V
0 -437 R
0 400 V
-31 -400 R
62 0 V
-62 400 R
62 0 V
-1 -423 R
0 395 V
-31 -395 R
62 0 V
-62 395 R
62 0 V
0 -380 R
0 398 V
-31 -398 R
62 0 V
-62 398 R
62 0 V
0 -526 R
0 381 V
-31 -381 R
62 0 V
-62 381 R
62 0 V
0 -188 R
0 396 V
-31 -396 R
62 0 V
stroke 6104 1923 M
-62 396 R
62 0 V
0 -513 R
0 383 V
-31 -383 R
62 0 V
-62 383 R
62 0 V
0 -417 R
0 359 V
-31 -359 R
62 0 V
-62 359 R
62 0 V
-1 -477 R
0 317 V
-31 0 R
62 0 V
0 -259 R
0 339 V
-31 -339 R
62 0 V
-62 339 R
62 0 V
0 50 R
0 402 V
-31 -402 R
62 0 V
-62 402 R
62 0 V
0 -827 R
0 323 V
-31 -323 R
62 0 V
-62 323 R
62 0 V
0 -195 R
0 329 V
-31 -329 R
62 0 V
-62 329 R
62 0 V
-1 -479 R
0 237 V
-31 0 R
62 0 V
0 -42 R
0 346 V
-31 -346 R
62 0 V
-62 346 R
62 0 V
0 -515 R
0 300 V
-31 -300 R
62 0 V
-62 300 R
62 0 V
0 -14 R
0 347 V
-31 -347 R
62 0 V
-62 347 R
62 0 V
0 -656 R
0 301 V
-31 -301 R
62 0 V
-62 301 R
62 0 V
0 29 R
0 339 V
-31 -339 R
62 0 V
-62 339 R
62 0 V
-1 -672 R
0 284 V
-31 0 R
62 0 V
0 -260 R
0 288 V
-31 -288 R
62 0 V
-62 288 R
62 0 V
0 -139 R
0 314 V
-31 -314 R
62 0 V
-62 314 R
62 0 V
61 -428 R
0 276 V
-31 -276 R
62 0 V
-62 276 R
62 0 V
124 -220 R
0 269 V
-31 -269 R
62 0 V
-62 269 R
62 0 V
stroke 6844 2038 M
-1 -384 R
0 220 V
-31 0 R
62 0 V
0 29 R
0 289 V
-31 -289 R
62 0 V
-62 289 R
62 0 V
0 -538 R
0 169 V
-31 0 R
62 0 V
0 97 R
0 289 V
-31 -289 R
62 0 V
-62 289 R
62 0 V
5518 2517 TriU
5549 2835 TriU
5580 2822 TriU
5641 2495 TriU
5672 2319 TriU
5703 2582 TriU
5734 2235 TriU
5765 2651 TriU
5796 2136 TriU
5826 1917 TriU
5857 1987 TriU
5888 2100 TriU
5919 2085 TriU
5950 2066 TriU
5980 2040 TriU
6011 2057 TriU
6042 1921 TriU
6073 2121 TriU
6104 1998 TriU
6135 1951 TriU
6165 1800 TriU
6196 1881 TriU
6227 2302 TriU
6258 1837 TriU
6289 1969 TriU
6319 1745 TriU
6350 2022 TriU
6381 1830 TriU
6412 2140 TriU
6443 1807 TriU
6474 2157 TriU
6504 1791 TriU
6535 1822 TriU
6566 1984 TriU
6658 1851 TriU
6813 1904 TriU
6843 1747 TriU
6874 2047 TriU
6905 1703 TriU
6936 2064 TriU
13914 -8411 TriU
% End plot #1
% Begin plot #2
2.400 UL
LTb
0.58 0.00 0.83 C LCb setrgbcolor
13758 -8476 M
[ [(Times-Roman) 130.0 0.0 true true 0 (3DFit)]
] -43.3 MRshow
2.400 UL
LTb
0.58 0.00 0.83 C 13836 -8476 M
156 0 V
5472 2893 M
15 -6 V
31 -24 V
31 -35 V
31 -44 V
31 -53 V
30 -60 V
31 -63 V
31 -67 V
31 -66 V
31 -67 V
31 -65 V
30 -62 V
31 -58 V
31 -51 V
31 -48 V
31 -41 V
30 -36 V
31 -32 V
31 -26 V
31 -22 V
31 -17 V
31 -16 V
30 -10 V
31 -10 V
31 -7 V
31 -5 V
31 -4 V
30 -3 V
31 -2 V
31 -1 V
31 -2 V
31 0 V
31 -2 V
30 0 V
31 0 V
31 0 V
31 0 V
31 0 V
30 0 V
31 0 V
31 0 V
31 0 V
31 0 V
31 0 V
30 0 V
31 0 V
31 0 V
31 0 V
31 0 V
15 0 V
% End plot #2
stroke
2.000 UL
LTb
LCb setrgbcolor
1.000 UL
LTB
LCb setrgbcolor
5472 2902 N
0 -1248 V
1510 0 V
0 1248 V
-1510 0 V
Z stroke
1.000 UP
1.000 UL
LTb
LCb setrgbcolor
1.000 UL
LTb
LCb setrgbcolor
936 422 M
31 0 V
1480 0 R
-31 0 V
936 490 M
31 0 V
1480 0 R
-31 0 V
936 559 M
31 0 V
1480 0 R
-31 0 V
936 627 M
63 0 V
1448 0 R
-63 0 V
stroke
907 627 M
[ [(Times-Roman) 200.0 0.0 true true 0 ( 1)]
] -66.7 MRshow
1.000 UL
LTb
LCb setrgbcolor
936 695 M
31 0 V
1480 0 R
-31 0 V
936 764 M
31 0 V
1480 0 R
-31 0 V
936 832 M
31 0 V
1480 0 R
-31 0 V
936 900 M
31 0 V
1480 0 R
-31 0 V
936 969 M
63 0 V
1448 0 R
-63 0 V
stroke
907 969 M
[ [(Times-Roman) 200.0 0.0 true true 0 ( 1.2)]
] -66.7 MRshow
1.000 UL
LTb
LCb setrgbcolor
936 1037 M
31 0 V
1480 0 R
-31 0 V
936 1105 M
31 0 V
1480 0 R
-31 0 V
936 1174 M
31 0 V
1480 0 R
-31 0 V
936 1242 M
31 0 V
1480 0 R
-31 0 V
936 1310 M
63 0 V
1448 0 R
-63 0 V
stroke
907 1310 M
[ [(Times-Roman) 200.0 0.0 true true 0 ( 1.4)]
] -66.7 MRshow
1.000 UL
LTb
LCb setrgbcolor
936 1379 M
31 0 V
1480 0 R
-31 0 V
936 1447 M
31 0 V
1480 0 R
-31 0 V
936 1515 M
31 0 V
1480 0 R
-31 0 V
936 1584 M
31 0 V
1480 0 R
-31 0 V
936 1652 M
63 0 V
1448 0 R
-63 0 V
stroke
907 1652 M
[ [(Times-Roman) 200.0 0.0 true true 0 ( 1.6)]
] -66.7 MRshow
1.000 UL
LTb
LCb setrgbcolor
1029 405 M
0 31 V
0 1216 R
0 -31 V
1152 405 M
0 31 V
0 1216 R
0 -31 V
1275 405 M
0 31 V
0 1216 R
0 -31 V
1399 405 M
0 31 V
0 1216 R
0 -31 V
1522 405 M
0 63 V
0 1184 R
0 -63 V
stroke
1522 285 M
[ [(Times-Roman) 150.0 0.0 true true 0 ( 0.1)]
] -50.0 MCshow
1.000 UL
LTb
LCb setrgbcolor
1645 405 M
0 31 V
0 1216 R
0 -31 V
1769 405 M
0 31 V
0 1216 R
0 -31 V
1892 405 M
0 31 V
0 1216 R
0 -31 V
2015 405 M
0 31 V
0 1216 R
0 -31 V
2139 405 M
0 63 V
0 1184 R
0 -63 V
stroke
2139 285 M
[ [(Times-Roman) 150.0 0.0 true true 0 ( 0.2)]
] -50.0 MCshow
1.000 UL
LTb
LCb setrgbcolor
2262 405 M
0 31 V
0 1216 R
0 -31 V
2385 405 M
0 31 V
0 1216 R
0 -31 V
stroke
LTB
LCb setrgbcolor
936 1652 N
936 405 L
1511 0 V
0 1247 V
-1511 0 V
Z stroke
1.000 UP
LCb setrgbcolor
1522 935 M
[ [(Times-Roman) 180.0 0.0 true true 0 (Rlong)]
] -60.0 MLshow
1.000 UL
LTb
LCb setrgbcolor
LCb setrgbcolor
528 1028 M
currentpoint gsave translate -270 rotate 0 0 moveto
[ [(Times-Roman) 220.0 0.0 true true 0 (C\(q\))]
] -73.3 MCshow
grestore
LTb
% Begin plot #1
1.000 UP
2.000 UL
LTb
0.34 0.71 0.91 C LCb setrgbcolor
9227 -9652 M
[ [(Times-Roman) 130.0 0.0 true true 0 (CorrFunc)]
] -43.3 MRshow
1.000 UP
2.000 UL
LTb
0.34 0.71 0.91 C 9305 -9652 M
156 0 V
-156 31 R
0 -62 V
156 62 R
0 -62 V
951 1247 M
0 175 V
936 1247 M
46 0 V
-46 175 R
46 0 V
0 -411 R
0 141 V
951 1011 M
62 0 V
-62 141 R
62 0 V
0 -3 R
0 122 V
982 1149 M
62 0 V
-62 122 R
62 0 V
0 -270 R
0 100 V
-31 -100 R
62 0 V
-62 100 R
62 0 V
0 -151 R
0 95 V
-31 -95 R
62 0 V
-62 95 R
62 0 V
0 -102 R
0 96 V
-31 -96 R
62 0 V
-62 96 R
62 0 V
-1 -196 R
0 94 V
-31 -94 R
62 0 V
-62 94 R
62 0 V
0 -103 R
0 95 V
-31 -95 R
62 0 V
-62 95 R
62 0 V
0 -141 R
0 95 V
-31 -95 R
62 0 V
-62 95 R
62 0 V
0 -168 R
0 94 V
-31 -94 R
62 0 V
-62 94 R
62 0 V
0 -143 R
0 93 V
-31 -93 R
62 0 V
-62 93 R
62 0 V
0 -67 R
0 99 V
-31 -99 R
62 0 V
-62 99 R
62 0 V
-1 -129 R
0 98 V
-31 -98 R
62 0 V
-62 98 R
62 0 V
0 -34 R
0 103 V
1321 726 M
62 0 V
-62 103 R
62 0 V
0 -181 R
0 101 V
1352 648 M
62 0 V
-62 101 R
62 0 V
0 -114 R
0 103 V
1383 635 M
62 0 V
-62 103 R
62 0 V
0 -119 R
0 105 V
1414 619 M
62 0 V
stroke 1476 619 M
-62 105 R
62 0 V
0 -174 R
0 105 V
1445 550 M
62 0 V
-62 105 R
62 0 V
-1 -76 R
0 110 V
1475 579 M
62 0 V
-62 110 R
62 0 V
0 -72 R
0 112 V
1506 617 M
62 0 V
-62 112 R
62 0 V
0 -81 R
0 119 V
1537 648 M
62 0 V
-62 119 R
62 0 V
0 -203 R
0 118 V
1568 564 M
62 0 V
-62 118 R
62 0 V
0 -86 R
0 123 V
1599 596 M
62 0 V
-62 123 R
62 0 V
0 -65 R
0 128 V
1630 654 M
62 0 V
-62 128 R
62 0 V
0 -269 R
0 125 V
1661 513 M
62 0 V
-62 125 R
62 0 V
-1 -49 R
0 134 V
1691 589 M
62 0 V
-62 134 R
62 0 V
0 -152 R
0 139 V
1722 571 M
62 0 V
-62 139 R
62 0 V
0 -139 R
0 146 V
1753 571 M
62 0 V
-62 146 R
62 0 V
0 -135 R
0 148 V
1784 582 M
62 0 V
-62 148 R
62 0 V
0 -263 R
0 147 V
1815 467 M
62 0 V
-62 147 R
62 0 V
0 75 R
0 174 V
1846 689 M
62 0 V
-62 174 R
62 0 V
-1 -390 R
0 168 V
1876 473 M
62 0 V
-62 168 R
62 0 V
0 -143 R
0 179 V
1907 498 M
62 0 V
-62 179 R
62 0 V
0 -135 R
0 194 V
1938 542 M
62 0 V
-62 194 R
62 0 V
stroke 2000 736 M
0 -238 R
0 200 V
1969 498 M
62 0 V
-62 200 R
62 0 V
0 -233 R
0 210 V
2000 465 M
62 0 V
-62 210 R
62 0 V
0 -270 R
0 129 V
-31 0 R
62 0 V
-1 -129 R
0 222 V
-31 0 R
62 0 V
0 31 R
0 301 V
2092 658 M
62 0 V
-62 301 R
62 0 V
0 -470 R
0 307 V
2123 489 M
62 0 V
-62 307 R
62 0 V
0 -391 R
0 270 V
-31 0 R
62 0 V
0 -270 R
0 182 V
-31 0 R
62 0 V
0 201 R
0 470 V
2216 788 M
62 0 V
-62 470 R
62 0 V
-1 -803 R
0 487 V
2246 455 M
62 0 V
-62 487 R
62 0 V
0 -537 R
0 366 V
-31 0 R
62 0 V
0 -366 R
0 459 V
-31 0 R
62 0 V
0 -330 R
0 797 V
2339 534 M
62 0 V
-62 797 R
62 0 V
0 -926 R
0 443 V
-31 0 R
62 0 V
951 1334 TriU
982 1081 TriU
1013 1210 TriU
1044 1051 TriU
1075 998 TriU
1106 991 TriU
1136 890 TriU
1167 882 TriU
1198 835 TriU
1229 762 TriU
1260 712 TriU
1291 742 TriU
1321 711 TriU
1352 777 TriU
1383 699 TriU
1414 687 TriU
1445 671 TriU
1476 603 TriU
1506 634 TriU
1537 673 TriU
1568 707 TriU
1599 623 TriU
1630 658 TriU
1661 718 TriU
1692 575 TriU
1722 656 TriU
1753 641 TriU
1784 644 TriU
1815 656 TriU
1846 541 TriU
1877 776 TriU
1907 557 TriU
1938 587 TriU
1969 639 TriU
2000 598 TriU
2031 570 TriU
2062 427 TriU
2092 509 TriU
2123 808 TriU
2154 642 TriU
2185 516 TriU
2216 420 TriU
2247 1023 TriU
2277 699 TriU
2308 521 TriU
2339 583 TriU
2370 933 TriU
2401 482 TriU
9383 -9652 TriU
% End plot #1
% Begin plot #2
2.400 UL
LTb
0.58 0.00 0.83 C LCb setrgbcolor
9227 -9717 M
[ [(Times-Roman) 130.0 0.0 true true 0 (3DFit)]
] -43.3 MRshow
2.400 UL
LTb
0.58 0.00 0.83 C 9305 -9717 M
156 0 V
936 1225 M
15 -7 V
31 -26 V
31 -37 V
31 -46 V
31 -51 V
31 -55 V
30 -55 V
31 -53 V
31 -49 V
31 -45 V
31 -39 V
31 -32 V
30 -28 V
31 -20 V
31 -17 V
31 -12 V
31 -9 V
31 -7 V
30 -5 V
31 -3 V
31 -2 V
31 -1 V
31 -1 V
31 -1 V
31 0 V
30 0 V
31 0 V
31 0 V
31 0 V
31 0 V
31 0 V
30 0 V
31 0 V
31 0 V
31 0 V
31 0 V
31 0 V
30 0 V
31 0 V
31 0 V
31 0 V
31 0 V
31 0 V
30 0 V
31 0 V
31 0 V
31 0 V
31 0 V
31 0 V
15 0 V
% End plot #2
stroke
2.000 UL
LTb
LCb setrgbcolor
1.000 UL
LTB
LCb setrgbcolor
936 1652 N
936 405 L
1511 0 V
0 1247 V
-1511 0 V
Z stroke
1.000 UP
1.000 UL
LTb
LCb setrgbcolor
1.000 UL
LTb
LCb setrgbcolor
2448 422 M
31 0 V
1480 0 R
-31 0 V
2448 490 M
31 0 V
1480 0 R
-31 0 V
2448 559 M
31 0 V
1480 0 R
-31 0 V
2448 627 M
63 0 V
1448 0 R
-63 0 V
stroke
2419 627 M
[ [(Times-Roman) 10.0 0.0 true true 0 ( 1)]
] -3.3 MRshow
1.000 UL
LTb
LCb setrgbcolor
2448 695 M
31 0 V
1480 0 R
-31 0 V
2448 764 M
31 0 V
1480 0 R
-31 0 V
2448 832 M
31 0 V
1480 0 R
-31 0 V
2448 900 M
31 0 V
1480 0 R
-31 0 V
2448 969 M
63 0 V
1448 0 R
-63 0 V
stroke
2419 969 M
[ [(Times-Roman) 10.0 0.0 true true 0 ( 1.2)]
] -3.3 MRshow
1.000 UL
LTb
LCb setrgbcolor
2448 1037 M
31 0 V
1480 0 R
-31 0 V
-1480 68 R
31 0 V
1480 0 R
-31 0 V
-1480 69 R
31 0 V
1480 0 R
-31 0 V
-1480 68 R
31 0 V
1480 0 R
-31 0 V
-1480 68 R
63 0 V
1448 0 R
-63 0 V
stroke
2419 1310 M
[ [(Times-Roman) 10.0 0.0 true true 0 ( 1.4)]
] -3.3 MRshow
1.000 UL
LTb
LCb setrgbcolor
2448 1379 M
31 0 V
1480 0 R
-31 0 V
-1480 68 R
31 0 V
1480 0 R
-31 0 V
-1480 68 R
31 0 V
1480 0 R
-31 0 V
-1480 69 R
31 0 V
1480 0 R
-31 0 V
-1480 68 R
63 0 V
1448 0 R
-63 0 V
stroke
2419 1652 M
[ [(Times-Roman) 10.0 0.0 true true 0 ( 1.6)]
] -3.3 MRshow
1.000 UL
LTb
LCb setrgbcolor
2541 405 M
0 31 V
0 1216 R
0 -31 V
2664 405 M
0 31 V
0 1216 R
0 -31 V
2787 405 M
0 31 V
0 1216 R
0 -31 V
2911 405 M
0 31 V
0 1216 R
0 -31 V
3034 405 M
0 63 V
0 1184 R
0 -63 V
stroke
3034 285 M
[ [(Times-Roman) 150.0 0.0 true true 0 ( 0.1)]
] -50.0 MCshow
1.000 UL
LTb
LCb setrgbcolor
3157 405 M
0 31 V
0 1216 R
0 -31 V
3281 405 M
0 31 V
0 1216 R
0 -31 V
3404 405 M
0 31 V
0 1216 R
0 -31 V
3527 405 M
0 31 V
0 1216 R
0 -31 V
3651 405 M
0 63 V
0 1184 R
0 -63 V
stroke
3651 285 M
[ [(Times-Roman) 150.0 0.0 true true 0 ( 0.2)]
] -50.0 MCshow
1.000 UL
LTb
LCb setrgbcolor
3774 405 M
0 31 V
0 1216 R
0 -31 V
3897 405 M
0 31 V
0 1216 R
0 -31 V
stroke
LTB
LCb setrgbcolor
2448 1652 N
0 -1247 V
1511 0 V
0 1247 V
-1511 0 V
Z stroke
1.000 UP
LCb setrgbcolor
3034 935 M
[ [(Times-Roman) 180.0 0.0 true true 0 (Rlong)]
] -60.0 MLshow
1.000 UL
LTb
LCb setrgbcolor
LCb setrgbcolor
2040 1028 M
currentpoint gsave translate -270 rotate 0 0 moveto
[ [(Times-Roman) 10.0 0.0 true true 0 (C\(q\))]
] -3.3 MCshow
grestore
LTb
% Begin plot #1
1.000 UP
2.000 UL
LTb
0.34 0.71 0.91 C LCb setrgbcolor
10739 -9659 M
[ [(Times-Roman) 130.0 0.0 true true 0 (CorrFunc)]
] -43.3 MRshow
1.000 UP
2.000 UL
LTb
0.34 0.71 0.91 C 10817 -9659 M
156 0 V
-156 31 R
0 -62 V
156 62 R
0 -62 V
2463 1117 M
0 243 V
-15 -243 R
46 0 V
-46 243 R
46 0 V
0 -195 R
0 209 V
-31 -209 R
62 0 V
-62 209 R
62 0 V
0 -119 R
0 176 V
-31 -176 R
62 0 V
-62 176 R
62 0 V
0 -200 R
0 148 V
-31 -148 R
62 0 V
-62 148 R
62 0 V
0 -331 R
0 135 V
-31 -135 R
62 0 V
-62 135 R
62 0 V
0 -179 R
0 134 V
-31 -134 R
62 0 V
-62 134 R
62 0 V
-1 -229 R
0 133 V
2617 909 M
62 0 V
-62 133 R
62 0 V
0 -152 R
0 134 V
2648 890 M
62 0 V
-62 134 R
62 0 V
0 -83 R
0 138 V
2679 941 M
62 0 V
-62 138 R
62 0 V
0 -340 R
0 128 V
2710 739 M
62 0 V
-62 128 R
62 0 V
0 -18 R
0 136 V
2741 849 M
62 0 V
-62 136 R
62 0 V
0 -175 R
0 136 V
2772 810 M
62 0 V
-62 136 R
62 0 V
-1 -134 R
0 136 V
2802 812 M
62 0 V
-62 136 R
62 0 V
0 -156 R
0 138 V
2833 792 M
62 0 V
-62 138 R
62 0 V
0 -342 R
0 129 V
2864 588 M
62 0 V
-62 129 R
62 0 V
0 -65 R
0 134 V
2895 652 M
62 0 V
-62 134 R
62 0 V
0 -171 R
0 136 V
2926 615 M
62 0 V
stroke 2988 615 M
-62 136 R
62 0 V
0 -63 R
0 142 V
2957 688 M
62 0 V
-62 142 R
62 0 V
-1 -188 R
0 141 V
2987 642 M
62 0 V
-62 141 R
62 0 V
0 -179 R
0 141 V
3018 604 M
62 0 V
-62 141 R
62 0 V
0 -212 R
0 139 V
3049 533 M
62 0 V
-62 139 R
62 0 V
0 -127 R
0 140 V
3080 545 M
62 0 V
-62 140 R
62 0 V
0 14 R
0 153 V
3111 699 M
62 0 V
-62 153 R
62 0 V
0 -196 R
0 151 V
3142 656 M
62 0 V
-62 151 R
62 0 V
0 -342 R
0 142 V
3173 465 M
62 0 V
-62 142 R
62 0 V
-1 -30 R
0 155 V
3203 577 M
62 0 V
-62 155 R
62 0 V
0 -281 R
0 149 V
3234 451 M
62 0 V
-62 149 R
62 0 V
0 -59 R
0 156 V
3265 541 M
62 0 V
-62 156 R
62 0 V
0 -220 R
0 155 V
3296 477 M
62 0 V
-62 155 R
62 0 V
0 -22 R
0 167 V
3327 610 M
62 0 V
-62 167 R
62 0 V
0 -116 R
0 171 V
3358 661 M
62 0 V
-62 171 R
62 0 V
-1 -377 R
0 165 V
3388 455 M
62 0 V
-62 165 R
62 0 V
0 -201 R
0 164 V
3419 419 M
62 0 V
-62 164 R
62 0 V
0 -169 R
0 168 V
3450 414 M
62 0 V
-62 168 R
62 0 V
stroke 3512 582 M
0 -129 R
0 177 V
3481 453 M
62 0 V
-62 177 R
62 0 V
0 -106 R
0 183 V
3512 524 M
62 0 V
-62 183 R
62 0 V
0 -149 R
0 193 V
3543 558 M
62 0 V
-62 193 R
62 0 V
-1 -229 R
0 195 V
3573 522 M
62 0 V
-62 195 R
62 0 V
0 -173 R
0 203 V
3604 544 M
62 0 V
-62 203 R
62 0 V
0 -325 R
0 197 V
3635 422 M
62 0 V
-62 197 R
62 0 V
0 -137 R
0 216 V
3666 482 M
62 0 V
-62 216 R
62 0 V
0 -15 R
0 233 V
3697 683 M
62 0 V
-62 233 R
62 0 V
0 -305 R
0 244 V
3728 611 M
62 0 V
-62 244 R
62 0 V
-1 -450 R
0 226 V
-31 0 R
62 0 V
0 -226 R
0 219 V
-31 0 R
62 0 V
0 -219 R
0 184 V
-31 0 R
62 0 V
0 33 R
0 290 V
3851 622 M
62 0 V
-62 290 R
62 0 V
0 -373 R
0 289 V
3882 539 M
62 0 V
-62 289 R
62 0 V
0 -423 R
0 234 V
-31 0 R
46 0 V
2463 1239 TriU
2494 1269 TriU
2525 1343 TriU
2556 1305 TriU
2587 1116 TriU
2618 1071 TriU
2648 976 TriU
2679 957 TriU
2710 1010 TriU
2741 803 TriU
2772 917 TriU
2803 878 TriU
2833 880 TriU
2864 861 TriU
2895 653 TriU
2926 719 TriU
2957 683 TriU
2988 759 TriU
3018 712 TriU
3049 675 TriU
3080 602 TriU
3111 615 TriU
3142 776 TriU
3173 731 TriU
3204 536 TriU
3234 654 TriU
3265 526 TriU
3296 619 TriU
3327 554 TriU
3358 694 TriU
3389 747 TriU
3419 538 TriU
3450 501 TriU
3481 498 TriU
3512 541 TriU
3543 615 TriU
3574 654 TriU
3604 619 TriU
3635 646 TriU
3666 520 TriU
3697 590 TriU
3728 800 TriU
3759 733 TriU
3789 516 TriU
3820 508 TriU
3851 467 TriU
3882 767 TriU
3913 683 TriU
3944 504 TriU
10895 -9659 TriU
% End plot #1
% Begin plot #2
2.400 UL
LTb
0.58 0.00 0.83 C LCb setrgbcolor
10739 -9737 M
[ [(Times-Roman) 130.0 0.0 true true 0 (3DFit)]
] -43.3 MRshow
2.400 UL
LTb
0.58 0.00 0.83 C 10817 -9737 M
156 0 V
2448 1298 M
15 -5 V
31 -20 V
31 -28 V
31 -35 V
31 -41 V
31 -47 V
30 -47 V
31 -50 V
31 -49 V
31 -48 V
31 -46 V
31 -41 V
30 -38 V
31 -32 V
31 -29 V
31 -24 V
31 -21 V
31 -17 V
30 -14 V
31 -10 V
31 -8 V
31 -6 V
31 -5 V
31 -3 V
31 -4 V
30 -1 V
31 0 V
31 -2 V
31 0 V
31 -1 V
31 0 V
30 0 V
31 0 V
31 0 V
31 0 V
31 0 V
31 0 V
30 0 V
31 0 V
31 0 V
31 0 V
31 0 V
31 0 V
30 0 V
31 0 V
31 0 V
31 0 V
31 0 V
31 0 V
15 0 V
% End plot #2
stroke
2.000 UL
LTb
LCb setrgbcolor
1.000 UL
LTB
LCb setrgbcolor
2448 1652 N
0 -1247 V
1511 0 V
0 1247 V
-1511 0 V
Z stroke
1.000 UP
1.000 UL
LTb
LCb setrgbcolor
1.000 UL
LTb
LCb setrgbcolor
3960 422 M
31 0 V
1480 0 R
-31 0 V
3960 490 M
31 0 V
1480 0 R
-31 0 V
3960 559 M
31 0 V
1480 0 R
-31 0 V
3960 627 M
63 0 V
1448 0 R
-63 0 V
stroke
3931 627 M
[ [(Times-Roman) 10.0 0.0 true true 0 ( 1)]
] -3.3 MRshow
1.000 UL
LTb
LCb setrgbcolor
3960 695 M
31 0 V
1480 0 R
-31 0 V
3960 764 M
31 0 V
1480 0 R
-31 0 V
3960 832 M
31 0 V
1480 0 R
-31 0 V
3960 900 M
31 0 V
1480 0 R
-31 0 V
3960 969 M
63 0 V
1448 0 R
-63 0 V
stroke
3931 969 M
[ [(Times-Roman) 10.0 0.0 true true 0 ( 1.2)]
] -3.3 MRshow
1.000 UL
LTb
LCb setrgbcolor
3960 1037 M
31 0 V
1480 0 R
-31 0 V
-1480 68 R
31 0 V
1480 0 R
-31 0 V
-1480 69 R
31 0 V
1480 0 R
-31 0 V
-1480 68 R
31 0 V
1480 0 R
-31 0 V
-1480 68 R
63 0 V
1448 0 R
-63 0 V
stroke
3931 1310 M
[ [(Times-Roman) 10.0 0.0 true true 0 ( 1.4)]
] -3.3 MRshow
1.000 UL
LTb
LCb setrgbcolor
3960 1379 M
31 0 V
1480 0 R
-31 0 V
-1480 68 R
31 0 V
1480 0 R
-31 0 V
-1480 68 R
31 0 V
1480 0 R
-31 0 V
-1480 69 R
31 0 V
1480 0 R
-31 0 V
-1480 68 R
63 0 V
1448 0 R
-63 0 V
stroke
3931 1652 M
[ [(Times-Roman) 10.0 0.0 true true 0 ( 1.6)]
] -3.3 MRshow
1.000 UL
LTb
LCb setrgbcolor
4053 405 M
0 31 V
0 1216 R
0 -31 V
4176 405 M
0 31 V
0 1216 R
0 -31 V
4299 405 M
0 31 V
0 1216 R
0 -31 V
4423 405 M
0 31 V
0 1216 R
0 -31 V
4546 405 M
0 63 V
0 1184 R
0 -63 V
stroke
4546 285 M
[ [(Times-Roman) 150.0 0.0 true true 0 ( 0.1)]
] -50.0 MCshow
1.000 UL
LTb
LCb setrgbcolor
4669 405 M
0 31 V
0 1216 R
0 -31 V
4793 405 M
0 31 V
0 1216 R
0 -31 V
4916 405 M
0 31 V
0 1216 R
0 -31 V
5039 405 M
0 31 V
0 1216 R
0 -31 V
5163 405 M
0 63 V
0 1184 R
0 -63 V
stroke
5163 285 M
[ [(Times-Roman) 150.0 0.0 true true 0 ( 0.2)]
] -50.0 MCshow
1.000 UL
LTb
LCb setrgbcolor
5286 405 M
0 31 V
0 1216 R
0 -31 V
5409 405 M
0 31 V
0 1216 R
0 -31 V
stroke
LTB
LCb setrgbcolor
3960 1652 N
0 -1247 V
1511 0 V
0 1247 V
-1511 0 V
Z stroke
1.000 UP
LCb setrgbcolor
4546 935 M
[ [(Times-Roman) 180.0 0.0 true true 0 (Rlong)]
] -60.0 MLshow
1.000 UL
LTb
LCb setrgbcolor
LCb setrgbcolor
3552 1028 M
currentpoint gsave translate -270 rotate 0 0 moveto
[ [(Times-Roman) 10.0 0.0 true true 0 (C\(q\))]
] -3.3 MCshow
grestore
LTb
% Begin plot #1
1.000 UP
2.000 UL
LTb
0.34 0.71 0.91 C LCb setrgbcolor
12251 -9652 M
[ [(Times-Roman) 130.0 0.0 true true 0 (CorrFunc)]
] -43.3 MRshow
1.000 UP
2.000 UL
LTb
0.34 0.71 0.91 C 12329 -9652 M
156 0 V
-156 31 R
0 -62 V
156 62 R
0 -62 V
4006 1345 M
0 307 V
-31 -307 R
62 0 V
0 -84 R
0 256 V
-31 -256 R
62 0 V
-62 256 R
62 0 V
0 -380 R
0 206 V
-31 -206 R
62 0 V
-62 206 R
62 0 V
0 -177 R
0 203 V
-31 -203 R
62 0 V
-62 203 R
62 0 V
0 -290 R
0 196 V
-31 -196 R
62 0 V
-62 196 R
62 0 V
-1 -136 R
0 203 V
-31 -203 R
62 0 V
-62 203 R
62 0 V
0 -315 R
0 197 V
-31 -197 R
62 0 V
-62 197 R
62 0 V
0 -130 R
0 204 V
-31 -204 R
62 0 V
-62 204 R
62 0 V
0 -343 R
0 195 V
4222 955 M
62 0 V
-62 195 R
62 0 V
0 -357 R
0 188 V
4253 793 M
62 0 V
-62 188 R
62 0 V
0 -20 R
0 203 V
4284 961 M
62 0 V
-62 203 R
62 0 V
-1 -281 R
0 196 V
4314 883 M
62 0 V
-62 196 R
62 0 V
0 -294 R
0 190 V
4345 785 M
62 0 V
-62 190 R
62 0 V
0 -342 R
0 186 V
4376 633 M
62 0 V
-62 186 R
62 0 V
0 -9 R
0 198 V
4407 810 M
62 0 V
-62 198 R
62 0 V
0 -248 R
0 196 V
4438 760 M
62 0 V
-62 196 R
62 0 V
0 -322 R
0 187 V
4469 634 M
62 0 V
-62 187 R
62 0 V
stroke 4531 821 M
-1 -278 R
0 182 V
4499 543 M
62 0 V
-62 182 R
62 0 V
0 -138 R
0 189 V
4530 587 M
62 0 V
-62 189 R
62 0 V
0 -326 R
0 180 V
4561 450 M
62 0 V
-62 180 R
62 0 V
0 97 R
0 203 V
4592 727 M
62 0 V
-62 203 R
62 0 V
0 -231 R
0 204 V
4623 699 M
62 0 V
-62 204 R
62 0 V
0 -88 R
0 215 V
4654 815 M
62 0 V
-62 215 R
62 0 V
0 -347 R
0 209 V
4685 683 M
62 0 V
-62 209 R
62 0 V
-1 -248 R
0 205 V
4715 644 M
62 0 V
-62 205 R
62 0 V
0 -371 R
0 192 V
4746 478 M
62 0 V
-62 192 R
62 0 V
0 -132 R
0 206 V
4777 538 M
62 0 V
-62 206 R
62 0 V
0 -229 R
0 206 V
4808 515 M
62 0 V
-62 206 R
62 0 V
0 -75 R
0 218 V
4839 646 M
62 0 V
-62 218 R
62 0 V
0 -372 R
0 205 V
4870 492 M
62 0 V
-62 205 R
62 0 V
-1 -203 R
0 212 V
4900 494 M
62 0 V
-62 212 R
62 0 V
0 -158 R
0 216 V
4931 548 M
62 0 V
-62 216 R
62 0 V
0 -359 R
0 114 V
-31 0 R
62 0 V
0 169 R
0 240 V
4993 688 M
62 0 V
-62 240 R
62 0 V
0 -509 R
0 216 V
5024 419 M
62 0 V
stroke 5086 419 M
-62 216 R
62 0 V
0 -162 R
0 218 V
5055 473 M
62 0 V
-62 218 R
62 0 V
-1 -65 R
0 245 V
5085 626 M
62 0 V
-62 245 R
62 0 V
0 -409 R
0 226 V
5116 462 M
62 0 V
-62 226 R
62 0 V
0 -259 R
0 227 V
5147 429 M
62 0 V
-62 227 R
62 0 V
0 -251 R
0 190 V
-31 0 R
62 0 V
0 -179 R
0 230 V
5209 416 M
62 0 V
-62 230 R
62 0 V
30 -102 R
0 258 V
5270 544 M
62 0 V
-62 258 R
62 0 V
0 -268 R
0 258 V
5301 534 M
62 0 V
-62 258 R
62 0 V
0 -317 R
0 264 V
5332 475 M
62 0 V
-62 264 R
62 0 V
0 -126 R
0 275 V
5363 613 M
62 0 V
-62 275 R
62 0 V
0 -311 R
0 295 V
5394 577 M
62 0 V
-62 295 R
62 0 V
0 -180 R
0 301 V
5425 692 M
46 0 V
-46 301 R
46 0 V
4006 1510 TriU
4037 1389 TriU
4068 1240 TriU
4099 1268 TriU
4130 1177 TriU
4160 1240 TriU
4191 1126 TriU
4222 1196 TriU
4253 1052 TriU
4284 887 TriU
4315 1063 TriU
4345 981 TriU
4376 880 TriU
4407 726 TriU
4438 909 TriU
4469 858 TriU
4500 728 TriU
4530 634 TriU
4561 682 TriU
4592 540 TriU
4623 829 TriU
4654 801 TriU
4685 923 TriU
4716 788 TriU
4746 747 TriU
4777 574 TriU
4808 641 TriU
4839 618 TriU
4870 755 TriU
4901 594 TriU
4931 600 TriU
4962 656 TriU
4993 419 TriU
5024 808 TriU
5055 527 TriU
5086 582 TriU
5116 748 TriU
5147 575 TriU
5178 543 TriU
5209 483 TriU
5240 531 TriU
5301 673 TriU
5332 663 TriU
5363 607 TriU
5394 750 TriU
5425 724 TriU
5456 842 TriU
12407 -9652 TriU
% End plot #1
% Begin plot #2
2.400 UL
LTb
0.58 0.00 0.83 C LCb setrgbcolor
12251 -9717 M
[ [(Times-Roman) 130.0 0.0 true true 0 (3DFit)]
] -43.3 MRshow
2.400 UL
LTb
0.58 0.00 0.83 C 12329 -9717 M
156 0 V
3960 1387 M
15 -3 V
31 -12 V
31 -21 V
31 -25 V
31 -31 V
31 -34 V
30 -39 V
31 -41 V
31 -43 V
31 -45 V
31 -44 V
31 -43 V
30 -42 V
31 -40 V
31 -37 V
31 -36 V
31 -33 V
31 -29 V
30 -25 V
31 -24 V
31 -19 V
31 -19 V
31 -15 V
31 -12 V
31 -10 V
30 -9 V
31 -8 V
31 -6 V
31 -5 V
31 -3 V
31 -4 V
30 -1 V
31 -2 V
31 -1 V
31 -2 V
31 0 V
31 -1 V
30 0 V
31 -1 V
31 0 V
31 0 V
31 0 V
31 0 V
30 0 V
31 0 V
31 0 V
31 0 V
31 0 V
31 0 V
15 0 V
% End plot #2
stroke
2.000 UL
LTb
LCb setrgbcolor
1.000 UL
LTB
LCb setrgbcolor
3960 1652 N
0 -1247 V
1511 0 V
0 1247 V
-1511 0 V
Z stroke
1.000 UP
1.000 UL
LTb
LCb setrgbcolor
1.000 UL
LTb
LCb setrgbcolor
5472 422 M
31 0 V
1479 0 R
-31 0 V
5472 490 M
31 0 V
1479 0 R
-31 0 V
5472 559 M
31 0 V
1479 0 R
-31 0 V
5472 627 M
63 0 V
1447 0 R
-63 0 V
stroke
5443 627 M
[ [(Times-Roman) 10.0 0.0 true true 0 ( 1)]
] -3.3 MRshow
1.000 UL
LTb
LCb setrgbcolor
5472 695 M
31 0 V
1479 0 R
-31 0 V
5472 764 M
31 0 V
1479 0 R
-31 0 V
5472 832 M
31 0 V
1479 0 R
-31 0 V
5472 900 M
31 0 V
1479 0 R
-31 0 V
5472 969 M
63 0 V
1447 0 R
-63 0 V
stroke
5443 969 M
[ [(Times-Roman) 10.0 0.0 true true 0 ( 1.2)]
] -3.3 MRshow
1.000 UL
LTb
LCb setrgbcolor
5472 1037 M
31 0 V
1479 0 R
-31 0 V
-1479 68 R
31 0 V
1479 0 R
-31 0 V
-1479 69 R
31 0 V
1479 0 R
-31 0 V
-1479 68 R
31 0 V
1479 0 R
-31 0 V
-1479 68 R
63 0 V
1447 0 R
-63 0 V
stroke
5443 1310 M
[ [(Times-Roman) 10.0 0.0 true true 0 ( 1.4)]
] -3.3 MRshow
1.000 UL
LTb
LCb setrgbcolor
5472 1379 M
31 0 V
1479 0 R
-31 0 V
-1479 68 R
31 0 V
1479 0 R
-31 0 V
-1479 68 R
31 0 V
1479 0 R
-31 0 V
-1479 69 R
31 0 V
1479 0 R
-31 0 V
-1479 68 R
63 0 V
1447 0 R
-63 0 V
stroke
5443 1652 M
[ [(Times-Roman) 10.0 0.0 true true 0 ( 1.6)]
] -3.3 MRshow
1.000 UL
LTb
LCb setrgbcolor
5564 405 M
0 31 V
0 1216 R
0 -31 V
5688 405 M
0 31 V
0 1216 R
0 -31 V
5811 405 M
0 31 V
0 1216 R
0 -31 V
5934 405 M
0 31 V
0 1216 R
0 -31 V
6058 405 M
0 63 V
0 1184 R
0 -63 V
stroke
6058 285 M
[ [(Times-Roman) 150.0 0.0 true true 0 ( 0.1)]
] -50.0 MCshow
1.000 UL
LTb
LCb setrgbcolor
6181 405 M
0 31 V
0 1216 R
0 -31 V
6304 405 M
0 31 V
0 1216 R
0 -31 V
6427 405 M
0 31 V
0 1216 R
0 -31 V
6551 405 M
0 31 V
0 1216 R
0 -31 V
6674 405 M
0 63 V
0 1184 R
0 -63 V
stroke
6674 285 M
[ [(Times-Roman) 150.0 0.0 true true 0 ( 0.2)]
] -50.0 MCshow
1.000 UL
LTb
LCb setrgbcolor
6797 405 M
0 31 V
0 1216 R
0 -31 V
6920 405 M
0 31 V
0 1216 R
0 -31 V
stroke
LTB
LCb setrgbcolor
5472 1652 N
0 -1247 V
1510 0 V
0 1247 V
-1510 0 V
Z stroke
1.000 UP
LCb setrgbcolor
6058 935 M
[ [(Times-Roman) 180.0 0.0 true true 0 (Rlong)]
] -60.0 MLshow
1.000 UL
LTb
LCb setrgbcolor
LCb setrgbcolor
5064 1028 M
currentpoint gsave translate -270 rotate 0 0 moveto
[ [(Times-Roman) 10.0 0.0 true true 0 (C\(q\))]
] -3.3 MCshow
grestore
LTb
% Begin plot #1
1.000 UP
2.000 UL
LTb
0.34 0.71 0.91 C LCb setrgbcolor
13758 -9652 M
[ [(Times-Roman) 130.0 0.0 true true 0 (CorrFunc)]
] -43.3 MRshow
1.000 UP
2.000 UL
LTb
0.34 0.71 0.91 C 13836 -9652 M
156 0 V
-156 31 R
0 -62 V
156 62 R
0 -62 V
5487 576 M
0 1076 V
5472 576 M
46 0 V
0 162 R
0 899 V
5487 738 M
62 0 V
-62 899 R
62 0 V
0 -474 R
0 489 V
-31 -489 R
62 0 V
0 178 R
0 311 V
-31 -311 R
62 0 V
0 88 R
0 223 V
-31 -223 R
62 0 V
-1 -297 R
0 322 V
-31 -322 R
62 0 V
-62 322 R
62 0 V
0 -154 R
0 332 V
-31 -332 R
62 0 V
-62 332 R
62 0 V
31 -630 R
0 299 V
-31 -299 R
62 0 V
-62 299 R
62 0 V
0 -70 R
0 326 V
-31 -326 R
62 0 V
-62 326 R
62 0 V
0 -439 R
0 313 V
-31 -313 R
62 0 V
-62 313 R
62 0 V
-1 -390 R
0 310 V
-31 -310 R
62 0 V
-62 310 R
62 0 V
0 -381 R
0 304 V
5826 970 M
62 0 V
-62 304 R
62 0 V
0 -279 R
0 306 V
5857 995 M
62 0 V
-62 306 R
62 0 V
0 -541 R
0 288 V
5888 760 M
62 0 V
-62 288 R
62 0 V
0 -312 R
0 291 V
5919 736 M
62 0 V
-62 291 R
62 0 V
-1 -76 R
0 309 V
5949 951 M
62 0 V
-62 309 R
62 0 V
0 -812 R
0 256 V
5980 448 M
62 0 V
-62 256 R
62 0 V
0 -128 R
0 277 V
6011 576 M
62 0 V
-62 277 R
62 0 V
stroke 6073 853 M
0 -225 R
0 282 V
6042 628 M
62 0 V
-62 282 R
62 0 V
0 -251 R
0 292 V
6073 659 M
62 0 V
-62 292 R
62 0 V
0 -176 R
0 305 V
6104 775 M
62 0 V
-62 305 R
62 0 V
-1 -198 R
0 320 V
6134 882 M
62 0 V
-62 320 R
62 0 V
0 -746 R
0 274 V
6165 456 M
62 0 V
-62 274 R
62 0 V
0 -284 R
0 271 V
6196 446 M
62 0 V
-62 271 R
62 0 V
0 -180 R
0 286 V
6227 537 M
62 0 V
-62 286 R
62 0 V
0 -325 R
0 272 V
6258 498 M
62 0 V
-62 272 R
62 0 V
-1 -365 R
0 169 V
-31 0 R
62 0 V
0 161 R
0 321 V
6319 735 M
62 0 V
-62 321 R
62 0 V
0 -651 R
0 203 V
-31 0 R
62 0 V
0 -5 R
0 314 V
6381 603 M
62 0 V
-62 314 R
62 0 V
0 -512 R
0 235 V
-31 0 R
62 0 V
0 149 R
0 326 V
6443 789 M
62 0 V
-62 326 R
62 0 V
-1 -678 R
0 297 V
6473 437 M
62 0 V
-62 297 R
62 0 V
0 -50 R
0 313 V
6504 684 M
62 0 V
-62 313 R
62 0 V
0 -592 R
0 272 V
-31 0 R
62 0 V
31 -160 R
0 319 V
6597 517 M
62 0 V
-62 319 R
62 0 V
-1 -431 R
0 299 V
-31 0 R
62 0 V
stroke 6689 704 M
31 -299 R
0 276 V
-31 0 R
62 0 V
0 -276 R
0 240 V
-31 0 R
62 0 V
0 -228 R
0 300 V
6751 417 M
62 0 V
-62 300 R
62 0 V
0 -159 R
0 340 V
6782 558 M
62 0 V
-62 340 R
62 0 V
-1 -493 R
0 228 V
-31 0 R
62 0 V
0 -228 R
0 310 V
-31 0 R
62 0 V
0 61 R
0 382 V
6874 776 M
62 0 V
-62 382 R
62 0 V
0 -629 R
0 343 V
6905 529 M
62 0 V
-62 343 R
62 0 V
0 -467 R
0 183 V
-31 0 R
46 0 V
5487 1169 TriU
5518 1187 TriU
5549 1524 TriU
5580 1591 TriU
5611 1621 TriU
5641 1293 TriU
5672 1466 TriU
5734 1151 TriU
5765 1394 TriU
5796 1274 TriU
5826 1196 TriU
5857 1122 TriU
5888 1148 TriU
5919 904 TriU
5950 882 TriU
5980 1105 TriU
6011 576 TriU
6042 714 TriU
6073 769 TriU
6104 805 TriU
6135 928 TriU
6165 1042 TriU
6196 593 TriU
6227 582 TriU
6258 680 TriU
6289 634 TriU
6319 446 TriU
6350 895 TriU
6381 472 TriU
6412 760 TriU
6443 501 TriU
6474 952 TriU
6504 586 TriU
6535 841 TriU
6566 536 TriU
6628 677 TriU
6658 554 TriU
6720 532 TriU
6751 495 TriU
6782 567 TriU
6813 728 TriU
6843 482 TriU
6874 557 TriU
6905 967 TriU
6936 701 TriU
6967 433 TriU
13914 -9652 TriU
% End plot #1
% Begin plot #2
2.400 UL
LTb
0.58 0.00 0.83 C LCb setrgbcolor
13758 -9717 M
[ [(Times-Roman) 130.0 0.0 true true 0 (3DFit)]
] -43.3 MRshow
2.400 UL
LTb
0.58 0.00 0.83 C 13836 -9717 M
156 0 V
5472 1616 M
15 -3 V
31 -14 V
31 -19 V
31 -27 V
31 -31 V
30 -36 V
31 -41 V
31 -44 V
31 -46 V
31 -50 V
31 -49 V
30 -50 V
31 -49 V
31 -50 V
31 -46 V
31 -44 V
30 -43 V
31 -41 V
31 -36 V
31 -34 V
31 -31 V
31 -27 V
30 -26 V
31 -22 V
31 -19 V
31 -17 V
31 -14 V
30 -12 V
31 -10 V
31 -8 V
31 -9 V
31 -5 V
31 -5 V
30 -5 V
31 -2 V
31 -3 V
31 -2 V
31 -2 V
30 -2 V
31 -1 V
31 0 V
31 0 V
31 -2 V
31 0 V
30 0 V
31 0 V
31 0 V
31 0 V
31 0 V
15 0 V
% End plot #2
stroke
2.000 UL
LTb
LCb setrgbcolor
1.000 UL
LTB
LCb setrgbcolor
5472 1652 N
0 -1247 V
1510 0 V
0 1247 V
-1510 0 V
Z stroke
1.000 UP
1.000 UL
LTb
LCb setrgbcolor
stroke
grestore
end
showpage
%%Trailer
%%DocumentFonts: Times-Roman
%%Pages: 1
