%!PS-Adobe-2.0
%%Title: image.eps
%%Creator: gnuplot 5.0 patchlevel 3
%%CreationDate: Mon Feb  5 14:56:37 2018
%%DocumentFonts: (atend)
%%BoundingBox: 50 50 554 770
%%Orientation: Landscape
%%Pages: (atend)
%%EndComments
%%BeginProlog
/gnudict 256 dict def
gnudict begin
%
% The following true/false flags may be edited by hand if desired.
% The unit line width and grayscale image gamma correction may also be changed.
%
/Color true def
/Blacktext false def
/Solid false def
/Dashlength 1 def
/Landscape true def
/Level1 false def
/Level3 false def
/Rounded false def
/ClipToBoundingBox false def
/SuppressPDFMark false def
/TransparentPatterns false def
/gnulinewidth 5.000 def
/userlinewidth gnulinewidth def
/Gamma 1.0 def
/BackgroundColor {-1.000 -1.000 -1.000} def
%
/vshift -80 def
/dl1 {
  10.0 Dashlength userlinewidth gnulinewidth div mul mul mul
  Rounded { currentlinewidth 0.75 mul sub dup 0 le { pop 0.01 } if } if
} def
/dl2 {
  10.0 Dashlength userlinewidth gnulinewidth div mul mul mul
  Rounded { currentlinewidth 0.75 mul add } if
} def
/hpt_ 31.5 def
/vpt_ 31.5 def
/hpt hpt_ def
/vpt vpt_ def
/doclip {
  ClipToBoundingBox {
    newpath 50 50 moveto 554 50 lineto 554 770 lineto 50 770 lineto closepath
    clip
  } if
} def
%
% Gnuplot Prolog Version 5.1 (Oct 2015)
%
%/SuppressPDFMark true def
%
/M {moveto} bind def
/L {lineto} bind def
/R {rmoveto} bind def
/V {rlineto} bind def
/N {newpath moveto} bind def
/Z {closepath} bind def
/C {setrgbcolor} bind def
/f {rlineto fill} bind def
/g {setgray} bind def
/Gshow {show} def   % May be redefined later in the file to support UTF-8
/vpt2 vpt 2 mul def
/hpt2 hpt 2 mul def
/Lshow {currentpoint stroke M 0 vshift R 
	Blacktext {gsave 0 setgray textshow grestore} {textshow} ifelse} def
/Rshow {currentpoint stroke M dup stringwidth pop neg vshift R
	Blacktext {gsave 0 setgray textshow grestore} {textshow} ifelse} def
/Cshow {currentpoint stroke M dup stringwidth pop -2 div vshift R 
	Blacktext {gsave 0 setgray textshow grestore} {textshow} ifelse} def
/UP {dup vpt_ mul /vpt exch def hpt_ mul /hpt exch def
  /hpt2 hpt 2 mul def /vpt2 vpt 2 mul def} def
/DL {Color {setrgbcolor Solid {pop []} if 0 setdash}
 {pop pop pop 0 setgray Solid {pop []} if 0 setdash} ifelse} def
/BL {stroke userlinewidth 2 mul setlinewidth
	Rounded {1 setlinejoin 1 setlinecap} if} def
/AL {stroke userlinewidth 2 div setlinewidth
	Rounded {1 setlinejoin 1 setlinecap} if} def
/UL {dup gnulinewidth mul /userlinewidth exch def
	dup 1 lt {pop 1} if 10 mul /udl exch def} def
/PL {stroke userlinewidth setlinewidth
	Rounded {1 setlinejoin 1 setlinecap} if} def
3.8 setmiterlimit
% Classic Line colors (version 5.0)
/LCw {1 1 1} def
/LCb {0 0 0} def
/LCa {0 0 0} def
/LC0 {1 0 0} def
/LC1 {0 1 0} def
/LC2 {0 0 1} def
/LC3 {1 0 1} def
/LC4 {0 1 1} def
/LC5 {1 1 0} def
/LC6 {0 0 0} def
/LC7 {1 0.3 0} def
/LC8 {0.5 0.5 0.5} def
% Default dash patterns (version 5.0)
/LTB {BL [] LCb DL} def
/LTw {PL [] 1 setgray} def
/LTb {PL [] LCb DL} def
/LTa {AL [1 udl mul 2 udl mul] 0 setdash LCa setrgbcolor} def
/LT0 {PL [] LC0 DL} def
/LT1 {PL [2 dl1 3 dl2] LC1 DL} def
/LT2 {PL [1 dl1 1.5 dl2] LC2 DL} def
/LT3 {PL [6 dl1 2 dl2 1 dl1 2 dl2] LC3 DL} def
/LT4 {PL [1 dl1 2 dl2 6 dl1 2 dl2 1 dl1 2 dl2] LC4 DL} def
/LT5 {PL [4 dl1 2 dl2] LC5 DL} def
/LT6 {PL [1.5 dl1 1.5 dl2 1.5 dl1 1.5 dl2 1.5 dl1 6 dl2] LC6 DL} def
/LT7 {PL [3 dl1 3 dl2 1 dl1 3 dl2] LC7 DL} def
/LT8 {PL [2 dl1 2 dl2 2 dl1 6 dl2] LC8 DL} def
/SL {[] 0 setdash} def
/Pnt {stroke [] 0 setdash gsave 1 setlinecap M 0 0 V stroke grestore} def
/Dia {stroke [] 0 setdash 2 copy vpt add M
  hpt neg vpt neg V hpt vpt neg V
  hpt vpt V hpt neg vpt V closepath stroke
  Pnt} def
/Pls {stroke [] 0 setdash vpt sub M 0 vpt2 V
  currentpoint stroke M
  hpt neg vpt neg R hpt2 0 V stroke
 } def
/Box {stroke [] 0 setdash 2 copy exch hpt sub exch vpt add M
  0 vpt2 neg V hpt2 0 V 0 vpt2 V
  hpt2 neg 0 V closepath stroke
  Pnt} def
/Crs {stroke [] 0 setdash exch hpt sub exch vpt add M
  hpt2 vpt2 neg V currentpoint stroke M
  hpt2 neg 0 R hpt2 vpt2 V stroke} def
/TriU {stroke [] 0 setdash 2 copy vpt 1.12 mul add M
  hpt neg vpt -1.62 mul V
  hpt 2 mul 0 V
  hpt neg vpt 1.62 mul V closepath stroke
  Pnt} def
/Star {2 copy Pls Crs} def
/BoxF {stroke [] 0 setdash exch hpt sub exch vpt add M
  0 vpt2 neg V hpt2 0 V 0 vpt2 V
  hpt2 neg 0 V closepath fill} def
/TriUF {stroke [] 0 setdash vpt 1.12 mul add M
  hpt neg vpt -1.62 mul V
  hpt 2 mul 0 V
  hpt neg vpt 1.62 mul V closepath fill} def
/TriD {stroke [] 0 setdash 2 copy vpt 1.12 mul sub M
  hpt neg vpt 1.62 mul V
  hpt 2 mul 0 V
  hpt neg vpt -1.62 mul V closepath stroke
  Pnt} def
/TriDF {stroke [] 0 setdash vpt 1.12 mul sub M
  hpt neg vpt 1.62 mul V
  hpt 2 mul 0 V
  hpt neg vpt -1.62 mul V closepath fill} def
/DiaF {stroke [] 0 setdash vpt add M
  hpt neg vpt neg V hpt vpt neg V
  hpt vpt V hpt neg vpt V closepath fill} def
/Pent {stroke [] 0 setdash 2 copy gsave
  translate 0 hpt M 4 {72 rotate 0 hpt L} repeat
  closepath stroke grestore Pnt} def
/PentF {stroke [] 0 setdash gsave
  translate 0 hpt M 4 {72 rotate 0 hpt L} repeat
  closepath fill grestore} def
/Circle {stroke [] 0 setdash 2 copy
  hpt 0 360 arc stroke Pnt} def
/CircleF {stroke [] 0 setdash hpt 0 360 arc fill} def
/C0 {BL [] 0 setdash 2 copy moveto vpt 90 450 arc} bind def
/C1 {BL [] 0 setdash 2 copy moveto
	2 copy vpt 0 90 arc closepath fill
	vpt 0 360 arc closepath} bind def
/C2 {BL [] 0 setdash 2 copy moveto
	2 copy vpt 90 180 arc closepath fill
	vpt 0 360 arc closepath} bind def
/C3 {BL [] 0 setdash 2 copy moveto
	2 copy vpt 0 180 arc closepath fill
	vpt 0 360 arc closepath} bind def
/C4 {BL [] 0 setdash 2 copy moveto
	2 copy vpt 180 270 arc closepath fill
	vpt 0 360 arc closepath} bind def
/C5 {BL [] 0 setdash 2 copy moveto
	2 copy vpt 0 90 arc
	2 copy moveto
	2 copy vpt 180 270 arc closepath fill
	vpt 0 360 arc} bind def
/C6 {BL [] 0 setdash 2 copy moveto
	2 copy vpt 90 270 arc closepath fill
	vpt 0 360 arc closepath} bind def
/C7 {BL [] 0 setdash 2 copy moveto
	2 copy vpt 0 270 arc closepath fill
	vpt 0 360 arc closepath} bind def
/C8 {BL [] 0 setdash 2 copy moveto
	2 copy vpt 270 360 arc closepath fill
	vpt 0 360 arc closepath} bind def
/C9 {BL [] 0 setdash 2 copy moveto
	2 copy vpt 270 450 arc closepath fill
	vpt 0 360 arc closepath} bind def
/C10 {BL [] 0 setdash 2 copy 2 copy moveto vpt 270 360 arc closepath fill
	2 copy moveto
	2 copy vpt 90 180 arc closepath fill
	vpt 0 360 arc closepath} bind def
/C11 {BL [] 0 setdash 2 copy moveto
	2 copy vpt 0 180 arc closepath fill
	2 copy moveto
	2 copy vpt 270 360 arc closepath fill
	vpt 0 360 arc closepath} bind def
/C12 {BL [] 0 setdash 2 copy moveto
	2 copy vpt 180 360 arc closepath fill
	vpt 0 360 arc closepath} bind def
/C13 {BL [] 0 setdash 2 copy moveto
	2 copy vpt 0 90 arc closepath fill
	2 copy moveto
	2 copy vpt 180 360 arc closepath fill
	vpt 0 360 arc closepath} bind def
/C14 {BL [] 0 setdash 2 copy moveto
	2 copy vpt 90 360 arc closepath fill
	vpt 0 360 arc} bind def
/C15 {BL [] 0 setdash 2 copy vpt 0 360 arc closepath fill
	vpt 0 360 arc closepath} bind def
/Rec {newpath 4 2 roll moveto 1 index 0 rlineto 0 exch rlineto
	neg 0 rlineto closepath} bind def
/Square {dup Rec} bind def
/Bsquare {vpt sub exch vpt sub exch vpt2 Square} bind def
/S0 {BL [] 0 setdash 2 copy moveto 0 vpt rlineto BL Bsquare} bind def
/S1 {BL [] 0 setdash 2 copy vpt Square fill Bsquare} bind def
/S2 {BL [] 0 setdash 2 copy exch vpt sub exch vpt Square fill Bsquare} bind def
/S3 {BL [] 0 setdash 2 copy exch vpt sub exch vpt2 vpt Rec fill Bsquare} bind def
/S4 {BL [] 0 setdash 2 copy exch vpt sub exch vpt sub vpt Square fill Bsquare} bind def
/S5 {BL [] 0 setdash 2 copy 2 copy vpt Square fill
	exch vpt sub exch vpt sub vpt Square fill Bsquare} bind def
/S6 {BL [] 0 setdash 2 copy exch vpt sub exch vpt sub vpt vpt2 Rec fill Bsquare} bind def
/S7 {BL [] 0 setdash 2 copy exch vpt sub exch vpt sub vpt vpt2 Rec fill
	2 copy vpt Square fill Bsquare} bind def
/S8 {BL [] 0 setdash 2 copy vpt sub vpt Square fill Bsquare} bind def
/S9 {BL [] 0 setdash 2 copy vpt sub vpt vpt2 Rec fill Bsquare} bind def
/S10 {BL [] 0 setdash 2 copy vpt sub vpt Square fill 2 copy exch vpt sub exch vpt Square fill
	Bsquare} bind def
/S11 {BL [] 0 setdash 2 copy vpt sub vpt Square fill 2 copy exch vpt sub exch vpt2 vpt Rec fill
	Bsquare} bind def
/S12 {BL [] 0 setdash 2 copy exch vpt sub exch vpt sub vpt2 vpt Rec fill Bsquare} bind def
/S13 {BL [] 0 setdash 2 copy exch vpt sub exch vpt sub vpt2 vpt Rec fill
	2 copy vpt Square fill Bsquare} bind def
/S14 {BL [] 0 setdash 2 copy exch vpt sub exch vpt sub vpt2 vpt Rec fill
	2 copy exch vpt sub exch vpt Square fill Bsquare} bind def
/S15 {BL [] 0 setdash 2 copy Bsquare fill Bsquare} bind def
/D0 {gsave translate 45 rotate 0 0 S0 stroke grestore} bind def
/D1 {gsave translate 45 rotate 0 0 S1 stroke grestore} bind def
/D2 {gsave translate 45 rotate 0 0 S2 stroke grestore} bind def
/D3 {gsave translate 45 rotate 0 0 S3 stroke grestore} bind def
/D4 {gsave translate 45 rotate 0 0 S4 stroke grestore} bind def
/D5 {gsave translate 45 rotate 0 0 S5 stroke grestore} bind def
/D6 {gsave translate 45 rotate 0 0 S6 stroke grestore} bind def
/D7 {gsave translate 45 rotate 0 0 S7 stroke grestore} bind def
/D8 {gsave translate 45 rotate 0 0 S8 stroke grestore} bind def
/D9 {gsave translate 45 rotate 0 0 S9 stroke grestore} bind def
/D10 {gsave translate 45 rotate 0 0 S10 stroke grestore} bind def
/D11 {gsave translate 45 rotate 0 0 S11 stroke grestore} bind def
/D12 {gsave translate 45 rotate 0 0 S12 stroke grestore} bind def
/D13 {gsave translate 45 rotate 0 0 S13 stroke grestore} bind def
/D14 {gsave translate 45 rotate 0 0 S14 stroke grestore} bind def
/D15 {gsave translate 45 rotate 0 0 S15 stroke grestore} bind def
/DiaE {stroke [] 0 setdash vpt add M
  hpt neg vpt neg V hpt vpt neg V
  hpt vpt V hpt neg vpt V closepath stroke} def
/BoxE {stroke [] 0 setdash exch hpt sub exch vpt add M
  0 vpt2 neg V hpt2 0 V 0 vpt2 V
  hpt2 neg 0 V closepath stroke} def
/TriUE {stroke [] 0 setdash vpt 1.12 mul add M
  hpt neg vpt -1.62 mul V
  hpt 2 mul 0 V
  hpt neg vpt 1.62 mul V closepath stroke} def
/TriDE {stroke [] 0 setdash vpt 1.12 mul sub M
  hpt neg vpt 1.62 mul V
  hpt 2 mul 0 V
  hpt neg vpt -1.62 mul V closepath stroke} def
/PentE {stroke [] 0 setdash gsave
  translate 0 hpt M 4 {72 rotate 0 hpt L} repeat
  closepath stroke grestore} def
/CircE {stroke [] 0 setdash 
  hpt 0 360 arc stroke} def
/Opaque {gsave closepath 1 setgray fill grestore 0 setgray closepath} def
/DiaW {stroke [] 0 setdash vpt add M
  hpt neg vpt neg V hpt vpt neg V
  hpt vpt V hpt neg vpt V Opaque stroke} def
/BoxW {stroke [] 0 setdash exch hpt sub exch vpt add M
  0 vpt2 neg V hpt2 0 V 0 vpt2 V
  hpt2 neg 0 V Opaque stroke} def
/TriUW {stroke [] 0 setdash vpt 1.12 mul add M
  hpt neg vpt -1.62 mul V
  hpt 2 mul 0 V
  hpt neg vpt 1.62 mul V Opaque stroke} def
/TriDW {stroke [] 0 setdash vpt 1.12 mul sub M
  hpt neg vpt 1.62 mul V
  hpt 2 mul 0 V
  hpt neg vpt -1.62 mul V Opaque stroke} def
/PentW {stroke [] 0 setdash gsave
  translate 0 hpt M 4 {72 rotate 0 hpt L} repeat
  Opaque stroke grestore} def
/CircW {stroke [] 0 setdash 
  hpt 0 360 arc Opaque stroke} def
/BoxFill {gsave Rec 1 setgray fill grestore} def
/Density {
  /Fillden exch def
  currentrgbcolor
  /ColB exch def /ColG exch def /ColR exch def
  /ColR ColR Fillden mul Fillden sub 1 add def
  /ColG ColG Fillden mul Fillden sub 1 add def
  /ColB ColB Fillden mul Fillden sub 1 add def
  ColR ColG ColB setrgbcolor} def
/BoxColFill {gsave Rec PolyFill} def
/PolyFill {gsave Density fill grestore grestore} def
/h {rlineto rlineto rlineto gsave closepath fill grestore} bind def
%
% PostScript Level 1 Pattern Fill routine for rectangles
% Usage: x y w h s a XX PatternFill
%	x,y = lower left corner of box to be filled
%	w,h = width and height of box
%	  a = angle in degrees between lines and x-axis
%	 XX = 0/1 for no/yes cross-hatch
%
/PatternFill {gsave /PFa [ 9 2 roll ] def
  PFa 0 get PFa 2 get 2 div add PFa 1 get PFa 3 get 2 div add translate
  PFa 2 get -2 div PFa 3 get -2 div PFa 2 get PFa 3 get Rec
  TransparentPatterns {} {gsave 1 setgray fill grestore} ifelse
  clip
  currentlinewidth 0.5 mul setlinewidth
  /PFs PFa 2 get dup mul PFa 3 get dup mul add sqrt def
  0 0 M PFa 5 get rotate PFs -2 div dup translate
  0 1 PFs PFa 4 get div 1 add floor cvi
	{PFa 4 get mul 0 M 0 PFs V} for
  0 PFa 6 get ne {
	0 1 PFs PFa 4 get div 1 add floor cvi
	{PFa 4 get mul 0 2 1 roll M PFs 0 V} for
 } if
  stroke grestore} def
%
/languagelevel where
 {pop languagelevel} {1} ifelse
dup 2 lt
	{/InterpretLevel1 true def
	 /InterpretLevel3 false def}
	{/InterpretLevel1 Level1 def
	 2 gt
	    {/InterpretLevel3 Level3 def}
	    {/InterpretLevel3 false def}
	 ifelse }
 ifelse
%
% PostScript level 2 pattern fill definitions
%
/Level2PatternFill {
/Tile8x8 {/PaintType 2 /PatternType 1 /TilingType 1 /BBox [0 0 8 8] /XStep 8 /YStep 8}
	bind def
/KeepColor {currentrgbcolor [/Pattern /DeviceRGB] setcolorspace} bind def
<< Tile8x8
 /PaintProc {0.5 setlinewidth pop 0 0 M 8 8 L 0 8 M 8 0 L stroke} 
>> matrix makepattern
/Pat1 exch def
<< Tile8x8
 /PaintProc {0.5 setlinewidth pop 0 0 M 8 8 L 0 8 M 8 0 L stroke
	0 4 M 4 8 L 8 4 L 4 0 L 0 4 L stroke}
>> matrix makepattern
/Pat2 exch def
<< Tile8x8
 /PaintProc {0.5 setlinewidth pop 0 0 M 0 8 L
	8 8 L 8 0 L 0 0 L fill}
>> matrix makepattern
/Pat3 exch def
<< Tile8x8
 /PaintProc {0.5 setlinewidth pop -4 8 M 8 -4 L
	0 12 M 12 0 L stroke}
>> matrix makepattern
/Pat4 exch def
<< Tile8x8
 /PaintProc {0.5 setlinewidth pop -4 0 M 8 12 L
	0 -4 M 12 8 L stroke}
>> matrix makepattern
/Pat5 exch def
<< Tile8x8
 /PaintProc {0.5 setlinewidth pop -2 8 M 4 -4 L
	0 12 M 8 -4 L 4 12 M 10 0 L stroke}
>> matrix makepattern
/Pat6 exch def
<< Tile8x8
 /PaintProc {0.5 setlinewidth pop -2 0 M 4 12 L
	0 -4 M 8 12 L 4 -4 M 10 8 L stroke}
>> matrix makepattern
/Pat7 exch def
<< Tile8x8
 /PaintProc {0.5 setlinewidth pop 8 -2 M -4 4 L
	12 0 M -4 8 L 12 4 M 0 10 L stroke}
>> matrix makepattern
/Pat8 exch def
<< Tile8x8
 /PaintProc {0.5 setlinewidth pop 0 -2 M 12 4 L
	-4 0 M 12 8 L -4 4 M 8 10 L stroke}
>> matrix makepattern
/Pat9 exch def
/Pattern1 {PatternBgnd KeepColor Pat1 setpattern} bind def
/Pattern2 {PatternBgnd KeepColor Pat2 setpattern} bind def
/Pattern3 {PatternBgnd KeepColor Pat3 setpattern} bind def
/Pattern4 {PatternBgnd KeepColor Landscape {Pat5} {Pat4} ifelse setpattern} bind def
/Pattern5 {PatternBgnd KeepColor Landscape {Pat4} {Pat5} ifelse setpattern} bind def
/Pattern6 {PatternBgnd KeepColor Landscape {Pat9} {Pat6} ifelse setpattern} bind def
/Pattern7 {PatternBgnd KeepColor Landscape {Pat8} {Pat7} ifelse setpattern} bind def
} def
%
%
%End of PostScript Level 2 code
%
/PatternBgnd {
  TransparentPatterns {} {gsave 1 setgray fill grestore} ifelse
} def
%
% Substitute for Level 2 pattern fill codes with
% grayscale if Level 2 support is not selected.
%
/Level1PatternFill {
/Pattern1 {0.250 Density} bind def
/Pattern2 {0.500 Density} bind def
/Pattern3 {0.750 Density} bind def
/Pattern4 {0.125 Density} bind def
/Pattern5 {0.375 Density} bind def
/Pattern6 {0.625 Density} bind def
/Pattern7 {0.875 Density} bind def
} def
%
% Now test for support of Level 2 code
%
Level1 {Level1PatternFill} {Level2PatternFill} ifelse
%
/Symbol-Oblique /Symbol findfont [1 0 .167 1 0 0] makefont
dup length dict begin {1 index /FID eq {pop pop} {def} ifelse} forall
currentdict end definefont pop
%
/MFshow {
   { dup 5 get 3 ge
     { 5 get 3 eq {gsave} {grestore} ifelse }
     {dup dup 0 get findfont exch 1 get scalefont setfont
     [ currentpoint ] exch dup 2 get 0 exch R dup 5 get 2 ne {dup dup 6
     get exch 4 get {textshow} {stringwidth pop 0 R} ifelse }if dup 5 get 0 eq
     {dup 3 get {2 get neg 0 exch R pop} {pop aload pop M} ifelse} {dup 5
     get 1 eq {dup 2 get exch dup 3 get exch 6 get stringwidth pop -2 div
     dup 0 R} {dup 6 get stringwidth pop -2 div 0 R 6 get
     textshow 2 index {aload pop M neg 3 -1 roll neg R pop pop} {pop pop pop
     pop aload pop M} ifelse }ifelse }ifelse }
     ifelse }
   forall} def
/Gswidth {dup type /stringtype eq {stringwidth} {pop (n) stringwidth} ifelse} def
/MFwidth {0 exch { dup 5 get 3 ge { 5 get 3 eq { 0 } { pop } ifelse }
 {dup 3 get{dup dup 0 get findfont exch 1 get scalefont setfont
     6 get Gswidth pop add} {pop} ifelse} ifelse} forall} def
/MLshow { currentpoint stroke M
  0 exch R
  Blacktext {gsave 0 setgray MFshow grestore} {MFshow} ifelse } bind def
/MRshow { currentpoint stroke M
  exch dup MFwidth neg 3 -1 roll R
  Blacktext {gsave 0 setgray MFshow grestore} {MFshow} ifelse } bind def
/MCshow { currentpoint stroke M
  exch dup MFwidth -2 div 3 -1 roll R
  Blacktext {gsave 0 setgray MFshow grestore} {MFshow} ifelse } bind def
/XYsave    { [( ) 1 2 true false 3 ()] } bind def
/XYrestore { [( ) 1 2 true false 4 ()] } bind def
Level1 SuppressPDFMark or 
{} {
/SDict 10 dict def
systemdict /pdfmark known not {
  userdict /pdfmark systemdict /cleartomark get put
} if
SDict begin [
  /Title (image.eps)
  /Subject (gnuplot plot)
  /Creator (gnuplot 5.0 patchlevel 3)
  /Author (bad)
%  /Producer (gnuplot)
%  /Keywords ()
  /CreationDate (Mon Feb  5 14:56:37 2018)
  /DOCINFO pdfmark
end
} ifelse
%
% Support for boxed text - Ethan A Merritt May 2005
%
/InitTextBox { userdict /TBy2 3 -1 roll put userdict /TBx2 3 -1 roll put
           userdict /TBy1 3 -1 roll put userdict /TBx1 3 -1 roll put
	   /Boxing true def } def
/ExtendTextBox { Boxing
    { gsave dup false charpath pathbbox
      dup TBy2 gt {userdict /TBy2 3 -1 roll put} {pop} ifelse
      dup TBx2 gt {userdict /TBx2 3 -1 roll put} {pop} ifelse
      dup TBy1 lt {userdict /TBy1 3 -1 roll put} {pop} ifelse
      dup TBx1 lt {userdict /TBx1 3 -1 roll put} {pop} ifelse
      grestore } if } def
/PopTextBox { newpath TBx1 TBxmargin sub TBy1 TBymargin sub M
               TBx1 TBxmargin sub TBy2 TBymargin add L
	       TBx2 TBxmargin add TBy2 TBymargin add L
	       TBx2 TBxmargin add TBy1 TBymargin sub L closepath } def
/DrawTextBox { PopTextBox stroke /Boxing false def} def
/FillTextBox { gsave PopTextBox 1 1 1 setrgbcolor fill grestore /Boxing false def} def
0 0 0 0 InitTextBox
/TBxmargin 20 def
/TBymargin 20 def
/Boxing false def
/textshow { ExtendTextBox Gshow } def
%
% redundant definitions for compatibility with prologue.ps older than 5.0.2
/LTB {BL [] LCb DL} def
/LTb {PL [] LCb DL} def
end
%%EndProlog
%%Page: 1 1
gnudict begin
gsave
doclip
50 50 translate
0.100 0.100 scale
90 rotate
0 -5040 translate
0 setgray
newpath
(Times-Roman) findfont 240 scalefont setfont
BackgroundColor 0 lt 3 1 roll 0 lt exch 0 lt or or not {gsave BackgroundColor C clippath fill grestore} if
1.000 UL
LTb
LCb setrgbcolor
936 2916 M
31 0 V
1480 0 R
-31 0 V
936 2984 M
31 0 V
1480 0 R
-31 0 V
936 3053 M
31 0 V
1480 0 R
-31 0 V
936 3121 M
63 0 V
1448 0 R
-63 0 V
stroke
907 3121 M
[ [(Times-Roman) 200.0 0.0 true true 0 ( 1)]
] -66.7 MRshow
1.000 UL
LTb
LCb setrgbcolor
936 3189 M
31 0 V
1480 0 R
-31 0 V
936 3258 M
31 0 V
1480 0 R
-31 0 V
936 3326 M
31 0 V
1480 0 R
-31 0 V
936 3394 M
31 0 V
1480 0 R
-31 0 V
936 3463 M
63 0 V
1448 0 R
-63 0 V
stroke
907 3463 M
[ [(Times-Roman) 200.0 0.0 true true 0 ( 1.2)]
] -66.7 MRshow
1.000 UL
LTb
LCb setrgbcolor
936 3531 M
31 0 V
1480 0 R
-31 0 V
936 3599 M
31 0 V
1480 0 R
-31 0 V
936 3668 M
31 0 V
1480 0 R
-31 0 V
936 3736 M
31 0 V
1480 0 R
-31 0 V
936 3804 M
63 0 V
1448 0 R
-63 0 V
stroke
907 3804 M
[ [(Times-Roman) 200.0 0.0 true true 0 ( 1.4)]
] -66.7 MRshow
1.000 UL
LTb
LCb setrgbcolor
936 3873 M
31 0 V
1480 0 R
-31 0 V
936 3941 M
31 0 V
1480 0 R
-31 0 V
936 4009 M
31 0 V
1480 0 R
-31 0 V
936 4078 M
31 0 V
1480 0 R
-31 0 V
936 4146 M
63 0 V
1448 0 R
-63 0 V
stroke
907 4146 M
[ [(Times-Roman) 200.0 0.0 true true 0 ( 1.6)]
] -66.7 MRshow
1.000 UL
LTb
LCb setrgbcolor
1029 2899 M
0 31 V
0 1216 R
0 -31 V
1152 2899 M
0 31 V
0 1216 R
0 -31 V
1275 2899 M
0 31 V
0 1216 R
0 -31 V
1399 2899 M
0 31 V
0 1216 R
0 -31 V
1522 2899 M
0 63 V
0 1184 R
0 -63 V
stroke
1522 2779 M
[ [(Times-Roman) 10.0 0.0 true true 0 ( 0.1)]
] -3.3 MCshow
1.000 UL
LTb
LCb setrgbcolor
1645 2899 M
0 31 V
0 1216 R
0 -31 V
1769 2899 M
0 31 V
0 1216 R
0 -31 V
1892 2899 M
0 31 V
0 1216 R
0 -31 V
2015 2899 M
0 31 V
0 1216 R
0 -31 V
2139 2899 M
0 63 V
0 1184 R
0 -63 V
stroke
2139 2779 M
[ [(Times-Roman) 10.0 0.0 true true 0 ( 0.2)]
] -3.3 MCshow
1.000 UL
LTb
LCb setrgbcolor
2262 2899 M
0 31 V
0 1216 R
0 -31 V
2385 2899 M
0 31 V
0 1216 R
0 -31 V
stroke
LTB
LCb setrgbcolor
936 4146 N
0 -1247 V
1511 0 V
0 1247 V
-1511 0 V
Z stroke
1.000 UP
LCb setrgbcolor
1522 3429 M
[ [(Times-Roman) 180.0 0.0 true true 0 (Rside)]
] -60.0 MLshow
1.000 UL
LTb
LCb setrgbcolor
LCb setrgbcolor
528 3522 M
currentpoint gsave translate -270 rotate 0 0 moveto
[ [(Times-Roman) 220.0 0.0 true true 0 (C\(q\))]
] -73.3 MCshow
grestore
LTb
% Begin plot #1
1.000 UP
2.000 UL
LTb
0.34 0.71 0.91 C LCb setrgbcolor
1827 3876 M
[ [(Times-Roman) 130.0 0.0 true true 0 (CorrFunc)]
] -43.3 MRshow
1.000 UP
2.000 UL
LTb
0.34 0.71 0.91 C 1905 3876 M
156 0 V
-156 31 R
0 -62 V
156 62 R
0 -62 V
951 3767 M
0 249 V
936 3767 M
46 0 V
-46 249 R
46 0 V
0 -451 R
0 209 V
951 3565 M
62 0 V
-62 209 R
62 0 V
0 -78 R
0 196 V
982 3696 M
62 0 V
-62 196 R
62 0 V
0 -320 R
0 171 V
-31 -171 R
62 0 V
-62 171 R
62 0 V
0 -173 R
0 161 V
-31 -161 R
62 0 V
-62 161 R
62 0 V
0 -281 R
0 145 V
-31 -145 R
62 0 V
-62 145 R
62 0 V
-1 55 R
0 155 V
-31 -155 R
62 0 V
-62 155 R
62 0 V
0 -295 R
0 145 V
-31 -145 R
62 0 V
-62 145 R
62 0 V
0 -295 R
0 137 V
-31 -137 R
62 0 V
-62 137 R
62 0 V
0 -45 R
0 141 V
-31 -141 R
62 0 V
-62 141 R
62 0 V
0 -271 R
0 135 V
-31 -135 R
62 0 V
-62 135 R
62 0 V
0 -21 R
0 142 V
-31 -142 R
62 0 V
-62 142 R
62 0 V
-1 -339 R
0 133 V
-31 -133 R
62 0 V
-62 133 R
62 0 V
0 -28 R
0 138 V
-31 -138 R
62 0 V
-62 138 R
62 0 V
0 -246 R
0 132 V
-31 -132 R
62 0 V
-62 132 R
62 0 V
0 -154 R
0 132 V
-31 -132 R
62 0 V
-62 132 R
62 0 V
0 -142 R
0 131 V
-31 -131 R
62 0 V
stroke 1476 3204 M
-62 131 R
62 0 V
0 -225 R
0 128 V
-31 -128 R
62 0 V
-62 128 R
62 0 V
-1 -211 R
0 122 V
-31 -122 R
62 0 V
-62 122 R
62 0 V
0 -132 R
0 121 V
-31 -121 R
62 0 V
-62 121 R
62 0 V
0 34 R
0 130 V
-31 -130 R
62 0 V
-62 130 R
62 0 V
0 -183 R
0 130 V
-31 -130 R
62 0 V
-62 130 R
62 0 V
0 -281 R
0 120 V
-31 -120 R
62 0 V
-62 120 R
62 0 V
0 36 R
0 127 V
-31 -127 R
62 0 V
-62 127 R
62 0 V
0 -264 R
0 123 V
-31 -123 R
62 0 V
-62 123 R
62 0 V
-1 -59 R
0 125 V
-31 -125 R
62 0 V
-62 125 R
62 0 V
0 -91 R
0 130 V
-31 -130 R
62 0 V
-62 130 R
62 0 V
0 -73 R
0 133 V
-31 -133 R
62 0 V
-62 133 R
62 0 V
0 -357 R
0 120 V
-31 -120 R
62 0 V
-62 120 R
62 0 V
0 -115 R
0 123 V
-31 -123 R
62 0 V
-62 123 R
62 0 V
0 -22 R
0 127 V
-31 -127 R
62 0 V
-62 127 R
62 0 V
-1 -105 R
0 129 V
-31 -129 R
62 0 V
-62 129 R
62 0 V
0 -227 R
0 123 V
-31 -123 R
62 0 V
-62 123 R
62 0 V
0 -70 R
0 128 V
-31 -128 R
62 0 V
-62 128 R
62 0 V
stroke 2000 3129 M
0 -80 R
0 133 V
-31 -133 R
62 0 V
-62 133 R
62 0 V
0 -209 R
0 127 V
-31 -127 R
62 0 V
-62 127 R
62 0 V
0 25 R
0 136 V
-31 -136 R
62 0 V
-62 136 R
62 0 V
-1 -272 R
0 130 V
-31 -130 R
62 0 V
-62 130 R
62 0 V
0 -93 R
0 133 V
-31 -133 R
62 0 V
-62 133 R
62 0 V
0 -82 R
0 136 V
-31 -136 R
62 0 V
-62 136 R
62 0 V
0 -245 R
0 132 V
-31 -132 R
62 0 V
-62 132 R
62 0 V
0 -48 R
0 138 V
-31 -138 R
62 0 V
-62 138 R
62 0 V
0 -37 R
0 144 V
-31 -144 R
62 0 V
-62 144 R
62 0 V
-1 -235 R
0 142 V
-31 -142 R
62 0 V
-62 142 R
62 0 V
0 -215 R
0 134 V
-31 -134 R
62 0 V
-62 134 R
62 0 V
0 -133 R
0 136 V
-31 -136 R
62 0 V
-62 136 R
62 0 V
0 52 R
0 149 V
-31 -149 R
62 0 V
-62 149 R
62 0 V
0 -364 R
0 140 V
-31 -140 R
62 0 V
-62 140 R
62 0 V
0 -19 R
0 145 V
-31 -145 R
46 0 V
-46 145 R
46 0 V
951 3891 TriU
982 3669 TriU
1013 3794 TriU
1044 3657 TriU
1075 3651 TriU
1106 3523 TriU
1136 3727 TriU
1167 3582 TriU
1198 3429 TriU
1229 3523 TriU
1260 3389 TriU
1291 3507 TriU
1321 3306 TriU
1352 3413 TriU
1383 3302 TriU
1414 3280 TriU
1445 3270 TriU
1476 3174 TriU
1506 3088 TriU
1537 3077 TriU
1568 3237 TriU
1599 3184 TriU
1630 3028 TriU
1661 3188 TriU
1692 3048 TriU
1722 3113 TriU
1753 3150 TriU
1784 3208 TriU
1815 2978 TriU
1846 2984 TriU
1877 3088 TriU
1907 3110 TriU
1938 3009 TriU
1969 3065 TriU
2000 3115 TriU
2031 3037 TriU
2062 3193 TriU
2092 3054 TriU
2123 3093 TriU
2154 3145 TriU
2185 3034 TriU
2216 3121 TriU
2247 3225 TriU
2277 3133 TriU
2308 3056 TriU
2339 3058 TriU
2370 3253 TriU
2401 3033 TriU
2432 3157 TriU
1983 3876 TriU
% End plot #1
% Begin plot #2
2.400 UL
LTb
0.58 0.00 0.83 C LCb setrgbcolor
1827 3746 M
[ [(Times-Roman) 130.0 0.0 true true 0 (3DFit)]
] -43.3 MRshow
2.400 UL
LTb
0.58 0.00 0.83 C 1905 3746 M
156 0 V
936 3797 M
15 -5 V
31 -17 V
31 -24 V
31 -30 V
31 -35 V
31 -41 V
30 -42 V
31 -45 V
31 -46 V
31 -44 V
31 -43 V
31 -41 V
30 -37 V
31 -35 V
31 -29 V
31 -27 V
31 -24 V
31 -19 V
30 -17 V
31 -12 V
31 -12 V
31 -8 V
31 -7 V
31 -5 V
31 -4 V
30 -3 V
31 -2 V
31 -1 V
31 -2 V
31 -2 V
31 0 V
30 0 V
31 0 V
31 -2 V
31 0 V
31 0 V
31 0 V
30 0 V
31 0 V
31 0 V
31 0 V
31 0 V
31 0 V
30 0 V
31 0 V
31 0 V
31 0 V
31 0 V
31 0 V
15 0 V
% End plot #2
stroke
2.000 UL
LTb
LCb setrgbcolor
1.000 UL
LTB
LCb setrgbcolor
936 4146 N
0 -1247 V
1511 0 V
0 1247 V
-1511 0 V
Z stroke
1.000 UP
1.000 UL
LTb
LCb setrgbcolor
1.000 UL
LTb
LCb setrgbcolor
2448 2916 M
31 0 V
1480 0 R
-31 0 V
-1480 68 R
31 0 V
1480 0 R
-31 0 V
-1480 69 R
31 0 V
1480 0 R
-31 0 V
-1480 68 R
63 0 V
1448 0 R
-63 0 V
stroke
2419 3121 M
[ [(Times-Roman) 10.0 0.0 true true 0 ( 1)]
] -3.3 MRshow
1.000 UL
LTb
LCb setrgbcolor
2448 3189 M
31 0 V
1480 0 R
-31 0 V
-1480 69 R
31 0 V
1480 0 R
-31 0 V
-1480 68 R
31 0 V
1480 0 R
-31 0 V
-1480 68 R
31 0 V
1480 0 R
-31 0 V
-1480 69 R
63 0 V
1448 0 R
-63 0 V
stroke
2419 3463 M
[ [(Times-Roman) 10.0 0.0 true true 0 ( 1.2)]
] -3.3 MRshow
1.000 UL
LTb
LCb setrgbcolor
2448 3531 M
31 0 V
1480 0 R
-31 0 V
-1480 68 R
31 0 V
1480 0 R
-31 0 V
-1480 69 R
31 0 V
1480 0 R
-31 0 V
-1480 68 R
31 0 V
1480 0 R
-31 0 V
-1480 68 R
63 0 V
1448 0 R
-63 0 V
stroke
2419 3804 M
[ [(Times-Roman) 10.0 0.0 true true 0 ( 1.4)]
] -3.3 MRshow
1.000 UL
LTb
LCb setrgbcolor
2448 3873 M
31 0 V
1480 0 R
-31 0 V
-1480 68 R
31 0 V
1480 0 R
-31 0 V
-1480 68 R
31 0 V
1480 0 R
-31 0 V
-1480 69 R
31 0 V
1480 0 R
-31 0 V
-1480 68 R
63 0 V
1448 0 R
-63 0 V
stroke
2419 4146 M
[ [(Times-Roman) 10.0 0.0 true true 0 ( 1.6)]
] -3.3 MRshow
1.000 UL
LTb
LCb setrgbcolor
2541 2899 M
0 31 V
0 1216 R
0 -31 V
2664 2899 M
0 31 V
0 1216 R
0 -31 V
2787 2899 M
0 31 V
0 1216 R
0 -31 V
2911 2899 M
0 31 V
0 1216 R
0 -31 V
3034 2899 M
0 63 V
0 1184 R
0 -63 V
stroke
3034 2779 M
[ [(Times-Roman) 10.0 0.0 true true 0 ( 0.1)]
] -3.3 MCshow
1.000 UL
LTb
LCb setrgbcolor
3157 2899 M
0 31 V
0 1216 R
0 -31 V
3281 2899 M
0 31 V
0 1216 R
0 -31 V
3404 2899 M
0 31 V
0 1216 R
0 -31 V
3527 2899 M
0 31 V
0 1216 R
0 -31 V
3651 2899 M
0 63 V
0 1184 R
0 -63 V
stroke
3651 2779 M
[ [(Times-Roman) 10.0 0.0 true true 0 ( 0.2)]
] -3.3 MCshow
1.000 UL
LTb
LCb setrgbcolor
3774 2899 M
0 31 V
0 1216 R
0 -31 V
3897 2899 M
0 31 V
0 1216 R
0 -31 V
stroke
LTB
LCb setrgbcolor
2448 4146 N
0 -1247 V
1511 0 V
0 1247 V
-1511 0 V
Z stroke
1.000 UP
LCb setrgbcolor
3034 3429 M
[ [(Times-Roman) 180.0 0.0 true true 0 (Rside)]
] -60.0 MLshow
1.000 UL
LTb
LCb setrgbcolor
LCb setrgbcolor
2040 3522 M
currentpoint gsave translate -270 rotate 0 0 moveto
[ [(Times-Roman) 10.0 0.0 true true 0 (C\(q\))]
] -3.3 MCshow
grestore
LTb
% Begin plot #1
1.000 UP
2.000 UL
LTb
0.34 0.71 0.91 C LCb setrgbcolor
10739 -7165 M
[ [(Times-Roman) 130.0 0.0 true true 0 (CorrFunc)]
] -43.3 MRshow
1.000 UP
2.000 UL
LTb
0.34 0.71 0.91 C 10817 -7165 M
156 0 V
-156 31 R
0 -62 V
156 62 R
0 -62 V
2463 3521 M
0 331 V
-15 -331 R
46 0 V
-46 331 R
46 0 V
0 -348 R
0 290 V
-31 -290 R
62 0 V
-62 290 R
62 0 V
0 -275 R
0 260 V
-31 -260 R
62 0 V
-62 260 R
62 0 V
0 46 R
0 256 V
-31 -256 R
62 0 V
-62 256 R
62 0 V
0 -521 R
0 219 V
-31 -219 R
62 0 V
-62 219 R
62 0 V
0 -171 R
0 212 V
-31 -212 R
62 0 V
-62 212 R
62 0 V
-1 -148 R
0 217 V
-31 -217 R
62 0 V
-62 217 R
62 0 V
0 -321 R
0 210 V
-31 -210 R
62 0 V
-62 210 R
62 0 V
0 -290 R
0 202 V
-31 -202 R
62 0 V
-62 202 R
62 0 V
0 -219 R
0 209 V
-31 -209 R
62 0 V
-62 209 R
62 0 V
0 -114 R
0 214 V
-31 -214 R
62 0 V
-62 214 R
62 0 V
0 -315 R
0 204 V
-31 -204 R
62 0 V
-62 204 R
62 0 V
-1 -261 R
0 201 V
-31 -201 R
62 0 V
-62 201 R
62 0 V
0 -402 R
0 187 V
-31 -187 R
62 0 V
-62 187 R
62 0 V
0 -128 R
0 192 V
-31 -192 R
62 0 V
-62 192 R
62 0 V
0 -230 R
0 186 V
-31 -186 R
62 0 V
-62 186 R
62 0 V
0 -198 R
0 192 V
-31 -192 R
62 0 V
stroke 2988 3216 M
-62 192 R
62 0 V
0 -228 R
0 190 V
-31 -190 R
62 0 V
-62 190 R
62 0 V
-1 -187 R
0 190 V
-31 -190 R
62 0 V
-62 190 R
62 0 V
0 -285 R
0 185 V
-31 -185 R
62 0 V
-62 185 R
62 0 V
0 -101 R
0 188 V
-31 -188 R
62 0 V
-62 188 R
62 0 V
0 -300 R
0 183 V
-31 -183 R
62 0 V
-62 183 R
62 0 V
0 -71 R
0 192 V
-31 -192 R
62 0 V
-62 192 R
62 0 V
0 -138 R
0 194 V
-31 -194 R
62 0 V
-62 194 R
62 0 V
0 -248 R
0 195 V
-31 -195 R
62 0 V
-62 195 R
62 0 V
-1 -399 R
0 178 V
-31 -178 R
62 0 V
-62 178 R
62 0 V
0 -63 R
0 189 V
-31 -189 R
62 0 V
-62 189 R
62 0 V
0 -146 R
0 192 V
-31 -192 R
62 0 V
-62 192 R
62 0 V
0 -307 R
0 182 V
-31 -182 R
62 0 V
-62 182 R
62 0 V
0 -208 R
0 180 V
-31 -180 R
62 0 V
-62 180 R
62 0 V
0 -69 R
0 193 V
-31 -193 R
62 0 V
-62 193 R
62 0 V
-1 -203 R
0 193 V
-31 -193 R
62 0 V
-62 193 R
62 0 V
0 -192 R
0 195 V
-31 -195 R
62 0 V
-62 195 R
62 0 V
0 -266 R
0 186 V
-31 -186 R
62 0 V
-62 186 R
62 0 V
stroke 3512 3202 M
0 -168 R
0 191 V
-31 -191 R
62 0 V
-62 191 R
62 0 V
0 -154 R
0 196 V
-31 -196 R
62 0 V
-62 196 R
62 0 V
0 -219 R
0 194 V
-31 -194 R
62 0 V
-62 194 R
62 0 V
-1 -253 R
0 189 V
-31 -189 R
62 0 V
-62 189 R
62 0 V
0 -243 R
0 182 V
-31 -182 R
62 0 V
-62 182 R
62 0 V
0 -191 R
0 186 V
-31 -186 R
62 0 V
-62 186 R
62 0 V
0 -28 R
0 201 V
-31 -201 R
62 0 V
-62 201 R
62 0 V
0 -45 R
0 216 V
-31 -216 R
62 0 V
-62 216 R
62 0 V
0 -356 R
0 206 V
-31 -206 R
62 0 V
-62 206 R
62 0 V
-1 -394 R
0 192 V
-31 -192 R
62 0 V
-62 192 R
62 0 V
0 36 R
0 215 V
-31 -215 R
62 0 V
-62 215 R
62 0 V
0 -272 R
0 209 V
-31 -209 R
62 0 V
-62 209 R
62 0 V
0 -215 R
0 208 V
-31 -208 R
62 0 V
-62 208 R
62 0 V
0 -170 R
0 210 V
-31 -210 R
62 0 V
-62 210 R
62 0 V
0 -148 R
0 220 V
-31 -220 R
46 0 V
-46 220 R
46 0 V
2463 3686 TriU
2494 3649 TriU
2525 3649 TriU
2556 3953 TriU
2587 3669 TriU
2618 3714 TriU
2648 3780 TriU
2679 3673 TriU
2710 3589 TriU
2741 3575 TriU
2772 3673 TriU
2803 3567 TriU
2833 3509 TriU
2864 3300 TriU
2895 3362 TriU
2926 3321 TriU
2957 3312 TriU
2988 3275 TriU
3018 3278 TriU
3049 3181 TriU
3080 3266 TriU
3111 3152 TriU
3142 3268 TriU
3173 3323 TriU
3204 3270 TriU
3234 3057 TriU
3265 3177 TriU
3296 3222 TriU
3327 3102 TriU
3358 3075 TriU
3389 3193 TriU
3419 3183 TriU
3450 3184 TriU
3481 3109 TriU
3512 3130 TriU
3543 3169 TriU
3574 3145 TriU
3604 3084 TriU
3635 3026 TriU
3666 3019 TriU
3697 3184 TriU
3728 3348 TriU
3759 3203 TriU
3789 3008 TriU
3820 3247 TriU
3851 3188 TriU
3882 3181 TriU
3913 3220 TriU
3944 3287 TriU
10895 -7165 TriU
% End plot #1
% Begin plot #2
2.400 UL
LTb
0.58 0.00 0.83 C LCb setrgbcolor
10739 -7243 M
[ [(Times-Roman) 130.0 0.0 true true 0 (3DFit)]
] -43.3 MRshow
2.400 UL
LTb
0.58 0.00 0.83 C 10817 -7243 M
156 0 V
2448 3899 M
15 -4 V
31 -15 V
31 -23 V
31 -29 V
31 -36 V
31 -39 V
30 -43 V
31 -44 V
31 -48 V
31 -46 V
31 -46 V
31 -46 V
30 -43 V
31 -39 V
31 -36 V
31 -34 V
31 -29 V
31 -28 V
30 -22 V
31 -20 V
31 -16 V
31 -13 V
31 -12 V
31 -11 V
31 -6 V
30 -7 V
31 -4 V
31 -3 V
31 -3 V
31 -2 V
31 -2 V
30 -2 V
31 -1 V
31 0 V
31 0 V
31 0 V
31 0 V
30 -2 V
31 0 V
31 0 V
31 0 V
31 0 V
31 0 V
30 0 V
31 0 V
31 0 V
31 0 V
31 0 V
31 0 V
15 0 V
% End plot #2
stroke
2.000 UL
LTb
LCb setrgbcolor
1.000 UL
LTB
LCb setrgbcolor
2448 4146 N
0 -1247 V
1511 0 V
0 1247 V
-1511 0 V
Z stroke
1.000 UP
1.000 UL
LTb
LCb setrgbcolor
1.000 UL
LTb
LCb setrgbcolor
3960 2916 M
31 0 V
1480 0 R
-31 0 V
-1480 68 R
31 0 V
1480 0 R
-31 0 V
-1480 69 R
31 0 V
1480 0 R
-31 0 V
-1480 68 R
63 0 V
1448 0 R
-63 0 V
stroke
3931 3121 M
[ [(Times-Roman) 10.0 0.0 true true 0 ( 1)]
] -3.3 MRshow
1.000 UL
LTb
LCb setrgbcolor
3960 3189 M
31 0 V
1480 0 R
-31 0 V
-1480 69 R
31 0 V
1480 0 R
-31 0 V
-1480 68 R
31 0 V
1480 0 R
-31 0 V
-1480 68 R
31 0 V
1480 0 R
-31 0 V
-1480 69 R
63 0 V
1448 0 R
-63 0 V
stroke
3931 3463 M
[ [(Times-Roman) 10.0 0.0 true true 0 ( 1.2)]
] -3.3 MRshow
1.000 UL
LTb
LCb setrgbcolor
3960 3531 M
31 0 V
1480 0 R
-31 0 V
-1480 68 R
31 0 V
1480 0 R
-31 0 V
-1480 69 R
31 0 V
1480 0 R
-31 0 V
-1480 68 R
31 0 V
1480 0 R
-31 0 V
-1480 68 R
63 0 V
1448 0 R
-63 0 V
stroke
3931 3804 M
[ [(Times-Roman) 10.0 0.0 true true 0 ( 1.4)]
] -3.3 MRshow
1.000 UL
LTb
LCb setrgbcolor
3960 3873 M
31 0 V
1480 0 R
-31 0 V
-1480 68 R
31 0 V
1480 0 R
-31 0 V
-1480 68 R
31 0 V
1480 0 R
-31 0 V
-1480 69 R
31 0 V
1480 0 R
-31 0 V
-1480 68 R
63 0 V
1448 0 R
-63 0 V
stroke
3931 4146 M
[ [(Times-Roman) 10.0 0.0 true true 0 ( 1.6)]
] -3.3 MRshow
1.000 UL
LTb
LCb setrgbcolor
4053 2899 M
0 31 V
0 1216 R
0 -31 V
4176 2899 M
0 31 V
0 1216 R
0 -31 V
4299 2899 M
0 31 V
0 1216 R
0 -31 V
4423 2899 M
0 31 V
0 1216 R
0 -31 V
4546 2899 M
0 63 V
0 1184 R
0 -63 V
stroke
4546 2779 M
[ [(Times-Roman) 10.0 0.0 true true 0 ( 0.1)]
] -3.3 MCshow
1.000 UL
LTb
LCb setrgbcolor
4669 2899 M
0 31 V
0 1216 R
0 -31 V
4793 2899 M
0 31 V
0 1216 R
0 -31 V
4916 2899 M
0 31 V
0 1216 R
0 -31 V
5039 2899 M
0 31 V
0 1216 R
0 -31 V
5163 2899 M
0 63 V
0 1184 R
0 -63 V
stroke
5163 2779 M
[ [(Times-Roman) 10.0 0.0 true true 0 ( 0.2)]
] -3.3 MCshow
1.000 UL
LTb
LCb setrgbcolor
5286 2899 M
0 31 V
0 1216 R
0 -31 V
5409 2899 M
0 31 V
0 1216 R
0 -31 V
stroke
LTB
LCb setrgbcolor
3960 4146 N
0 -1247 V
1511 0 V
0 1247 V
-1511 0 V
Z stroke
1.000 UP
LCb setrgbcolor
4546 3429 M
[ [(Times-Roman) 180.0 0.0 true true 0 (Rside)]
] -60.0 MLshow
1.000 UL
LTb
LCb setrgbcolor
LCb setrgbcolor
3552 3522 M
currentpoint gsave translate -270 rotate 0 0 moveto
[ [(Times-Roman) 10.0 0.0 true true 0 (C\(q\))]
] -3.3 MCshow
grestore
LTb
% Begin plot #1
1.000 UP
2.000 UL
LTb
0.34 0.71 0.91 C LCb setrgbcolor
12251 -7158 M
[ [(Times-Roman) 130.0 0.0 true true 0 (CorrFunc)]
] -43.3 MRshow
1.000 UP
2.000 UL
LTb
0.34 0.71 0.91 C 12329 -7158 M
156 0 V
-156 31 R
0 -62 V
156 62 R
0 -62 V
3975 3825 M
0 321 V
-15 -321 R
46 0 V
31 -382 R
0 374 V
-31 -374 R
62 0 V
-62 374 R
62 0 V
0 104 R
0 225 V
-31 -225 R
62 0 V
0 -287 R
0 313 V
-31 -313 R
62 0 V
-62 313 R
62 0 V
0 -403 R
0 305 V
-31 -305 R
62 0 V
-62 305 R
62 0 V
-1 -222 R
0 300 V
-31 -300 R
62 0 V
-62 300 R
62 0 V
0 -507 R
0 281 V
-31 -281 R
62 0 V
-62 281 R
62 0 V
0 -247 R
0 284 V
-31 -284 R
62 0 V
-62 284 R
62 0 V
0 -411 R
0 275 V
-31 -275 R
62 0 V
-62 275 R
62 0 V
0 -185 R
0 280 V
-31 -280 R
62 0 V
-62 280 R
62 0 V
0 -372 R
0 279 V
-31 -279 R
62 0 V
-62 279 R
62 0 V
-1 -314 R
0 277 V
-31 -277 R
62 0 V
-62 277 R
62 0 V
0 -267 R
0 278 V
-31 -278 R
62 0 V
-62 278 R
62 0 V
0 -296 R
0 279 V
-31 -279 R
62 0 V
-62 279 R
62 0 V
0 -358 R
0 270 V
-31 -270 R
62 0 V
-62 270 R
62 0 V
0 -368 R
0 265 V
-31 -265 R
62 0 V
-62 265 R
62 0 V
0 -220 R
0 263 V
-31 -263 R
62 0 V
-62 263 R
62 0 V
-1 -252 R
0 272 V
stroke 4530 3433 M
-31 -272 R
62 0 V
-62 272 R
62 0 V
0 -365 R
0 260 V
-31 -260 R
62 0 V
-62 260 R
62 0 V
0 -110 R
0 281 V
-31 -281 R
62 0 V
-62 281 R
62 0 V
0 -554 R
0 248 V
-31 -248 R
62 0 V
-62 248 R
62 0 V
0 -140 R
0 270 V
-31 -270 R
62 0 V
-62 270 R
62 0 V
0 -424 R
0 199 V
-31 0 R
62 0 V
0 -57 R
0 269 V
-31 -269 R
62 0 V
-62 269 R
62 0 V
-1 -321 R
0 255 V
-31 -255 R
62 0 V
-62 255 R
62 0 V
0 -94 R
0 284 V
-31 -284 R
62 0 V
-62 284 R
62 0 V
0 -535 R
0 248 V
-31 0 R
62 0 V
0 -107 R
0 271 V
-31 -271 R
62 0 V
-62 271 R
62 0 V
0 -332 R
0 259 V
-31 -259 R
62 0 V
-62 259 R
62 0 V
0 -303 R
0 264 V
-31 -264 R
62 0 V
-62 264 R
62 0 V
-1 -236 R
0 254 V
-31 -254 R
62 0 V
-62 254 R
62 0 V
0 -31 R
0 294 V
-31 -294 R
62 0 V
-62 294 R
62 0 V
0 -581 R
0 216 V
-31 0 R
62 0 V
0 -106 R
0 262 V
-31 -262 R
62 0 V
-62 262 R
62 0 V
0 -64 R
0 300 V
-31 -300 R
62 0 V
-62 300 R
62 0 V
0 -575 R
0 261 V
-31 -261 R
62 0 V
stroke 5117 2932 M
-62 261 R
62 0 V
-1 -280 R
0 253 V
-31 -253 R
62 0 V
-62 253 R
62 0 V
0 -261 R
0 258 V
-31 -258 R
62 0 V
-62 258 R
62 0 V
0 -264 R
0 240 V
-31 0 R
62 0 V
31 -102 R
0 281 V
-31 -281 R
62 0 V
-62 281 R
62 0 V
0 -340 R
0 276 V
-31 -276 R
62 0 V
-62 276 R
62 0 V
-1 29 R
0 321 V
-31 -321 R
62 0 V
-62 321 R
62 0 V
31 -489 R
0 296 V
-31 -296 R
62 0 V
-62 296 R
62 0 V
0 -512 R
0 157 V
-31 0 R
62 0 V
0 -157 R
0 168 V
-31 0 R
62 0 V
0 -131 R
0 279 V
-31 -279 R
46 0 V
-46 279 R
46 0 V
3975 4103 TriU
4037 3630 TriU
4068 4112 TriU
4099 3791 TriU
4130 3697 TriU
4160 3777 TriU
4191 3560 TriU
4222 3596 TriU
4253 3464 TriU
4284 3557 TriU
4315 3464 TriU
4345 3429 TriU
4376 3439 TriU
4407 3422 TriU
4438 3338 TriU
4469 3237 TriU
4500 3282 TriU
4530 3297 TriU
4561 3198 TriU
4592 3359 TriU
4623 3069 TriU
4654 3188 TriU
4685 2978 TriU
4716 3176 TriU
4746 3116 TriU
4777 3292 TriU
4808 3021 TriU
4839 3176 TriU
4870 3108 TriU
4901 3067 TriU
4931 3090 TriU
4962 3333 TriU
4993 2989 TriU
5024 3140 TriU
5055 3357 TriU
5086 3062 TriU
5116 3040 TriU
5147 3034 TriU
5178 3010 TriU
5240 3177 TriU
5271 3116 TriU
5301 3444 TriU
5363 3263 TriU
5394 2927 TriU
5425 2938 TriU
5456 3076 TriU
12407 -7158 TriU
% End plot #1
% Begin plot #2
2.400 UL
LTb
0.58 0.00 0.83 C LCb setrgbcolor
12251 -7223 M
[ [(Times-Roman) 130.0 0.0 true true 0 (3DFit)]
] -43.3 MRshow
2.400 UL
LTb
0.58 0.00 0.83 C 12329 -7223 M
156 0 V
3960 4005 M
15 -6 V
31 -20 V
31 -33 V
31 -41 V
31 -46 V
31 -53 V
30 -58 V
31 -58 V
31 -58 V
31 -58 V
31 -55 V
31 -51 V
30 -48 V
31 -41 V
31 -38 V
31 -32 V
31 -27 V
31 -24 V
30 -19 V
31 -15 V
31 -12 V
31 -9 V
31 -8 V
31 -6 V
31 -5 V
30 -1 V
31 -4 V
31 -2 V
31 0 V
31 -1 V
31 0 V
30 0 V
31 -2 V
31 0 V
31 0 V
31 0 V
31 0 V
30 0 V
31 0 V
31 0 V
31 0 V
31 0 V
31 0 V
30 0 V
31 0 V
31 0 V
31 0 V
31 0 V
31 0 V
15 0 V
% End plot #2
stroke
2.000 UL
LTb
LCb setrgbcolor
1.000 UL
LTB
LCb setrgbcolor
3960 4146 N
0 -1247 V
1511 0 V
0 1247 V
-1511 0 V
Z stroke
1.000 UP
1.000 UL
LTb
LCb setrgbcolor
1.000 UL
LTb
LCb setrgbcolor
5472 2916 M
31 0 V
1479 0 R
-31 0 V
-1479 68 R
31 0 V
1479 0 R
-31 0 V
-1479 69 R
31 0 V
1479 0 R
-31 0 V
-1479 68 R
63 0 V
1447 0 R
-63 0 V
stroke
5443 3121 M
[ [(Times-Roman) 10.0 0.0 true true 0 ( 1)]
] -3.3 MRshow
1.000 UL
LTb
LCb setrgbcolor
5472 3189 M
31 0 V
1479 0 R
-31 0 V
-1479 69 R
31 0 V
1479 0 R
-31 0 V
-1479 68 R
31 0 V
1479 0 R
-31 0 V
-1479 68 R
31 0 V
1479 0 R
-31 0 V
-1479 69 R
63 0 V
1447 0 R
-63 0 V
stroke
5443 3463 M
[ [(Times-Roman) 10.0 0.0 true true 0 ( 1.2)]
] -3.3 MRshow
1.000 UL
LTb
LCb setrgbcolor
5472 3531 M
31 0 V
1479 0 R
-31 0 V
-1479 68 R
31 0 V
1479 0 R
-31 0 V
-1479 69 R
31 0 V
1479 0 R
-31 0 V
-1479 68 R
31 0 V
1479 0 R
-31 0 V
-1479 68 R
63 0 V
1447 0 R
-63 0 V
stroke
5443 3804 M
[ [(Times-Roman) 10.0 0.0 true true 0 ( 1.4)]
] -3.3 MRshow
1.000 UL
LTb
LCb setrgbcolor
5472 3873 M
31 0 V
1479 0 R
-31 0 V
-1479 68 R
31 0 V
1479 0 R
-31 0 V
-1479 68 R
31 0 V
1479 0 R
-31 0 V
-1479 69 R
31 0 V
1479 0 R
-31 0 V
-1479 68 R
63 0 V
1447 0 R
-63 0 V
stroke
5443 4146 M
[ [(Times-Roman) 10.0 0.0 true true 0 ( 1.6)]
] -3.3 MRshow
1.000 UL
LTb
LCb setrgbcolor
5564 2899 M
0 31 V
0 1216 R
0 -31 V
5688 2899 M
0 31 V
0 1216 R
0 -31 V
5811 2899 M
0 31 V
0 1216 R
0 -31 V
5934 2899 M
0 31 V
0 1216 R
0 -31 V
6058 2899 M
0 63 V
0 1184 R
0 -63 V
stroke
6058 2779 M
[ [(Times-Roman) 10.0 0.0 true true 0 ( 0.1)]
] -3.3 MCshow
1.000 UL
LTb
LCb setrgbcolor
6181 2899 M
0 31 V
0 1216 R
0 -31 V
6304 2899 M
0 31 V
0 1216 R
0 -31 V
6427 2899 M
0 31 V
0 1216 R
0 -31 V
6551 2899 M
0 31 V
0 1216 R
0 -31 V
6674 2899 M
0 63 V
0 1184 R
0 -63 V
stroke
6674 2779 M
[ [(Times-Roman) 10.0 0.0 true true 0 ( 0.2)]
] -3.3 MCshow
1.000 UL
LTb
LCb setrgbcolor
6797 2899 M
0 31 V
0 1216 R
0 -31 V
6920 2899 M
0 31 V
0 1216 R
0 -31 V
stroke
LTB
LCb setrgbcolor
5472 4146 N
0 -1247 V
1510 0 V
0 1247 V
-1510 0 V
Z stroke
1.000 UP
LCb setrgbcolor
6058 3429 M
[ [(Times-Roman) 180.0 0.0 true true 0 (Rside)]
] -60.0 MLshow
1.000 UL
LTb
LCb setrgbcolor
LCb setrgbcolor
5064 3522 M
currentpoint gsave translate -270 rotate 0 0 moveto
[ [(Times-Roman) 10.0 0.0 true true 0 (C\(q\))]
] -3.3 MCshow
grestore
LTb
% Begin plot #1
1.000 UP
2.000 UL
LTb
0.34 0.71 0.91 C LCb setrgbcolor
13758 -7158 M
[ [(Times-Roman) 130.0 0.0 true true 0 (CorrFunc)]
] -43.3 MRshow
1.000 UP
2.000 UL
LTb
0.34 0.71 0.91 C 13836 -7158 M
156 0 V
-156 31 R
0 -62 V
156 62 R
0 -62 V
5487 3086 M
0 1060 V
5472 3086 M
46 0 V
31 296 R
0 764 V
-31 -764 R
62 0 V
0 -416 R
0 649 V
-31 -649 R
62 0 V
-62 649 R
62 0 V
0 -53 R
0 584 V
-31 -584 R
62 0 V
-1 243 R
0 341 V
-31 -341 R
62 0 V
0 -67 R
0 408 V
-31 -408 R
62 0 V
0 -220 R
0 467 V
-31 -467 R
62 0 V
-62 467 R
62 0 V
0 -441 R
0 459 V
-31 -459 R
62 0 V
-62 459 R
62 0 V
0 -328 R
0 471 V
-31 -471 R
62 0 V
0 -202 R
0 444 V
-31 -444 R
62 0 V
-62 444 R
62 0 V
-1 -330 R
0 476 V
-31 -476 R
62 0 V
-62 476 R
62 0 V
0 -1000 R
0 407 V
-31 -407 R
62 0 V
-62 407 R
62 0 V
0 -257 R
0 417 V
-31 -417 R
62 0 V
-62 417 R
62 0 V
0 -328 R
0 434 V
-31 -434 R
62 0 V
-62 434 R
62 0 V
0 -462 R
0 459 V
-31 -459 R
62 0 V
-62 459 R
62 0 V
-1 -503 R
0 432 V
-31 -432 R
62 0 V
-62 432 R
62 0 V
0 -590 R
0 412 V
-31 -412 R
62 0 V
-62 412 R
62 0 V
0 -176 R
0 453 V
-31 -453 R
62 0 V
-62 453 R
62 0 V
0 -734 R
0 403 V
-31 -403 R
62 0 V
stroke 6104 3027 M
-62 403 R
62 0 V
0 -303 R
0 412 V
-31 -412 R
62 0 V
-62 412 R
62 0 V
0 -283 R
0 458 V
-31 -458 R
62 0 V
-62 458 R
62 0 V
-1 -615 R
0 416 V
-31 -416 R
62 0 V
-62 416 R
62 0 V
0 -325 R
0 419 V
-31 -419 R
62 0 V
-62 419 R
62 0 V
0 -415 R
0 425 V
-31 -425 R
62 0 V
-62 425 R
62 0 V
0 -394 R
0 434 V
-31 -434 R
62 0 V
-62 434 R
62 0 V
0 -678 R
0 410 V
-31 -410 R
62 0 V
-62 410 R
62 0 V
-1 -492 R
0 325 V
-31 0 R
62 0 V
93 -325 R
0 300 V
-31 0 R
62 0 V
30 -300 R
0 223 V
-31 0 R
62 0 V
0 -223 R
0 351 V
-31 0 R
62 0 V
0 -51 R
0 442 V
-31 -442 R
62 0 V
-62 442 R
62 0 V
0 -688 R
0 405 V
-31 -405 R
62 0 V
-62 405 R
62 0 V
0 -324 R
0 438 V
-31 -438 R
62 0 V
-62 438 R
62 0 V
-1 -213 R
0 455 V
-31 -455 R
62 0 V
-62 455 R
62 0 V
0 -752 R
0 421 V
-31 -421 R
62 0 V
-62 421 R
62 0 V
0 -484 R
0 232 V
-31 0 R
62 0 V
0 -232 R
0 311 V
-31 0 R
62 0 V
0 -286 R
0 414 V
-31 -414 R
62 0 V
-62 414 R
62 0 V
stroke 6813 3338 M
0 -348 R
0 426 V
-31 -426 R
62 0 V
-62 426 R
62 0 V
30 -319 R
0 438 V
-31 -438 R
62 0 V
-62 438 R
62 0 V
0 -490 R
0 466 V
-31 -466 R
62 0 V
-62 466 R
62 0 V
31 -612 R
0 219 V
-31 0 R
46 0 V
5487 3630 TriU
5549 3888 TriU
5580 3290 TriU
5611 3890 TriU
5641 4100 TriU
5672 3999 TriU
5703 3751 TriU
5734 3774 TriU
5765 3921 TriU
5796 3695 TriU
5826 3825 TriU
5857 3266 TriU
5888 3422 TriU
5919 3519 TriU
5950 3504 TriU
5980 3446 TriU
6011 3278 TriU
6042 3534 TriU
6073 3229 TriU
6104 3333 TriU
6135 3485 TriU
6165 3307 TriU
6196 3400 TriU
6227 3406 TriU
6258 3442 TriU
6289 3186 TriU
6319 3033 TriU
6443 3006 TriU
6504 2934 TriU
6535 3048 TriU
6566 3420 TriU
6597 3155 TriU
6628 3253 TriU
6658 3487 TriU
6689 3172 TriU
6720 2935 TriU
6751 3019 TriU
6782 3131 TriU
6813 3203 TriU
6874 3316 TriU
6905 3278 TriU
6967 2927 TriU
13914 -7158 TriU
% End plot #1
% Begin plot #2
2.400 UL
LTb
0.58 0.00 0.83 C LCb setrgbcolor
13758 -7223 M
[ [(Times-Roman) 130.0 0.0 true true 0 (3DFit)]
] -43.3 MRshow
2.400 UL
LTb
0.58 0.00 0.83 C 13836 -7223 M
156 0 V
5472 3660 M
15 -1 V
31 -5 V
31 -7 V
31 -10 V
31 -10 V
30 -14 V
31 -14 V
31 -15 V
31 -15 V
31 -16 V
31 -15 V
30 -15 V
31 -16 V
31 -14 V
31 -11 V
31 -12 V
30 -11 V
31 -10 V
31 -8 V
31 -7 V
31 -7 V
31 -5 V
30 -5 V
31 -4 V
31 -3 V
31 -2 V
31 -2 V
30 -1 V
31 -2 V
31 -2 V
31 0 V
31 0 V
31 -1 V
30 0 V
31 0 V
31 0 V
31 0 V
31 0 V
30 0 V
31 0 V
31 0 V
31 0 V
31 0 V
31 0 V
30 0 V
31 0 V
31 0 V
31 0 V
31 0 V
15 0 V
% End plot #2
stroke
2.000 UL
LTb
LCb setrgbcolor
1.000 UL
LTB
LCb setrgbcolor
5472 4146 N
0 -1247 V
1510 0 V
0 1247 V
-1510 0 V
Z stroke
1.000 UP
1.000 UL
LTb
LCb setrgbcolor
1.000 UL
LTb
LCb setrgbcolor
936 1671 M
31 0 V
1480 0 R
-31 0 V
936 1739 M
31 0 V
1480 0 R
-31 0 V
936 1808 M
31 0 V
1480 0 R
-31 0 V
936 1876 M
63 0 V
1448 0 R
-63 0 V
stroke
907 1876 M
[ [(Times-Roman) 200.0 0.0 true true 0 ( 1)]
] -66.7 MRshow
1.000 UL
LTb
LCb setrgbcolor
936 1945 M
31 0 V
1480 0 R
-31 0 V
936 2013 M
31 0 V
1480 0 R
-31 0 V
936 2081 M
31 0 V
1480 0 R
-31 0 V
936 2150 M
31 0 V
1480 0 R
-31 0 V
936 2218 M
63 0 V
1448 0 R
-63 0 V
stroke
907 2218 M
[ [(Times-Roman) 200.0 0.0 true true 0 ( 1.2)]
] -66.7 MRshow
1.000 UL
LTb
LCb setrgbcolor
936 2287 M
31 0 V
1480 0 R
-31 0 V
936 2355 M
31 0 V
1480 0 R
-31 0 V
936 2423 M
31 0 V
1480 0 R
-31 0 V
936 2492 M
31 0 V
1480 0 R
-31 0 V
936 2560 M
63 0 V
1448 0 R
-63 0 V
stroke
907 2560 M
[ [(Times-Roman) 200.0 0.0 true true 0 ( 1.4)]
] -66.7 MRshow
1.000 UL
LTb
LCb setrgbcolor
936 2628 M
31 0 V
1480 0 R
-31 0 V
936 2697 M
31 0 V
1480 0 R
-31 0 V
936 2765 M
31 0 V
1480 0 R
-31 0 V
936 2834 M
31 0 V
1480 0 R
-31 0 V
936 2902 M
63 0 V
1448 0 R
-63 0 V
stroke
907 2902 M
[ [(Times-Roman) 200.0 0.0 true true 0 ( 1.6)]
] -66.7 MRshow
1.000 UL
LTb
LCb setrgbcolor
1029 1654 M
0 31 V
0 1217 R
0 -31 V
1152 1654 M
0 31 V
0 1217 R
0 -31 V
1275 1654 M
0 31 V
0 1217 R
0 -31 V
1399 1654 M
0 31 V
0 1217 R
0 -31 V
1522 1654 M
0 63 V
0 1185 R
0 -63 V
stroke
1522 1534 M
[ [(Times-Roman) 10.0 0.0 true true 0 ( 0.1)]
] -3.3 MCshow
1.000 UL
LTb
LCb setrgbcolor
1645 1654 M
0 31 V
0 1217 R
0 -31 V
1769 1654 M
0 31 V
0 1217 R
0 -31 V
1892 1654 M
0 31 V
0 1217 R
0 -31 V
2015 1654 M
0 31 V
0 1217 R
0 -31 V
2139 1654 M
0 63 V
0 1185 R
0 -63 V
stroke
2139 1534 M
[ [(Times-Roman) 10.0 0.0 true true 0 ( 0.2)]
] -3.3 MCshow
1.000 UL
LTb
LCb setrgbcolor
2262 1654 M
0 31 V
0 1217 R
0 -31 V
2385 1654 M
0 31 V
0 1217 R
0 -31 V
stroke
LTB
LCb setrgbcolor
936 2902 N
0 -1248 V
1511 0 V
0 1248 V
-1511 0 V
Z stroke
1.000 UP
LCb setrgbcolor
1522 2184 M
[ [(Times-Roman) 180.0 0.0 true true 0 (Rout)]
] -60.0 MLshow
1.000 UL
LTb
LCb setrgbcolor
LCb setrgbcolor
528 2278 M
currentpoint gsave translate -270 rotate 0 0 moveto
[ [(Times-Roman) 220.0 0.0 true true 0 (C\(q\))]
] -73.3 MCshow
grestore
LTb
% Begin plot #1
1.000 UP
2.000 UL
LTb
0.34 0.71 0.91 C LCb setrgbcolor
9227 -8411 M
[ [(Times-Roman) 130.0 0.0 true true 0 (CorrFunc)]
] -43.3 MRshow
1.000 UP
2.000 UL
LTb
0.34 0.71 0.91 C 9305 -8411 M
156 0 V
-156 31 R
0 -62 V
156 62 R
0 -62 V
951 2497 M
0 201 V
936 2497 M
46 0 V
-46 201 R
46 0 V
0 -282 R
0 195 V
951 2416 M
62 0 V
-62 195 R
62 0 V
0 -393 R
0 189 V
982 2218 M
62 0 V
-62 189 R
62 0 V
0 -107 R
0 202 V
-31 -202 R
62 0 V
-62 202 R
62 0 V
0 -245 R
0 196 V
-31 -196 R
62 0 V
-62 196 R
62 0 V
0 -223 R
0 195 V
-31 -195 R
62 0 V
-62 195 R
62 0 V
-1 -144 R
0 199 V
-31 -199 R
62 0 V
-62 199 R
62 0 V
0 -478 R
0 186 V
-31 -186 R
62 0 V
-62 186 R
62 0 V
0 -200 R
0 187 V
-31 -187 R
62 0 V
-62 187 R
62 0 V
0 -139 R
0 187 V
-31 -187 R
62 0 V
-62 187 R
62 0 V
0 -191 R
0 198 V
-31 -198 R
62 0 V
-62 198 R
62 0 V
0 -252 R
0 189 V
-31 -189 R
62 0 V
-62 189 R
62 0 V
-1 -288 R
0 189 V
-31 -189 R
62 0 V
-62 189 R
62 0 V
0 -300 R
0 183 V
-31 -183 R
62 0 V
-62 183 R
62 0 V
0 -94 R
0 189 V
-31 -189 R
62 0 V
-62 189 R
62 0 V
0 -303 R
0 187 V
-31 -187 R
62 0 V
-62 187 R
62 0 V
0 -128 R
0 193 V
-31 -193 R
62 0 V
stroke 1476 1802 M
-62 193 R
62 0 V
0 -279 R
0 197 V
-31 -197 R
62 0 V
-62 197 R
62 0 V
-1 -259 R
0 153 V
-31 0 R
62 0 V
31 -153 R
0 207 V
-31 -207 R
62 0 V
-62 207 R
62 0 V
0 -138 R
0 225 V
-31 -225 R
62 0 V
-62 225 R
62 0 V
0 -166 R
0 240 V
-31 -240 R
62 0 V
-62 240 R
62 0 V
0 -271 R
0 254 V
-31 -254 R
62 0 V
-62 254 R
62 0 V
0 -351 R
0 198 V
-31 0 R
62 0 V
-1 -198 R
0 195 V
-31 0 R
62 0 V
0 -195 R
0 264 V
-31 0 R
62 0 V
0 -264 R
0 261 V
-31 0 R
62 0 V
0 -215 R
0 370 V
-31 -370 R
62 0 V
-62 370 R
62 0 V
0 -159 R
0 447 V
-31 -447 R
62 0 V
-62 447 R
62 0 V
0 -704 R
0 340 V
-31 0 R
62 0 V
-1 -340 R
0 369 V
-31 0 R
62 0 V
0 -369 R
0 718 V
-31 0 R
62 0 V
0 -718 R
0 704 V
-31 0 R
62 0 V
951 2598 TriU
982 2514 TriU
1013 2312 TriU
1044 2401 TriU
1075 2355 TriU
1106 2328 TriU
1136 2381 TriU
1167 2095 TriU
1198 2081 TriU
1229 2129 TriU
1260 2131 TriU
1291 2073 TriU
1321 1974 TriU
1352 1860 TriU
1383 1951 TriU
1414 1837 TriU
1445 1898 TriU
1476 1814 TriU
1506 1712 TriU
1568 1757 TriU
1599 1836 TriU
1630 1902 TriU
1661 1878 TriU
1692 1725 TriU
1722 1715 TriU
1753 1773 TriU
1784 1757 TriU
1815 1885 TriU
1846 2134 TriU
1877 1771 TriU
1907 1757 TriU
1938 1992 TriU
1969 1779 TriU
9383 -8411 TriU
% End plot #1
% Begin plot #2
2.400 UL
LTb
0.58 0.00 0.83 C LCb setrgbcolor
9227 -8476 M
[ [(Times-Roman) 130.0 0.0 true true 0 (3DFit)]
] -43.3 MRshow
2.400 UL
LTb
0.58 0.00 0.83 C 9305 -8476 M
156 0 V
936 2581 M
15 -7 V
31 -29 V
31 -41 V
31 -52 V
31 -56 V
31 -62 V
30 -63 V
31 -60 V
31 -56 V
31 -51 V
31 -47 V
31 -37 V
30 -31 V
31 -26 V
31 -20 V
31 -15 V
31 -11 V
31 -8 V
30 -5 V
31 -4 V
31 -3 V
31 -2 V
31 -2 V
31 0 V
31 0 V
30 -1 V
31 0 V
31 0 V
31 0 V
31 0 V
31 0 V
30 0 V
31 0 V
31 0 V
% End plot #2
stroke
2.000 UL
LTb
LCb setrgbcolor
1.000 UL
LTB
LCb setrgbcolor
936 2902 N
0 -1248 V
1511 0 V
0 1248 V
-1511 0 V
Z stroke
1.000 UP
1.000 UL
LTb
LCb setrgbcolor
1.000 UL
LTb
LCb setrgbcolor
2448 1671 M
31 0 V
1480 0 R
-31 0 V
-1480 68 R
31 0 V
1480 0 R
-31 0 V
-1480 69 R
31 0 V
1480 0 R
-31 0 V
-1480 68 R
63 0 V
1448 0 R
-63 0 V
stroke
2419 1876 M
[ [(Times-Roman) 10.0 0.0 true true 0 ( 1)]
] -3.3 MRshow
1.000 UL
LTb
LCb setrgbcolor
2448 1945 M
31 0 V
1480 0 R
-31 0 V
-1480 68 R
31 0 V
1480 0 R
-31 0 V
-1480 68 R
31 0 V
1480 0 R
-31 0 V
-1480 69 R
31 0 V
1480 0 R
-31 0 V
-1480 68 R
63 0 V
1448 0 R
-63 0 V
stroke
2419 2218 M
[ [(Times-Roman) 10.0 0.0 true true 0 ( 1.2)]
] -3.3 MRshow
1.000 UL
LTb
LCb setrgbcolor
2448 2287 M
31 0 V
1480 0 R
-31 0 V
-1480 68 R
31 0 V
1480 0 R
-31 0 V
-1480 68 R
31 0 V
1480 0 R
-31 0 V
-1480 69 R
31 0 V
1480 0 R
-31 0 V
-1480 68 R
63 0 V
1448 0 R
-63 0 V
stroke
2419 2560 M
[ [(Times-Roman) 10.0 0.0 true true 0 ( 1.4)]
] -3.3 MRshow
1.000 UL
LTb
LCb setrgbcolor
2448 2628 M
31 0 V
1480 0 R
-31 0 V
-1480 69 R
31 0 V
1480 0 R
-31 0 V
-1480 68 R
31 0 V
1480 0 R
-31 0 V
-1480 69 R
31 0 V
1480 0 R
-31 0 V
-1480 68 R
63 0 V
1448 0 R
-63 0 V
stroke
2419 2902 M
[ [(Times-Roman) 10.0 0.0 true true 0 ( 1.6)]
] -3.3 MRshow
1.000 UL
LTb
LCb setrgbcolor
2541 1654 M
0 31 V
0 1217 R
0 -31 V
2664 1654 M
0 31 V
0 1217 R
0 -31 V
2787 1654 M
0 31 V
0 1217 R
0 -31 V
2911 1654 M
0 31 V
0 1217 R
0 -31 V
3034 1654 M
0 63 V
0 1185 R
0 -63 V
stroke
3034 1534 M
[ [(Times-Roman) 10.0 0.0 true true 0 ( 0.1)]
] -3.3 MCshow
1.000 UL
LTb
LCb setrgbcolor
3157 1654 M
0 31 V
0 1217 R
0 -31 V
3281 1654 M
0 31 V
0 1217 R
0 -31 V
3404 1654 M
0 31 V
0 1217 R
0 -31 V
3527 1654 M
0 31 V
0 1217 R
0 -31 V
3651 1654 M
0 63 V
0 1185 R
0 -63 V
stroke
3651 1534 M
[ [(Times-Roman) 10.0 0.0 true true 0 ( 0.2)]
] -3.3 MCshow
1.000 UL
LTb
LCb setrgbcolor
3774 1654 M
0 31 V
0 1217 R
0 -31 V
3897 1654 M
0 31 V
0 1217 R
0 -31 V
stroke
LTB
LCb setrgbcolor
2448 2902 N
0 -1248 V
1511 0 V
0 1248 V
-1511 0 V
Z stroke
1.000 UP
LCb setrgbcolor
3034 2184 M
[ [(Times-Roman) 180.0 0.0 true true 0 (Rout)]
] -60.0 MLshow
1.000 UL
LTb
LCb setrgbcolor
LCb setrgbcolor
2040 2278 M
currentpoint gsave translate -270 rotate 0 0 moveto
[ [(Times-Roman) 10.0 0.0 true true 0 (C\(q\))]
] -3.3 MCshow
grestore
LTb
% Begin plot #1
1.000 UP
2.000 UL
LTb
0.34 0.71 0.91 C LCb setrgbcolor
10739 -8418 M
[ [(Times-Roman) 130.0 0.0 true true 0 (CorrFunc)]
] -43.3 MRshow
1.000 UP
2.000 UL
LTb
0.34 0.71 0.91 C 10817 -8418 M
156 0 V
-156 31 R
0 -62 V
156 62 R
0 -62 V
2463 2232 M
0 259 V
-15 -259 R
46 0 V
-46 259 R
46 0 V
0 -209 R
0 266 V
-31 -266 R
62 0 V
-62 266 R
62 0 V
0 -143 R
0 280 V
-31 -280 R
62 0 V
-62 280 R
62 0 V
0 -290 R
0 282 V
-31 -282 R
62 0 V
-62 282 R
62 0 V
0 -252 R
0 280 V
-31 -280 R
62 0 V
-62 280 R
62 0 V
0 -498 R
0 258 V
-31 -258 R
62 0 V
-62 258 R
62 0 V
-1 -114 R
0 267 V
-31 -267 R
62 0 V
-62 267 R
62 0 V
0 -540 R
0 236 V
-31 -236 R
62 0 V
-62 236 R
62 0 V
0 -267 R
0 237 V
-31 -237 R
62 0 V
-62 237 R
62 0 V
0 -172 R
0 239 V
-31 -239 R
62 0 V
-62 239 R
62 0 V
0 -311 R
0 227 V
-31 -227 R
62 0 V
-62 227 R
62 0 V
0 -248 R
0 221 V
-31 -221 R
62 0 V
-62 221 R
62 0 V
-1 -302 R
0 215 V
-31 -215 R
62 0 V
-62 215 R
62 0 V
0 -197 R
0 214 V
-31 -214 R
62 0 V
-62 214 R
62 0 V
0 -330 R
0 199 V
-31 -199 R
62 0 V
-62 199 R
62 0 V
0 -282 R
0 195 V
-31 -195 R
62 0 V
-62 195 R
62 0 V
0 -157 R
0 194 V
-31 -194 R
62 0 V
stroke 2988 1795 M
-62 194 R
62 0 V
0 -335 R
0 145 V
-31 0 R
62 0 V
-1 -61 R
0 186 V
-31 -186 R
62 0 V
-62 186 R
62 0 V
0 -73 R
0 194 V
-31 -194 R
62 0 V
-62 194 R
62 0 V
0 -326 R
0 180 V
-31 -180 R
62 0 V
-62 180 R
62 0 V
0 -151 R
0 182 V
-31 -182 R
62 0 V
-62 182 R
62 0 V
0 -189 R
0 178 V
-31 -178 R
62 0 V
-62 178 R
62 0 V
31 -209 R
0 173 V
-31 -173 R
62 0 V
-62 173 R
62 0 V
-1 -224 R
0 168 V
-31 -168 R
62 0 V
-62 168 R
62 0 V
0 -60 R
0 177 V
-31 -177 R
62 0 V
-62 177 R
62 0 V
0 -169 R
0 178 V
-31 -178 R
62 0 V
-62 178 R
62 0 V
0 -299 R
0 166 V
-31 0 R
62 0 V
31 -154 R
0 170 V
-31 -170 R
62 0 V
-62 170 R
62 0 V
-1 -34 R
0 182 V
-31 -182 R
62 0 V
-62 182 R
62 0 V
0 -187 R
0 179 V
-31 -179 R
62 0 V
-62 179 R
62 0 V
0 -185 R
0 177 V
-31 -177 R
62 0 V
-62 177 R
62 0 V
0 -158 R
0 187 V
-31 -187 R
62 0 V
-62 187 R
62 0 V
0 -244 R
0 181 V
-31 -181 R
62 0 V
-62 181 R
62 0 V
0 22 R
0 210 V
-31 -210 R
62 0 V
stroke 3605 1956 M
-62 210 R
62 0 V
-1 -368 R
0 197 V
-31 -197 R
62 0 V
-62 197 R
62 0 V
0 -341 R
0 176 V
-31 0 R
62 0 V
0 -30 R
0 210 V
-31 -210 R
62 0 V
-62 210 R
62 0 V
0 -219 R
0 211 V
-31 -211 R
62 0 V
-62 211 R
62 0 V
0 -263 R
0 210 V
-31 -210 R
62 0 V
-62 210 R
62 0 V
0 -295 R
0 159 V
-31 0 R
62 0 V
-1 139 R
0 246 V
-31 -246 R
62 0 V
-62 246 R
62 0 V
0 -392 R
0 236 V
-31 -236 R
62 0 V
-62 236 R
62 0 V
0 -388 R
0 164 V
-31 0 R
62 0 V
0 -80 R
0 244 V
-31 -244 R
62 0 V
-62 244 R
62 0 V
0 -328 R
0 206 V
-31 0 R
62 0 V
0 150 R
0 296 V
-31 -296 R
46 0 V
-46 296 R
46 0 V
2463 2362 TriU
2494 2415 TriU
2525 2545 TriU
2556 2536 TriU
2587 2565 TriU
2618 2336 TriU
2648 2485 TriU
2679 2196 TriU
2710 2165 TriU
2741 2232 TriU
2772 2153 TriU
2803 2129 TriU
2833 2045 TriU
2864 2063 TriU
2895 1940 TriU
2926 1854 TriU
2957 1892 TriU
2988 1710 TriU
3018 1831 TriU
3049 1948 TriU
3080 1809 TriU
3111 1839 TriU
3142 1830 TriU
3204 1797 TriU
3234 1743 TriU
3265 1856 TriU
3296 1864 TriU
3327 1736 TriU
3389 1751 TriU
3419 1893 TriU
3450 1887 TriU
3481 1880 TriU
3512 1904 TriU
3543 1844 TriU
3574 2061 TriU
3604 1897 TriU
3635 1736 TriU
3666 1905 TriU
3697 1897 TriU
3728 1844 TriU
3759 1713 TriU
3789 2075 TriU
3820 1924 TriU
3851 1706 TriU
3882 1860 TriU
3913 1738 TriU
3944 2158 TriU
10895 -8418 TriU
% End plot #1
% Begin plot #2
2.400 UL
LTb
0.58 0.00 0.83 C LCb setrgbcolor
10739 -8496 M
[ [(Times-Roman) 130.0 0.0 true true 0 (3DFit)]
] -43.3 MRshow
2.400 UL
LTb
0.58 0.00 0.83 C 10817 -8496 M
156 0 V
2448 2695 M
15 -8 V
31 -33 V
31 -46 V
31 -56 V
31 -65 V
31 -69 V
30 -70 V
31 -70 V
31 -65 V
31 -58 V
31 -53 V
31 -45 V
30 -37 V
31 -31 V
31 -24 V
31 -17 V
31 -15 V
31 -11 V
30 -6 V
31 -6 V
31 -3 V
31 -2 V
31 -1 V
31 -2 V
31 0 V
30 0 V
31 -2 V
31 0 V
31 0 V
31 0 V
31 0 V
30 0 V
31 0 V
31 0 V
31 0 V
31 0 V
31 0 V
30 0 V
31 0 V
31 0 V
31 0 V
31 0 V
31 0 V
30 0 V
31 0 V
31 0 V
31 0 V
31 0 V
31 0 V
15 0 V
% End plot #2
stroke
2.000 UL
LTb
LCb setrgbcolor
1.000 UL
LTB
LCb setrgbcolor
2448 2902 N
0 -1248 V
1511 0 V
0 1248 V
-1511 0 V
Z stroke
1.000 UP
1.000 UL
LTb
LCb setrgbcolor
1.000 UL
LTb
LCb setrgbcolor
3960 1671 M
31 0 V
1480 0 R
-31 0 V
-1480 68 R
31 0 V
1480 0 R
-31 0 V
-1480 69 R
31 0 V
1480 0 R
-31 0 V
-1480 68 R
63 0 V
1448 0 R
-63 0 V
stroke
3931 1876 M
[ [(Times-Roman) 10.0 0.0 true true 0 ( 1)]
] -3.3 MRshow
1.000 UL
LTb
LCb setrgbcolor
3960 1945 M
31 0 V
1480 0 R
-31 0 V
-1480 68 R
31 0 V
1480 0 R
-31 0 V
-1480 68 R
31 0 V
1480 0 R
-31 0 V
-1480 69 R
31 0 V
1480 0 R
-31 0 V
-1480 68 R
63 0 V
1448 0 R
-63 0 V
stroke
3931 2218 M
[ [(Times-Roman) 10.0 0.0 true true 0 ( 1.2)]
] -3.3 MRshow
1.000 UL
LTb
LCb setrgbcolor
3960 2287 M
31 0 V
1480 0 R
-31 0 V
-1480 68 R
31 0 V
1480 0 R
-31 0 V
-1480 68 R
31 0 V
1480 0 R
-31 0 V
-1480 69 R
31 0 V
1480 0 R
-31 0 V
-1480 68 R
63 0 V
1448 0 R
-63 0 V
stroke
3931 2560 M
[ [(Times-Roman) 10.0 0.0 true true 0 ( 1.4)]
] -3.3 MRshow
1.000 UL
LTb
LCb setrgbcolor
3960 2628 M
31 0 V
1480 0 R
-31 0 V
-1480 69 R
31 0 V
1480 0 R
-31 0 V
-1480 68 R
31 0 V
1480 0 R
-31 0 V
-1480 69 R
31 0 V
1480 0 R
-31 0 V
-1480 68 R
63 0 V
1448 0 R
-63 0 V
stroke
3931 2902 M
[ [(Times-Roman) 10.0 0.0 true true 0 ( 1.6)]
] -3.3 MRshow
1.000 UL
LTb
LCb setrgbcolor
4053 1654 M
0 31 V
0 1217 R
0 -31 V
4176 1654 M
0 31 V
0 1217 R
0 -31 V
4299 1654 M
0 31 V
0 1217 R
0 -31 V
4423 1654 M
0 31 V
0 1217 R
0 -31 V
4546 1654 M
0 63 V
0 1185 R
0 -63 V
stroke
4546 1534 M
[ [(Times-Roman) 10.0 0.0 true true 0 ( 0.1)]
] -3.3 MCshow
1.000 UL
LTb
LCb setrgbcolor
4669 1654 M
0 31 V
0 1217 R
0 -31 V
4793 1654 M
0 31 V
0 1217 R
0 -31 V
4916 1654 M
0 31 V
0 1217 R
0 -31 V
5039 1654 M
0 31 V
0 1217 R
0 -31 V
5163 1654 M
0 63 V
0 1185 R
0 -63 V
stroke
5163 1534 M
[ [(Times-Roman) 10.0 0.0 true true 0 ( 0.2)]
] -3.3 MCshow
1.000 UL
LTb
LCb setrgbcolor
5286 1654 M
0 31 V
0 1217 R
0 -31 V
5409 1654 M
0 31 V
0 1217 R
0 -31 V
stroke
LTB
LCb setrgbcolor
3960 2902 N
0 -1248 V
1511 0 V
0 1248 V
-1511 0 V
Z stroke
1.000 UP
LCb setrgbcolor
4546 2184 M
[ [(Times-Roman) 180.0 0.0 true true 0 (Rout)]
] -60.0 MLshow
1.000 UL
LTb
LCb setrgbcolor
LCb setrgbcolor
3552 2278 M
currentpoint gsave translate -270 rotate 0 0 moveto
[ [(Times-Roman) 10.0 0.0 true true 0 (C\(q\))]
] -3.3 MCshow
grestore
LTb
% Begin plot #1
1.000 UP
2.000 UL
LTb
0.34 0.71 0.91 C LCb setrgbcolor
12251 -8411 M
[ [(Times-Roman) 130.0 0.0 true true 0 (CorrFunc)]
] -43.3 MRshow
1.000 UP
2.000 UL
LTb
0.34 0.71 0.91 C 12329 -8411 M
156 0 V
-156 31 R
0 -62 V
156 62 R
0 -62 V
3975 2327 M
0 388 V
-15 -388 R
46 0 V
-46 388 R
46 0 V
31 -487 R
0 384 V
-31 -384 R
62 0 V
-62 384 R
62 0 V
0 -67 R
0 357 V
-31 -357 R
62 0 V
0 11 R
0 346 V
-31 -346 R
62 0 V
0 -262 R
0 402 V
-31 -402 R
62 0 V
-62 402 R
62 0 V
-1 -541 R
0 376 V
-31 -376 R
62 0 V
-62 376 R
62 0 V
0 -729 R
0 323 V
-31 -323 R
62 0 V
-62 323 R
62 0 V
0 66 R
0 368 V
-31 -368 R
62 0 V
-62 368 R
62 0 V
0 -593 R
0 344 V
-31 -344 R
62 0 V
-62 344 R
62 0 V
0 -441 R
0 332 V
-31 -332 R
62 0 V
-62 332 R
62 0 V
0 -259 R
0 326 V
-31 -326 R
62 0 V
-62 326 R
62 0 V
-1 -276 R
0 333 V
-31 -333 R
62 0 V
-62 333 R
62 0 V
0 -671 R
0 147 V
-31 0 R
62 0 V
0 218 R
0 334 V
-31 -334 R
62 0 V
-62 334 R
62 0 V
0 -699 R
0 161 V
-31 0 R
62 0 V
0 17 R
0 298 V
-31 -298 R
62 0 V
-62 298 R
62 0 V
30 -450 R
0 274 V
-31 -274 R
62 0 V
-62 274 R
62 0 V
0 179 R
0 331 V
-31 -331 R
62 0 V
-62 331 R
62 0 V
stroke 4592 2464 M
0 -720 R
0 285 V
-31 -285 R
62 0 V
-62 285 R
62 0 V
0 -286 R
0 270 V
-31 -270 R
62 0 V
-62 270 R
62 0 V
0 -322 R
0 261 V
-31 -261 R
62 0 V
-62 261 R
62 0 V
0 -172 R
0 274 V
-31 -274 R
62 0 V
-62 274 R
62 0 V
0 -400 R
0 229 V
-31 0 R
62 0 V
-1 -72 R
0 274 V
-31 -274 R
62 0 V
-62 274 R
62 0 V
0 -376 R
0 261 V
-31 -261 R
62 0 V
-62 261 R
62 0 V
0 43 R
0 287 V
-31 -287 R
62 0 V
-62 287 R
62 0 V
0 -646 R
0 148 V
-31 0 R
62 0 V
0 -148 R
0 200 V
-31 0 R
62 0 V
0 -124 R
0 254 V
-31 -254 R
62 0 V
-62 254 R
62 0 V
-1 -271 R
0 256 V
-31 -256 R
62 0 V
-62 256 R
62 0 V
0 -79 R
0 260 V
-31 -260 R
62 0 V
-62 260 R
62 0 V
0 -277 R
0 259 V
-31 -259 R
62 0 V
-62 259 R
62 0 V
0 -377 R
0 249 V
-31 -249 R
62 0 V
-62 249 R
62 0 V
0 -294 R
0 243 V
-31 -243 R
62 0 V
-62 243 R
62 0 V
0 -165 R
0 258 V
-31 -258 R
62 0 V
-62 258 R
62 0 V
-1 -392 R
0 144 V
-31 0 R
62 0 V
0 -86 R
0 241 V
-31 -241 R
62 0 V
stroke 5178 1712 M
-62 241 R
62 0 V
0 -299 R
0 114 V
-31 0 R
62 0 V
0 -71 R
0 240 V
-31 -240 R
62 0 V
-62 240 R
62 0 V
0 -268 R
0 235 V
-31 -235 R
62 0 V
-62 235 R
62 0 V
0 -26 R
0 253 V
-31 -253 R
62 0 V
-62 253 R
62 0 V
-1 -167 R
0 276 V
-31 -276 R
62 0 V
-62 276 R
62 0 V
0 -499 R
0 246 V
-31 -246 R
62 0 V
-62 246 R
62 0 V
0 -120 R
0 261 V
-31 -261 R
62 0 V
-62 261 R
62 0 V
0 -202 R
0 266 V
-31 -266 R
62 0 V
-62 266 R
62 0 V
0 -538 R
0 235 V
-31 0 R
62 0 V
0 -235 R
0 220 V
-31 0 R
46 0 V
3975 2521 TriU
4037 2420 TriU
4068 2762 TriU
4099 2775 TriU
4130 2495 TriU
4160 2343 TriU
4191 1963 TriU
4222 2375 TriU
4253 2138 TriU
4284 2035 TriU
4315 2105 TriU
4345 2158 TriU
4376 1665 TriU
4407 2186 TriU
4438 1684 TriU
4469 1981 TriU
4530 1817 TriU
4561 2299 TriU
4592 1887 TriU
4623 1878 TriU
4654 1822 TriU
4685 1917 TriU
4716 1757 TriU
4746 1948 TriU
4777 1839 TriU
4808 2157 TriU
4839 1685 TriU
4870 1735 TriU
4901 1857 TriU
4931 1841 TriU
4962 2020 TriU
4993 2003 TriU
5024 1880 TriU
5055 1832 TriU
5086 1917 TriU
5116 1684 TriU
5147 1832 TriU
5178 1659 TriU
5209 1817 TriU
5240 1787 TriU
5271 2004 TriU
5301 2102 TriU
5332 1864 TriU
5363 1998 TriU
5394 2059 TriU
5425 1768 TriU
5456 1757 TriU
12407 -8411 TriU
% End plot #1
% Begin plot #2
2.400 UL
LTb
0.58 0.00 0.83 C LCb setrgbcolor
12251 -8476 M
[ [(Times-Roman) 130.0 0.0 true true 0 (3DFit)]
] -43.3 MRshow
2.400 UL
LTb
0.58 0.00 0.83 C 12329 -8476 M
156 0 V
3960 2776 M
15 -7 V
31 -28 V
31 -41 V
31 -51 V
31 -58 V
31 -65 V
30 -67 V
31 -68 V
31 -65 V
31 -63 V
31 -57 V
31 -51 V
30 -45 V
31 -39 V
31 -32 V
31 -26 V
31 -21 V
31 -17 V
30 -12 V
31 -10 V
31 -7 V
31 -5 V
31 -3 V
31 -4 V
31 -1 V
30 -2 V
31 0 V
31 0 V
31 -2 V
31 0 V
31 0 V
30 0 V
31 0 V
31 0 V
31 0 V
31 0 V
31 0 V
30 0 V
31 0 V
31 0 V
31 0 V
31 0 V
31 0 V
30 0 V
31 0 V
31 0 V
31 0 V
31 0 V
31 0 V
15 0 V
% End plot #2
stroke
2.000 UL
LTb
LCb setrgbcolor
1.000 UL
LTB
LCb setrgbcolor
3960 2902 N
0 -1248 V
1511 0 V
0 1248 V
-1511 0 V
Z stroke
1.000 UP
1.000 UL
LTb
LCb setrgbcolor
1.000 UL
LTb
LCb setrgbcolor
5472 1671 M
31 0 V
1479 0 R
-31 0 V
-1479 68 R
31 0 V
1479 0 R
-31 0 V
-1479 69 R
31 0 V
1479 0 R
-31 0 V
-1479 68 R
63 0 V
1447 0 R
-63 0 V
stroke
5443 1876 M
[ [(Times-Roman) 10.0 0.0 true true 0 ( 1)]
] -3.3 MRshow
1.000 UL
LTb
LCb setrgbcolor
5472 1945 M
31 0 V
1479 0 R
-31 0 V
-1479 68 R
31 0 V
1479 0 R
-31 0 V
-1479 68 R
31 0 V
1479 0 R
-31 0 V
-1479 69 R
31 0 V
1479 0 R
-31 0 V
-1479 68 R
63 0 V
1447 0 R
-63 0 V
stroke
5443 2218 M
[ [(Times-Roman) 10.0 0.0 true true 0 ( 1.2)]
] -3.3 MRshow
1.000 UL
LTb
LCb setrgbcolor
5472 2287 M
31 0 V
1479 0 R
-31 0 V
-1479 68 R
31 0 V
1479 0 R
-31 0 V
-1479 68 R
31 0 V
1479 0 R
-31 0 V
-1479 69 R
31 0 V
1479 0 R
-31 0 V
-1479 68 R
63 0 V
1447 0 R
-63 0 V
stroke
5443 2560 M
[ [(Times-Roman) 10.0 0.0 true true 0 ( 1.4)]
] -3.3 MRshow
1.000 UL
LTb
LCb setrgbcolor
5472 2628 M
31 0 V
1479 0 R
-31 0 V
-1479 69 R
31 0 V
1479 0 R
-31 0 V
-1479 68 R
31 0 V
1479 0 R
-31 0 V
-1479 69 R
31 0 V
1479 0 R
-31 0 V
-1479 68 R
63 0 V
1447 0 R
-63 0 V
stroke
5443 2902 M
[ [(Times-Roman) 10.0 0.0 true true 0 ( 1.6)]
] -3.3 MRshow
1.000 UL
LTb
LCb setrgbcolor
5564 1654 M
0 31 V
0 1217 R
0 -31 V
5688 1654 M
0 31 V
0 1217 R
0 -31 V
5811 1654 M
0 31 V
0 1217 R
0 -31 V
5934 1654 M
0 31 V
0 1217 R
0 -31 V
6058 1654 M
0 63 V
0 1185 R
0 -63 V
stroke
6058 1534 M
[ [(Times-Roman) 10.0 0.0 true true 0 ( 0.1)]
] -3.3 MCshow
1.000 UL
LTb
LCb setrgbcolor
6181 1654 M
0 31 V
0 1217 R
0 -31 V
6304 1654 M
0 31 V
0 1217 R
0 -31 V
6427 1654 M
0 31 V
0 1217 R
0 -31 V
6551 1654 M
0 31 V
0 1217 R
0 -31 V
6674 1654 M
0 63 V
0 1185 R
0 -63 V
stroke
6674 1534 M
[ [(Times-Roman) 10.0 0.0 true true 0 ( 0.2)]
] -3.3 MCshow
1.000 UL
LTb
LCb setrgbcolor
6797 1654 M
0 31 V
0 1217 R
0 -31 V
6920 1654 M
0 31 V
0 1217 R
0 -31 V
stroke
LTB
LCb setrgbcolor
5472 2902 N
0 -1248 V
1510 0 V
0 1248 V
-1510 0 V
Z stroke
1.000 UP
LCb setrgbcolor
6058 2184 M
[ [(Times-Roman) 180.0 0.0 true true 0 (Rout)]
] -60.0 MLshow
1.000 UL
LTb
LCb setrgbcolor
LCb setrgbcolor
5064 2278 M
currentpoint gsave translate -270 rotate 0 0 moveto
[ [(Times-Roman) 10.0 0.0 true true 0 (C\(q\))]
] -3.3 MCshow
grestore
LTb
% Begin plot #1
1.000 UP
2.000 UL
LTb
0.34 0.71 0.91 C LCb setrgbcolor
13758 -8411 M
[ [(Times-Roman) 130.0 0.0 true true 0 (CorrFunc)]
] -43.3 MRshow
1.000 UP
2.000 UL
LTb
0.34 0.71 0.91 C 13836 -8411 M
156 0 V
-156 31 R
0 -62 V
156 62 R
0 -62 V
5487 1824 M
0 861 V
-15 -861 R
46 0 V
-46 861 R
46 0 V
31 -1010 R
0 775 V
-31 -775 R
62 0 V
-62 775 R
62 0 V
0 -159 R
0 611 V
-31 -611 R
62 0 V
0 -159 R
0 770 V
-31 -770 R
62 0 V
30 137 R
0 633 V
-31 -633 R
62 0 V
0 22 R
0 611 V
-31 -611 R
62 0 V
0 -570 R
0 800 V
-31 -800 R
62 0 V
-62 800 R
62 0 V
0 -341 R
0 722 V
-31 -722 R
62 0 V
0 174 R
0 548 V
-31 -548 R
62 0 V
-1 -192 R
0 740 V
-31 -740 R
62 0 V
0 -508 R
0 410 V
-31 0 R
62 0 V
0 -398 R
0 619 V
-31 -619 R
62 0 V
-62 619 R
62 0 V
0 -129 R
0 746 V
-31 -746 R
62 0 V
0 -502 R
0 560 V
-31 0 R
62 0 V
-1 -560 R
0 417 V
-31 0 R
62 0 V
31 -280 R
0 652 V
-31 -652 R
62 0 V
-62 652 R
62 0 V
0 -789 R
0 250 V
-31 0 R
62 0 V
0 -102 R
0 617 V
-31 -617 R
62 0 V
-62 617 R
62 0 V
0 -509 R
0 603 V
-31 -603 R
62 0 V
-62 603 R
62 0 V
-1 -778 R
0 580 V
-31 -580 R
62 0 V
-62 580 R
62 0 V
0 -650 R
0 559 V
-31 -559 R
62 0 V
stroke 6227 1665 M
-62 559 R
62 0 V
0 -114 R
0 620 V
-31 -620 R
62 0 V
-62 620 R
62 0 V
0 -1076 R
0 427 V
-31 0 R
62 0 V
0 -427 R
0 327 V
-31 0 R
62 0 V
61 -327 R
0 357 V
-31 0 R
62 0 V
0 -357 R
0 247 V
-31 0 R
62 0 V
0 -3 R
0 507 V
-31 -507 R
62 0 V
-62 507 R
62 0 V
0 -641 R
0 512 V
-31 -512 R
62 0 V
-62 512 R
62 0 V
-1 -622 R
0 242 V
-31 0 R
62 0 V
0 -119 R
0 461 V
-31 -461 R
62 0 V
-62 461 R
62 0 V
0 -584 R
0 205 V
-31 0 R
62 0 V
0 -205 R
0 356 V
-31 0 R
62 0 V
0 -356 R
0 301 V
-31 0 R
62 0 V
-1 -301 R
0 271 V
-31 0 R
62 0 V
31 -195 R
0 443 V
-31 -443 R
62 0 V
-62 443 R
62 0 V
31 -519 R
0 399 V
-31 0 R
62 0 V
0 -130 R
0 509 V
-31 -509 R
62 0 V
-62 509 R
62 0 V
-1 -613 R
0 435 V
-31 -435 R
62 0 V
-62 435 R
62 0 V
0 -600 R
0 240 V
-31 0 R
62 0 V
31 -51 R
0 456 V
-31 -456 R
62 0 V
-62 456 R
62 0 V
0 -645 R
0 282 V
-31 0 R
46 0 V
5487 2254 TriU
5549 2063 TriU
5580 2787 TriU
5611 2593 TriU
5672 2731 TriU
5703 2817 TriU
5734 2121 TriU
5765 2586 TriU
5796 2781 TriU
5826 2558 TriU
5857 1766 TriU
5888 1975 TriU
5919 2533 TriU
5950 1916 TriU
5980 1795 TriU
6042 2117 TriU
6073 1655 TriU
6104 2110 TriU
6135 2211 TriU
6165 2025 TriU
6196 1945 TriU
6227 2420 TriU
6258 1838 TriU
6289 1748 TriU
6381 1772 TriU
6412 1684 TriU
6443 2151 TriU
6474 2020 TriU
6504 1680 TriU
6535 2008 TriU
6566 1658 TriU
6597 1801 TriU
6628 1751 TriU
6658 1721 TriU
6720 1951 TriU
6782 1834 TriU
6813 2177 TriU
6843 2037 TriU
6874 1699 TriU
6936 2071 TriU
6967 1745 TriU
13914 -8411 TriU
% End plot #1
% Begin plot #2
2.400 UL
LTb
0.58 0.00 0.83 C LCb setrgbcolor
13758 -8476 M
[ [(Times-Roman) 130.0 0.0 true true 0 (3DFit)]
] -43.3 MRshow
2.400 UL
LTb
0.58 0.00 0.83 C 13836 -8476 M
156 0 V
5472 2416 M
15 -1 V
31 -5 V
31 -7 V
31 -10 V
31 -12 V
30 -12 V
31 -16 V
31 -15 V
31 -16 V
31 -15 V
31 -15 V
30 -16 V
31 -15 V
31 -14 V
31 -13 V
31 -11 V
30 -12 V
31 -8 V
31 -9 V
31 -7 V
31 -6 V
31 -6 V
30 -3 V
31 -3 V
31 -4 V
31 -3 V
31 -2 V
30 -2 V
31 0 V
31 -1 V
31 0 V
31 0 V
31 -2 V
30 0 V
31 0 V
31 0 V
31 0 V
31 0 V
30 0 V
31 0 V
31 0 V
31 0 V
31 0 V
31 0 V
30 0 V
31 0 V
31 0 V
31 0 V
31 0 V
15 0 V
% End plot #2
stroke
2.000 UL
LTb
LCb setrgbcolor
1.000 UL
LTB
LCb setrgbcolor
5472 2902 N
0 -1248 V
1510 0 V
0 1248 V
-1510 0 V
Z stroke
1.000 UP
1.000 UL
LTb
LCb setrgbcolor
1.000 UL
LTb
LCb setrgbcolor
936 422 M
31 0 V
1480 0 R
-31 0 V
936 490 M
31 0 V
1480 0 R
-31 0 V
936 559 M
31 0 V
1480 0 R
-31 0 V
936 627 M
63 0 V
1448 0 R
-63 0 V
stroke
907 627 M
[ [(Times-Roman) 200.0 0.0 true true 0 ( 1)]
] -66.7 MRshow
1.000 UL
LTb
LCb setrgbcolor
936 695 M
31 0 V
1480 0 R
-31 0 V
936 764 M
31 0 V
1480 0 R
-31 0 V
936 832 M
31 0 V
1480 0 R
-31 0 V
936 900 M
31 0 V
1480 0 R
-31 0 V
936 969 M
63 0 V
1448 0 R
-63 0 V
stroke
907 969 M
[ [(Times-Roman) 200.0 0.0 true true 0 ( 1.2)]
] -66.7 MRshow
1.000 UL
LTb
LCb setrgbcolor
936 1037 M
31 0 V
1480 0 R
-31 0 V
936 1105 M
31 0 V
1480 0 R
-31 0 V
936 1174 M
31 0 V
1480 0 R
-31 0 V
936 1242 M
31 0 V
1480 0 R
-31 0 V
936 1310 M
63 0 V
1448 0 R
-63 0 V
stroke
907 1310 M
[ [(Times-Roman) 200.0 0.0 true true 0 ( 1.4)]
] -66.7 MRshow
1.000 UL
LTb
LCb setrgbcolor
936 1379 M
31 0 V
1480 0 R
-31 0 V
936 1447 M
31 0 V
1480 0 R
-31 0 V
936 1515 M
31 0 V
1480 0 R
-31 0 V
936 1584 M
31 0 V
1480 0 R
-31 0 V
936 1652 M
63 0 V
1448 0 R
-63 0 V
stroke
907 1652 M
[ [(Times-Roman) 200.0 0.0 true true 0 ( 1.6)]
] -66.7 MRshow
1.000 UL
LTb
LCb setrgbcolor
1029 405 M
0 31 V
0 1216 R
0 -31 V
1152 405 M
0 31 V
0 1216 R
0 -31 V
1275 405 M
0 31 V
0 1216 R
0 -31 V
1399 405 M
0 31 V
0 1216 R
0 -31 V
1522 405 M
0 63 V
0 1184 R
0 -63 V
stroke
1522 285 M
[ [(Times-Roman) 150.0 0.0 true true 0 ( 0.1)]
] -50.0 MCshow
1.000 UL
LTb
LCb setrgbcolor
1645 405 M
0 31 V
0 1216 R
0 -31 V
1769 405 M
0 31 V
0 1216 R
0 -31 V
1892 405 M
0 31 V
0 1216 R
0 -31 V
2015 405 M
0 31 V
0 1216 R
0 -31 V
2139 405 M
0 63 V
0 1184 R
0 -63 V
stroke
2139 285 M
[ [(Times-Roman) 150.0 0.0 true true 0 ( 0.2)]
] -50.0 MCshow
1.000 UL
LTb
LCb setrgbcolor
2262 405 M
0 31 V
0 1216 R
0 -31 V
2385 405 M
0 31 V
0 1216 R
0 -31 V
stroke
LTB
LCb setrgbcolor
936 1652 N
936 405 L
1511 0 V
0 1247 V
-1511 0 V
Z stroke
1.000 UP
LCb setrgbcolor
1522 935 M
[ [(Times-Roman) 180.0 0.0 true true 0 (Rlong)]
] -60.0 MLshow
1.000 UL
LTb
LCb setrgbcolor
LCb setrgbcolor
528 1028 M
currentpoint gsave translate -270 rotate 0 0 moveto
[ [(Times-Roman) 220.0 0.0 true true 0 (C\(q\))]
] -73.3 MCshow
grestore
LTb
% Begin plot #1
1.000 UP
2.000 UL
LTb
0.34 0.71 0.91 C LCb setrgbcolor
9227 -9652 M
[ [(Times-Roman) 130.0 0.0 true true 0 (CorrFunc)]
] -43.3 MRshow
1.000 UP
2.000 UL
LTb
0.34 0.71 0.91 C 9305 -9652 M
156 0 V
-156 31 R
0 -62 V
156 62 R
0 -62 V
951 1073 M
0 263 V
936 1073 M
46 0 V
-46 263 R
46 0 V
0 -309 R
0 221 V
951 1027 M
62 0 V
-62 221 R
62 0 V
0 -209 R
0 181 V
982 1039 M
62 0 V
-62 181 R
62 0 V
0 -125 R
0 158 V
-31 -158 R
62 0 V
-62 158 R
62 0 V
0 -87 R
0 159 V
-31 -159 R
62 0 V
-62 159 R
62 0 V
0 -386 R
0 148 V
1075 939 M
62 0 V
-62 148 R
62 0 V
-1 -208 R
0 146 V
1105 879 M
62 0 V
-62 146 R
62 0 V
0 -96 R
0 151 V
1136 929 M
62 0 V
-62 151 R
62 0 V
0 -278 R
0 146 V
1167 802 M
62 0 V
-62 146 R
62 0 V
0 -132 R
0 152 V
1198 816 M
62 0 V
-62 152 R
62 0 V
0 -194 R
0 153 V
1229 774 M
62 0 V
-62 153 R
62 0 V
0 -211 R
0 150 V
1260 716 M
62 0 V
-62 150 R
62 0 V
-1 -244 R
0 147 V
1290 622 M
62 0 V
-62 147 R
62 0 V
0 -237 R
0 148 V
1321 532 M
62 0 V
-62 148 R
62 0 V
0 -178 R
0 148 V
1352 502 M
62 0 V
-62 148 R
62 0 V
0 -113 R
0 154 V
1383 537 M
62 0 V
-62 154 R
62 0 V
0 -148 R
0 156 V
1414 543 M
62 0 V
stroke 1476 543 M
-62 156 R
62 0 V
0 -63 R
0 166 V
1445 636 M
62 0 V
-62 166 R
62 0 V
-1 -122 R
0 175 V
1475 680 M
62 0 V
-62 175 R
62 0 V
0 -372 R
0 164 V
1506 483 M
62 0 V
-62 164 R
62 0 V
0 -104 R
0 172 V
1537 543 M
62 0 V
-62 172 R
62 0 V
0 -93 R
0 184 V
1568 622 M
62 0 V
-62 184 R
62 0 V
31 -323 R
0 187 V
1630 483 M
62 0 V
-62 187 R
62 0 V
0 -116 R
0 194 V
1661 554 M
62 0 V
-62 194 R
62 0 V
-1 -180 R
0 204 V
1691 568 M
62 0 V
-62 204 R
62 0 V
0 -257 R
0 204 V
1722 515 M
62 0 V
-62 204 R
62 0 V
0 -314 R
0 205 V
-31 0 R
62 0 V
0 -178 R
0 217 V
1784 432 M
62 0 V
-62 217 R
62 0 V
0 -155 R
0 231 V
1815 494 M
62 0 V
-62 231 R
62 0 V
0 -305 R
0 237 V
1846 420 M
62 0 V
-62 237 R
62 0 V
-1 -206 R
0 255 V
1876 451 M
62 0 V
-62 255 R
62 0 V
0 154 R
0 320 V
1907 860 M
62 0 V
-62 320 R
62 0 V
0 -775 R
0 144 V
-31 0 R
62 0 V
0 -93 R
0 300 V
1969 456 M
62 0 V
-62 300 R
62 0 V
0 -307 R
0 331 V
2000 449 M
62 0 V
stroke 2062 449 M
-62 331 R
62 0 V
0 -266 R
0 369 V
2031 514 M
62 0 V
-62 369 R
62 0 V
30 -216 R
0 474 V
2092 667 M
62 0 V
-62 474 R
62 0 V
0 -267 R
0 535 V
2123 874 M
62 0 V
-62 535 R
62 0 V
0 -1004 R
0 295 V
-31 0 R
62 0 V
0 -253 R
0 565 V
2185 447 M
62 0 V
-62 565 R
62 0 V
0 -310 R
0 732 V
2216 702 M
62 0 V
-62 732 R
62 0 V
2277 405 M
0 432 V
-31 0 R
62 0 V
0 -284 R
0 920 V
2277 553 M
62 0 V
-62 920 R
62 0 V
2370 405 M
0 664 V
-31 0 R
62 0 V
0 -664 R
0 707 V
-31 0 R
62 0 V
0 -707 R
0 1093 V
-31 0 R
46 0 V
951 1204 TriU
982 1138 TriU
1013 1129 TriU
1044 1174 TriU
1075 1245 TriU
1106 1013 TriU
1136 952 TriU
1167 1005 TriU
1198 875 TriU
1229 892 TriU
1260 851 TriU
1291 791 TriU
1321 695 TriU
1352 606 TriU
1383 576 TriU
1414 614 TriU
1445 621 TriU
1476 719 TriU
1506 767 TriU
1537 565 TriU
1568 629 TriU
1599 714 TriU
1661 577 TriU
1692 651 TriU
1722 670 TriU
1753 617 TriU
1784 506 TriU
1815 540 TriU
1846 610 TriU
1877 539 TriU
1907 579 TriU
1938 1020 TriU
1969 414 TriU
2000 606 TriU
2031 615 TriU
2062 699 TriU
2123 904 TriU
2154 1141 TriU
2185 468 TriU
2216 730 TriU
2247 1068 TriU
2277 525 TriU
2308 1013 TriU
2370 574 TriU
2401 506 TriU
2432 851 TriU
9383 -9652 TriU
% End plot #1
% Begin plot #2
2.400 UL
LTb
0.58 0.00 0.83 C LCb setrgbcolor
9227 -9717 M
[ [(Times-Roman) 130.0 0.0 true true 0 (3DFit)]
] -43.3 MRshow
2.400 UL
LTb
0.58 0.00 0.83 C 9305 -9717 M
156 0 V
936 1333 M
15 -7 V
31 -29 V
31 -43 V
31 -53 V
31 -58 V
31 -63 V
30 -63 V
31 -62 V
31 -56 V
31 -52 V
31 -44 V
31 -38 V
30 -30 V
31 -26 V
31 -19 V
31 -13 V
31 -11 V
31 -8 V
30 -5 V
31 -4 V
31 -1 V
31 -2 V
31 -2 V
31 0 V
31 0 V
30 -2 V
31 0 V
31 0 V
31 0 V
31 0 V
31 0 V
30 0 V
31 0 V
31 0 V
31 0 V
31 0 V
31 0 V
30 0 V
31 0 V
31 0 V
31 0 V
31 0 V
31 0 V
30 0 V
31 0 V
31 0 V
31 0 V
31 0 V
31 0 V
15 0 V
% End plot #2
stroke
2.000 UL
LTb
LCb setrgbcolor
1.000 UL
LTB
LCb setrgbcolor
936 1652 N
936 405 L
1511 0 V
0 1247 V
-1511 0 V
Z stroke
1.000 UP
1.000 UL
LTb
LCb setrgbcolor
1.000 UL
LTb
LCb setrgbcolor
2448 422 M
31 0 V
1480 0 R
-31 0 V
2448 490 M
31 0 V
1480 0 R
-31 0 V
2448 559 M
31 0 V
1480 0 R
-31 0 V
2448 627 M
63 0 V
1448 0 R
-63 0 V
stroke
2419 627 M
[ [(Times-Roman) 10.0 0.0 true true 0 ( 1)]
] -3.3 MRshow
1.000 UL
LTb
LCb setrgbcolor
2448 695 M
31 0 V
1480 0 R
-31 0 V
2448 764 M
31 0 V
1480 0 R
-31 0 V
2448 832 M
31 0 V
1480 0 R
-31 0 V
2448 900 M
31 0 V
1480 0 R
-31 0 V
2448 969 M
63 0 V
1448 0 R
-63 0 V
stroke
2419 969 M
[ [(Times-Roman) 10.0 0.0 true true 0 ( 1.2)]
] -3.3 MRshow
1.000 UL
LTb
LCb setrgbcolor
2448 1037 M
31 0 V
1480 0 R
-31 0 V
-1480 68 R
31 0 V
1480 0 R
-31 0 V
-1480 69 R
31 0 V
1480 0 R
-31 0 V
-1480 68 R
31 0 V
1480 0 R
-31 0 V
-1480 68 R
63 0 V
1448 0 R
-63 0 V
stroke
2419 1310 M
[ [(Times-Roman) 10.0 0.0 true true 0 ( 1.4)]
] -3.3 MRshow
1.000 UL
LTb
LCb setrgbcolor
2448 1379 M
31 0 V
1480 0 R
-31 0 V
-1480 68 R
31 0 V
1480 0 R
-31 0 V
-1480 68 R
31 0 V
1480 0 R
-31 0 V
-1480 69 R
31 0 V
1480 0 R
-31 0 V
-1480 68 R
63 0 V
1448 0 R
-63 0 V
stroke
2419 1652 M
[ [(Times-Roman) 10.0 0.0 true true 0 ( 1.6)]
] -3.3 MRshow
1.000 UL
LTb
LCb setrgbcolor
2541 405 M
0 31 V
0 1216 R
0 -31 V
2664 405 M
0 31 V
0 1216 R
0 -31 V
2787 405 M
0 31 V
0 1216 R
0 -31 V
2911 405 M
0 31 V
0 1216 R
0 -31 V
3034 405 M
0 63 V
0 1184 R
0 -63 V
stroke
3034 285 M
[ [(Times-Roman) 150.0 0.0 true true 0 ( 0.1)]
] -50.0 MCshow
1.000 UL
LTb
LCb setrgbcolor
3157 405 M
0 31 V
0 1216 R
0 -31 V
3281 405 M
0 31 V
0 1216 R
0 -31 V
3404 405 M
0 31 V
0 1216 R
0 -31 V
3527 405 M
0 31 V
0 1216 R
0 -31 V
3651 405 M
0 63 V
0 1184 R
0 -63 V
stroke
3651 285 M
[ [(Times-Roman) 150.0 0.0 true true 0 ( 0.2)]
] -50.0 MCshow
1.000 UL
LTb
LCb setrgbcolor
3774 405 M
0 31 V
0 1216 R
0 -31 V
3897 405 M
0 31 V
0 1216 R
0 -31 V
stroke
LTB
LCb setrgbcolor
2448 1652 N
0 -1247 V
1511 0 V
0 1247 V
-1511 0 V
Z stroke
1.000 UP
LCb setrgbcolor
3034 935 M
[ [(Times-Roman) 180.0 0.0 true true 0 (Rlong)]
] -60.0 MLshow
1.000 UL
LTb
LCb setrgbcolor
LCb setrgbcolor
2040 1028 M
currentpoint gsave translate -270 rotate 0 0 moveto
[ [(Times-Roman) 10.0 0.0 true true 0 (C\(q\))]
] -3.3 MCshow
grestore
LTb
% Begin plot #1
1.000 UP
2.000 UL
LTb
0.34 0.71 0.91 C LCb setrgbcolor
10739 -9659 M
[ [(Times-Roman) 130.0 0.0 true true 0 (CorrFunc)]
] -43.3 MRshow
1.000 UP
2.000 UL
LTb
0.34 0.71 0.91 C 10817 -9659 M
156 0 V
-156 31 R
0 -62 V
156 62 R
0 -62 V
2463 950 M
0 362 V
2448 950 M
46 0 V
-46 362 R
46 0 V
0 -336 R
0 300 V
2463 976 M
62 0 V
-62 300 R
62 0 V
0 -44 R
0 266 V
-31 -266 R
62 0 V
-62 266 R
62 0 V
0 -432 R
0 219 V
-31 -219 R
62 0 V
-62 219 R
62 0 V
0 -163 R
0 216 V
-31 -216 R
62 0 V
-62 216 R
62 0 V
0 -88 R
0 230 V
-31 -230 R
62 0 V
-62 230 R
62 0 V
-1 -342 R
0 225 V
-31 -225 R
62 0 V
-62 225 R
62 0 V
0 -381 R
0 209 V
2648 982 M
62 0 V
-62 209 R
62 0 V
0 -545 R
0 188 V
2679 646 M
62 0 V
-62 188 R
62 0 V
0 -35 R
0 203 V
2710 799 M
62 0 V
-62 203 R
62 0 V
0 -162 R
0 213 V
2741 840 M
62 0 V
-62 213 R
62 0 V
0 -255 R
0 205 V
2772 798 M
62 0 V
-62 205 R
62 0 V
-1 -292 R
0 205 V
2802 711 M
62 0 V
-62 205 R
62 0 V
0 -92 R
0 221 V
2833 824 M
62 0 V
-62 221 R
62 0 V
0 -511 R
0 196 V
2864 534 M
62 0 V
-62 196 R
62 0 V
0 34 R
0 222 V
2895 764 M
62 0 V
-62 222 R
62 0 V
0 -205 R
0 222 V
2926 781 M
62 0 V
stroke 2988 781 M
-62 222 R
62 0 V
0 -299 R
0 222 V
2957 704 M
62 0 V
-62 222 R
62 0 V
-1 -340 R
0 212 V
2987 586 M
62 0 V
-62 212 R
62 0 V
0 -81 R
0 230 V
3018 717 M
62 0 V
-62 230 R
62 0 V
0 -374 R
0 221 V
3049 573 M
62 0 V
-62 221 R
62 0 V
0 -389 R
0 130 V
-31 0 R
62 0 V
0 80 R
0 229 V
3111 615 M
62 0 V
-62 229 R
62 0 V
0 -298 R
0 227 V
3142 546 M
62 0 V
-62 227 R
62 0 V
0 -283 R
0 224 V
3173 490 M
62 0 V
-62 224 R
62 0 V
-1 -309 R
0 182 V
-31 0 R
62 0 V
0 -74 R
0 242 V
3234 513 M
62 0 V
-62 242 R
62 0 V
0 -267 R
0 242 V
3265 488 M
62 0 V
-62 242 R
62 0 V
0 -325 R
0 120 V
-31 0 R
62 0 V
0 -120 R
0 147 V
-31 0 R
62 0 V
0 54 R
0 267 V
3358 606 M
62 0 V
-62 267 R
62 0 V
-1 -332 R
0 264 V
3388 541 M
62 0 V
-62 264 R
62 0 V
0 -297 R
0 269 V
3419 508 M
62 0 V
-62 269 R
62 0 V
0 -338 R
0 261 V
3450 439 M
62 0 V
-62 261 R
62 0 V
31 -295 R
0 247 V
-31 0 R
62 0 V
0 -95 R
0 308 V
3543 557 M
62 0 V
stroke 3605 557 M
-62 308 R
62 0 V
-1 -460 R
0 272 V
-31 0 R
62 0 V
0 -272 R
0 221 V
-31 0 R
62 0 V
0 -85 R
0 343 V
3635 541 M
62 0 V
-62 343 R
62 0 V
31 -479 R
0 266 V
-31 0 R
62 0 V
0 -266 R
0 156 V
-31 0 R
62 0 V
-1 96 R
0 394 V
3758 657 M
62 0 V
-62 394 R
62 0 V
0 -382 R
0 408 V
3789 669 M
62 0 V
-62 408 R
62 0 V
0 -600 R
0 406 V
3820 477 M
62 0 V
-62 406 R
62 0 V
0 -427 R
0 421 V
3851 456 M
62 0 V
-62 421 R
62 0 V
31 -472 R
0 387 V
-31 0 R
46 0 V
2463 1131 TriU
2494 1126 TriU
2525 1365 TriU
2556 1175 TriU
2587 1230 TriU
2618 1365 TriU
2648 1251 TriU
2679 1087 TriU
2710 740 TriU
2741 900 TriU
2772 947 TriU
2803 900 TriU
2833 813 TriU
2864 935 TriU
2895 632 TriU
2926 875 TriU
2957 892 TriU
2988 815 TriU
3018 692 TriU
3049 832 TriU
3080 683 TriU
3111 435 TriU
3142 730 TriU
3173 660 TriU
3204 602 TriU
3234 482 TriU
3265 634 TriU
3296 609 TriU
3327 414 TriU
3358 435 TriU
3389 740 TriU
3419 673 TriU
3450 642 TriU
3481 570 TriU
3543 515 TriU
3574 711 TriU
3604 533 TriU
3635 481 TriU
3666 712 TriU
3728 514 TriU
3759 407 TriU
3789 854 TriU
3820 873 TriU
3851 680 TriU
3882 666 TriU
3944 575 TriU
10895 -9659 TriU
% End plot #1
% Begin plot #2
2.400 UL
LTb
0.58 0.00 0.83 C LCb setrgbcolor
10739 -9737 M
[ [(Times-Roman) 130.0 0.0 true true 0 (3DFit)]
] -43.3 MRshow
2.400 UL
LTb
0.58 0.00 0.83 C 10817 -9737 M
156 0 V
2448 1424 M
15 -6 V
31 -24 V
31 -32 V
31 -43 V
31 -50 V
31 -54 V
30 -58 V
31 -60 V
31 -58 V
31 -55 V
31 -53 V
31 -48 V
30 -41 V
31 -37 V
31 -33 V
31 -25 V
31 -23 V
31 -18 V
30 -14 V
31 -10 V
31 -9 V
31 -7 V
31 -3 V
31 -3 V
31 -4 V
30 -2 V
31 0 V
31 -1 V
31 0 V
31 0 V
31 -2 V
30 0 V
31 0 V
31 0 V
31 0 V
31 0 V
31 0 V
30 0 V
31 0 V
31 0 V
31 0 V
31 0 V
31 0 V
30 0 V
31 0 V
31 0 V
31 0 V
31 0 V
31 0 V
15 0 V
% End plot #2
stroke
2.000 UL
LTb
LCb setrgbcolor
1.000 UL
LTB
LCb setrgbcolor
2448 1652 N
0 -1247 V
1511 0 V
0 1247 V
-1511 0 V
Z stroke
1.000 UP
1.000 UL
LTb
LCb setrgbcolor
1.000 UL
LTb
LCb setrgbcolor
3960 422 M
31 0 V
1480 0 R
-31 0 V
3960 490 M
31 0 V
1480 0 R
-31 0 V
3960 559 M
31 0 V
1480 0 R
-31 0 V
3960 627 M
63 0 V
1448 0 R
-63 0 V
stroke
3931 627 M
[ [(Times-Roman) 10.0 0.0 true true 0 ( 1)]
] -3.3 MRshow
1.000 UL
LTb
LCb setrgbcolor
3960 695 M
31 0 V
1480 0 R
-31 0 V
3960 764 M
31 0 V
1480 0 R
-31 0 V
3960 832 M
31 0 V
1480 0 R
-31 0 V
3960 900 M
31 0 V
1480 0 R
-31 0 V
3960 969 M
63 0 V
1448 0 R
-63 0 V
stroke
3931 969 M
[ [(Times-Roman) 10.0 0.0 true true 0 ( 1.2)]
] -3.3 MRshow
1.000 UL
LTb
LCb setrgbcolor
3960 1037 M
31 0 V
1480 0 R
-31 0 V
-1480 68 R
31 0 V
1480 0 R
-31 0 V
-1480 69 R
31 0 V
1480 0 R
-31 0 V
-1480 68 R
31 0 V
1480 0 R
-31 0 V
-1480 68 R
63 0 V
1448 0 R
-63 0 V
stroke
3931 1310 M
[ [(Times-Roman) 10.0 0.0 true true 0 ( 1.4)]
] -3.3 MRshow
1.000 UL
LTb
LCb setrgbcolor
3960 1379 M
31 0 V
1480 0 R
-31 0 V
-1480 68 R
31 0 V
1480 0 R
-31 0 V
-1480 68 R
31 0 V
1480 0 R
-31 0 V
-1480 69 R
31 0 V
1480 0 R
-31 0 V
-1480 68 R
63 0 V
1448 0 R
-63 0 V
stroke
3931 1652 M
[ [(Times-Roman) 10.0 0.0 true true 0 ( 1.6)]
] -3.3 MRshow
1.000 UL
LTb
LCb setrgbcolor
4053 405 M
0 31 V
0 1216 R
0 -31 V
4176 405 M
0 31 V
0 1216 R
0 -31 V
4299 405 M
0 31 V
0 1216 R
0 -31 V
4423 405 M
0 31 V
0 1216 R
0 -31 V
4546 405 M
0 63 V
0 1184 R
0 -63 V
stroke
4546 285 M
[ [(Times-Roman) 150.0 0.0 true true 0 ( 0.1)]
] -50.0 MCshow
1.000 UL
LTb
LCb setrgbcolor
4669 405 M
0 31 V
0 1216 R
0 -31 V
4793 405 M
0 31 V
0 1216 R
0 -31 V
4916 405 M
0 31 V
0 1216 R
0 -31 V
5039 405 M
0 31 V
0 1216 R
0 -31 V
5163 405 M
0 63 V
0 1184 R
0 -63 V
stroke
5163 285 M
[ [(Times-Roman) 150.0 0.0 true true 0 ( 0.2)]
] -50.0 MCshow
1.000 UL
LTb
LCb setrgbcolor
5286 405 M
0 31 V
0 1216 R
0 -31 V
5409 405 M
0 31 V
0 1216 R
0 -31 V
stroke
LTB
LCb setrgbcolor
3960 1652 N
0 -1247 V
1511 0 V
0 1247 V
-1511 0 V
Z stroke
1.000 UP
LCb setrgbcolor
4546 935 M
[ [(Times-Roman) 180.0 0.0 true true 0 (Rlong)]
] -60.0 MLshow
1.000 UL
LTb
LCb setrgbcolor
LCb setrgbcolor
3552 1028 M
currentpoint gsave translate -270 rotate 0 0 moveto
[ [(Times-Roman) 10.0 0.0 true true 0 (C\(q\))]
] -3.3 MCshow
grestore
LTb
% Begin plot #1
1.000 UP
2.000 UL
LTb
0.34 0.71 0.91 C LCb setrgbcolor
12251 -9652 M
[ [(Times-Roman) 130.0 0.0 true true 0 (CorrFunc)]
] -43.3 MRshow
1.000 UP
2.000 UL
LTb
0.34 0.71 0.91 C 12329 -9652 M
156 0 V
-156 31 R
0 -62 V
156 62 R
0 -62 V
3975 1220 M
0 432 V
-15 -432 R
46 0 V
0 25 R
0 407 V
-31 -407 R
62 0 V
31 -153 R
0 320 V
-31 -320 R
62 0 V
-62 320 R
62 0 V
0 -58 R
0 298 V
-31 -298 R
62 0 V
0 -316 R
0 296 V
-31 -296 R
62 0 V
-62 296 R
62 0 V
-1 -254 R
0 310 V
-31 -310 R
62 0 V
-62 310 R
62 0 V
0 -529 R
0 287 V
4160 861 M
62 0 V
-62 287 R
62 0 V
0 -216 R
0 303 V
4191 932 M
62 0 V
-62 303 R
62 0 V
0 -78 R
0 320 V
-31 -320 R
62 0 V
-62 320 R
62 0 V
0 -589 R
0 302 V
4253 888 M
62 0 V
-62 302 R
62 0 V
0 -305 R
0 301 V
4284 885 M
62 0 V
-62 301 R
62 0 V
-1 -450 R
0 294 V
4314 736 M
62 0 V
-62 294 R
62 0 V
0 -406 R
0 283 V
4345 624 M
62 0 V
-62 283 R
62 0 V
0 -159 R
0 298 V
4376 748 M
62 0 V
-62 298 R
62 0 V
0 -341 R
0 292 V
4407 705 M
62 0 V
-62 292 R
62 0 V
0 -327 R
0 300 V
4438 670 M
62 0 V
-62 300 R
62 0 V
0 -231 R
0 309 V
4469 739 M
62 0 V
-62 309 R
62 0 V
-1 -212 R
0 316 V
4499 836 M
62 0 V
stroke 4561 836 M
-62 316 R
62 0 V
0 -563 R
0 291 V
4530 589 M
62 0 V
-62 291 R
62 0 V
0 -58 R
0 328 V
4561 822 M
62 0 V
-62 328 R
62 0 V
0 -599 R
0 299 V
4592 551 M
62 0 V
-62 299 R
62 0 V
0 -248 R
0 310 V
4623 602 M
62 0 V
-62 310 R
62 0 V
0 -273 R
0 311 V
4654 639 M
62 0 V
-62 311 R
62 0 V
0 -505 R
0 286 V
4685 445 M
62 0 V
-62 286 R
62 0 V
-1 -326 R
0 280 V
-31 0 R
62 0 V
0 -100 R
0 316 V
4746 585 M
62 0 V
-62 316 R
62 0 V
0 -435 R
0 305 V
4777 466 M
62 0 V
-62 305 R
62 0 V
0 -366 R
0 297 V
-31 0 R
62 0 V
0 -59 R
0 347 V
4839 643 M
62 0 V
-62 347 R
62 0 V
0 -452 R
0 336 V
4870 538 M
62 0 V
-62 336 R
62 0 V
-1 -270 R
0 336 V
4900 604 M
62 0 V
-62 336 R
62 0 V
0 -535 R
0 261 V
-31 0 R
62 0 V
0 -261 R
0 223 V
-31 0 R
62 0 V
0 77 R
0 384 V
4993 705 M
62 0 V
-62 384 R
62 0 V
0 -648 R
0 331 V
5024 441 M
62 0 V
-62 331 R
62 0 V
0 -265 R
0 363 V
5055 507 M
62 0 V
-62 363 R
62 0 V
-1 -273 R
0 368 V
stroke 5116 965 M
5085 597 M
62 0 V
-62 368 R
62 0 V
0 -535 R
0 365 V
5116 430 M
62 0 V
-62 365 R
62 0 V
0 -45 R
0 407 V
5147 750 M
62 0 V
-62 407 R
62 0 V
0 -646 R
0 397 V
5178 511 M
62 0 V
-62 397 R
62 0 V
0 -408 R
0 374 V
5209 500 M
62 0 V
-62 374 R
62 0 V
0 -417 R
0 384 V
5240 457 M
62 0 V
-62 384 R
62 0 V
-1 -312 R
0 405 V
5270 529 M
62 0 V
-62 405 R
62 0 V
0 -529 R
0 391 V
-31 0 R
62 0 V
0 -237 R
0 430 V
5332 559 M
62 0 V
-62 430 R
62 0 V
0 -322 R
0 470 V
5363 667 M
62 0 V
-62 470 R
62 0 V
0 -645 R
0 438 V
5394 492 M
62 0 V
-62 438 R
62 0 V
0 -525 R
0 367 V
-31 0 R
46 0 V
3975 1519 TriU
4006 1493 TriU
4068 1252 TriU
4099 1522 TriU
4130 1186 TriU
4160 1235 TriU
4191 1005 TriU
4222 1083 TriU
4253 1317 TriU
4284 1039 TriU
4315 1035 TriU
4345 883 TriU
4376 765 TriU
4407 897 TriU
4438 851 TriU
4469 820 TriU
4500 894 TriU
4530 994 TriU
4561 735 TriU
4592 986 TriU
4623 701 TriU
4654 757 TriU
4685 794 TriU
4716 588 TriU
4746 541 TriU
4777 743 TriU
4808 619 TriU
4839 553 TriU
4870 817 TriU
4901 706 TriU
4931 772 TriU
4962 509 TriU
4993 473 TriU
5024 897 TriU
5055 606 TriU
5086 689 TriU
5116 781 TriU
5147 613 TriU
5178 953 TriU
5209 709 TriU
5240 687 TriU
5271 649 TriU
5301 731 TriU
5332 598 TriU
5363 774 TriU
5394 902 TriU
5425 711 TriU
5456 566 TriU
12407 -9652 TriU
% End plot #1
% Begin plot #2
2.400 UL
LTb
0.58 0.00 0.83 C LCb setrgbcolor
12251 -9717 M
[ [(Times-Roman) 130.0 0.0 true true 0 (3DFit)]
] -43.3 MRshow
2.400 UL
LTb
0.58 0.00 0.83 C 12329 -9717 M
156 0 V
3960 1507 M
15 -5 V
31 -21 V
31 -29 V
31 -36 V
31 -44 V
31 -50 V
30 -53 V
31 -54 V
31 -57 V
31 -54 V
31 -53 V
31 -52 V
30 -46 V
31 -44 V
31 -38 V
31 -34 V
31 -29 V
31 -25 V
30 -23 V
31 -17 V
31 -13 V
31 -12 V
31 -9 V
31 -8 V
31 -6 V
30 -3 V
31 -3 V
31 -2 V
31 -2 V
31 -2 V
31 -1 V
30 0 V
31 0 V
31 0 V
31 -2 V
31 0 V
31 0 V
30 0 V
31 0 V
31 0 V
31 0 V
31 0 V
31 0 V
30 0 V
31 0 V
31 0 V
31 0 V
31 0 V
31 0 V
15 0 V
% End plot #2
stroke
2.000 UL
LTb
LCb setrgbcolor
1.000 UL
LTB
LCb setrgbcolor
3960 1652 N
0 -1247 V
1511 0 V
0 1247 V
-1511 0 V
Z stroke
1.000 UP
1.000 UL
LTb
LCb setrgbcolor
1.000 UL
LTb
LCb setrgbcolor
5472 422 M
31 0 V
1479 0 R
-31 0 V
5472 490 M
31 0 V
1479 0 R
-31 0 V
5472 559 M
31 0 V
1479 0 R
-31 0 V
5472 627 M
63 0 V
1447 0 R
-63 0 V
stroke
5443 627 M
[ [(Times-Roman) 10.0 0.0 true true 0 ( 1)]
] -3.3 MRshow
1.000 UL
LTb
LCb setrgbcolor
5472 695 M
31 0 V
1479 0 R
-31 0 V
5472 764 M
31 0 V
1479 0 R
-31 0 V
5472 832 M
31 0 V
1479 0 R
-31 0 V
5472 900 M
31 0 V
1479 0 R
-31 0 V
5472 969 M
63 0 V
1447 0 R
-63 0 V
stroke
5443 969 M
[ [(Times-Roman) 10.0 0.0 true true 0 ( 1.2)]
] -3.3 MRshow
1.000 UL
LTb
LCb setrgbcolor
5472 1037 M
31 0 V
1479 0 R
-31 0 V
-1479 68 R
31 0 V
1479 0 R
-31 0 V
-1479 69 R
31 0 V
1479 0 R
-31 0 V
-1479 68 R
31 0 V
1479 0 R
-31 0 V
-1479 68 R
63 0 V
1447 0 R
-63 0 V
stroke
5443 1310 M
[ [(Times-Roman) 10.0 0.0 true true 0 ( 1.4)]
] -3.3 MRshow
1.000 UL
LTb
LCb setrgbcolor
5472 1379 M
31 0 V
1479 0 R
-31 0 V
-1479 68 R
31 0 V
1479 0 R
-31 0 V
-1479 68 R
31 0 V
1479 0 R
-31 0 V
-1479 69 R
31 0 V
1479 0 R
-31 0 V
-1479 68 R
63 0 V
1447 0 R
-63 0 V
stroke
5443 1652 M
[ [(Times-Roman) 10.0 0.0 true true 0 ( 1.6)]
] -3.3 MRshow
1.000 UL
LTb
LCb setrgbcolor
5564 405 M
0 31 V
0 1216 R
0 -31 V
5688 405 M
0 31 V
0 1216 R
0 -31 V
5811 405 M
0 31 V
0 1216 R
0 -31 V
5934 405 M
0 31 V
0 1216 R
0 -31 V
6058 405 M
0 63 V
0 1184 R
0 -63 V
stroke
6058 285 M
[ [(Times-Roman) 150.0 0.0 true true 0 ( 0.1)]
] -50.0 MCshow
1.000 UL
LTb
LCb setrgbcolor
6181 405 M
0 31 V
0 1216 R
0 -31 V
6304 405 M
0 31 V
0 1216 R
0 -31 V
6427 405 M
0 31 V
0 1216 R
0 -31 V
6551 405 M
0 31 V
0 1216 R
0 -31 V
6674 405 M
0 63 V
0 1184 R
0 -63 V
stroke
6674 285 M
[ [(Times-Roman) 150.0 0.0 true true 0 ( 0.2)]
] -50.0 MCshow
1.000 UL
LTb
LCb setrgbcolor
6797 405 M
0 31 V
0 1216 R
0 -31 V
6920 405 M
0 31 V
0 1216 R
0 -31 V
stroke
LTB
LCb setrgbcolor
5472 1652 N
0 -1247 V
1510 0 V
0 1247 V
-1510 0 V
Z stroke
1.000 UP
LCb setrgbcolor
6058 935 M
[ [(Times-Roman) 180.0 0.0 true true 0 (Rlong)]
] -60.0 MLshow
1.000 UL
LTb
LCb setrgbcolor
LCb setrgbcolor
5064 1028 M
currentpoint gsave translate -270 rotate 0 0 moveto
[ [(Times-Roman) 10.0 0.0 true true 0 (C\(q\))]
] -3.3 MCshow
grestore
LTb
% Begin plot #1
1.000 UP
2.000 UL
LTb
0.34 0.71 0.91 C LCb setrgbcolor
13758 -9652 M
[ [(Times-Roman) 130.0 0.0 true true 0 (CorrFunc)]
] -43.3 MRshow
1.000 UP
2.000 UL
LTb
0.34 0.71 0.91 C 13836 -9652 M
156 0 V
-156 31 R
0 -62 V
156 62 R
0 -62 V
5487 405 M
0 1247 V
5518 405 M
0 697 V
-31 0 R
62 0 V
31 -122 R
0 672 V
5549 980 M
62 0 V
0 -293 R
0 502 V
5580 687 M
62 0 V
-62 502 R
62 0 V
-1 65 R
0 398 V
-31 -398 R
62 0 V
0 -49 R
0 447 V
-31 -447 R
62 0 V
0 144 R
0 303 V
-31 -303 R
62 0 V
0 -425 R
0 472 V
5703 924 M
62 0 V
-62 472 R
62 0 V
0 -62 R
0 318 V
-31 -318 R
62 0 V
0 -495 R
0 461 V
5765 839 M
62 0 V
-62 461 R
62 0 V
-1 -33 R
0 385 V
-31 -385 R
62 0 V
0 -342 R
0 446 V
5826 925 M
62 0 V
-62 446 R
62 0 V
0 -659 R
0 421 V
5857 712 M
62 0 V
-62 421 R
62 0 V
0 -262 R
0 469 V
5888 871 M
62 0 V
-62 469 R
62 0 V
0 -773 R
0 420 V
5919 567 M
62 0 V
-62 420 R
62 0 V
-1 -186 R
0 465 V
5949 801 M
62 0 V
-62 465 R
62 0 V
0 -555 R
0 454 V
5980 711 M
62 0 V
-62 454 R
62 0 V
0 -426 R
0 459 V
6011 739 M
62 0 V
-62 459 R
62 0 V
0 -653 R
0 434 V
6042 545 M
62 0 V
-62 434 R
62 0 V
0 -413 R
0 447 V
6073 566 M
62 0 V
stroke 6135 566 M
-62 447 R
62 0 V
0 -531 R
0 416 V
6104 482 M
62 0 V
-62 416 R
62 0 V
-1 -124 R
0 488 V
6134 774 M
62 0 V
-62 488 R
62 0 V
0 -503 R
0 494 V
6165 759 M
62 0 V
-62 494 R
62 0 V
0 -848 R
0 426 V
-31 0 R
62 0 V
0 -426 R
0 258 V
-31 0 R
62 0 V
0 -74 R
0 486 V
6258 589 M
62 0 V
-62 486 R
62 0 V
-1 -499 R
0 471 V
6288 576 M
62 0 V
-62 471 R
62 0 V
0 -642 R
0 427 V
-31 0 R
62 0 V
0 -427 R
0 263 V
-31 0 R
62 0 V
0 47 R
0 497 V
6381 715 M
62 0 V
-62 497 R
62 0 V
0 -375 R
0 499 V
6412 837 M
62 0 V
-62 499 R
62 0 V
0 -931 R
0 225 V
-31 0 R
62 0 V
-1 -52 R
0 501 V
6473 578 M
62 0 V
-62 501 R
62 0 V
0 -674 R
0 417 V
-31 0 R
62 0 V
0 -417 R
0 377 V
-31 0 R
62 0 V
31 -377 R
0 446 V
-31 0 R
62 0 V
-1 -395 R
0 489 V
6627 456 M
62 0 V
-62 489 R
62 0 V
0 -391 R
0 495 V
6658 554 M
62 0 V
-62 495 R
62 0 V
0 -514 R
0 526 V
6689 535 M
62 0 V
-62 526 R
62 0 V
0 -487 R
0 533 V
6720 574 M
62 0 V
stroke 6782 574 M
-62 533 R
62 0 V
0 -702 R
0 515 V
-31 0 R
62 0 V
0 -515 R
0 504 V
-31 0 R
62 0 V
-1 -504 R
0 498 V
-31 0 R
62 0 V
0 -448 R
0 549 V
6843 455 M
62 0 V
-62 549 R
62 0 V
0 -481 R
0 547 V
6874 523 M
62 0 V
-62 547 R
62 0 V
0 -609 R
0 558 V
6905 461 M
62 0 V
-62 558 R
62 0 V
0 -614 R
0 452 V
-31 0 R
46 0 V
5487 1022 TriU
5518 553 TriU
5580 1329 TriU
5611 938 TriU
5641 1515 TriU
5672 1462 TriU
5703 1614 TriU
5734 1160 TriU
5765 1604 TriU
5796 1069 TriU
5826 1541 TriU
5857 1148 TriU
5888 923 TriU
5919 1105 TriU
5950 777 TriU
5980 1034 TriU
6011 938 TriU
6042 969 TriU
6073 762 TriU
6104 789 TriU
6135 690 TriU
6165 1018 TriU
6196 1006 TriU
6227 601 TriU
6258 464 TriU
6289 832 TriU
6319 812 TriU
6350 604 TriU
6381 465 TriU
6412 964 TriU
6443 1087 TriU
6474 429 TriU
6504 829 TriU
6535 605 TriU
6566 550 TriU
6628 615 TriU
6658 701 TriU
6689 801 TriU
6720 798 TriU
6751 841 TriU
6782 660 TriU
6813 654 TriU
6843 651 TriU
6874 730 TriU
6905 796 TriU
6936 740 TriU
6967 596 TriU
13914 -9652 TriU
% End plot #1
% Begin plot #2
2.400 UL
LTb
0.58 0.00 0.83 C LCb setrgbcolor
13758 -9717 M
[ [(Times-Roman) 130.0 0.0 true true 0 (3DFit)]
] -43.3 MRshow
2.400 UL
LTb
0.58 0.00 0.83 C 13836 -9717 M
156 0 V
5472 1153 M
15 0 V
31 0 V
31 0 V
31 0 V
31 0 V
30 0 V
31 0 V
31 0 V
31 0 V
31 0 V
31 0 V
30 0 V
31 0 V
31 0 V
31 0 V
31 0 V
30 0 V
31 0 V
31 0 V
31 0 V
31 0 V
31 0 V
30 0 V
31 0 V
31 0 V
31 0 V
31 0 V
30 0 V
31 0 V
31 0 V
31 0 V
31 0 V
31 0 V
30 0 V
31 0 V
31 0 V
31 0 V
31 0 V
30 0 V
31 0 V
31 0 V
31 0 V
31 0 V
31 0 V
30 0 V
31 0 V
31 0 V
31 0 V
31 0 V
15 0 V
% End plot #2
stroke
2.000 UL
LTb
LCb setrgbcolor
1.000 UL
LTB
LCb setrgbcolor
5472 1652 N
0 -1247 V
1510 0 V
0 1247 V
-1510 0 V
Z stroke
1.000 UP
1.000 UL
LTb
LCb setrgbcolor
stroke
grestore
end
showpage
%%Trailer
%%DocumentFonts: Times-Roman
%%Pages: 1
