%!PS-Adobe-2.0
%%Title: image.eps
%%Creator: gnuplot 5.0 patchlevel 3
%%CreationDate: Mon Feb  5 14:56:50 2018
%%DocumentFonts: (atend)
%%BoundingBox: 50 50 554 770
%%Orientation: Landscape
%%Pages: (atend)
%%EndComments
%%BeginProlog
/gnudict 256 dict def
gnudict begin
%
% The following true/false flags may be edited by hand if desired.
% The unit line width and grayscale image gamma correction may also be changed.
%
/Color true def
/Blacktext false def
/Solid false def
/Dashlength 1 def
/Landscape true def
/Level1 false def
/Level3 false def
/Rounded false def
/ClipToBoundingBox false def
/SuppressPDFMark false def
/TransparentPatterns false def
/gnulinewidth 5.000 def
/userlinewidth gnulinewidth def
/Gamma 1.0 def
/BackgroundColor {-1.000 -1.000 -1.000} def
%
/vshift -80 def
/dl1 {
  10.0 Dashlength userlinewidth gnulinewidth div mul mul mul
  Rounded { currentlinewidth 0.75 mul sub dup 0 le { pop 0.01 } if } if
} def
/dl2 {
  10.0 Dashlength userlinewidth gnulinewidth div mul mul mul
  Rounded { currentlinewidth 0.75 mul add } if
} def
/hpt_ 31.5 def
/vpt_ 31.5 def
/hpt hpt_ def
/vpt vpt_ def
/doclip {
  ClipToBoundingBox {
    newpath 50 50 moveto 554 50 lineto 554 770 lineto 50 770 lineto closepath
    clip
  } if
} def
%
% Gnuplot Prolog Version 5.1 (Oct 2015)
%
%/SuppressPDFMark true def
%
/M {moveto} bind def
/L {lineto} bind def
/R {rmoveto} bind def
/V {rlineto} bind def
/N {newpath moveto} bind def
/Z {closepath} bind def
/C {setrgbcolor} bind def
/f {rlineto fill} bind def
/g {setgray} bind def
/Gshow {show} def   % May be redefined later in the file to support UTF-8
/vpt2 vpt 2 mul def
/hpt2 hpt 2 mul def
/Lshow {currentpoint stroke M 0 vshift R 
	Blacktext {gsave 0 setgray textshow grestore} {textshow} ifelse} def
/Rshow {currentpoint stroke M dup stringwidth pop neg vshift R
	Blacktext {gsave 0 setgray textshow grestore} {textshow} ifelse} def
/Cshow {currentpoint stroke M dup stringwidth pop -2 div vshift R 
	Blacktext {gsave 0 setgray textshow grestore} {textshow} ifelse} def
/UP {dup vpt_ mul /vpt exch def hpt_ mul /hpt exch def
  /hpt2 hpt 2 mul def /vpt2 vpt 2 mul def} def
/DL {Color {setrgbcolor Solid {pop []} if 0 setdash}
 {pop pop pop 0 setgray Solid {pop []} if 0 setdash} ifelse} def
/BL {stroke userlinewidth 2 mul setlinewidth
	Rounded {1 setlinejoin 1 setlinecap} if} def
/AL {stroke userlinewidth 2 div setlinewidth
	Rounded {1 setlinejoin 1 setlinecap} if} def
/UL {dup gnulinewidth mul /userlinewidth exch def
	dup 1 lt {pop 1} if 10 mul /udl exch def} def
/PL {stroke userlinewidth setlinewidth
	Rounded {1 setlinejoin 1 setlinecap} if} def
3.8 setmiterlimit
% Classic Line colors (version 5.0)
/LCw {1 1 1} def
/LCb {0 0 0} def
/LCa {0 0 0} def
/LC0 {1 0 0} def
/LC1 {0 1 0} def
/LC2 {0 0 1} def
/LC3 {1 0 1} def
/LC4 {0 1 1} def
/LC5 {1 1 0} def
/LC6 {0 0 0} def
/LC7 {1 0.3 0} def
/LC8 {0.5 0.5 0.5} def
% Default dash patterns (version 5.0)
/LTB {BL [] LCb DL} def
/LTw {PL [] 1 setgray} def
/LTb {PL [] LCb DL} def
/LTa {AL [1 udl mul 2 udl mul] 0 setdash LCa setrgbcolor} def
/LT0 {PL [] LC0 DL} def
/LT1 {PL [2 dl1 3 dl2] LC1 DL} def
/LT2 {PL [1 dl1 1.5 dl2] LC2 DL} def
/LT3 {PL [6 dl1 2 dl2 1 dl1 2 dl2] LC3 DL} def
/LT4 {PL [1 dl1 2 dl2 6 dl1 2 dl2 1 dl1 2 dl2] LC4 DL} def
/LT5 {PL [4 dl1 2 dl2] LC5 DL} def
/LT6 {PL [1.5 dl1 1.5 dl2 1.5 dl1 1.5 dl2 1.5 dl1 6 dl2] LC6 DL} def
/LT7 {PL [3 dl1 3 dl2 1 dl1 3 dl2] LC7 DL} def
/LT8 {PL [2 dl1 2 dl2 2 dl1 6 dl2] LC8 DL} def
/SL {[] 0 setdash} def
/Pnt {stroke [] 0 setdash gsave 1 setlinecap M 0 0 V stroke grestore} def
/Dia {stroke [] 0 setdash 2 copy vpt add M
  hpt neg vpt neg V hpt vpt neg V
  hpt vpt V hpt neg vpt V closepath stroke
  Pnt} def
/Pls {stroke [] 0 setdash vpt sub M 0 vpt2 V
  currentpoint stroke M
  hpt neg vpt neg R hpt2 0 V stroke
 } def
/Box {stroke [] 0 setdash 2 copy exch hpt sub exch vpt add M
  0 vpt2 neg V hpt2 0 V 0 vpt2 V
  hpt2 neg 0 V closepath stroke
  Pnt} def
/Crs {stroke [] 0 setdash exch hpt sub exch vpt add M
  hpt2 vpt2 neg V currentpoint stroke M
  hpt2 neg 0 R hpt2 vpt2 V stroke} def
/TriU {stroke [] 0 setdash 2 copy vpt 1.12 mul add M
  hpt neg vpt -1.62 mul V
  hpt 2 mul 0 V
  hpt neg vpt 1.62 mul V closepath stroke
  Pnt} def
/Star {2 copy Pls Crs} def
/BoxF {stroke [] 0 setdash exch hpt sub exch vpt add M
  0 vpt2 neg V hpt2 0 V 0 vpt2 V
  hpt2 neg 0 V closepath fill} def
/TriUF {stroke [] 0 setdash vpt 1.12 mul add M
  hpt neg vpt -1.62 mul V
  hpt 2 mul 0 V
  hpt neg vpt 1.62 mul V closepath fill} def
/TriD {stroke [] 0 setdash 2 copy vpt 1.12 mul sub M
  hpt neg vpt 1.62 mul V
  hpt 2 mul 0 V
  hpt neg vpt -1.62 mul V closepath stroke
  Pnt} def
/TriDF {stroke [] 0 setdash vpt 1.12 mul sub M
  hpt neg vpt 1.62 mul V
  hpt 2 mul 0 V
  hpt neg vpt -1.62 mul V closepath fill} def
/DiaF {stroke [] 0 setdash vpt add M
  hpt neg vpt neg V hpt vpt neg V
  hpt vpt V hpt neg vpt V closepath fill} def
/Pent {stroke [] 0 setdash 2 copy gsave
  translate 0 hpt M 4 {72 rotate 0 hpt L} repeat
  closepath stroke grestore Pnt} def
/PentF {stroke [] 0 setdash gsave
  translate 0 hpt M 4 {72 rotate 0 hpt L} repeat
  closepath fill grestore} def
/Circle {stroke [] 0 setdash 2 copy
  hpt 0 360 arc stroke Pnt} def
/CircleF {stroke [] 0 setdash hpt 0 360 arc fill} def
/C0 {BL [] 0 setdash 2 copy moveto vpt 90 450 arc} bind def
/C1 {BL [] 0 setdash 2 copy moveto
	2 copy vpt 0 90 arc closepath fill
	vpt 0 360 arc closepath} bind def
/C2 {BL [] 0 setdash 2 copy moveto
	2 copy vpt 90 180 arc closepath fill
	vpt 0 360 arc closepath} bind def
/C3 {BL [] 0 setdash 2 copy moveto
	2 copy vpt 0 180 arc closepath fill
	vpt 0 360 arc closepath} bind def
/C4 {BL [] 0 setdash 2 copy moveto
	2 copy vpt 180 270 arc closepath fill
	vpt 0 360 arc closepath} bind def
/C5 {BL [] 0 setdash 2 copy moveto
	2 copy vpt 0 90 arc
	2 copy moveto
	2 copy vpt 180 270 arc closepath fill
	vpt 0 360 arc} bind def
/C6 {BL [] 0 setdash 2 copy moveto
	2 copy vpt 90 270 arc closepath fill
	vpt 0 360 arc closepath} bind def
/C7 {BL [] 0 setdash 2 copy moveto
	2 copy vpt 0 270 arc closepath fill
	vpt 0 360 arc closepath} bind def
/C8 {BL [] 0 setdash 2 copy moveto
	2 copy vpt 270 360 arc closepath fill
	vpt 0 360 arc closepath} bind def
/C9 {BL [] 0 setdash 2 copy moveto
	2 copy vpt 270 450 arc closepath fill
	vpt 0 360 arc closepath} bind def
/C10 {BL [] 0 setdash 2 copy 2 copy moveto vpt 270 360 arc closepath fill
	2 copy moveto
	2 copy vpt 90 180 arc closepath fill
	vpt 0 360 arc closepath} bind def
/C11 {BL [] 0 setdash 2 copy moveto
	2 copy vpt 0 180 arc closepath fill
	2 copy moveto
	2 copy vpt 270 360 arc closepath fill
	vpt 0 360 arc closepath} bind def
/C12 {BL [] 0 setdash 2 copy moveto
	2 copy vpt 180 360 arc closepath fill
	vpt 0 360 arc closepath} bind def
/C13 {BL [] 0 setdash 2 copy moveto
	2 copy vpt 0 90 arc closepath fill
	2 copy moveto
	2 copy vpt 180 360 arc closepath fill
	vpt 0 360 arc closepath} bind def
/C14 {BL [] 0 setdash 2 copy moveto
	2 copy vpt 90 360 arc closepath fill
	vpt 0 360 arc} bind def
/C15 {BL [] 0 setdash 2 copy vpt 0 360 arc closepath fill
	vpt 0 360 arc closepath} bind def
/Rec {newpath 4 2 roll moveto 1 index 0 rlineto 0 exch rlineto
	neg 0 rlineto closepath} bind def
/Square {dup Rec} bind def
/Bsquare {vpt sub exch vpt sub exch vpt2 Square} bind def
/S0 {BL [] 0 setdash 2 copy moveto 0 vpt rlineto BL Bsquare} bind def
/S1 {BL [] 0 setdash 2 copy vpt Square fill Bsquare} bind def
/S2 {BL [] 0 setdash 2 copy exch vpt sub exch vpt Square fill Bsquare} bind def
/S3 {BL [] 0 setdash 2 copy exch vpt sub exch vpt2 vpt Rec fill Bsquare} bind def
/S4 {BL [] 0 setdash 2 copy exch vpt sub exch vpt sub vpt Square fill Bsquare} bind def
/S5 {BL [] 0 setdash 2 copy 2 copy vpt Square fill
	exch vpt sub exch vpt sub vpt Square fill Bsquare} bind def
/S6 {BL [] 0 setdash 2 copy exch vpt sub exch vpt sub vpt vpt2 Rec fill Bsquare} bind def
/S7 {BL [] 0 setdash 2 copy exch vpt sub exch vpt sub vpt vpt2 Rec fill
	2 copy vpt Square fill Bsquare} bind def
/S8 {BL [] 0 setdash 2 copy vpt sub vpt Square fill Bsquare} bind def
/S9 {BL [] 0 setdash 2 copy vpt sub vpt vpt2 Rec fill Bsquare} bind def
/S10 {BL [] 0 setdash 2 copy vpt sub vpt Square fill 2 copy exch vpt sub exch vpt Square fill
	Bsquare} bind def
/S11 {BL [] 0 setdash 2 copy vpt sub vpt Square fill 2 copy exch vpt sub exch vpt2 vpt Rec fill
	Bsquare} bind def
/S12 {BL [] 0 setdash 2 copy exch vpt sub exch vpt sub vpt2 vpt Rec fill Bsquare} bind def
/S13 {BL [] 0 setdash 2 copy exch vpt sub exch vpt sub vpt2 vpt Rec fill
	2 copy vpt Square fill Bsquare} bind def
/S14 {BL [] 0 setdash 2 copy exch vpt sub exch vpt sub vpt2 vpt Rec fill
	2 copy exch vpt sub exch vpt Square fill Bsquare} bind def
/S15 {BL [] 0 setdash 2 copy Bsquare fill Bsquare} bind def
/D0 {gsave translate 45 rotate 0 0 S0 stroke grestore} bind def
/D1 {gsave translate 45 rotate 0 0 S1 stroke grestore} bind def
/D2 {gsave translate 45 rotate 0 0 S2 stroke grestore} bind def
/D3 {gsave translate 45 rotate 0 0 S3 stroke grestore} bind def
/D4 {gsave translate 45 rotate 0 0 S4 stroke grestore} bind def
/D5 {gsave translate 45 rotate 0 0 S5 stroke grestore} bind def
/D6 {gsave translate 45 rotate 0 0 S6 stroke grestore} bind def
/D7 {gsave translate 45 rotate 0 0 S7 stroke grestore} bind def
/D8 {gsave translate 45 rotate 0 0 S8 stroke grestore} bind def
/D9 {gsave translate 45 rotate 0 0 S9 stroke grestore} bind def
/D10 {gsave translate 45 rotate 0 0 S10 stroke grestore} bind def
/D11 {gsave translate 45 rotate 0 0 S11 stroke grestore} bind def
/D12 {gsave translate 45 rotate 0 0 S12 stroke grestore} bind def
/D13 {gsave translate 45 rotate 0 0 S13 stroke grestore} bind def
/D14 {gsave translate 45 rotate 0 0 S14 stroke grestore} bind def
/D15 {gsave translate 45 rotate 0 0 S15 stroke grestore} bind def
/DiaE {stroke [] 0 setdash vpt add M
  hpt neg vpt neg V hpt vpt neg V
  hpt vpt V hpt neg vpt V closepath stroke} def
/BoxE {stroke [] 0 setdash exch hpt sub exch vpt add M
  0 vpt2 neg V hpt2 0 V 0 vpt2 V
  hpt2 neg 0 V closepath stroke} def
/TriUE {stroke [] 0 setdash vpt 1.12 mul add M
  hpt neg vpt -1.62 mul V
  hpt 2 mul 0 V
  hpt neg vpt 1.62 mul V closepath stroke} def
/TriDE {stroke [] 0 setdash vpt 1.12 mul sub M
  hpt neg vpt 1.62 mul V
  hpt 2 mul 0 V
  hpt neg vpt -1.62 mul V closepath stroke} def
/PentE {stroke [] 0 setdash gsave
  translate 0 hpt M 4 {72 rotate 0 hpt L} repeat
  closepath stroke grestore} def
/CircE {stroke [] 0 setdash 
  hpt 0 360 arc stroke} def
/Opaque {gsave closepath 1 setgray fill grestore 0 setgray closepath} def
/DiaW {stroke [] 0 setdash vpt add M
  hpt neg vpt neg V hpt vpt neg V
  hpt vpt V hpt neg vpt V Opaque stroke} def
/BoxW {stroke [] 0 setdash exch hpt sub exch vpt add M
  0 vpt2 neg V hpt2 0 V 0 vpt2 V
  hpt2 neg 0 V Opaque stroke} def
/TriUW {stroke [] 0 setdash vpt 1.12 mul add M
  hpt neg vpt -1.62 mul V
  hpt 2 mul 0 V
  hpt neg vpt 1.62 mul V Opaque stroke} def
/TriDW {stroke [] 0 setdash vpt 1.12 mul sub M
  hpt neg vpt 1.62 mul V
  hpt 2 mul 0 V
  hpt neg vpt -1.62 mul V Opaque stroke} def
/PentW {stroke [] 0 setdash gsave
  translate 0 hpt M 4 {72 rotate 0 hpt L} repeat
  Opaque stroke grestore} def
/CircW {stroke [] 0 setdash 
  hpt 0 360 arc Opaque stroke} def
/BoxFill {gsave Rec 1 setgray fill grestore} def
/Density {
  /Fillden exch def
  currentrgbcolor
  /ColB exch def /ColG exch def /ColR exch def
  /ColR ColR Fillden mul Fillden sub 1 add def
  /ColG ColG Fillden mul Fillden sub 1 add def
  /ColB ColB Fillden mul Fillden sub 1 add def
  ColR ColG ColB setrgbcolor} def
/BoxColFill {gsave Rec PolyFill} def
/PolyFill {gsave Density fill grestore grestore} def
/h {rlineto rlineto rlineto gsave closepath fill grestore} bind def
%
% PostScript Level 1 Pattern Fill routine for rectangles
% Usage: x y w h s a XX PatternFill
%	x,y = lower left corner of box to be filled
%	w,h = width and height of box
%	  a = angle in degrees between lines and x-axis
%	 XX = 0/1 for no/yes cross-hatch
%
/PatternFill {gsave /PFa [ 9 2 roll ] def
  PFa 0 get PFa 2 get 2 div add PFa 1 get PFa 3 get 2 div add translate
  PFa 2 get -2 div PFa 3 get -2 div PFa 2 get PFa 3 get Rec
  TransparentPatterns {} {gsave 1 setgray fill grestore} ifelse
  clip
  currentlinewidth 0.5 mul setlinewidth
  /PFs PFa 2 get dup mul PFa 3 get dup mul add sqrt def
  0 0 M PFa 5 get rotate PFs -2 div dup translate
  0 1 PFs PFa 4 get div 1 add floor cvi
	{PFa 4 get mul 0 M 0 PFs V} for
  0 PFa 6 get ne {
	0 1 PFs PFa 4 get div 1 add floor cvi
	{PFa 4 get mul 0 2 1 roll M PFs 0 V} for
 } if
  stroke grestore} def
%
/languagelevel where
 {pop languagelevel} {1} ifelse
dup 2 lt
	{/InterpretLevel1 true def
	 /InterpretLevel3 false def}
	{/InterpretLevel1 Level1 def
	 2 gt
	    {/InterpretLevel3 Level3 def}
	    {/InterpretLevel3 false def}
	 ifelse }
 ifelse
%
% PostScript level 2 pattern fill definitions
%
/Level2PatternFill {
/Tile8x8 {/PaintType 2 /PatternType 1 /TilingType 1 /BBox [0 0 8 8] /XStep 8 /YStep 8}
	bind def
/KeepColor {currentrgbcolor [/Pattern /DeviceRGB] setcolorspace} bind def
<< Tile8x8
 /PaintProc {0.5 setlinewidth pop 0 0 M 8 8 L 0 8 M 8 0 L stroke} 
>> matrix makepattern
/Pat1 exch def
<< Tile8x8
 /PaintProc {0.5 setlinewidth pop 0 0 M 8 8 L 0 8 M 8 0 L stroke
	0 4 M 4 8 L 8 4 L 4 0 L 0 4 L stroke}
>> matrix makepattern
/Pat2 exch def
<< Tile8x8
 /PaintProc {0.5 setlinewidth pop 0 0 M 0 8 L
	8 8 L 8 0 L 0 0 L fill}
>> matrix makepattern
/Pat3 exch def
<< Tile8x8
 /PaintProc {0.5 setlinewidth pop -4 8 M 8 -4 L
	0 12 M 12 0 L stroke}
>> matrix makepattern
/Pat4 exch def
<< Tile8x8
 /PaintProc {0.5 setlinewidth pop -4 0 M 8 12 L
	0 -4 M 12 8 L stroke}
>> matrix makepattern
/Pat5 exch def
<< Tile8x8
 /PaintProc {0.5 setlinewidth pop -2 8 M 4 -4 L
	0 12 M 8 -4 L 4 12 M 10 0 L stroke}
>> matrix makepattern
/Pat6 exch def
<< Tile8x8
 /PaintProc {0.5 setlinewidth pop -2 0 M 4 12 L
	0 -4 M 8 12 L 4 -4 M 10 8 L stroke}
>> matrix makepattern
/Pat7 exch def
<< Tile8x8
 /PaintProc {0.5 setlinewidth pop 8 -2 M -4 4 L
	12 0 M -4 8 L 12 4 M 0 10 L stroke}
>> matrix makepattern
/Pat8 exch def
<< Tile8x8
 /PaintProc {0.5 setlinewidth pop 0 -2 M 12 4 L
	-4 0 M 12 8 L -4 4 M 8 10 L stroke}
>> matrix makepattern
/Pat9 exch def
/Pattern1 {PatternBgnd KeepColor Pat1 setpattern} bind def
/Pattern2 {PatternBgnd KeepColor Pat2 setpattern} bind def
/Pattern3 {PatternBgnd KeepColor Pat3 setpattern} bind def
/Pattern4 {PatternBgnd KeepColor Landscape {Pat5} {Pat4} ifelse setpattern} bind def
/Pattern5 {PatternBgnd KeepColor Landscape {Pat4} {Pat5} ifelse setpattern} bind def
/Pattern6 {PatternBgnd KeepColor Landscape {Pat9} {Pat6} ifelse setpattern} bind def
/Pattern7 {PatternBgnd KeepColor Landscape {Pat8} {Pat7} ifelse setpattern} bind def
} def
%
%
%End of PostScript Level 2 code
%
/PatternBgnd {
  TransparentPatterns {} {gsave 1 setgray fill grestore} ifelse
} def
%
% Substitute for Level 2 pattern fill codes with
% grayscale if Level 2 support is not selected.
%
/Level1PatternFill {
/Pattern1 {0.250 Density} bind def
/Pattern2 {0.500 Density} bind def
/Pattern3 {0.750 Density} bind def
/Pattern4 {0.125 Density} bind def
/Pattern5 {0.375 Density} bind def
/Pattern6 {0.625 Density} bind def
/Pattern7 {0.875 Density} bind def
} def
%
% Now test for support of Level 2 code
%
Level1 {Level1PatternFill} {Level2PatternFill} ifelse
%
/Symbol-Oblique /Symbol findfont [1 0 .167 1 0 0] makefont
dup length dict begin {1 index /FID eq {pop pop} {def} ifelse} forall
currentdict end definefont pop
%
/MFshow {
   { dup 5 get 3 ge
     { 5 get 3 eq {gsave} {grestore} ifelse }
     {dup dup 0 get findfont exch 1 get scalefont setfont
     [ currentpoint ] exch dup 2 get 0 exch R dup 5 get 2 ne {dup dup 6
     get exch 4 get {textshow} {stringwidth pop 0 R} ifelse }if dup 5 get 0 eq
     {dup 3 get {2 get neg 0 exch R pop} {pop aload pop M} ifelse} {dup 5
     get 1 eq {dup 2 get exch dup 3 get exch 6 get stringwidth pop -2 div
     dup 0 R} {dup 6 get stringwidth pop -2 div 0 R 6 get
     textshow 2 index {aload pop M neg 3 -1 roll neg R pop pop} {pop pop pop
     pop aload pop M} ifelse }ifelse }ifelse }
     ifelse }
   forall} def
/Gswidth {dup type /stringtype eq {stringwidth} {pop (n) stringwidth} ifelse} def
/MFwidth {0 exch { dup 5 get 3 ge { 5 get 3 eq { 0 } { pop } ifelse }
 {dup 3 get{dup dup 0 get findfont exch 1 get scalefont setfont
     6 get Gswidth pop add} {pop} ifelse} ifelse} forall} def
/MLshow { currentpoint stroke M
  0 exch R
  Blacktext {gsave 0 setgray MFshow grestore} {MFshow} ifelse } bind def
/MRshow { currentpoint stroke M
  exch dup MFwidth neg 3 -1 roll R
  Blacktext {gsave 0 setgray MFshow grestore} {MFshow} ifelse } bind def
/MCshow { currentpoint stroke M
  exch dup MFwidth -2 div 3 -1 roll R
  Blacktext {gsave 0 setgray MFshow grestore} {MFshow} ifelse } bind def
/XYsave    { [( ) 1 2 true false 3 ()] } bind def
/XYrestore { [( ) 1 2 true false 4 ()] } bind def
Level1 SuppressPDFMark or 
{} {
/SDict 10 dict def
systemdict /pdfmark known not {
  userdict /pdfmark systemdict /cleartomark get put
} if
SDict begin [
  /Title (image.eps)
  /Subject (gnuplot plot)
  /Creator (gnuplot 5.0 patchlevel 3)
  /Author (bad)
%  /Producer (gnuplot)
%  /Keywords ()
  /CreationDate (Mon Feb  5 14:56:50 2018)
  /DOCINFO pdfmark
end
} ifelse
%
% Support for boxed text - Ethan A Merritt May 2005
%
/InitTextBox { userdict /TBy2 3 -1 roll put userdict /TBx2 3 -1 roll put
           userdict /TBy1 3 -1 roll put userdict /TBx1 3 -1 roll put
	   /Boxing true def } def
/ExtendTextBox { Boxing
    { gsave dup false charpath pathbbox
      dup TBy2 gt {userdict /TBy2 3 -1 roll put} {pop} ifelse
      dup TBx2 gt {userdict /TBx2 3 -1 roll put} {pop} ifelse
      dup TBy1 lt {userdict /TBy1 3 -1 roll put} {pop} ifelse
      dup TBx1 lt {userdict /TBx1 3 -1 roll put} {pop} ifelse
      grestore } if } def
/PopTextBox { newpath TBx1 TBxmargin sub TBy1 TBymargin sub M
               TBx1 TBxmargin sub TBy2 TBymargin add L
	       TBx2 TBxmargin add TBy2 TBymargin add L
	       TBx2 TBxmargin add TBy1 TBymargin sub L closepath } def
/DrawTextBox { PopTextBox stroke /Boxing false def} def
/FillTextBox { gsave PopTextBox 1 1 1 setrgbcolor fill grestore /Boxing false def} def
0 0 0 0 InitTextBox
/TBxmargin 20 def
/TBymargin 20 def
/Boxing false def
/textshow { ExtendTextBox Gshow } def
%
% redundant definitions for compatibility with prologue.ps older than 5.0.2
/LTB {BL [] LCb DL} def
/LTb {PL [] LCb DL} def
end
%%EndProlog
%%Page: 1 1
gnudict begin
gsave
doclip
50 50 translate
0.100 0.100 scale
90 rotate
0 -5040 translate
0 setgray
newpath
(Times-Roman) findfont 240 scalefont setfont
BackgroundColor 0 lt 3 1 roll 0 lt exch 0 lt or or not {gsave BackgroundColor C clippath fill grestore} if
1.000 UL
LTb
LCb setrgbcolor
936 2916 M
31 0 V
1480 0 R
-31 0 V
936 2984 M
31 0 V
1480 0 R
-31 0 V
936 3053 M
31 0 V
1480 0 R
-31 0 V
936 3121 M
63 0 V
1448 0 R
-63 0 V
stroke
907 3121 M
[ [(Times-Roman) 200.0 0.0 true true 0 ( 1)]
] -66.7 MRshow
1.000 UL
LTb
LCb setrgbcolor
936 3189 M
31 0 V
1480 0 R
-31 0 V
936 3258 M
31 0 V
1480 0 R
-31 0 V
936 3326 M
31 0 V
1480 0 R
-31 0 V
936 3394 M
31 0 V
1480 0 R
-31 0 V
936 3463 M
63 0 V
1448 0 R
-63 0 V
stroke
907 3463 M
[ [(Times-Roman) 200.0 0.0 true true 0 ( 1.2)]
] -66.7 MRshow
1.000 UL
LTb
LCb setrgbcolor
936 3531 M
31 0 V
1480 0 R
-31 0 V
936 3599 M
31 0 V
1480 0 R
-31 0 V
936 3668 M
31 0 V
1480 0 R
-31 0 V
936 3736 M
31 0 V
1480 0 R
-31 0 V
936 3804 M
63 0 V
1448 0 R
-63 0 V
stroke
907 3804 M
[ [(Times-Roman) 200.0 0.0 true true 0 ( 1.4)]
] -66.7 MRshow
1.000 UL
LTb
LCb setrgbcolor
936 3873 M
31 0 V
1480 0 R
-31 0 V
936 3941 M
31 0 V
1480 0 R
-31 0 V
936 4009 M
31 0 V
1480 0 R
-31 0 V
936 4078 M
31 0 V
1480 0 R
-31 0 V
936 4146 M
63 0 V
1448 0 R
-63 0 V
stroke
907 4146 M
[ [(Times-Roman) 200.0 0.0 true true 0 ( 1.6)]
] -66.7 MRshow
1.000 UL
LTb
LCb setrgbcolor
1029 2899 M
0 31 V
0 1216 R
0 -31 V
1152 2899 M
0 31 V
0 1216 R
0 -31 V
1275 2899 M
0 31 V
0 1216 R
0 -31 V
1399 2899 M
0 31 V
0 1216 R
0 -31 V
1522 2899 M
0 63 V
0 1184 R
0 -63 V
stroke
1522 2779 M
[ [(Times-Roman) 10.0 0.0 true true 0 ( 0.1)]
] -3.3 MCshow
1.000 UL
LTb
LCb setrgbcolor
1645 2899 M
0 31 V
0 1216 R
0 -31 V
1769 2899 M
0 31 V
0 1216 R
0 -31 V
1892 2899 M
0 31 V
0 1216 R
0 -31 V
2015 2899 M
0 31 V
0 1216 R
0 -31 V
2139 2899 M
0 63 V
0 1184 R
0 -63 V
stroke
2139 2779 M
[ [(Times-Roman) 10.0 0.0 true true 0 ( 0.2)]
] -3.3 MCshow
1.000 UL
LTb
LCb setrgbcolor
2262 2899 M
0 31 V
0 1216 R
0 -31 V
2385 2899 M
0 31 V
0 1216 R
0 -31 V
stroke
LTB
LCb setrgbcolor
936 4146 N
0 -1247 V
1511 0 V
0 1247 V
-1511 0 V
Z stroke
1.000 UP
LCb setrgbcolor
1522 3429 M
[ [(Times-Roman) 180.0 0.0 true true 0 (Rside)]
] -60.0 MLshow
1.000 UL
LTb
LCb setrgbcolor
LCb setrgbcolor
528 3522 M
currentpoint gsave translate -270 rotate 0 0 moveto
[ [(Times-Roman) 220.0 0.0 true true 0 (C\(q\))]
] -73.3 MCshow
grestore
LTb
% Begin plot #1
1.000 UP
2.000 UL
LTb
0.34 0.71 0.91 C LCb setrgbcolor
1827 3876 M
[ [(Times-Roman) 130.0 0.0 true true 0 (CorrFunc)]
] -43.3 MRshow
1.000 UP
2.000 UL
LTb
0.34 0.71 0.91 C 1905 3876 M
156 0 V
-156 31 R
0 -62 V
156 62 R
0 -62 V
951 3761 M
0 385 V
936 3761 M
46 0 V
0 -398 R
0 326 V
951 3363 M
62 0 V
-62 326 R
62 0 V
0 -426 R
0 283 V
982 3263 M
62 0 V
-62 283 R
62 0 V
0 -94 R
0 278 V
-31 -278 R
62 0 V
-62 278 R
62 0 V
0 -380 R
0 249 V
-31 -249 R
62 0 V
-62 249 R
62 0 V
0 52 R
0 266 V
-31 -266 R
62 0 V
-62 266 R
62 0 V
-1 -202 R
0 264 V
-31 -264 R
62 0 V
-62 264 R
62 0 V
0 -494 R
0 243 V
-31 -243 R
62 0 V
-62 243 R
62 0 V
0 -168 R
0 246 V
-31 -246 R
62 0 V
-62 246 R
62 0 V
0 -351 R
0 238 V
-31 -238 R
62 0 V
-62 238 R
62 0 V
0 -335 R
0 237 V
-31 -237 R
62 0 V
-62 237 R
62 0 V
0 -270 R
0 227 V
-31 -227 R
62 0 V
-62 227 R
62 0 V
-1 -124 R
0 241 V
-31 -241 R
62 0 V
-62 241 R
62 0 V
0 -320 R
0 237 V
-31 -237 R
62 0 V
-62 237 R
62 0 V
0 -332 R
0 226 V
-31 -226 R
62 0 V
-62 226 R
62 0 V
0 -303 R
0 219 V
-31 -219 R
62 0 V
-62 219 R
62 0 V
0 -192 R
0 220 V
-31 -220 R
62 0 V
-62 220 R
62 0 V
stroke 1476 3424 M
0 -423 R
0 205 V
-31 -205 R
62 0 V
-62 205 R
62 0 V
-1 85 R
0 224 V
-31 -224 R
62 0 V
-62 224 R
62 0 V
0 -544 R
0 206 V
-31 -206 R
62 0 V
-62 206 R
62 0 V
0 -157 R
0 209 V
-31 -209 R
62 0 V
-62 209 R
62 0 V
0 -152 R
0 211 V
-31 -211 R
62 0 V
-62 211 R
62 0 V
0 -193 R
0 216 V
-31 -216 R
62 0 V
-62 216 R
62 0 V
31 -412 R
0 146 V
-31 0 R
62 0 V
-1 61 R
0 212 V
-31 -212 R
62 0 V
-62 212 R
62 0 V
0 -314 R
0 212 V
-31 -212 R
62 0 V
-62 212 R
62 0 V
0 -147 R
0 217 V
-31 -217 R
62 0 V
-62 217 R
62 0 V
0 -166 R
0 221 V
-31 -221 R
62 0 V
-62 221 R
62 0 V
0 -380 R
0 210 V
-31 -210 R
62 0 V
-62 210 R
62 0 V
0 -196 R
0 212 V
-31 -212 R
62 0 V
-62 212 R
62 0 V
-1 -288 R
0 104 V
-31 0 R
62 0 V
0 -20 R
0 214 V
-31 -214 R
62 0 V
-62 214 R
62 0 V
0 -188 R
0 218 V
-31 -218 R
62 0 V
-62 218 R
62 0 V
0 -328 R
0 137 V
-31 0 R
62 0 V
0 -74 R
0 214 V
-31 -214 R
62 0 V
-62 214 R
62 0 V
0 -277 R
0 166 V
stroke 2062 3065 M
-31 0 R
62 0 V
-1 -23 R
0 227 V
-31 -227 R
62 0 V
-62 227 R
62 0 V
0 -308 R
0 222 V
-31 -222 R
62 0 V
-62 222 R
62 0 V
0 -118 R
0 235 V
-31 -235 R
62 0 V
-62 235 R
62 0 V
0 -334 R
0 224 V
-31 -224 R
62 0 V
-62 224 R
62 0 V
0 -291 R
0 191 V
-31 0 R
62 0 V
0 -191 R
0 169 V
-31 0 R
62 0 V
-1 -127 R
0 229 V
-31 -229 R
62 0 V
-62 229 R
62 0 V
0 -248 R
0 224 V
-31 -224 R
62 0 V
-62 224 R
62 0 V
0 -74 R
0 248 V
-31 -248 R
62 0 V
-62 248 R
62 0 V
0 -421 R
0 203 V
-31 0 R
62 0 V
0 31 R
0 250 V
-31 -250 R
62 0 V
-62 250 R
62 0 V
0 -348 R
0 247 V
-31 -247 R
46 0 V
-46 247 R
46 0 V
951 3973 TriU
982 3526 TriU
1013 3405 TriU
1044 3591 TriU
1075 3475 TriU
1106 3784 TriU
1136 3847 TriU
1167 3606 TriU
1198 3683 TriU
1229 3574 TriU
1260 3476 TriU
1291 3439 TriU
1321 3548 TriU
1352 3468 TriU
1383 3367 TriU
1414 3287 TriU
1445 3314 TriU
1476 3103 TriU
1506 3403 TriU
1537 3074 TriU
1568 3124 TriU
1599 3183 TriU
1630 3203 TriU
1692 2947 TriU
1722 3212 TriU
1753 3110 TriU
1784 3177 TriU
1815 3230 TriU
1846 3066 TriU
1877 3081 TriU
1907 2903 TriU
1938 3090 TriU
1969 3118 TriU
2000 2937 TriU
2031 3069 TriU
2062 2961 TriU
2092 3155 TriU
2123 3072 TriU
2154 3183 TriU
2185 3078 TriU
2216 2981 TriU
2247 2960 TriU
2277 3055 TriU
2308 3034 TriU
2339 3196 TriU
2370 2990 TriU
2401 3258 TriU
2432 3159 TriU
1983 3876 TriU
% End plot #1
% Begin plot #2
2.400 UL
LTb
0.58 0.00 0.83 C LCb setrgbcolor
1827 3746 M
[ [(Times-Roman) 130.0 0.0 true true 0 (3DFit)]
] -43.3 MRshow
2.400 UL
LTb
0.58 0.00 0.83 C 1905 3746 M
156 0 V
936 3817 M
15 -4 V
31 -15 V
31 -23 V
31 -29 V
31 -34 V
31 -39 V
30 -39 V
31 -43 V
31 -41 V
31 -41 V
31 -38 V
31 -36 V
30 -32 V
31 -27 V
31 -26 V
31 -22 V
31 -17 V
31 -16 V
30 -12 V
31 -10 V
31 -7 V
31 -7 V
31 -3 V
31 -3 V
31 -4 V
30 -2 V
31 -1 V
31 0 V
31 0 V
31 -2 V
31 0 V
30 0 V
31 0 V
31 0 V
31 0 V
31 0 V
31 0 V
30 0 V
31 0 V
31 0 V
31 0 V
31 0 V
31 0 V
30 0 V
31 0 V
31 0 V
31 0 V
31 0 V
31 0 V
15 0 V
% End plot #2
stroke
2.000 UL
LTb
LCb setrgbcolor
1.000 UL
LTB
LCb setrgbcolor
936 4146 N
0 -1247 V
1511 0 V
0 1247 V
-1511 0 V
Z stroke
1.000 UP
1.000 UL
LTb
LCb setrgbcolor
1.000 UL
LTb
LCb setrgbcolor
2448 2916 M
31 0 V
1480 0 R
-31 0 V
-1480 68 R
31 0 V
1480 0 R
-31 0 V
-1480 69 R
31 0 V
1480 0 R
-31 0 V
-1480 68 R
63 0 V
1448 0 R
-63 0 V
stroke
2419 3121 M
[ [(Times-Roman) 10.0 0.0 true true 0 ( 1)]
] -3.3 MRshow
1.000 UL
LTb
LCb setrgbcolor
2448 3189 M
31 0 V
1480 0 R
-31 0 V
-1480 69 R
31 0 V
1480 0 R
-31 0 V
-1480 68 R
31 0 V
1480 0 R
-31 0 V
-1480 68 R
31 0 V
1480 0 R
-31 0 V
-1480 69 R
63 0 V
1448 0 R
-63 0 V
stroke
2419 3463 M
[ [(Times-Roman) 10.0 0.0 true true 0 ( 1.2)]
] -3.3 MRshow
1.000 UL
LTb
LCb setrgbcolor
2448 3531 M
31 0 V
1480 0 R
-31 0 V
-1480 68 R
31 0 V
1480 0 R
-31 0 V
-1480 69 R
31 0 V
1480 0 R
-31 0 V
-1480 68 R
31 0 V
1480 0 R
-31 0 V
-1480 68 R
63 0 V
1448 0 R
-63 0 V
stroke
2419 3804 M
[ [(Times-Roman) 10.0 0.0 true true 0 ( 1.4)]
] -3.3 MRshow
1.000 UL
LTb
LCb setrgbcolor
2448 3873 M
31 0 V
1480 0 R
-31 0 V
-1480 68 R
31 0 V
1480 0 R
-31 0 V
-1480 68 R
31 0 V
1480 0 R
-31 0 V
-1480 69 R
31 0 V
1480 0 R
-31 0 V
-1480 68 R
63 0 V
1448 0 R
-63 0 V
stroke
2419 4146 M
[ [(Times-Roman) 10.0 0.0 true true 0 ( 1.6)]
] -3.3 MRshow
1.000 UL
LTb
LCb setrgbcolor
2541 2899 M
0 31 V
0 1216 R
0 -31 V
2664 2899 M
0 31 V
0 1216 R
0 -31 V
2787 2899 M
0 31 V
0 1216 R
0 -31 V
2911 2899 M
0 31 V
0 1216 R
0 -31 V
3034 2899 M
0 63 V
0 1184 R
0 -63 V
stroke
3034 2779 M
[ [(Times-Roman) 10.0 0.0 true true 0 ( 0.1)]
] -3.3 MCshow
1.000 UL
LTb
LCb setrgbcolor
3157 2899 M
0 31 V
0 1216 R
0 -31 V
3281 2899 M
0 31 V
0 1216 R
0 -31 V
3404 2899 M
0 31 V
0 1216 R
0 -31 V
3527 2899 M
0 31 V
0 1216 R
0 -31 V
3651 2899 M
0 63 V
0 1184 R
0 -63 V
stroke
3651 2779 M
[ [(Times-Roman) 10.0 0.0 true true 0 ( 0.2)]
] -3.3 MCshow
1.000 UL
LTb
LCb setrgbcolor
3774 2899 M
0 31 V
0 1216 R
0 -31 V
3897 2899 M
0 31 V
0 1216 R
0 -31 V
stroke
LTB
LCb setrgbcolor
2448 4146 N
0 -1247 V
1511 0 V
0 1247 V
-1511 0 V
Z stroke
1.000 UP
LCb setrgbcolor
3034 3429 M
[ [(Times-Roman) 180.0 0.0 true true 0 (Rside)]
] -60.0 MLshow
1.000 UL
LTb
LCb setrgbcolor
LCb setrgbcolor
2040 3522 M
currentpoint gsave translate -270 rotate 0 0 moveto
[ [(Times-Roman) 10.0 0.0 true true 0 (C\(q\))]
] -3.3 MCshow
grestore
LTb
% Begin plot #1
1.000 UP
2.000 UL
LTb
0.34 0.71 0.91 C LCb setrgbcolor
10739 -7165 M
[ [(Times-Roman) 130.0 0.0 true true 0 (CorrFunc)]
] -43.3 MRshow
1.000 UP
2.000 UL
LTb
0.34 0.71 0.91 C 10817 -7165 M
156 0 V
-156 31 R
0 -62 V
156 62 R
0 -62 V
2463 3167 M
0 492 V
-15 -492 R
46 0 V
-46 492 R
46 0 V
0 -335 R
0 462 V
-31 -462 R
62 0 V
-62 462 R
62 0 V
0 -173 R
0 461 V
-31 -461 R
62 0 V
-62 461 R
62 0 V
0 -366 R
0 428 V
-31 -428 R
62 0 V
-62 428 R
62 0 V
0 -535 R
0 372 V
-31 -372 R
62 0 V
-62 372 R
62 0 V
0 -315 R
0 357 V
-31 -357 R
62 0 V
-62 357 R
62 0 V
-1 -591 R
0 340 V
-31 -340 R
62 0 V
-62 340 R
62 0 V
0 -283 R
0 346 V
-31 -346 R
62 0 V
-62 346 R
62 0 V
0 -193 R
0 372 V
-31 -372 R
62 0 V
-62 372 R
62 0 V
0 -359 R
0 376 V
-31 -376 R
62 0 V
-62 376 R
62 0 V
0 -655 R
0 343 V
-31 -343 R
62 0 V
-62 343 R
62 0 V
0 -283 R
0 357 V
-31 -357 R
62 0 V
-62 357 R
62 0 V
-1 -480 R
0 329 V
-31 -329 R
62 0 V
-62 329 R
62 0 V
0 -504 R
0 313 V
-31 -313 R
62 0 V
-62 313 R
62 0 V
0 -115 R
0 338 V
-31 -338 R
62 0 V
-62 338 R
62 0 V
0 -563 R
0 296 V
-31 -296 R
62 0 V
-62 296 R
62 0 V
0 -496 R
0 301 V
-31 -301 R
62 0 V
stroke 2988 2903 M
-62 301 R
62 0 V
0 100 R
0 344 V
-31 -344 R
62 0 V
-62 344 R
62 0 V
-1 -749 R
0 279 V
-31 0 R
62 0 V
0 -77 R
0 321 V
-31 -321 R
62 0 V
-62 321 R
62 0 V
0 -392 R
0 305 V
-31 -305 R
62 0 V
-62 305 R
62 0 V
0 -366 R
0 301 V
-31 -301 R
62 0 V
-62 301 R
62 0 V
0 -312 R
0 302 V
-31 -302 R
62 0 V
-62 302 R
62 0 V
0 -218 R
0 319 V
-31 -319 R
62 0 V
-62 319 R
62 0 V
0 -312 R
0 325 V
-31 -325 R
62 0 V
-62 325 R
62 0 V
-1 -475 R
0 290 V
-31 0 R
62 0 V
0 -221 R
0 303 V
-31 -303 R
62 0 V
-62 303 R
62 0 V
0 -367 R
0 299 V
-31 -299 R
62 0 V
-62 299 R
62 0 V
31 -142 R
0 326 V
-31 -326 R
62 0 V
-62 326 R
62 0 V
0 -386 R
0 312 V
-31 -312 R
62 0 V
-62 312 R
62 0 V
61 -401 R
0 311 V
-31 -311 R
62 0 V
-62 311 R
62 0 V
0 -308 R
0 320 V
-31 -320 R
62 0 V
-62 320 R
62 0 V
0 -126 R
0 339 V
-31 -339 R
62 0 V
-62 339 R
62 0 V
0 -549 R
0 289 V
-31 0 R
62 0 V
-1 -276 R
0 322 V
-31 -322 R
62 0 V
-62 322 R
62 0 V
stroke 3635 3234 M
0 -335 R
0 311 V
-31 0 R
62 0 V
0 -311 R
0 265 V
-31 0 R
62 0 V
31 -164 R
0 328 V
-31 -328 R
62 0 V
-62 328 R
62 0 V
0 -429 R
0 285 V
-31 0 R
62 0 V
-1 -218 R
0 341 V
-31 -341 R
62 0 V
-62 341 R
62 0 V
0 -408 R
0 249 V
-31 0 R
62 0 V
0 -249 R
0 313 V
-31 0 R
62 0 V
0 -151 R
0 352 V
-31 -352 R
62 0 V
-62 352 R
62 0 V
31 -419 R
0 363 V
-31 -363 R
46 0 V
-46 363 R
46 0 V
2463 3413 TriU
2494 3555 TriU
2525 3844 TriU
2556 3922 TriU
2587 3787 TriU
2618 3837 TriU
2648 3594 TriU
2679 3654 TriU
2710 3820 TriU
2741 3835 TriU
2772 3540 TriU
2803 3606 TriU
2833 3470 TriU
2864 3287 TriU
2895 3497 TriU
2926 3251 TriU
2957 3054 TriU
2988 3476 TriU
3018 3032 TriU
3049 3261 TriU
3080 3183 TriU
3111 3120 TriU
3142 3109 TriU
3173 3201 TriU
3204 3212 TriU
3234 3041 TriU
3265 3120 TriU
3296 3053 TriU
3358 3224 TriU
3389 3157 TriU
3481 3067 TriU
3512 3075 TriU
3543 3278 TriU
3574 3029 TriU
3604 3073 TriU
3635 3054 TriU
3666 3009 TriU
3728 3164 TriU
3759 3025 TriU
3789 3136 TriU
3820 2983 TriU
3851 3045 TriU
3882 3237 TriU
3944 3176 TriU
10895 -7165 TriU
% End plot #1
% Begin plot #2
2.400 UL
LTb
0.58 0.00 0.83 C LCb setrgbcolor
10739 -7243 M
[ [(Times-Roman) 130.0 0.0 true true 0 (3DFit)]
] -43.3 MRshow
2.400 UL
LTb
0.58 0.00 0.83 C 10817 -7243 M
156 0 V
2448 3974 M
15 -6 V
31 -24 V
31 -32 V
31 -43 V
31 -48 V
31 -51 V
30 -53 V
31 -53 V
31 -51 V
31 -48 V
31 -42 V
31 -38 V
30 -33 V
31 -25 V
31 -22 V
31 -19 V
31 -14 V
31 -10 V
30 -9 V
31 -5 V
31 -3 V
31 -4 V
31 -1 V
31 -2 V
31 -2 V
30 0 V
31 0 V
31 0 V
31 0 V
31 0 V
31 -1 V
30 0 V
31 0 V
31 0 V
31 0 V
31 0 V
31 0 V
30 0 V
31 0 V
31 0 V
31 0 V
31 0 V
31 0 V
30 0 V
31 0 V
31 0 V
31 0 V
31 0 V
31 0 V
15 0 V
% End plot #2
stroke
2.000 UL
LTb
LCb setrgbcolor
1.000 UL
LTB
LCb setrgbcolor
2448 4146 N
0 -1247 V
1511 0 V
0 1247 V
-1511 0 V
Z stroke
1.000 UP
1.000 UL
LTb
LCb setrgbcolor
1.000 UL
LTb
LCb setrgbcolor
3960 2916 M
31 0 V
1480 0 R
-31 0 V
-1480 68 R
31 0 V
1480 0 R
-31 0 V
-1480 69 R
31 0 V
1480 0 R
-31 0 V
-1480 68 R
63 0 V
1448 0 R
-63 0 V
stroke
3931 3121 M
[ [(Times-Roman) 10.0 0.0 true true 0 ( 1)]
] -3.3 MRshow
1.000 UL
LTb
LCb setrgbcolor
3960 3189 M
31 0 V
1480 0 R
-31 0 V
-1480 69 R
31 0 V
1480 0 R
-31 0 V
-1480 68 R
31 0 V
1480 0 R
-31 0 V
-1480 68 R
31 0 V
1480 0 R
-31 0 V
-1480 69 R
63 0 V
1448 0 R
-63 0 V
stroke
3931 3463 M
[ [(Times-Roman) 10.0 0.0 true true 0 ( 1.2)]
] -3.3 MRshow
1.000 UL
LTb
LCb setrgbcolor
3960 3531 M
31 0 V
1480 0 R
-31 0 V
-1480 68 R
31 0 V
1480 0 R
-31 0 V
-1480 69 R
31 0 V
1480 0 R
-31 0 V
-1480 68 R
31 0 V
1480 0 R
-31 0 V
-1480 68 R
63 0 V
1448 0 R
-63 0 V
stroke
3931 3804 M
[ [(Times-Roman) 10.0 0.0 true true 0 ( 1.4)]
] -3.3 MRshow
1.000 UL
LTb
LCb setrgbcolor
3960 3873 M
31 0 V
1480 0 R
-31 0 V
-1480 68 R
31 0 V
1480 0 R
-31 0 V
-1480 68 R
31 0 V
1480 0 R
-31 0 V
-1480 69 R
31 0 V
1480 0 R
-31 0 V
-1480 68 R
63 0 V
1448 0 R
-63 0 V
stroke
3931 4146 M
[ [(Times-Roman) 10.0 0.0 true true 0 ( 1.6)]
] -3.3 MRshow
1.000 UL
LTb
LCb setrgbcolor
4053 2899 M
0 31 V
0 1216 R
0 -31 V
4176 2899 M
0 31 V
0 1216 R
0 -31 V
4299 2899 M
0 31 V
0 1216 R
0 -31 V
4423 2899 M
0 31 V
0 1216 R
0 -31 V
4546 2899 M
0 63 V
0 1184 R
0 -63 V
stroke
4546 2779 M
[ [(Times-Roman) 10.0 0.0 true true 0 ( 0.1)]
] -3.3 MCshow
1.000 UL
LTb
LCb setrgbcolor
4669 2899 M
0 31 V
0 1216 R
0 -31 V
4793 2899 M
0 31 V
0 1216 R
0 -31 V
4916 2899 M
0 31 V
0 1216 R
0 -31 V
5039 2899 M
0 31 V
0 1216 R
0 -31 V
5163 2899 M
0 63 V
0 1184 R
0 -63 V
stroke
5163 2779 M
[ [(Times-Roman) 10.0 0.0 true true 0 ( 0.2)]
] -3.3 MCshow
1.000 UL
LTb
LCb setrgbcolor
5286 2899 M
0 31 V
0 1216 R
0 -31 V
5409 2899 M
0 31 V
0 1216 R
0 -31 V
stroke
LTB
LCb setrgbcolor
3960 4146 N
0 -1247 V
1511 0 V
0 1247 V
-1511 0 V
Z stroke
1.000 UP
LCb setrgbcolor
4546 3429 M
[ [(Times-Roman) 180.0 0.0 true true 0 (Rside)]
] -60.0 MLshow
1.000 UL
LTb
LCb setrgbcolor
LCb setrgbcolor
3552 3522 M
currentpoint gsave translate -270 rotate 0 0 moveto
[ [(Times-Roman) 10.0 0.0 true true 0 (C\(q\))]
] -3.3 MCshow
grestore
LTb
% Begin plot #1
1.000 UP
2.000 UL
LTb
0.34 0.71 0.91 C LCb setrgbcolor
12251 -7158 M
[ [(Times-Roman) 130.0 0.0 true true 0 (CorrFunc)]
] -43.3 MRshow
1.000 UP
2.000 UL
LTb
0.34 0.71 0.91 C 12329 -7158 M
156 0 V
-156 31 R
0 -62 V
156 62 R
0 -62 V
4006 3212 M
0 747 V
-31 -747 R
62 0 V
-62 747 R
62 0 V
31 -168 R
0 355 V
-31 -355 R
62 0 V
0 -226 R
0 541 V
-31 -541 R
62 0 V
-62 541 R
62 0 V
0 -401 R
0 441 V
-31 -441 R
62 0 V
-1 -57 R
0 498 V
-31 -498 R
62 0 V
0 -211 R
0 513 V
-31 -513 R
62 0 V
-62 513 R
62 0 V
0 -250 R
0 446 V
-31 -446 R
62 0 V
0 -63 R
0 509 V
-31 -509 R
62 0 V
0 -204 R
0 490 V
-31 -490 R
62 0 V
-62 490 R
62 0 V
0 -681 R
0 476 V
-31 -476 R
62 0 V
-62 476 R
62 0 V
-1 -606 R
0 469 V
-31 -469 R
62 0 V
-62 469 R
62 0 V
0 -84 R
0 533 V
-31 -533 R
62 0 V
-62 533 R
62 0 V
0 -934 R
0 457 V
-31 -457 R
62 0 V
-62 457 R
62 0 V
0 -238 R
0 477 V
-31 -477 R
62 0 V
-62 477 R
62 0 V
0 -536 R
0 489 V
-31 -489 R
62 0 V
-62 489 R
62 0 V
0 -696 R
0 462 V
-31 -462 R
62 0 V
-62 462 R
62 0 V
-1 -139 R
0 530 V
-31 -530 R
62 0 V
-62 530 R
62 0 V
0 -923 R
0 427 V
-31 -427 R
62 0 V
-62 427 R
62 0 V
0 -405 R
0 445 V
stroke 4592 3446 M
-31 -445 R
62 0 V
-62 445 R
62 0 V
0 -194 R
0 524 V
-31 -524 R
62 0 V
-62 524 R
62 0 V
0 -877 R
0 258 V
-31 0 R
62 0 V
0 25 R
0 482 V
-31 -482 R
62 0 V
-62 482 R
62 0 V
0 -765 R
0 351 V
-31 0 R
62 0 V
-1 3 R
0 494 V
-31 -494 R
62 0 V
-62 494 R
62 0 V
0 -420 R
0 507 V
-31 -507 R
62 0 V
-62 507 R
62 0 V
0 -935 R
0 446 V
-31 0 R
62 0 V
0 -446 R
0 317 V
-31 0 R
62 0 V
0 -276 R
0 430 V
-31 -430 R
62 0 V
-62 430 R
62 0 V
0 -471 R
0 269 V
-31 0 R
62 0 V
-1 -241 R
0 443 V
-31 -443 R
62 0 V
-62 443 R
62 0 V
0 -362 R
0 475 V
-31 -475 R
62 0 V
-62 475 R
62 0 V
0 -395 R
0 493 V
-31 -493 R
62 0 V
-62 493 R
62 0 V
0 -639 R
0 485 V
-31 -485 R
62 0 V
-62 485 R
62 0 V
0 -290 R
0 515 V
-31 -515 R
62 0 V
-62 515 R
62 0 V
0 -753 R
0 425 V
-31 0 R
62 0 V
30 -410 R
0 465 V
-31 -465 R
62 0 V
-62 465 R
62 0 V
0 -84 R
0 544 V
-31 -544 R
62 0 V
-62 544 R
62 0 V
0 -560 R
0 562 V
-31 -562 R
62 0 V
stroke 5240 3279 M
-62 562 R
62 0 V
0 -887 R
0 474 V
-31 -474 R
62 0 V
-62 474 R
62 0 V
0 -529 R
0 252 V
-31 0 R
62 0 V
-1 -252 R
0 441 V
-31 0 R
62 0 V
31 -272 R
0 496 V
-31 -496 R
62 0 V
-62 496 R
62 0 V
0 -106 R
0 624 V
-31 -624 R
62 0 V
-62 624 R
62 0 V
0 -1183 R
0 398 V
-31 0 R
62 0 V
4006 3586 TriU
4068 4103 TriU
4099 3835 TriU
4130 3980 TriU
4160 3917 TriU
4191 3693 TriU
4222 3973 TriU
4253 3903 TriU
4284 3678 TriU
4315 3480 TriU
4345 3347 TriU
4376 3763 TriU
4407 3324 TriU
4438 3553 TriU
4469 3500 TriU
4500 3280 TriU
4530 3637 TriU
4561 3193 TriU
4592 3224 TriU
4623 3514 TriU
4654 2955 TriU
4685 3423 TriU
4716 3041 TriU
4746 3500 TriU
4777 3581 TriU
4808 3121 TriU
4839 3000 TriU
4870 3155 TriU
4901 2951 TriU
4931 3148 TriU
4962 3246 TriU
4993 3335 TriU
5024 3184 TriU
5055 3394 TriU
5086 3102 TriU
5147 3147 TriU
5178 3567 TriU
5209 3560 TriU
5240 3191 TriU
5271 2943 TriU
5301 3115 TriU
5363 3316 TriU
5394 3770 TriU
5425 3067 TriU
12407 -7158 TriU
% End plot #1
% Begin plot #2
2.400 UL
LTb
0.58 0.00 0.83 C LCb setrgbcolor
12251 -7223 M
[ [(Times-Roman) 130.0 0.0 true true 0 (3DFit)]
] -43.3 MRshow
2.400 UL
LTb
0.58 0.00 0.83 C 12329 -7223 M
156 0 V
3960 3675 M
15 0 V
31 0 V
31 0 V
31 0 V
31 0 V
31 0 V
30 0 V
31 0 V
31 0 V
31 0 V
31 0 V
31 0 V
30 0 V
31 0 V
31 0 V
31 0 V
31 0 V
31 0 V
30 0 V
31 0 V
31 0 V
31 0 V
31 0 V
31 0 V
31 0 V
30 0 V
31 0 V
31 0 V
31 0 V
31 0 V
31 0 V
30 0 V
31 0 V
31 0 V
31 0 V
31 0 V
31 0 V
30 0 V
31 0 V
31 0 V
31 0 V
31 0 V
31 0 V
30 0 V
31 0 V
31 0 V
31 0 V
31 0 V
31 0 V
15 0 V
% End plot #2
stroke
2.000 UL
LTb
LCb setrgbcolor
1.000 UL
LTB
LCb setrgbcolor
3960 4146 N
0 -1247 V
1511 0 V
0 1247 V
-1511 0 V
Z stroke
1.000 UP
1.000 UL
LTb
LCb setrgbcolor
1.000 UL
LTb
LCb setrgbcolor
5472 2916 M
31 0 V
1479 0 R
-31 0 V
-1479 68 R
31 0 V
1479 0 R
-31 0 V
-1479 69 R
31 0 V
1479 0 R
-31 0 V
-1479 68 R
63 0 V
1447 0 R
-63 0 V
stroke
5443 3121 M
[ [(Times-Roman) 10.0 0.0 true true 0 ( 1)]
] -3.3 MRshow
1.000 UL
LTb
LCb setrgbcolor
5472 3189 M
31 0 V
1479 0 R
-31 0 V
-1479 69 R
31 0 V
1479 0 R
-31 0 V
-1479 68 R
31 0 V
1479 0 R
-31 0 V
-1479 68 R
31 0 V
1479 0 R
-31 0 V
-1479 69 R
63 0 V
1447 0 R
-63 0 V
stroke
5443 3463 M
[ [(Times-Roman) 10.0 0.0 true true 0 ( 1.2)]
] -3.3 MRshow
1.000 UL
LTb
LCb setrgbcolor
5472 3531 M
31 0 V
1479 0 R
-31 0 V
-1479 68 R
31 0 V
1479 0 R
-31 0 V
-1479 69 R
31 0 V
1479 0 R
-31 0 V
-1479 68 R
31 0 V
1479 0 R
-31 0 V
-1479 68 R
63 0 V
1447 0 R
-63 0 V
stroke
5443 3804 M
[ [(Times-Roman) 10.0 0.0 true true 0 ( 1.4)]
] -3.3 MRshow
1.000 UL
LTb
LCb setrgbcolor
5472 3873 M
31 0 V
1479 0 R
-31 0 V
-1479 68 R
31 0 V
1479 0 R
-31 0 V
-1479 68 R
31 0 V
1479 0 R
-31 0 V
-1479 69 R
31 0 V
1479 0 R
-31 0 V
-1479 68 R
63 0 V
1447 0 R
-63 0 V
stroke
5443 4146 M
[ [(Times-Roman) 10.0 0.0 true true 0 ( 1.6)]
] -3.3 MRshow
1.000 UL
LTb
LCb setrgbcolor
5564 2899 M
0 31 V
0 1216 R
0 -31 V
5688 2899 M
0 31 V
0 1216 R
0 -31 V
5811 2899 M
0 31 V
0 1216 R
0 -31 V
5934 2899 M
0 31 V
0 1216 R
0 -31 V
6058 2899 M
0 63 V
0 1184 R
0 -63 V
stroke
6058 2779 M
[ [(Times-Roman) 10.0 0.0 true true 0 ( 0.1)]
] -3.3 MCshow
1.000 UL
LTb
LCb setrgbcolor
6181 2899 M
0 31 V
0 1216 R
0 -31 V
6304 2899 M
0 31 V
0 1216 R
0 -31 V
6427 2899 M
0 31 V
0 1216 R
0 -31 V
6551 2899 M
0 31 V
0 1216 R
0 -31 V
6674 2899 M
0 63 V
0 1184 R
0 -63 V
stroke
6674 2779 M
[ [(Times-Roman) 10.0 0.0 true true 0 ( 0.2)]
] -3.3 MCshow
1.000 UL
LTb
LCb setrgbcolor
6797 2899 M
0 31 V
0 1216 R
0 -31 V
6920 2899 M
0 31 V
0 1216 R
0 -31 V
stroke
LTB
LCb setrgbcolor
5472 4146 N
0 -1247 V
1510 0 V
0 1247 V
-1510 0 V
Z stroke
1.000 UP
LCb setrgbcolor
6058 3429 M
[ [(Times-Roman) 180.0 0.0 true true 0 (Rside)]
] -60.0 MLshow
1.000 UL
LTb
LCb setrgbcolor
LCb setrgbcolor
5064 3522 M
currentpoint gsave translate -270 rotate 0 0 moveto
[ [(Times-Roman) 10.0 0.0 true true 0 (C\(q\))]
] -3.3 MCshow
grestore
LTb
% Begin plot #1
1.000 UP
2.000 UL
LTb
0.34 0.71 0.91 C LCb setrgbcolor
13758 -7158 M
[ [(Times-Roman) 130.0 0.0 true true 0 (CorrFunc)]
] -43.3 MRshow
1.000 UP
2.000 UL
LTb
0.34 0.71 0.91 C 13836 -7158 M
156 0 V
-156 31 R
0 -62 V
156 62 R
0 -62 V
5580 2971 M
0 1175 V
5549 2971 M
62 0 V
92 721 R
0 454 V
-31 -454 R
62 0 V
0 -786 R
0 666 V
-31 -666 R
62 0 V
-62 666 R
62 0 V
0 -303 R
0 763 V
-31 -763 R
62 0 V
-62 763 R
62 0 V
0 -798 R
0 728 V
-31 -728 R
62 0 V
-62 728 R
62 0 V
-1 -1063 R
0 577 V
-31 0 R
62 0 V
0 162 R
0 508 V
-31 -508 R
62 0 V
0 -296 R
0 804 V
-31 -804 R
62 0 V
0 -153 R
0 759 V
-31 -759 R
62 0 V
-62 759 R
62 0 V
30 -729 R
0 795 V
-31 -795 R
62 0 V
-62 795 R
62 0 V
0 -637 R
0 769 V
-31 -769 R
62 0 V
0 -360 R
0 727 V
-31 -727 R
62 0 V
-62 727 R
62 0 V
0 -226 R
0 628 V
-31 -628 R
62 0 V
0 38 R
0 590 V
-31 -590 R
62 0 V
0 -596 R
0 698 V
-31 -698 R
62 0 V
-62 698 R
62 0 V
-1 -759 R
0 576 V
-31 0 R
62 0 V
0 -576 R
0 312 V
-31 0 R
62 0 V
0 -312 R
0 389 V
-31 0 R
62 0 V
0 -389 R
0 592 V
-31 0 R
62 0 V
0 -592 R
0 338 V
-31 0 R
62 0 V
-1 -266 R
0 727 V
-31 -727 R
62 0 V
-62 727 R
62 0 V
stroke 6350 3698 M
0 -365 R
0 813 V
-31 -813 R
62 0 V
0 -434 R
0 610 V
-31 0 R
62 0 V
62 -461 R
0 754 V
-31 -754 R
62 0 V
-62 754 R
62 0 V
-1 -903 R
0 673 V
-31 0 R
62 0 V
0 -664 R
0 747 V
-31 -747 R
62 0 V
-62 747 R
62 0 V
0 -756 R
0 326 V
-31 0 R
62 0 V
0 -326 R
0 490 V
-31 0 R
62 0 V
0 -490 R
0 734 V
-31 0 R
62 0 V
-1 -596 R
0 872 V
-31 -872 R
62 0 V
-62 872 R
62 0 V
0 -1010 R
0 510 V
-31 0 R
62 0 V
0 -510 R
0 627 V
-31 0 R
62 0 V
0 -627 R
0 600 V
-31 0 R
62 0 V
31 -357 R
0 864 V
-31 -864 R
62 0 V
-62 864 R
62 0 V
30 -1107 R
0 526 V
-31 0 R
62 0 V
0 -526 R
0 484 V
-31 0 R
62 0 V
0 -484 R
0 727 V
-31 0 R
62 0 V
5580 3700 TriU
5703 4146 TriU
5734 3239 TriU
5765 3651 TriU
5796 3598 TriU
5826 3162 TriU
5857 4098 TriU
5888 3748 TriU
5919 3569 TriU
5980 3616 TriU
6011 3811 TriU
6042 3381 TriU
6073 3944 TriU
6104 4003 TriU
6135 3309 TriU
6165 3143 TriU
6196 2901 TriU
6227 2964 TriU
6258 3148 TriU
6289 2923 TriU
6319 3335 TriU
6350 3765 TriU
6381 3154 TriU
6474 3425 TriU
6504 3213 TriU
6535 3282 TriU
6566 2905 TriU
6597 3065 TriU
6628 3239 TriU
6658 3473 TriU
6689 3063 TriU
6720 3184 TriU
6751 3145 TriU
6813 3574 TriU
6874 3090 TriU
6905 3032 TriU
6936 3208 TriU
13914 -7158 TriU
% End plot #1
% Begin plot #2
2.400 UL
LTb
0.58 0.00 0.83 C LCb setrgbcolor
13758 -7223 M
[ [(Times-Roman) 130.0 0.0 true true 0 (3DFit)]
] -43.3 MRshow
2.400 UL
LTb
0.58 0.00 0.83 C 13836 -7223 M
156 0 V
% End plot #2
stroke
2.000 UL
LTb
LCb setrgbcolor
1.000 UL
LTB
LCb setrgbcolor
5472 4146 N
0 -1247 V
1510 0 V
0 1247 V
-1510 0 V
Z stroke
1.000 UP
1.000 UL
LTb
LCb setrgbcolor
1.000 UL
LTb
LCb setrgbcolor
936 1671 M
31 0 V
1480 0 R
-31 0 V
936 1739 M
31 0 V
1480 0 R
-31 0 V
936 1808 M
31 0 V
1480 0 R
-31 0 V
936 1876 M
63 0 V
1448 0 R
-63 0 V
stroke
907 1876 M
[ [(Times-Roman) 200.0 0.0 true true 0 ( 1)]
] -66.7 MRshow
1.000 UL
LTb
LCb setrgbcolor
936 1945 M
31 0 V
1480 0 R
-31 0 V
936 2013 M
31 0 V
1480 0 R
-31 0 V
936 2081 M
31 0 V
1480 0 R
-31 0 V
936 2150 M
31 0 V
1480 0 R
-31 0 V
936 2218 M
63 0 V
1448 0 R
-63 0 V
stroke
907 2218 M
[ [(Times-Roman) 200.0 0.0 true true 0 ( 1.2)]
] -66.7 MRshow
1.000 UL
LTb
LCb setrgbcolor
936 2287 M
31 0 V
1480 0 R
-31 0 V
936 2355 M
31 0 V
1480 0 R
-31 0 V
936 2423 M
31 0 V
1480 0 R
-31 0 V
936 2492 M
31 0 V
1480 0 R
-31 0 V
936 2560 M
63 0 V
1448 0 R
-63 0 V
stroke
907 2560 M
[ [(Times-Roman) 200.0 0.0 true true 0 ( 1.4)]
] -66.7 MRshow
1.000 UL
LTb
LCb setrgbcolor
936 2628 M
31 0 V
1480 0 R
-31 0 V
936 2697 M
31 0 V
1480 0 R
-31 0 V
936 2765 M
31 0 V
1480 0 R
-31 0 V
936 2834 M
31 0 V
1480 0 R
-31 0 V
936 2902 M
63 0 V
1448 0 R
-63 0 V
stroke
907 2902 M
[ [(Times-Roman) 200.0 0.0 true true 0 ( 1.6)]
] -66.7 MRshow
1.000 UL
LTb
LCb setrgbcolor
1029 1654 M
0 31 V
0 1217 R
0 -31 V
1152 1654 M
0 31 V
0 1217 R
0 -31 V
1275 1654 M
0 31 V
0 1217 R
0 -31 V
1399 1654 M
0 31 V
0 1217 R
0 -31 V
1522 1654 M
0 63 V
0 1185 R
0 -63 V
stroke
1522 1534 M
[ [(Times-Roman) 10.0 0.0 true true 0 ( 0.1)]
] -3.3 MCshow
1.000 UL
LTb
LCb setrgbcolor
1645 1654 M
0 31 V
0 1217 R
0 -31 V
1769 1654 M
0 31 V
0 1217 R
0 -31 V
1892 1654 M
0 31 V
0 1217 R
0 -31 V
2015 1654 M
0 31 V
0 1217 R
0 -31 V
2139 1654 M
0 63 V
0 1185 R
0 -63 V
stroke
2139 1534 M
[ [(Times-Roman) 10.0 0.0 true true 0 ( 0.2)]
] -3.3 MCshow
1.000 UL
LTb
LCb setrgbcolor
2262 1654 M
0 31 V
0 1217 R
0 -31 V
2385 1654 M
0 31 V
0 1217 R
0 -31 V
stroke
LTB
LCb setrgbcolor
936 2902 N
0 -1248 V
1511 0 V
0 1248 V
-1511 0 V
Z stroke
1.000 UP
LCb setrgbcolor
1522 2184 M
[ [(Times-Roman) 180.0 0.0 true true 0 (Rout)]
] -60.0 MLshow
1.000 UL
LTb
LCb setrgbcolor
LCb setrgbcolor
528 2278 M
currentpoint gsave translate -270 rotate 0 0 moveto
[ [(Times-Roman) 220.0 0.0 true true 0 (C\(q\))]
] -73.3 MCshow
grestore
LTb
% Begin plot #1
1.000 UP
2.000 UL
LTb
0.34 0.71 0.91 C LCb setrgbcolor
9227 -8411 M
[ [(Times-Roman) 130.0 0.0 true true 0 (CorrFunc)]
] -43.3 MRshow
1.000 UP
2.000 UL
LTb
0.34 0.71 0.91 C 9305 -8411 M
156 0 V
-156 31 R
0 -62 V
156 62 R
0 -62 V
951 2133 M
0 296 V
936 2133 M
46 0 V
-46 296 R
46 0 V
0 -136 R
0 329 V
951 2293 M
62 0 V
-62 329 R
62 0 V
0 -405 R
0 323 V
982 2217 M
62 0 V
-62 323 R
62 0 V
0 -377 R
0 326 V
-31 -326 R
62 0 V
-62 326 R
62 0 V
0 -335 R
0 319 V
-31 -319 R
62 0 V
-62 319 R
62 0 V
0 -215 R
0 338 V
-31 -338 R
62 0 V
-62 338 R
62 0 V
-1 -338 R
0 338 V
-31 -338 R
62 0 V
-62 338 R
62 0 V
0 -474 R
0 325 V
-31 -325 R
62 0 V
-62 325 R
62 0 V
0 -305 R
0 334 V
-31 -334 R
62 0 V
-62 334 R
62 0 V
0 -653 R
0 295 V
-31 -295 R
62 0 V
-62 295 R
62 0 V
0 -231 R
0 313 V
-31 -313 R
62 0 V
-62 313 R
62 0 V
0 -546 R
0 265 V
-31 0 R
62 0 V
-1 -93 R
0 295 V
-31 -295 R
62 0 V
-62 295 R
62 0 V
0 -467 R
0 235 V
-31 0 R
62 0 V
0 -180 R
0 304 V
-31 -304 R
62 0 V
-62 304 R
62 0 V
0 -133 R
0 331 V
-31 -331 R
62 0 V
-62 331 R
62 0 V
0 -525 R
0 309 V
-31 -309 R
62 0 V
-62 309 R
62 0 V
0 -123 R
0 354 V
stroke 1476 2226 M
-31 -354 R
62 0 V
-62 354 R
62 0 V
-1 -572 R
0 298 V
-31 0 R
62 0 V
31 -105 R
0 407 V
-31 -407 R
62 0 V
-62 407 R
62 0 V
0 -533 R
0 389 V
-31 -389 R
62 0 V
-62 389 R
62 0 V
31 -456 R
0 359 V
-31 0 R
62 0 V
30 -359 R
0 244 V
-31 0 R
62 0 V
0 -244 R
0 338 V
-31 0 R
62 0 V
0 -33 R
0 648 V
-31 -648 R
62 0 V
-62 648 R
62 0 V
0 -583 R
0 747 V
-31 -747 R
62 0 V
-62 747 R
62 0 V
61 -1117 R
0 441 V
-31 0 R
62 0 V
31 -441 R
0 1010 V
-31 0 R
62 0 V
951 2281 TriU
982 2458 TriU
1013 2379 TriU
1044 2326 TriU
1075 2314 TriU
1106 2427 TriU
1136 2427 TriU
1167 2285 TriU
1198 2309 TriU
1229 1970 TriU
1260 2044 TriU
1291 1775 TriU
1321 1974 TriU
1352 1748 TriU
1383 1861 TriU
1414 2045 TriU
1445 1840 TriU
1476 2049 TriU
1506 1785 TriU
1568 2051 TriU
1599 1916 TriU
1661 1812 TriU
1722 1675 TriU
1753 1744 TriU
1784 2283 TriU
1815 2398 TriU
1907 1688 TriU
1969 1824 TriU
9383 -8411 TriU
% End plot #1
% Begin plot #2
2.400 UL
LTb
0.58 0.00 0.83 C LCb setrgbcolor
9227 -8476 M
[ [(Times-Roman) 130.0 0.0 true true 0 (3DFit)]
] -43.3 MRshow
2.400 UL
LTb
0.58 0.00 0.83 C 9305 -8476 M
156 0 V
936 2632 M
15 -10 V
31 -43 V
31 -58 V
31 -67 V
31 -73 V
31 -72 V
30 -67 V
31 -60 V
31 -49 V
31 -40 V
31 -29 V
31 -22 V
30 -15 V
31 -11 V
31 -6 V
31 -6 V
31 -1 V
31 -2 V
30 -2 V
31 0 V
31 0 V
31 0 V
31 0 V
31 0 V
31 0 V
30 0 V
31 0 V
31 0 V
31 0 V
31 0 V
31 0 V
30 0 V
31 0 V
31 0 V
% End plot #2
stroke
2.000 UL
LTb
LCb setrgbcolor
1.000 UL
LTB
LCb setrgbcolor
936 2902 N
0 -1248 V
1511 0 V
0 1248 V
-1511 0 V
Z stroke
1.000 UP
1.000 UL
LTb
LCb setrgbcolor
1.000 UL
LTb
LCb setrgbcolor
2448 1671 M
31 0 V
1480 0 R
-31 0 V
-1480 68 R
31 0 V
1480 0 R
-31 0 V
-1480 69 R
31 0 V
1480 0 R
-31 0 V
-1480 68 R
63 0 V
1448 0 R
-63 0 V
stroke
2419 1876 M
[ [(Times-Roman) 10.0 0.0 true true 0 ( 1)]
] -3.3 MRshow
1.000 UL
LTb
LCb setrgbcolor
2448 1945 M
31 0 V
1480 0 R
-31 0 V
-1480 68 R
31 0 V
1480 0 R
-31 0 V
-1480 68 R
31 0 V
1480 0 R
-31 0 V
-1480 69 R
31 0 V
1480 0 R
-31 0 V
-1480 68 R
63 0 V
1448 0 R
-63 0 V
stroke
2419 2218 M
[ [(Times-Roman) 10.0 0.0 true true 0 ( 1.2)]
] -3.3 MRshow
1.000 UL
LTb
LCb setrgbcolor
2448 2287 M
31 0 V
1480 0 R
-31 0 V
-1480 68 R
31 0 V
1480 0 R
-31 0 V
-1480 68 R
31 0 V
1480 0 R
-31 0 V
-1480 69 R
31 0 V
1480 0 R
-31 0 V
-1480 68 R
63 0 V
1448 0 R
-63 0 V
stroke
2419 2560 M
[ [(Times-Roman) 10.0 0.0 true true 0 ( 1.4)]
] -3.3 MRshow
1.000 UL
LTb
LCb setrgbcolor
2448 2628 M
31 0 V
1480 0 R
-31 0 V
-1480 69 R
31 0 V
1480 0 R
-31 0 V
-1480 68 R
31 0 V
1480 0 R
-31 0 V
-1480 69 R
31 0 V
1480 0 R
-31 0 V
-1480 68 R
63 0 V
1448 0 R
-63 0 V
stroke
2419 2902 M
[ [(Times-Roman) 10.0 0.0 true true 0 ( 1.6)]
] -3.3 MRshow
1.000 UL
LTb
LCb setrgbcolor
2541 1654 M
0 31 V
0 1217 R
0 -31 V
2664 1654 M
0 31 V
0 1217 R
0 -31 V
2787 1654 M
0 31 V
0 1217 R
0 -31 V
2911 1654 M
0 31 V
0 1217 R
0 -31 V
3034 1654 M
0 63 V
0 1185 R
0 -63 V
stroke
3034 1534 M
[ [(Times-Roman) 10.0 0.0 true true 0 ( 0.1)]
] -3.3 MCshow
1.000 UL
LTb
LCb setrgbcolor
3157 1654 M
0 31 V
0 1217 R
0 -31 V
3281 1654 M
0 31 V
0 1217 R
0 -31 V
3404 1654 M
0 31 V
0 1217 R
0 -31 V
3527 1654 M
0 31 V
0 1217 R
0 -31 V
3651 1654 M
0 63 V
0 1185 R
0 -63 V
stroke
3651 1534 M
[ [(Times-Roman) 10.0 0.0 true true 0 ( 0.2)]
] -3.3 MCshow
1.000 UL
LTb
LCb setrgbcolor
3774 1654 M
0 31 V
0 1217 R
0 -31 V
3897 1654 M
0 31 V
0 1217 R
0 -31 V
stroke
LTB
LCb setrgbcolor
2448 2902 N
0 -1248 V
1511 0 V
0 1248 V
-1511 0 V
Z stroke
1.000 UP
LCb setrgbcolor
3034 2184 M
[ [(Times-Roman) 180.0 0.0 true true 0 (Rout)]
] -60.0 MLshow
1.000 UL
LTb
LCb setrgbcolor
LCb setrgbcolor
2040 2278 M
currentpoint gsave translate -270 rotate 0 0 moveto
[ [(Times-Roman) 10.0 0.0 true true 0 (C\(q\))]
] -3.3 MCshow
grestore
LTb
% Begin plot #1
1.000 UP
2.000 UL
LTb
0.34 0.71 0.91 C LCb setrgbcolor
10739 -8418 M
[ [(Times-Roman) 130.0 0.0 true true 0 (CorrFunc)]
] -43.3 MRshow
1.000 UP
2.000 UL
LTb
0.34 0.71 0.91 C 10817 -8418 M
156 0 V
-156 31 R
0 -62 V
156 62 R
0 -62 V
2463 1957 M
0 393 V
-15 -393 R
46 0 V
-46 393 R
46 0 V
0 -264 R
0 436 V
-31 -436 R
62 0 V
-62 436 R
62 0 V
31 -545 R
0 404 V
-31 -404 R
62 0 V
-62 404 R
62 0 V
0 -132 R
0 455 V
-31 -455 R
62 0 V
-62 455 R
62 0 V
0 -630 R
0 414 V
-31 -414 R
62 0 V
-62 414 R
62 0 V
-1 -11 R
0 425 V
-31 -425 R
62 0 V
0 -223 R
0 452 V
-31 -452 R
62 0 V
-62 452 R
62 0 V
0 -586 R
0 425 V
-31 -425 R
62 0 V
-62 425 R
62 0 V
0 -72 R
0 429 V
-31 -429 R
62 0 V
0 -769 R
0 351 V
-31 -351 R
62 0 V
-62 351 R
62 0 V
0 -125 R
0 364 V
-31 -364 R
62 0 V
-62 364 R
62 0 V
-1 -354 R
0 359 V
-31 -359 R
62 0 V
-62 359 R
62 0 V
0 -546 R
0 332 V
-31 -332 R
62 0 V
-62 332 R
62 0 V
0 -60 R
0 383 V
-31 -383 R
62 0 V
-62 383 R
62 0 V
0 -637 R
0 330 V
-31 -330 R
62 0 V
-62 330 R
62 0 V
0 -333 R
0 339 V
-31 -339 R
62 0 V
-62 339 R
62 0 V
0 -453 R
0 305 V
-31 -305 R
62 0 V
-62 305 R
62 0 V
-1 -305 R
0 197 V
stroke 3018 1851 M
-31 0 R
62 0 V
0 14 R
0 330 V
-31 -330 R
62 0 V
-62 330 R
62 0 V
0 -541 R
0 250 V
-31 0 R
62 0 V
0 -233 R
0 301 V
-31 -301 R
62 0 V
-62 301 R
62 0 V
0 -276 R
0 313 V
-31 -313 R
62 0 V
-62 313 R
62 0 V
0 -164 R
0 315 V
-31 -315 R
62 0 V
-62 315 R
62 0 V
0 -378 R
0 312 V
-31 -312 R
62 0 V
-62 312 R
62 0 V
30 -267 R
0 320 V
-31 -320 R
62 0 V
-62 320 R
62 0 V
31 -493 R
0 277 V
-31 0 R
62 0 V
0 -191 R
0 307 V
-31 -307 R
62 0 V
-62 307 R
62 0 V
0 -276 R
0 306 V
-31 -306 R
62 0 V
-62 306 R
62 0 V
-1 -377 R
0 294 V
-31 -294 R
62 0 V
-62 294 R
62 0 V
0 68 R
0 356 V
-31 -356 R
62 0 V
-62 356 R
62 0 V
0 -602 R
0 305 V
-31 -305 R
62 0 V
-62 305 R
62 0 V
0 -223 R
0 326 V
-31 -326 R
62 0 V
-62 326 R
62 0 V
0 -354 R
0 331 V
-31 -331 R
62 0 V
-62 331 R
62 0 V
0 -504 R
0 311 V
-31 -311 R
62 0 V
-62 311 R
62 0 V
-1 -354 R
0 283 V
-31 0 R
62 0 V
0 -113 R
0 334 V
-31 -334 R
62 0 V
-62 334 R
62 0 V
stroke 3666 2158 M
0 -504 R
0 162 V
-31 0 R
62 0 V
0 82 R
0 387 V
-31 -387 R
62 0 V
-62 387 R
62 0 V
0 -631 R
0 195 V
-31 0 R
62 0 V
0 -195 R
0 171 V
-31 0 R
62 0 V
30 60 R
0 410 V
-31 -410 R
62 0 V
-62 410 R
62 0 V
0 -603 R
0 379 V
-31 -379 R
62 0 V
-62 379 R
62 0 V
0 -417 R
0 321 V
-31 0 R
62 0 V
31 -321 R
0 367 V
-31 0 R
46 0 V
2463 2153 TriU
2494 2304 TriU
2556 2179 TriU
2587 2476 TriU
2618 2281 TriU
2648 2719 TriU
2679 2480 TriU
2710 2333 TriU
2741 2707 TriU
2772 1880 TriU
2803 2112 TriU
2833 2119 TriU
2864 1919 TriU
2895 2216 TriU
2926 1936 TriU
2957 1938 TriU
2988 1806 TriU
3018 1703 TriU
3049 2030 TriU
3080 1759 TriU
3111 1821 TriU
3142 1852 TriU
3173 2003 TriU
3204 1938 TriU
3265 1987 TriU
3327 1791 TriU
3358 1893 TriU
3389 1924 TriU
3419 1847 TriU
3450 2240 TriU
3481 1969 TriU
3512 2061 TriU
3543 2035 TriU
3574 1853 TriU
3604 1780 TriU
3635 1991 TriU
3666 1663 TriU
3697 2092 TriU
3728 1688 TriU
3759 1661 TriU
3820 2090 TriU
3851 1881 TriU
3882 1779 TriU
3944 1809 TriU
10895 -8418 TriU
% End plot #1
% Begin plot #2
2.400 UL
LTb
0.58 0.00 0.83 C LCb setrgbcolor
10739 -8496 M
[ [(Times-Roman) 130.0 0.0 true true 0 (3DFit)]
] -43.3 MRshow
2.400 UL
LTb
0.58 0.00 0.83 C 10817 -8496 M
156 0 V
2448 2747 M
15 -7 V
31 -31 V
31 -45 V
31 -53 V
31 -59 V
31 -64 V
30 -61 V
31 -60 V
31 -55 V
31 -48 V
31 -41 V
31 -32 V
30 -28 V
31 -20 V
31 -17 V
31 -10 V
31 -9 V
31 -5 V
30 -5 V
31 -2 V
31 -2 V
31 -1 V
31 0 V
31 0 V
31 0 V
30 0 V
31 0 V
31 -2 V
31 0 V
31 0 V
31 0 V
30 0 V
31 0 V
31 0 V
31 0 V
31 0 V
31 0 V
30 0 V
31 0 V
31 0 V
31 0 V
31 0 V
31 0 V
30 0 V
31 0 V
31 0 V
31 0 V
31 0 V
31 0 V
15 0 V
% End plot #2
stroke
2.000 UL
LTb
LCb setrgbcolor
1.000 UL
LTB
LCb setrgbcolor
2448 2902 N
0 -1248 V
1511 0 V
0 1248 V
-1511 0 V
Z stroke
1.000 UP
1.000 UL
LTb
LCb setrgbcolor
1.000 UL
LTb
LCb setrgbcolor
3960 1671 M
31 0 V
1480 0 R
-31 0 V
-1480 68 R
31 0 V
1480 0 R
-31 0 V
-1480 69 R
31 0 V
1480 0 R
-31 0 V
-1480 68 R
63 0 V
1448 0 R
-63 0 V
stroke
3931 1876 M
[ [(Times-Roman) 10.0 0.0 true true 0 ( 1)]
] -3.3 MRshow
1.000 UL
LTb
LCb setrgbcolor
3960 1945 M
31 0 V
1480 0 R
-31 0 V
-1480 68 R
31 0 V
1480 0 R
-31 0 V
-1480 68 R
31 0 V
1480 0 R
-31 0 V
-1480 69 R
31 0 V
1480 0 R
-31 0 V
-1480 68 R
63 0 V
1448 0 R
-63 0 V
stroke
3931 2218 M
[ [(Times-Roman) 10.0 0.0 true true 0 ( 1.2)]
] -3.3 MRshow
1.000 UL
LTb
LCb setrgbcolor
3960 2287 M
31 0 V
1480 0 R
-31 0 V
-1480 68 R
31 0 V
1480 0 R
-31 0 V
-1480 68 R
31 0 V
1480 0 R
-31 0 V
-1480 69 R
31 0 V
1480 0 R
-31 0 V
-1480 68 R
63 0 V
1448 0 R
-63 0 V
stroke
3931 2560 M
[ [(Times-Roman) 10.0 0.0 true true 0 ( 1.4)]
] -3.3 MRshow
1.000 UL
LTb
LCb setrgbcolor
3960 2628 M
31 0 V
1480 0 R
-31 0 V
-1480 69 R
31 0 V
1480 0 R
-31 0 V
-1480 68 R
31 0 V
1480 0 R
-31 0 V
-1480 69 R
31 0 V
1480 0 R
-31 0 V
-1480 68 R
63 0 V
1448 0 R
-63 0 V
stroke
3931 2902 M
[ [(Times-Roman) 10.0 0.0 true true 0 ( 1.6)]
] -3.3 MRshow
1.000 UL
LTb
LCb setrgbcolor
4053 1654 M
0 31 V
0 1217 R
0 -31 V
4176 1654 M
0 31 V
0 1217 R
0 -31 V
4299 1654 M
0 31 V
0 1217 R
0 -31 V
4423 1654 M
0 31 V
0 1217 R
0 -31 V
4546 1654 M
0 63 V
0 1185 R
0 -63 V
stroke
4546 1534 M
[ [(Times-Roman) 10.0 0.0 true true 0 ( 0.1)]
] -3.3 MCshow
1.000 UL
LTb
LCb setrgbcolor
4669 1654 M
0 31 V
0 1217 R
0 -31 V
4793 1654 M
0 31 V
0 1217 R
0 -31 V
4916 1654 M
0 31 V
0 1217 R
0 -31 V
5039 1654 M
0 31 V
0 1217 R
0 -31 V
5163 1654 M
0 63 V
0 1185 R
0 -63 V
stroke
5163 1534 M
[ [(Times-Roman) 10.0 0.0 true true 0 ( 0.2)]
] -3.3 MCshow
1.000 UL
LTb
LCb setrgbcolor
5286 1654 M
0 31 V
0 1217 R
0 -31 V
5409 1654 M
0 31 V
0 1217 R
0 -31 V
stroke
LTB
LCb setrgbcolor
3960 2902 N
0 -1248 V
1511 0 V
0 1248 V
-1511 0 V
Z stroke
1.000 UP
LCb setrgbcolor
4546 2184 M
[ [(Times-Roman) 180.0 0.0 true true 0 (Rout)]
] -60.0 MLshow
1.000 UL
LTb
LCb setrgbcolor
LCb setrgbcolor
3552 2278 M
currentpoint gsave translate -270 rotate 0 0 moveto
[ [(Times-Roman) 10.0 0.0 true true 0 (C\(q\))]
] -3.3 MCshow
grestore
LTb
% Begin plot #1
1.000 UP
2.000 UL
LTb
0.34 0.71 0.91 C LCb setrgbcolor
12251 -8411 M
[ [(Times-Roman) 130.0 0.0 true true 0 (CorrFunc)]
] -43.3 MRshow
1.000 UP
2.000 UL
LTb
0.34 0.71 0.91 C 12329 -8411 M
156 0 V
-156 31 R
0 -62 V
156 62 R
0 -62 V
3975 1991 M
0 629 V
-15 -629 R
46 0 V
-46 629 R
46 0 V
0 -710 R
0 640 V
-31 -640 R
62 0 V
-62 640 R
62 0 V
0 -287 R
0 639 V
-31 -639 R
62 0 V
31 -99 R
0 669 V
-31 -669 R
62 0 V
-62 669 R
62 0 V
0 -657 R
0 666 V
-31 -666 R
62 0 V
-62 666 R
62 0 V
-1 -525 R
0 585 V
-31 -585 R
62 0 V
0 -168 R
0 624 V
-31 -624 R
62 0 V
-62 624 R
62 0 V
0 -1021 R
0 553 V
-31 -553 R
62 0 V
-62 553 R
62 0 V
0 -234 R
0 602 V
-31 -602 R
62 0 V
-62 602 R
62 0 V
31 -948 R
0 525 V
-31 -525 R
62 0 V
-62 525 R
62 0 V
-1 -423 R
0 546 V
-31 -546 R
62 0 V
-62 546 R
62 0 V
0 -600 R
0 552 V
-31 -552 R
62 0 V
-62 552 R
62 0 V
0 -610 R
0 518 V
-31 -518 R
62 0 V
-62 518 R
62 0 V
0 -262 R
0 580 V
-31 -580 R
62 0 V
-62 580 R
62 0 V
0 -463 R
0 610 V
-31 -610 R
62 0 V
-62 610 R
62 0 V
30 -1044 R
0 479 V
-31 -479 R
62 0 V
-62 479 R
62 0 V
62 -479 R
0 475 V
-31 0 R
62 0 V
0 -455 R
0 446 V
-31 -446 R
62 0 V
stroke 4685 1674 M
-62 446 R
62 0 V
0 -455 R
0 453 V
-31 -453 R
62 0 V
-62 453 R
62 0 V
0 -34 R
0 542 V
-31 -542 R
62 0 V
-62 542 R
62 0 V
30 -972 R
0 269 V
-31 0 R
62 0 V
31 -109 R
0 467 V
-31 -467 R
62 0 V
-62 467 R
62 0 V
0 -249 R
0 523 V
-31 -523 R
62 0 V
-62 523 R
62 0 V
0 -714 R
0 481 V
-31 -481 R
62 0 V
-62 481 R
62 0 V
-1 -668 R
0 401 V
-31 0 R
62 0 V
0 -359 R
0 453 V
-31 -453 R
62 0 V
-62 453 R
62 0 V
31 -495 R
0 283 V
-31 0 R
62 0 V
0 -283 R
0 368 V
-31 0 R
62 0 V
0 -253 R
0 441 V
-31 -441 R
62 0 V
-62 441 R
62 0 V
-1 -455 R
0 428 V
-31 -428 R
62 0 V
-62 428 R
62 0 V
0 -529 R
0 419 V
-31 0 R
62 0 V
0 -419 R
0 316 V
-31 0 R
62 0 V
0 -316 R
0 324 V
-31 0 R
62 0 V
0 6 R
0 479 V
-31 -479 R
62 0 V
-62 479 R
62 0 V
0 -598 R
0 456 V
-31 -456 R
62 0 V
-62 456 R
62 0 V
30 -524 R
0 449 V
-31 -449 R
62 0 V
-62 449 R
62 0 V
31 -592 R
0 423 V
-31 -423 R
62 0 V
-62 423 R
62 0 V
0 -423 R
0 286 V
stroke 5425 1940 M
-31 0 R
62 0 V
0 -277 R
0 408 V
-31 -408 R
46 0 V
-46 408 R
46 0 V
3975 2305 TriU
4006 2230 TriU
4037 2603 TriU
4099 2499 TriU
4130 2509 TriU
4160 2669 TriU
4191 2461 TriU
4222 2028 TriU
4253 2372 TriU
4315 1987 TriU
4345 2100 TriU
4376 2049 TriU
4407 1974 TriU
4438 2261 TriU
4469 2393 TriU
4530 1893 TriU
4623 1888 TriU
4654 1897 TriU
4685 1892 TriU
4716 2355 TriU
4777 1715 TriU
4839 2047 TriU
4870 2293 TriU
4901 2081 TriU
4931 1844 TriU
4962 1922 TriU
5024 1735 TriU
5055 1805 TriU
5086 1989 TriU
5116 1969 TriU
5147 1856 TriU
5178 1774 TriU
5209 1768 TriU
5240 2223 TriU
5271 2093 TriU
5332 2022 TriU
5394 1865 TriU
5425 1741 TriU
5456 1867 TriU
12407 -8411 TriU
% End plot #1
% Begin plot #2
2.400 UL
LTb
0.58 0.00 0.83 C LCb setrgbcolor
12251 -8476 M
[ [(Times-Roman) 130.0 0.0 true true 0 (3DFit)]
] -43.3 MRshow
2.400 UL
LTb
0.58 0.00 0.83 C 12329 -8476 M
156 0 V
3960 2430 M
15 0 V
31 0 V
31 0 V
31 0 V
31 0 V
31 0 V
30 -2 V
31 0 V
31 0 V
31 -1 V
31 0 V
31 0 V
30 -2 V
31 0 V
31 -2 V
31 0 V
31 -1 V
31 0 V
30 -2 V
31 -2 V
31 0 V
31 -2 V
31 -1 V
31 -2 V
31 0 V
30 -2 V
31 -1 V
31 -2 V
31 -2 V
31 -1 V
31 -2 V
30 -2 V
31 -2 V
31 -1 V
31 -2 V
31 -2 V
31 -1 V
30 -4 V
31 -2 V
31 -1 V
31 -2 V
31 -2 V
31 -3 V
30 -2 V
31 -2 V
31 -3 V
31 -2 V
31 -3 V
31 -2 V
15 -1 V
% End plot #2
stroke
2.000 UL
LTb
LCb setrgbcolor
1.000 UL
LTB
LCb setrgbcolor
3960 2902 N
0 -1248 V
1511 0 V
0 1248 V
-1511 0 V
Z stroke
1.000 UP
1.000 UL
LTb
LCb setrgbcolor
1.000 UL
LTb
LCb setrgbcolor
5472 1671 M
31 0 V
1479 0 R
-31 0 V
-1479 68 R
31 0 V
1479 0 R
-31 0 V
-1479 69 R
31 0 V
1479 0 R
-31 0 V
-1479 68 R
63 0 V
1447 0 R
-63 0 V
stroke
5443 1876 M
[ [(Times-Roman) 10.0 0.0 true true 0 ( 1)]
] -3.3 MRshow
1.000 UL
LTb
LCb setrgbcolor
5472 1945 M
31 0 V
1479 0 R
-31 0 V
-1479 68 R
31 0 V
1479 0 R
-31 0 V
-1479 68 R
31 0 V
1479 0 R
-31 0 V
-1479 69 R
31 0 V
1479 0 R
-31 0 V
-1479 68 R
63 0 V
1447 0 R
-63 0 V
stroke
5443 2218 M
[ [(Times-Roman) 10.0 0.0 true true 0 ( 1.2)]
] -3.3 MRshow
1.000 UL
LTb
LCb setrgbcolor
5472 2287 M
31 0 V
1479 0 R
-31 0 V
-1479 68 R
31 0 V
1479 0 R
-31 0 V
-1479 68 R
31 0 V
1479 0 R
-31 0 V
-1479 69 R
31 0 V
1479 0 R
-31 0 V
-1479 68 R
63 0 V
1447 0 R
-63 0 V
stroke
5443 2560 M
[ [(Times-Roman) 10.0 0.0 true true 0 ( 1.4)]
] -3.3 MRshow
1.000 UL
LTb
LCb setrgbcolor
5472 2628 M
31 0 V
1479 0 R
-31 0 V
-1479 69 R
31 0 V
1479 0 R
-31 0 V
-1479 68 R
31 0 V
1479 0 R
-31 0 V
-1479 69 R
31 0 V
1479 0 R
-31 0 V
-1479 68 R
63 0 V
1447 0 R
-63 0 V
stroke
5443 2902 M
[ [(Times-Roman) 10.0 0.0 true true 0 ( 1.6)]
] -3.3 MRshow
1.000 UL
LTb
LCb setrgbcolor
5564 1654 M
0 31 V
0 1217 R
0 -31 V
5688 1654 M
0 31 V
0 1217 R
0 -31 V
5811 1654 M
0 31 V
0 1217 R
0 -31 V
5934 1654 M
0 31 V
0 1217 R
0 -31 V
6058 1654 M
0 63 V
0 1185 R
0 -63 V
stroke
6058 1534 M
[ [(Times-Roman) 10.0 0.0 true true 0 ( 0.1)]
] -3.3 MCshow
1.000 UL
LTb
LCb setrgbcolor
6181 1654 M
0 31 V
0 1217 R
0 -31 V
6304 1654 M
0 31 V
0 1217 R
0 -31 V
6427 1654 M
0 31 V
0 1217 R
0 -31 V
6551 1654 M
0 31 V
0 1217 R
0 -31 V
6674 1654 M
0 63 V
0 1185 R
0 -63 V
stroke
6674 1534 M
[ [(Times-Roman) 10.0 0.0 true true 0 ( 0.2)]
] -3.3 MCshow
1.000 UL
LTb
LCb setrgbcolor
6797 1654 M
0 31 V
0 1217 R
0 -31 V
6920 1654 M
0 31 V
0 1217 R
0 -31 V
stroke
LTB
LCb setrgbcolor
5472 2902 N
0 -1248 V
1510 0 V
0 1248 V
-1510 0 V
Z stroke
1.000 UP
LCb setrgbcolor
6058 2184 M
[ [(Times-Roman) 180.0 0.0 true true 0 (Rout)]
] -60.0 MLshow
1.000 UL
LTb
LCb setrgbcolor
LCb setrgbcolor
5064 2278 M
currentpoint gsave translate -270 rotate 0 0 moveto
[ [(Times-Roman) 10.0 0.0 true true 0 (C\(q\))]
] -3.3 MCshow
grestore
LTb
% Begin plot #1
1.000 UP
2.000 UL
LTb
0.34 0.71 0.91 C LCb setrgbcolor
13758 -8411 M
[ [(Times-Roman) 130.0 0.0 true true 0 (CorrFunc)]
] -43.3 MRshow
1.000 UP
2.000 UL
LTb
0.34 0.71 0.91 C 13836 -8411 M
156 0 V
-156 31 R
0 -62 V
156 62 R
0 -62 V
5518 1654 M
0 1113 V
-31 0 R
62 0 V
0 -862 R
0 997 V
-31 -997 R
62 0 V
61 70 R
0 927 V
-31 -927 R
62 0 V
0 -321 R
0 1237 V
-31 0 R
62 0 V
0 -1018 R
0 1029 V
5672 1873 M
62 0 V
0 38 R
0 991 V
-31 -991 R
62 0 V
0 -257 R
0 613 V
-31 0 R
62 0 V
0 -613 R
0 911 V
-31 0 R
62 0 V
30 -911 R
0 891 V
-31 0 R
62 0 V
31 -891 R
0 668 V
-31 0 R
62 0 V
0 -668 R
0 762 V
-31 0 R
62 0 V
-1 -762 R
0 1108 V
-31 0 R
62 0 V
0 -940 R
0 1080 V
5980 1822 M
62 0 V
31 -168 R
0 1106 V
-31 0 R
62 0 V
0 -1106 R
0 595 V
-31 0 R
62 0 V
0 -595 R
0 1132 V
-31 0 R
62 0 V
-1 -1132 R
0 974 V
-31 0 R
62 0 V
0 -657 R
0 931 V
-31 -931 R
62 0 V
0 -317 R
0 879 V
-31 0 R
62 0 V
0 -879 R
0 524 V
-31 0 R
62 0 V
0 -524 R
0 614 V
-31 0 R
62 0 V
30 -614 R
0 592 V
-31 0 R
62 0 V
62 -525 R
0 950 V
-31 -950 R
62 0 V
-62 950 R
62 0 V
0 -1017 R
0 713 V
-31 0 R
62 0 V
-1 -476 R
0 887 V
stroke 6504 2778 M
-31 -887 R
62 0 V
-62 887 R
62 0 V
31 -992 R
0 796 V
-31 -796 R
62 0 V
-62 796 R
62 0 V
0 -928 R
0 427 V
-31 0 R
62 0 V
30 -427 R
0 519 V
-31 0 R
62 0 V
0 -286 R
0 908 V
-31 -908 R
62 0 V
-62 908 R
62 0 V
0 -1141 R
0 395 V
-31 0 R
62 0 V
0 -395 R
0 419 V
-31 0 R
62 0 V
31 -419 R
0 535 V
-31 0 R
62 0 V
-1 -337 R
0 791 V
-31 -791 R
62 0 V
-62 791 R
62 0 V
0 -989 R
0 610 V
-31 0 R
62 0 V
31 -610 R
0 483 V
-31 0 R
62 0 V
0 -483 R
0 687 V
-31 0 R
46 0 V
5518 2109 TriU
5549 2734 TriU
5641 2808 TriU
5672 2196 TriU
5703 2746 TriU
5734 2760 TriU
5765 1725 TriU
5796 1979 TriU
5857 2023 TriU
5919 1854 TriU
5950 1912 TriU
5980 2191 TriU
6011 2435 TriU
6073 2201 TriU
6104 1782 TriU
6135 2218 TriU
6165 2109 TriU
6196 2615 TriU
6227 2044 TriU
6258 1716 TriU
6289 1881 TriU
6350 1845 TriU
6443 2196 TriU
6474 1946 TriU
6504 2334 TriU
6566 2184 TriU
6597 1712 TriU
6658 1816 TriU
6689 2341 TriU
6720 1716 TriU
6751 1737 TriU
6813 1823 TriU
6843 2247 TriU
6874 1865 TriU
6936 1811 TriU
6967 1986 TriU
13914 -8411 TriU
% End plot #1
% Begin plot #2
2.400 UL
LTb
0.58 0.00 0.83 C LCb setrgbcolor
13758 -8476 M
[ [(Times-Roman) 130.0 0.0 true true 0 (3DFit)]
] -43.3 MRshow
2.400 UL
LTb
0.58 0.00 0.83 C 13836 -8476 M
156 0 V
% End plot #2
stroke
2.000 UL
LTb
LCb setrgbcolor
1.000 UL
LTB
LCb setrgbcolor
5472 2902 N
0 -1248 V
1510 0 V
0 1248 V
-1510 0 V
Z stroke
1.000 UP
1.000 UL
LTb
LCb setrgbcolor
1.000 UL
LTb
LCb setrgbcolor
936 422 M
31 0 V
1480 0 R
-31 0 V
936 490 M
31 0 V
1480 0 R
-31 0 V
936 559 M
31 0 V
1480 0 R
-31 0 V
936 627 M
63 0 V
1448 0 R
-63 0 V
stroke
907 627 M
[ [(Times-Roman) 200.0 0.0 true true 0 ( 1)]
] -66.7 MRshow
1.000 UL
LTb
LCb setrgbcolor
936 695 M
31 0 V
1480 0 R
-31 0 V
936 764 M
31 0 V
1480 0 R
-31 0 V
936 832 M
31 0 V
1480 0 R
-31 0 V
936 900 M
31 0 V
1480 0 R
-31 0 V
936 969 M
63 0 V
1448 0 R
-63 0 V
stroke
907 969 M
[ [(Times-Roman) 200.0 0.0 true true 0 ( 1.2)]
] -66.7 MRshow
1.000 UL
LTb
LCb setrgbcolor
936 1037 M
31 0 V
1480 0 R
-31 0 V
936 1105 M
31 0 V
1480 0 R
-31 0 V
936 1174 M
31 0 V
1480 0 R
-31 0 V
936 1242 M
31 0 V
1480 0 R
-31 0 V
936 1310 M
63 0 V
1448 0 R
-63 0 V
stroke
907 1310 M
[ [(Times-Roman) 200.0 0.0 true true 0 ( 1.4)]
] -66.7 MRshow
1.000 UL
LTb
LCb setrgbcolor
936 1379 M
31 0 V
1480 0 R
-31 0 V
936 1447 M
31 0 V
1480 0 R
-31 0 V
936 1515 M
31 0 V
1480 0 R
-31 0 V
936 1584 M
31 0 V
1480 0 R
-31 0 V
936 1652 M
63 0 V
1448 0 R
-63 0 V
stroke
907 1652 M
[ [(Times-Roman) 200.0 0.0 true true 0 ( 1.6)]
] -66.7 MRshow
1.000 UL
LTb
LCb setrgbcolor
1029 405 M
0 31 V
0 1216 R
0 -31 V
1152 405 M
0 31 V
0 1216 R
0 -31 V
1275 405 M
0 31 V
0 1216 R
0 -31 V
1399 405 M
0 31 V
0 1216 R
0 -31 V
1522 405 M
0 63 V
0 1184 R
0 -63 V
stroke
1522 285 M
[ [(Times-Roman) 150.0 0.0 true true 0 ( 0.1)]
] -50.0 MCshow
1.000 UL
LTb
LCb setrgbcolor
1645 405 M
0 31 V
0 1216 R
0 -31 V
1769 405 M
0 31 V
0 1216 R
0 -31 V
1892 405 M
0 31 V
0 1216 R
0 -31 V
2015 405 M
0 31 V
0 1216 R
0 -31 V
2139 405 M
0 63 V
0 1184 R
0 -63 V
stroke
2139 285 M
[ [(Times-Roman) 150.0 0.0 true true 0 ( 0.2)]
] -50.0 MCshow
1.000 UL
LTb
LCb setrgbcolor
2262 405 M
0 31 V
0 1216 R
0 -31 V
2385 405 M
0 31 V
0 1216 R
0 -31 V
stroke
LTB
LCb setrgbcolor
936 1652 N
936 405 L
1511 0 V
0 1247 V
-1511 0 V
Z stroke
1.000 UP
LCb setrgbcolor
1522 935 M
[ [(Times-Roman) 180.0 0.0 true true 0 (Rlong)]
] -60.0 MLshow
1.000 UL
LTb
LCb setrgbcolor
LCb setrgbcolor
528 1028 M
currentpoint gsave translate -270 rotate 0 0 moveto
[ [(Times-Roman) 220.0 0.0 true true 0 (C\(q\))]
] -73.3 MCshow
grestore
LTb
% Begin plot #1
1.000 UP
2.000 UL
LTb
0.34 0.71 0.91 C LCb setrgbcolor
9227 -9652 M
[ [(Times-Roman) 130.0 0.0 true true 0 (CorrFunc)]
] -43.3 MRshow
1.000 UP
2.000 UL
LTb
0.34 0.71 0.91 C 9305 -9652 M
156 0 V
-156 31 R
0 -62 V
156 62 R
0 -62 V
951 1011 M
0 448 V
936 1011 M
46 0 V
-46 448 R
46 0 V
0 -708 R
0 350 V
951 751 M
62 0 V
-62 350 R
62 0 V
0 -268 R
0 285 V
982 833 M
62 0 V
-62 285 R
62 0 V
0 -85 R
0 261 V
-31 -261 R
62 0 V
-62 261 R
62 0 V
0 -424 R
0 238 V
1044 870 M
62 0 V
-62 238 R
62 0 V
0 -259 R
0 240 V
1075 849 M
62 0 V
-62 240 R
62 0 V
-1 -43 R
0 262 V
-31 -262 R
62 0 V
-62 262 R
62 0 V
0 -501 R
0 244 V
1136 807 M
62 0 V
-62 244 R
62 0 V
0 -295 R
0 248 V
1167 756 M
62 0 V
-62 248 R
62 0 V
0 -325 R
0 242 V
1198 679 M
62 0 V
-62 242 R
62 0 V
0 -123 R
0 263 V
1229 798 M
62 0 V
-62 263 R
62 0 V
0 -209 R
0 268 V
1260 852 M
62 0 V
-62 268 R
62 0 V
-1 -432 R
0 250 V
1290 688 M
62 0 V
-62 250 R
62 0 V
0 -355 R
0 252 V
1321 583 M
62 0 V
-62 252 R
62 0 V
0 -37 R
0 283 V
1352 798 M
62 0 V
-62 283 R
62 0 V
0 -460 R
0 265 V
1383 621 M
62 0 V
-62 265 R
62 0 V
31 -421 R
0 261 V
1445 465 M
62 0 V
stroke 1507 465 M
-62 261 R
62 0 V
-1 -225 R
0 273 V
1475 501 M
62 0 V
-62 273 R
62 0 V
0 -102 R
0 303 V
1506 672 M
62 0 V
-62 303 R
62 0 V
0 -237 R
0 322 V
1537 738 M
62 0 V
-62 322 R
62 0 V
0 -655 R
0 244 V
-31 0 R
62 0 V
31 -244 R
0 191 V
-31 0 R
62 0 V
0 25 R
0 340 V
1661 621 M
62 0 V
-62 340 R
62 0 V
-1 -464 R
0 339 V
1691 497 M
62 0 V
-62 339 R
62 0 V
0 -431 R
0 229 V
-31 0 R
62 0 V
0 -62 R
0 380 V
1753 572 M
62 0 V
-62 380 R
62 0 V
0 -363 R
0 417 V
1784 589 M
62 0 V
-62 417 R
62 0 V
0 -601 R
0 238 V
-31 0 R
62 0 V
0 -238 R
0 432 V
1846 405 M
62 0 V
-62 432 R
62 0 V
-1 -432 R
0 280 V
-31 0 R
62 0 V
0 3 R
0 504 V
1907 688 M
62 0 V
-62 504 R
62 0 V
0 -787 R
0 419 V
-31 0 R
62 0 V
0 -411 R
0 493 V
1969 413 M
62 0 V
-62 493 R
62 0 V
0 -315 R
0 649 V
2000 591 M
62 0 V
-62 649 R
62 0 V
0 -688 R
0 666 V
2031 552 M
62 0 V
-62 666 R
62 0 V
30 -813 R
0 596 V
-31 0 R
62 0 V
0 -596 R
0 489 V
stroke 2154 894 M
-31 0 R
62 0 V
0 -278 R
0 979 V
2154 616 M
62 0 V
-62 979 R
62 0 V
2277 405 M
0 1218 V
-31 0 R
62 0 V
2370 405 M
0 1247 V
951 1235 TriU
982 926 TriU
1013 976 TriU
1044 1163 TriU
1075 989 TriU
1106 969 TriU
1136 1177 TriU
1167 929 TriU
1198 880 TriU
1229 800 TriU
1260 929 TriU
1291 986 TriU
1321 813 TriU
1352 709 TriU
1383 940 TriU
1414 753 TriU
1476 595 TriU
1506 637 TriU
1537 824 TriU
1568 899 TriU
1599 505 TriU
1661 447 TriU
1692 791 TriU
1722 666 TriU
1753 472 TriU
1784 762 TriU
1815 798 TriU
1846 456 TriU
1877 621 TriU
1907 484 TriU
1938 940 TriU
1969 584 TriU
2000 660 TriU
2031 916 TriU
2062 885 TriU
2123 673 TriU
2154 532 TriU
2185 1105 TriU
2277 914 TriU
2370 1114 TriU
9383 -9652 TriU
% End plot #1
% Begin plot #2
2.400 UL
LTb
0.58 0.00 0.83 C LCb setrgbcolor
9227 -9717 M
[ [(Times-Roman) 130.0 0.0 true true 0 (3DFit)]
] -43.3 MRshow
2.400 UL
LTb
0.58 0.00 0.83 C 9305 -9717 M
156 0 V
936 1373 M
15 -10 V
31 -37 V
31 -53 V
31 -62 V
31 -66 V
31 -69 V
30 -65 V
31 -58 V
31 -49 V
31 -41 V
31 -34 V
31 -24 V
30 -19 V
31 -12 V
31 -10 V
31 -5 V
31 -4 V
31 -2 V
30 -1 V
31 -2 V
31 0 V
31 0 V
31 0 V
31 0 V
31 0 V
30 0 V
31 0 V
31 0 V
31 0 V
31 0 V
31 0 V
30 0 V
31 0 V
31 0 V
31 0 V
31 0 V
31 0 V
30 0 V
31 0 V
31 0 V
31 0 V
31 0 V
31 0 V
30 0 V
31 0 V
31 0 V
31 0 V
31 0 V
31 0 V
15 0 V
% End plot #2
stroke
2.000 UL
LTb
LCb setrgbcolor
1.000 UL
LTB
LCb setrgbcolor
936 1652 N
936 405 L
1511 0 V
0 1247 V
-1511 0 V
Z stroke
1.000 UP
1.000 UL
LTb
LCb setrgbcolor
1.000 UL
LTb
LCb setrgbcolor
2448 422 M
31 0 V
1480 0 R
-31 0 V
2448 490 M
31 0 V
1480 0 R
-31 0 V
2448 559 M
31 0 V
1480 0 R
-31 0 V
2448 627 M
63 0 V
1448 0 R
-63 0 V
stroke
2419 627 M
[ [(Times-Roman) 10.0 0.0 true true 0 ( 1)]
] -3.3 MRshow
1.000 UL
LTb
LCb setrgbcolor
2448 695 M
31 0 V
1480 0 R
-31 0 V
2448 764 M
31 0 V
1480 0 R
-31 0 V
2448 832 M
31 0 V
1480 0 R
-31 0 V
2448 900 M
31 0 V
1480 0 R
-31 0 V
2448 969 M
63 0 V
1448 0 R
-63 0 V
stroke
2419 969 M
[ [(Times-Roman) 10.0 0.0 true true 0 ( 1.2)]
] -3.3 MRshow
1.000 UL
LTb
LCb setrgbcolor
2448 1037 M
31 0 V
1480 0 R
-31 0 V
-1480 68 R
31 0 V
1480 0 R
-31 0 V
-1480 69 R
31 0 V
1480 0 R
-31 0 V
-1480 68 R
31 0 V
1480 0 R
-31 0 V
-1480 68 R
63 0 V
1448 0 R
-63 0 V
stroke
2419 1310 M
[ [(Times-Roman) 10.0 0.0 true true 0 ( 1.4)]
] -3.3 MRshow
1.000 UL
LTb
LCb setrgbcolor
2448 1379 M
31 0 V
1480 0 R
-31 0 V
-1480 68 R
31 0 V
1480 0 R
-31 0 V
-1480 68 R
31 0 V
1480 0 R
-31 0 V
-1480 69 R
31 0 V
1480 0 R
-31 0 V
-1480 68 R
63 0 V
1448 0 R
-63 0 V
stroke
2419 1652 M
[ [(Times-Roman) 10.0 0.0 true true 0 ( 1.6)]
] -3.3 MRshow
1.000 UL
LTb
LCb setrgbcolor
2541 405 M
0 31 V
0 1216 R
0 -31 V
2664 405 M
0 31 V
0 1216 R
0 -31 V
2787 405 M
0 31 V
0 1216 R
0 -31 V
2911 405 M
0 31 V
0 1216 R
0 -31 V
3034 405 M
0 63 V
0 1184 R
0 -63 V
stroke
3034 285 M
[ [(Times-Roman) 150.0 0.0 true true 0 ( 0.1)]
] -50.0 MCshow
1.000 UL
LTb
LCb setrgbcolor
3157 405 M
0 31 V
0 1216 R
0 -31 V
3281 405 M
0 31 V
0 1216 R
0 -31 V
3404 405 M
0 31 V
0 1216 R
0 -31 V
3527 405 M
0 31 V
0 1216 R
0 -31 V
3651 405 M
0 63 V
0 1184 R
0 -63 V
stroke
3651 285 M
[ [(Times-Roman) 150.0 0.0 true true 0 ( 0.2)]
] -50.0 MCshow
1.000 UL
LTb
LCb setrgbcolor
3774 405 M
0 31 V
0 1216 R
0 -31 V
3897 405 M
0 31 V
0 1216 R
0 -31 V
stroke
LTB
LCb setrgbcolor
2448 1652 N
0 -1247 V
1511 0 V
0 1247 V
-1511 0 V
Z stroke
1.000 UP
LCb setrgbcolor
3034 935 M
[ [(Times-Roman) 180.0 0.0 true true 0 (Rlong)]
] -60.0 MLshow
1.000 UL
LTb
LCb setrgbcolor
LCb setrgbcolor
2040 1028 M
currentpoint gsave translate -270 rotate 0 0 moveto
[ [(Times-Roman) 10.0 0.0 true true 0 (C\(q\))]
] -3.3 MCshow
grestore
LTb
% Begin plot #1
1.000 UP
2.000 UL
LTb
0.34 0.71 0.91 C LCb setrgbcolor
10739 -9659 M
[ [(Times-Roman) 130.0 0.0 true true 0 (CorrFunc)]
] -43.3 MRshow
1.000 UP
2.000 UL
LTb
0.34 0.71 0.91 C 10817 -9659 M
156 0 V
-156 31 R
0 -62 V
156 62 R
0 -62 V
2463 783 M
0 593 V
2448 783 M
46 0 V
-46 593 R
46 0 V
0 -478 R
0 511 V
2463 898 M
62 0 V
-62 511 R
62 0 V
0 -485 R
0 414 V
2494 924 M
62 0 V
-62 414 R
62 0 V
0 -429 R
0 356 V
2525 909 M
62 0 V
-62 356 R
62 0 V
0 -25 R
0 373 V
-31 -373 R
62 0 V
-62 373 R
62 0 V
0 -734 R
0 344 V
2587 879 M
62 0 V
-62 344 R
62 0 V
-1 -511 R
0 319 V
2617 712 M
62 0 V
-62 319 R
62 0 V
0 -16 R
0 369 V
-31 -369 R
62 0 V
-62 369 R
62 0 V
0 -419 R
0 366 V
2679 965 M
62 0 V
-62 366 R
62 0 V
0 -630 R
0 340 V
2710 701 M
62 0 V
-62 340 R
62 0 V
0 -11 R
0 390 V
-31 -390 R
62 0 V
-62 390 R
62 0 V
0 -437 R
0 395 V
2772 983 M
62 0 V
-62 395 R
62 0 V
-1 -827 R
0 326 V
2802 551 M
62 0 V
-62 326 R
62 0 V
0 -256 R
0 361 V
2833 621 M
62 0 V
-62 361 R
62 0 V
0 -210 R
0 373 V
2864 772 M
62 0 V
-62 373 R
62 0 V
0 -591 R
0 338 V
2895 554 M
62 0 V
-62 338 R
62 0 V
0 -250 R
0 373 V
2926 642 M
62 0 V
stroke 2988 642 M
-62 373 R
62 0 V
0 -348 R
0 388 V
2957 667 M
62 0 V
-62 388 R
62 0 V
-1 -369 R
0 385 V
2987 686 M
62 0 V
-62 385 R
62 0 V
0 -666 R
0 323 V
-31 0 R
62 0 V
0 -20 R
0 416 V
3049 708 M
62 0 V
-62 416 R
62 0 V
0 -434 R
0 401 V
3080 690 M
62 0 V
-62 401 R
62 0 V
0 -282 R
0 435 V
3111 809 M
62 0 V
-62 435 R
62 0 V
0 -839 R
0 327 V
-31 0 R
62 0 V
0 -158 R
0 393 V
3173 574 M
62 0 V
-62 393 R
62 0 V
-1 -503 R
0 391 V
3203 464 M
62 0 V
-62 391 R
62 0 V
0 -142 R
0 440 V
3234 713 M
62 0 V
-62 440 R
62 0 V
0 -613 R
0 416 V
3265 540 M
62 0 V
-62 416 R
62 0 V
0 -463 R
0 446 V
3296 493 M
62 0 V
-62 446 R
62 0 V
0 -498 R
0 423 V
3327 441 M
62 0 V
-62 423 R
62 0 V
0 -459 R
0 420 V
-31 0 R
62 0 V
-1 -277 R
0 465 V
3388 548 M
62 0 V
-62 465 R
62 0 V
0 -608 R
0 289 V
-31 0 R
62 0 V
0 -271 R
0 453 V
3450 423 M
62 0 V
-62 453 R
62 0 V
0 -471 R
0 226 V
-31 0 R
62 0 V
0 246 R
0 573 V
3512 877 M
62 0 V
stroke 3574 877 M
-62 573 R
62 0 V
0 -626 R
0 632 V
3543 824 M
62 0 V
-62 632 R
62 0 V
-1 -833 R
0 551 V
3573 623 M
62 0 V
-62 551 R
62 0 V
0 -769 R
0 363 V
-31 0 R
62 0 V
62 35 R
0 700 V
3697 803 M
62 0 V
-62 700 R
62 0 V
0 -1039 R
0 633 V
3728 464 M
62 0 V
-62 633 R
62 0 V
-1 -692 R
0 332 V
-31 0 R
62 0 V
31 -299 R
0 692 V
3820 438 M
62 0 V
-62 692 R
62 0 V
62 -423 R
0 944 V
3913 707 M
46 0 V
-46 944 R
46 0 V
2463 1080 TriU
2494 1153 TriU
2525 1131 TriU
2556 1087 TriU
2587 1427 TriU
2618 1051 TriU
2648 871 TriU
2679 1199 TriU
2710 1148 TriU
2741 871 TriU
2772 1225 TriU
2803 1181 TriU
2833 714 TriU
2864 801 TriU
2895 958 TriU
2926 723 TriU
2957 829 TriU
2988 861 TriU
3018 878 TriU
3049 558 TriU
3080 916 TriU
3111 890 TriU
3142 1027 TriU
3173 557 TriU
3204 771 TriU
3234 660 TriU
3265 933 TriU
3296 748 TriU
3327 716 TriU
3358 653 TriU
3389 610 TriU
3419 781 TriU
3450 482 TriU
3481 649 TriU
3512 418 TriU
3543 1163 TriU
3574 1140 TriU
3604 899 TriU
3635 524 TriU
3728 1153 TriU
3759 781 TriU
3789 442 TriU
3851 784 TriU
3944 1179 TriU
10895 -9659 TriU
% End plot #1
% Begin plot #2
2.400 UL
LTb
0.58 0.00 0.83 C LCb setrgbcolor
10739 -9737 M
[ [(Times-Roman) 130.0 0.0 true true 0 (3DFit)]
] -43.3 MRshow
2.400 UL
LTb
0.58 0.00 0.83 C 10817 -9737 M
156 0 V
2448 1506 M
15 -9 V
31 -35 V
31 -49 V
31 -58 V
31 -67 V
31 -66 V
30 -67 V
31 -62 V
31 -54 V
31 -48 V
31 -39 V
31 -31 V
30 -24 V
31 -17 V
31 -14 V
31 -8 V
31 -7 V
31 -4 V
30 -1 V
31 -2 V
31 -2 V
31 0 V
31 0 V
31 0 V
31 0 V
30 -1 V
31 0 V
31 0 V
31 0 V
31 0 V
31 0 V
30 0 V
31 0 V
31 0 V
31 0 V
31 0 V
31 0 V
30 0 V
31 0 V
31 0 V
31 0 V
31 0 V
31 0 V
30 0 V
31 0 V
31 0 V
31 0 V
31 0 V
31 0 V
15 0 V
% End plot #2
stroke
2.000 UL
LTb
LCb setrgbcolor
1.000 UL
LTB
LCb setrgbcolor
2448 1652 N
0 -1247 V
1511 0 V
0 1247 V
-1511 0 V
Z stroke
1.000 UP
1.000 UL
LTb
LCb setrgbcolor
1.000 UL
LTb
LCb setrgbcolor
3960 422 M
31 0 V
1480 0 R
-31 0 V
3960 490 M
31 0 V
1480 0 R
-31 0 V
3960 559 M
31 0 V
1480 0 R
-31 0 V
3960 627 M
63 0 V
1448 0 R
-63 0 V
stroke
3931 627 M
[ [(Times-Roman) 10.0 0.0 true true 0 ( 1)]
] -3.3 MRshow
1.000 UL
LTb
LCb setrgbcolor
3960 695 M
31 0 V
1480 0 R
-31 0 V
3960 764 M
31 0 V
1480 0 R
-31 0 V
3960 832 M
31 0 V
1480 0 R
-31 0 V
3960 900 M
31 0 V
1480 0 R
-31 0 V
3960 969 M
63 0 V
1448 0 R
-63 0 V
stroke
3931 969 M
[ [(Times-Roman) 10.0 0.0 true true 0 ( 1.2)]
] -3.3 MRshow
1.000 UL
LTb
LCb setrgbcolor
3960 1037 M
31 0 V
1480 0 R
-31 0 V
-1480 68 R
31 0 V
1480 0 R
-31 0 V
-1480 69 R
31 0 V
1480 0 R
-31 0 V
-1480 68 R
31 0 V
1480 0 R
-31 0 V
-1480 68 R
63 0 V
1448 0 R
-63 0 V
stroke
3931 1310 M
[ [(Times-Roman) 10.0 0.0 true true 0 ( 1.4)]
] -3.3 MRshow
1.000 UL
LTb
LCb setrgbcolor
3960 1379 M
31 0 V
1480 0 R
-31 0 V
-1480 68 R
31 0 V
1480 0 R
-31 0 V
-1480 68 R
31 0 V
1480 0 R
-31 0 V
-1480 69 R
31 0 V
1480 0 R
-31 0 V
-1480 68 R
63 0 V
1448 0 R
-63 0 V
stroke
3931 1652 M
[ [(Times-Roman) 10.0 0.0 true true 0 ( 1.6)]
] -3.3 MRshow
1.000 UL
LTb
LCb setrgbcolor
4053 405 M
0 31 V
0 1216 R
0 -31 V
4176 405 M
0 31 V
0 1216 R
0 -31 V
4299 405 M
0 31 V
0 1216 R
0 -31 V
4423 405 M
0 31 V
0 1216 R
0 -31 V
4546 405 M
0 63 V
0 1184 R
0 -63 V
stroke
4546 285 M
[ [(Times-Roman) 150.0 0.0 true true 0 ( 0.1)]
] -50.0 MCshow
1.000 UL
LTb
LCb setrgbcolor
4669 405 M
0 31 V
0 1216 R
0 -31 V
4793 405 M
0 31 V
0 1216 R
0 -31 V
4916 405 M
0 31 V
0 1216 R
0 -31 V
5039 405 M
0 31 V
0 1216 R
0 -31 V
5163 405 M
0 63 V
0 1184 R
0 -63 V
stroke
5163 285 M
[ [(Times-Roman) 150.0 0.0 true true 0 ( 0.2)]
] -50.0 MCshow
1.000 UL
LTb
LCb setrgbcolor
5286 405 M
0 31 V
0 1216 R
0 -31 V
5409 405 M
0 31 V
0 1216 R
0 -31 V
stroke
LTB
LCb setrgbcolor
3960 1652 N
0 -1247 V
1511 0 V
0 1247 V
-1511 0 V
Z stroke
1.000 UP
LCb setrgbcolor
4546 935 M
[ [(Times-Roman) 180.0 0.0 true true 0 (Rlong)]
] -60.0 MLshow
1.000 UL
LTb
LCb setrgbcolor
LCb setrgbcolor
3552 1028 M
currentpoint gsave translate -270 rotate 0 0 moveto
[ [(Times-Roman) 10.0 0.0 true true 0 (C\(q\))]
] -3.3 MCshow
grestore
LTb
% Begin plot #1
1.000 UP
2.000 UL
LTb
0.34 0.71 0.91 C LCb setrgbcolor
12251 -9652 M
[ [(Times-Roman) 130.0 0.0 true true 0 (CorrFunc)]
] -43.3 MRshow
1.000 UP
2.000 UL
LTb
0.34 0.71 0.91 C 12329 -9652 M
156 0 V
-156 31 R
0 -62 V
156 62 R
0 -62 V
3975 1027 M
0 625 V
-15 -625 R
46 0 V
0 112 R
0 513 V
-31 -513 R
62 0 V
0 -96 R
0 609 V
-31 -609 R
62 0 V
31 240 R
0 369 V
-31 -369 R
62 0 V
0 -122 R
0 491 V
-31 -491 R
62 0 V
-1 -400 R
0 470 V
4129 761 M
62 0 V
-62 470 R
62 0 V
0 -488 R
0 465 V
4160 743 M
62 0 V
-62 465 R
62 0 V
0 -453 R
0 482 V
4191 755 M
62 0 V
-62 482 R
62 0 V
0 -128 R
0 543 V
-31 -543 R
62 0 V
0 -210 R
0 529 V
4253 899 M
62 0 V
-62 529 R
62 0 V
0 -582 R
0 506 V
4284 846 M
62 0 V
-62 506 R
62 0 V
-1 -805 R
0 453 V
4314 547 M
62 0 V
-62 453 R
62 0 V
0 -264 R
0 507 V
4345 736 M
62 0 V
-62 507 R
62 0 V
0 -667 R
0 491 V
4376 576 M
62 0 V
-62 491 R
62 0 V
0 -321 R
0 517 V
4407 746 M
62 0 V
-62 517 R
62 0 V
0 -499 R
0 519 V
4438 764 M
62 0 V
-62 519 R
62 0 V
0 -556 R
0 531 V
4469 727 M
62 0 V
-62 531 R
62 0 V
-1 -853 R
0 463 V
-31 0 R
62 0 V
0 -9 R
0 565 V
4530 859 M
62 0 V
-62 565 R
62 0 V
stroke 4592 1424 M
0 -876 R
0 510 V
4561 548 M
62 0 V
-62 510 R
62 0 V
0 -653 R
0 489 V
-31 0 R
62 0 V
0 -489 R
0 453 V
-31 0 R
62 0 V
0 -305 R
0 527 V
4654 553 M
62 0 V
-62 527 R
62 0 V
0 -675 R
0 266 V
-31 0 R
62 0 V
-1 -176 R
0 524 V
4715 495 M
62 0 V
-62 524 R
62 0 V
0 -614 R
0 287 V
-31 0 R
62 0 V
0 268 R
0 660 V
4777 960 M
62 0 V
-62 660 R
62 0 V
0 -1215 R
0 360 V
-31 0 R
62 0 V
0 -327 R
0 529 V
4839 438 M
62 0 V
-62 529 R
62 0 V
0 -385 R
0 602 V
4870 582 M
62 0 V
-62 602 R
62 0 V
-1 -779 R
0 361 V
-31 0 R
62 0 V
0 -212 R
0 635 V
4931 554 M
62 0 V
-62 635 R
62 0 V
0 -784 R
0 424 V
-31 0 R
62 0 V
0 -424 R
0 559 V
-31 0 R
62 0 V
0 -360 R
0 705 V
5024 604 M
62 0 V
-62 705 R
62 0 V
0 -716 R
0 649 V
5055 593 M
62 0 V
-62 649 R
62 0 V
-1 -713 R
0 623 V
5085 529 M
62 0 V
-62 623 R
62 0 V
0 -747 R
0 582 V
-31 0 R
62 0 V
31 -244 R
0 789 V
5178 743 M
62 0 V
-62 789 R
62 0 V
0 -1119 R
0 664 V
stroke 5240 1077 M
5209 413 M
62 0 V
-62 664 R
62 0 V
0 -672 R
0 505 V
-31 0 R
62 0 V
30 -437 R
0 742 V
5301 473 M
62 0 V
-62 742 R
62 0 V
31 -810 R
0 595 V
-31 0 R
62 0 V
31 -595 R
0 567 V
-31 0 R
46 0 V
3975 1502 TriU
4006 1565 TriU
4037 1370 TriU
4099 1573 TriU
4130 1444 TriU
4160 996 TriU
4191 976 TriU
4222 996 TriU
4253 1397 TriU
4284 1163 TriU
4315 1099 TriU
4345 774 TriU
4376 989 TriU
4407 822 TriU
4438 1005 TriU
4469 1023 TriU
4500 993 TriU
4530 636 TriU
4561 1141 TriU
4592 803 TriU
4623 639 TriU
4654 617 TriU
4685 817 TriU
4716 430 TriU
4746 757 TriU
4777 452 TriU
4808 1290 TriU
4839 514 TriU
4870 702 TriU
4901 883 TriU
4931 510 TriU
4962 871 TriU
4993 545 TriU
5024 666 TriU
5055 957 TriU
5086 917 TriU
5116 841 TriU
5147 666 TriU
5209 1138 TriU
5240 745 TriU
5271 593 TriU
5332 844 TriU
5394 644 TriU
5456 611 TriU
12407 -9652 TriU
% End plot #1
% Begin plot #2
2.400 UL
LTb
0.58 0.00 0.83 C LCb setrgbcolor
12251 -9717 M
[ [(Times-Roman) 130.0 0.0 true true 0 (3DFit)]
] -43.3 MRshow
2.400 UL
LTb
0.58 0.00 0.83 C 12329 -9717 M
156 0 V
3960 1181 M
15 0 V
31 0 V
31 0 V
31 0 V
31 0 V
31 0 V
30 0 V
31 0 V
31 0 V
31 0 V
31 0 V
31 0 V
30 0 V
31 0 V
31 0 V
31 0 V
31 0 V
31 0 V
30 0 V
31 0 V
31 0 V
31 0 V
31 0 V
31 0 V
31 0 V
30 0 V
31 0 V
31 0 V
31 0 V
31 0 V
31 0 V
30 0 V
31 0 V
31 0 V
31 0 V
31 0 V
31 0 V
30 0 V
31 0 V
31 0 V
31 0 V
31 0 V
31 0 V
30 0 V
31 0 V
31 0 V
31 0 V
31 0 V
31 0 V
15 0 V
% End plot #2
stroke
2.000 UL
LTb
LCb setrgbcolor
1.000 UL
LTB
LCb setrgbcolor
3960 1652 N
0 -1247 V
1511 0 V
0 1247 V
-1511 0 V
Z stroke
1.000 UP
1.000 UL
LTb
LCb setrgbcolor
1.000 UL
LTb
LCb setrgbcolor
5472 422 M
31 0 V
1479 0 R
-31 0 V
5472 490 M
31 0 V
1479 0 R
-31 0 V
5472 559 M
31 0 V
1479 0 R
-31 0 V
5472 627 M
63 0 V
1447 0 R
-63 0 V
stroke
5443 627 M
[ [(Times-Roman) 10.0 0.0 true true 0 ( 1)]
] -3.3 MRshow
1.000 UL
LTb
LCb setrgbcolor
5472 695 M
31 0 V
1479 0 R
-31 0 V
5472 764 M
31 0 V
1479 0 R
-31 0 V
5472 832 M
31 0 V
1479 0 R
-31 0 V
5472 900 M
31 0 V
1479 0 R
-31 0 V
5472 969 M
63 0 V
1447 0 R
-63 0 V
stroke
5443 969 M
[ [(Times-Roman) 10.0 0.0 true true 0 ( 1.2)]
] -3.3 MRshow
1.000 UL
LTb
LCb setrgbcolor
5472 1037 M
31 0 V
1479 0 R
-31 0 V
-1479 68 R
31 0 V
1479 0 R
-31 0 V
-1479 69 R
31 0 V
1479 0 R
-31 0 V
-1479 68 R
31 0 V
1479 0 R
-31 0 V
-1479 68 R
63 0 V
1447 0 R
-63 0 V
stroke
5443 1310 M
[ [(Times-Roman) 10.0 0.0 true true 0 ( 1.4)]
] -3.3 MRshow
1.000 UL
LTb
LCb setrgbcolor
5472 1379 M
31 0 V
1479 0 R
-31 0 V
-1479 68 R
31 0 V
1479 0 R
-31 0 V
-1479 68 R
31 0 V
1479 0 R
-31 0 V
-1479 69 R
31 0 V
1479 0 R
-31 0 V
-1479 68 R
63 0 V
1447 0 R
-63 0 V
stroke
5443 1652 M
[ [(Times-Roman) 10.0 0.0 true true 0 ( 1.6)]
] -3.3 MRshow
1.000 UL
LTb
LCb setrgbcolor
5564 405 M
0 31 V
0 1216 R
0 -31 V
5688 405 M
0 31 V
0 1216 R
0 -31 V
5811 405 M
0 31 V
0 1216 R
0 -31 V
5934 405 M
0 31 V
0 1216 R
0 -31 V
6058 405 M
0 63 V
0 1184 R
0 -63 V
stroke
6058 285 M
[ [(Times-Roman) 150.0 0.0 true true 0 ( 0.1)]
] -50.0 MCshow
1.000 UL
LTb
LCb setrgbcolor
6181 405 M
0 31 V
0 1216 R
0 -31 V
6304 405 M
0 31 V
0 1216 R
0 -31 V
6427 405 M
0 31 V
0 1216 R
0 -31 V
6551 405 M
0 31 V
0 1216 R
0 -31 V
6674 405 M
0 63 V
0 1184 R
0 -63 V
stroke
6674 285 M
[ [(Times-Roman) 150.0 0.0 true true 0 ( 0.2)]
] -50.0 MCshow
1.000 UL
LTb
LCb setrgbcolor
6797 405 M
0 31 V
0 1216 R
0 -31 V
6920 405 M
0 31 V
0 1216 R
0 -31 V
stroke
LTB
LCb setrgbcolor
5472 1652 N
0 -1247 V
1510 0 V
0 1247 V
-1510 0 V
Z stroke
1.000 UP
LCb setrgbcolor
6058 935 M
[ [(Times-Roman) 180.0 0.0 true true 0 (Rlong)]
] -60.0 MLshow
1.000 UL
LTb
LCb setrgbcolor
LCb setrgbcolor
5064 1028 M
currentpoint gsave translate -270 rotate 0 0 moveto
[ [(Times-Roman) 10.0 0.0 true true 0 (C\(q\))]
] -3.3 MCshow
grestore
LTb
% Begin plot #1
1.000 UP
2.000 UL
LTb
0.34 0.71 0.91 C LCb setrgbcolor
13758 -9652 M
[ [(Times-Roman) 130.0 0.0 true true 0 (CorrFunc)]
] -43.3 MRshow
1.000 UP
2.000 UL
LTb
0.34 0.71 0.91 C 13836 -9652 M
156 0 V
-156 31 R
0 -62 V
156 62 R
0 -62 V
5641 1057 M
0 595 V
-31 -595 R
62 0 V
62 -317 R
0 851 V
5703 740 M
62 0 V
-62 851 R
62 0 V
0 -924 R
0 764 V
5734 667 M
62 0 V
-62 764 R
62 0 V
0 -614 R
0 765 V
5765 817 M
62 0 V
-62 765 R
62 0 V
5826 481 M
0 801 V
5795 481 M
62 0 V
-62 801 R
62 0 V
0 -162 R
0 532 V
-31 -532 R
62 0 V
0 -715 R
0 611 V
-31 0 R
62 0 V
0 -337 R
0 849 V
5888 679 M
62 0 V
-62 849 R
62 0 V
0 -1064 R
0 685 V
5919 464 M
62 0 V
-62 685 R
62 0 V
-1 -245 R
0 748 V
5949 904 M
62 0 V
0 -499 R
0 642 V
-31 0 R
62 0 V
0 -642 R
0 655 V
-31 0 R
62 0 V
0 -655 R
0 548 V
-31 0 R
62 0 V
0 142 R
0 557 V
-31 -557 R
62 0 V
0 -491 R
0 856 V
6104 604 M
62 0 V
-62 856 R
62 0 V
6165 405 M
0 557 V
-31 0 R
62 0 V
0 -536 R
0 767 V
6165 426 M
62 0 V
-62 767 R
62 0 V
0 -788 R
0 705 V
-31 0 R
62 0 V
0 -694 R
0 778 V
6227 416 M
62 0 V
-62 778 R
62 0 V
0 -789 R
0 507 V
-31 0 R
62 0 V
-1 -507 R
0 476 V
stroke 6319 881 M
-31 0 R
62 0 V
0 -377 R
0 868 V
6319 504 M
62 0 V
-62 868 R
62 0 V
0 -850 R
0 900 V
6350 522 M
62 0 V
-62 900 R
62 0 V
0 -471 R
0 701 V
6381 951 M
62 0 V
0 -446 R
0 955 V
6412 505 M
62 0 V
-62 955 R
62 0 V
0 -859 R
0 972 V
6443 601 M
62 0 V
-62 972 R
62 0 V
6504 405 M
0 626 V
-31 0 R
62 0 V
31 -626 R
0 524 V
-31 0 R
62 0 V
0 -524 R
0 527 V
-31 0 R
62 0 V
0 -386 R
0 985 V
6597 546 M
62 0 V
-62 985 R
62 0 V
6658 405 M
0 887 V
-31 0 R
62 0 V
0 -887 R
0 858 V
-31 0 R
62 0 V
31 -858 R
0 719 V
-31 0 R
62 0 V
0 -603 R
0 946 V
6751 521 M
62 0 V
-62 946 R
62 0 V
6843 405 M
0 786 V
-31 0 R
62 0 V
0 -449 R
0 910 V
6843 742 M
62 0 V
0 -337 R
0 739 V
-31 0 R
62 0 V
0 -739 R
0 721 V
-31 0 R
62 0 V
0 -416 R
0 942 V
6936 710 M
46 0 V
5641 1548 TriU
5734 1165 TriU
5765 1049 TriU
5796 1199 TriU
5826 882 TriU
5857 1647 TriU
5888 660 TriU
5919 1104 TriU
5950 806 TriU
5980 1394 TriU
6011 685 TriU
6042 701 TriU
6073 605 TriU
6104 1606 TriU
6135 1032 TriU
6165 617 TriU
6196 810 TriU
6227 742 TriU
6258 805 TriU
6289 532 TriU
6319 493 TriU
6350 938 TriU
6381 972 TriU
6412 1474 TriU
6443 982 TriU
6474 1087 TriU
6504 634 TriU
6566 547 TriU
6597 542 TriU
6628 1039 TriU
6658 817 TriU
6689 832 TriU
6751 677 TriU
6782 994 TriU
6843 709 TriU
6874 1251 TriU
6905 709 TriU
6936 649 TriU
6967 1295 TriU
13914 -9652 TriU
% End plot #1
% Begin plot #2
2.400 UL
LTb
0.58 0.00 0.83 C LCb setrgbcolor
13758 -9717 M
[ [(Times-Roman) 130.0 0.0 true true 0 (3DFit)]
] -43.3 MRshow
2.400 UL
LTb
0.58 0.00 0.83 C 13836 -9717 M
156 0 V
% End plot #2
stroke
2.000 UL
LTb
LCb setrgbcolor
1.000 UL
LTB
LCb setrgbcolor
5472 1652 N
0 -1247 V
1510 0 V
0 1247 V
-1510 0 V
Z stroke
1.000 UP
1.000 UL
LTb
LCb setrgbcolor
stroke
grestore
end
showpage
%%Trailer
%%DocumentFonts: Times-Roman
%%Pages: 1
