%!PS-Adobe-2.0
%%Title: image.eps
%%Creator: gnuplot 5.0 patchlevel 3
%%CreationDate: Mon Feb  5 14:55:52 2018
%%DocumentFonts: (atend)
%%BoundingBox: 50 50 554 770
%%Orientation: Landscape
%%Pages: (atend)
%%EndComments
%%BeginProlog
/gnudict 256 dict def
gnudict begin
%
% The following true/false flags may be edited by hand if desired.
% The unit line width and grayscale image gamma correction may also be changed.
%
/Color true def
/Blacktext false def
/Solid false def
/Dashlength 1 def
/Landscape true def
/Level1 false def
/Level3 false def
/Rounded false def
/ClipToBoundingBox false def
/SuppressPDFMark false def
/TransparentPatterns false def
/gnulinewidth 5.000 def
/userlinewidth gnulinewidth def
/Gamma 1.0 def
/BackgroundColor {-1.000 -1.000 -1.000} def
%
/vshift -80 def
/dl1 {
  10.0 Dashlength userlinewidth gnulinewidth div mul mul mul
  Rounded { currentlinewidth 0.75 mul sub dup 0 le { pop 0.01 } if } if
} def
/dl2 {
  10.0 Dashlength userlinewidth gnulinewidth div mul mul mul
  Rounded { currentlinewidth 0.75 mul add } if
} def
/hpt_ 31.5 def
/vpt_ 31.5 def
/hpt hpt_ def
/vpt vpt_ def
/doclip {
  ClipToBoundingBox {
    newpath 50 50 moveto 554 50 lineto 554 770 lineto 50 770 lineto closepath
    clip
  } if
} def
%
% Gnuplot Prolog Version 5.1 (Oct 2015)
%
%/SuppressPDFMark true def
%
/M {moveto} bind def
/L {lineto} bind def
/R {rmoveto} bind def
/V {rlineto} bind def
/N {newpath moveto} bind def
/Z {closepath} bind def
/C {setrgbcolor} bind def
/f {rlineto fill} bind def
/g {setgray} bind def
/Gshow {show} def   % May be redefined later in the file to support UTF-8
/vpt2 vpt 2 mul def
/hpt2 hpt 2 mul def
/Lshow {currentpoint stroke M 0 vshift R 
	Blacktext {gsave 0 setgray textshow grestore} {textshow} ifelse} def
/Rshow {currentpoint stroke M dup stringwidth pop neg vshift R
	Blacktext {gsave 0 setgray textshow grestore} {textshow} ifelse} def
/Cshow {currentpoint stroke M dup stringwidth pop -2 div vshift R 
	Blacktext {gsave 0 setgray textshow grestore} {textshow} ifelse} def
/UP {dup vpt_ mul /vpt exch def hpt_ mul /hpt exch def
  /hpt2 hpt 2 mul def /vpt2 vpt 2 mul def} def
/DL {Color {setrgbcolor Solid {pop []} if 0 setdash}
 {pop pop pop 0 setgray Solid {pop []} if 0 setdash} ifelse} def
/BL {stroke userlinewidth 2 mul setlinewidth
	Rounded {1 setlinejoin 1 setlinecap} if} def
/AL {stroke userlinewidth 2 div setlinewidth
	Rounded {1 setlinejoin 1 setlinecap} if} def
/UL {dup gnulinewidth mul /userlinewidth exch def
	dup 1 lt {pop 1} if 10 mul /udl exch def} def
/PL {stroke userlinewidth setlinewidth
	Rounded {1 setlinejoin 1 setlinecap} if} def
3.8 setmiterlimit
% Classic Line colors (version 5.0)
/LCw {1 1 1} def
/LCb {0 0 0} def
/LCa {0 0 0} def
/LC0 {1 0 0} def
/LC1 {0 1 0} def
/LC2 {0 0 1} def
/LC3 {1 0 1} def
/LC4 {0 1 1} def
/LC5 {1 1 0} def
/LC6 {0 0 0} def
/LC7 {1 0.3 0} def
/LC8 {0.5 0.5 0.5} def
% Default dash patterns (version 5.0)
/LTB {BL [] LCb DL} def
/LTw {PL [] 1 setgray} def
/LTb {PL [] LCb DL} def
/LTa {AL [1 udl mul 2 udl mul] 0 setdash LCa setrgbcolor} def
/LT0 {PL [] LC0 DL} def
/LT1 {PL [2 dl1 3 dl2] LC1 DL} def
/LT2 {PL [1 dl1 1.5 dl2] LC2 DL} def
/LT3 {PL [6 dl1 2 dl2 1 dl1 2 dl2] LC3 DL} def
/LT4 {PL [1 dl1 2 dl2 6 dl1 2 dl2 1 dl1 2 dl2] LC4 DL} def
/LT5 {PL [4 dl1 2 dl2] LC5 DL} def
/LT6 {PL [1.5 dl1 1.5 dl2 1.5 dl1 1.5 dl2 1.5 dl1 6 dl2] LC6 DL} def
/LT7 {PL [3 dl1 3 dl2 1 dl1 3 dl2] LC7 DL} def
/LT8 {PL [2 dl1 2 dl2 2 dl1 6 dl2] LC8 DL} def
/SL {[] 0 setdash} def
/Pnt {stroke [] 0 setdash gsave 1 setlinecap M 0 0 V stroke grestore} def
/Dia {stroke [] 0 setdash 2 copy vpt add M
  hpt neg vpt neg V hpt vpt neg V
  hpt vpt V hpt neg vpt V closepath stroke
  Pnt} def
/Pls {stroke [] 0 setdash vpt sub M 0 vpt2 V
  currentpoint stroke M
  hpt neg vpt neg R hpt2 0 V stroke
 } def
/Box {stroke [] 0 setdash 2 copy exch hpt sub exch vpt add M
  0 vpt2 neg V hpt2 0 V 0 vpt2 V
  hpt2 neg 0 V closepath stroke
  Pnt} def
/Crs {stroke [] 0 setdash exch hpt sub exch vpt add M
  hpt2 vpt2 neg V currentpoint stroke M
  hpt2 neg 0 R hpt2 vpt2 V stroke} def
/TriU {stroke [] 0 setdash 2 copy vpt 1.12 mul add M
  hpt neg vpt -1.62 mul V
  hpt 2 mul 0 V
  hpt neg vpt 1.62 mul V closepath stroke
  Pnt} def
/Star {2 copy Pls Crs} def
/BoxF {stroke [] 0 setdash exch hpt sub exch vpt add M
  0 vpt2 neg V hpt2 0 V 0 vpt2 V
  hpt2 neg 0 V closepath fill} def
/TriUF {stroke [] 0 setdash vpt 1.12 mul add M
  hpt neg vpt -1.62 mul V
  hpt 2 mul 0 V
  hpt neg vpt 1.62 mul V closepath fill} def
/TriD {stroke [] 0 setdash 2 copy vpt 1.12 mul sub M
  hpt neg vpt 1.62 mul V
  hpt 2 mul 0 V
  hpt neg vpt -1.62 mul V closepath stroke
  Pnt} def
/TriDF {stroke [] 0 setdash vpt 1.12 mul sub M
  hpt neg vpt 1.62 mul V
  hpt 2 mul 0 V
  hpt neg vpt -1.62 mul V closepath fill} def
/DiaF {stroke [] 0 setdash vpt add M
  hpt neg vpt neg V hpt vpt neg V
  hpt vpt V hpt neg vpt V closepath fill} def
/Pent {stroke [] 0 setdash 2 copy gsave
  translate 0 hpt M 4 {72 rotate 0 hpt L} repeat
  closepath stroke grestore Pnt} def
/PentF {stroke [] 0 setdash gsave
  translate 0 hpt M 4 {72 rotate 0 hpt L} repeat
  closepath fill grestore} def
/Circle {stroke [] 0 setdash 2 copy
  hpt 0 360 arc stroke Pnt} def
/CircleF {stroke [] 0 setdash hpt 0 360 arc fill} def
/C0 {BL [] 0 setdash 2 copy moveto vpt 90 450 arc} bind def
/C1 {BL [] 0 setdash 2 copy moveto
	2 copy vpt 0 90 arc closepath fill
	vpt 0 360 arc closepath} bind def
/C2 {BL [] 0 setdash 2 copy moveto
	2 copy vpt 90 180 arc closepath fill
	vpt 0 360 arc closepath} bind def
/C3 {BL [] 0 setdash 2 copy moveto
	2 copy vpt 0 180 arc closepath fill
	vpt 0 360 arc closepath} bind def
/C4 {BL [] 0 setdash 2 copy moveto
	2 copy vpt 180 270 arc closepath fill
	vpt 0 360 arc closepath} bind def
/C5 {BL [] 0 setdash 2 copy moveto
	2 copy vpt 0 90 arc
	2 copy moveto
	2 copy vpt 180 270 arc closepath fill
	vpt 0 360 arc} bind def
/C6 {BL [] 0 setdash 2 copy moveto
	2 copy vpt 90 270 arc closepath fill
	vpt 0 360 arc closepath} bind def
/C7 {BL [] 0 setdash 2 copy moveto
	2 copy vpt 0 270 arc closepath fill
	vpt 0 360 arc closepath} bind def
/C8 {BL [] 0 setdash 2 copy moveto
	2 copy vpt 270 360 arc closepath fill
	vpt 0 360 arc closepath} bind def
/C9 {BL [] 0 setdash 2 copy moveto
	2 copy vpt 270 450 arc closepath fill
	vpt 0 360 arc closepath} bind def
/C10 {BL [] 0 setdash 2 copy 2 copy moveto vpt 270 360 arc closepath fill
	2 copy moveto
	2 copy vpt 90 180 arc closepath fill
	vpt 0 360 arc closepath} bind def
/C11 {BL [] 0 setdash 2 copy moveto
	2 copy vpt 0 180 arc closepath fill
	2 copy moveto
	2 copy vpt 270 360 arc closepath fill
	vpt 0 360 arc closepath} bind def
/C12 {BL [] 0 setdash 2 copy moveto
	2 copy vpt 180 360 arc closepath fill
	vpt 0 360 arc closepath} bind def
/C13 {BL [] 0 setdash 2 copy moveto
	2 copy vpt 0 90 arc closepath fill
	2 copy moveto
	2 copy vpt 180 360 arc closepath fill
	vpt 0 360 arc closepath} bind def
/C14 {BL [] 0 setdash 2 copy moveto
	2 copy vpt 90 360 arc closepath fill
	vpt 0 360 arc} bind def
/C15 {BL [] 0 setdash 2 copy vpt 0 360 arc closepath fill
	vpt 0 360 arc closepath} bind def
/Rec {newpath 4 2 roll moveto 1 index 0 rlineto 0 exch rlineto
	neg 0 rlineto closepath} bind def
/Square {dup Rec} bind def
/Bsquare {vpt sub exch vpt sub exch vpt2 Square} bind def
/S0 {BL [] 0 setdash 2 copy moveto 0 vpt rlineto BL Bsquare} bind def
/S1 {BL [] 0 setdash 2 copy vpt Square fill Bsquare} bind def
/S2 {BL [] 0 setdash 2 copy exch vpt sub exch vpt Square fill Bsquare} bind def
/S3 {BL [] 0 setdash 2 copy exch vpt sub exch vpt2 vpt Rec fill Bsquare} bind def
/S4 {BL [] 0 setdash 2 copy exch vpt sub exch vpt sub vpt Square fill Bsquare} bind def
/S5 {BL [] 0 setdash 2 copy 2 copy vpt Square fill
	exch vpt sub exch vpt sub vpt Square fill Bsquare} bind def
/S6 {BL [] 0 setdash 2 copy exch vpt sub exch vpt sub vpt vpt2 Rec fill Bsquare} bind def
/S7 {BL [] 0 setdash 2 copy exch vpt sub exch vpt sub vpt vpt2 Rec fill
	2 copy vpt Square fill Bsquare} bind def
/S8 {BL [] 0 setdash 2 copy vpt sub vpt Square fill Bsquare} bind def
/S9 {BL [] 0 setdash 2 copy vpt sub vpt vpt2 Rec fill Bsquare} bind def
/S10 {BL [] 0 setdash 2 copy vpt sub vpt Square fill 2 copy exch vpt sub exch vpt Square fill
	Bsquare} bind def
/S11 {BL [] 0 setdash 2 copy vpt sub vpt Square fill 2 copy exch vpt sub exch vpt2 vpt Rec fill
	Bsquare} bind def
/S12 {BL [] 0 setdash 2 copy exch vpt sub exch vpt sub vpt2 vpt Rec fill Bsquare} bind def
/S13 {BL [] 0 setdash 2 copy exch vpt sub exch vpt sub vpt2 vpt Rec fill
	2 copy vpt Square fill Bsquare} bind def
/S14 {BL [] 0 setdash 2 copy exch vpt sub exch vpt sub vpt2 vpt Rec fill
	2 copy exch vpt sub exch vpt Square fill Bsquare} bind def
/S15 {BL [] 0 setdash 2 copy Bsquare fill Bsquare} bind def
/D0 {gsave translate 45 rotate 0 0 S0 stroke grestore} bind def
/D1 {gsave translate 45 rotate 0 0 S1 stroke grestore} bind def
/D2 {gsave translate 45 rotate 0 0 S2 stroke grestore} bind def
/D3 {gsave translate 45 rotate 0 0 S3 stroke grestore} bind def
/D4 {gsave translate 45 rotate 0 0 S4 stroke grestore} bind def
/D5 {gsave translate 45 rotate 0 0 S5 stroke grestore} bind def
/D6 {gsave translate 45 rotate 0 0 S6 stroke grestore} bind def
/D7 {gsave translate 45 rotate 0 0 S7 stroke grestore} bind def
/D8 {gsave translate 45 rotate 0 0 S8 stroke grestore} bind def
/D9 {gsave translate 45 rotate 0 0 S9 stroke grestore} bind def
/D10 {gsave translate 45 rotate 0 0 S10 stroke grestore} bind def
/D11 {gsave translate 45 rotate 0 0 S11 stroke grestore} bind def
/D12 {gsave translate 45 rotate 0 0 S12 stroke grestore} bind def
/D13 {gsave translate 45 rotate 0 0 S13 stroke grestore} bind def
/D14 {gsave translate 45 rotate 0 0 S14 stroke grestore} bind def
/D15 {gsave translate 45 rotate 0 0 S15 stroke grestore} bind def
/DiaE {stroke [] 0 setdash vpt add M
  hpt neg vpt neg V hpt vpt neg V
  hpt vpt V hpt neg vpt V closepath stroke} def
/BoxE {stroke [] 0 setdash exch hpt sub exch vpt add M
  0 vpt2 neg V hpt2 0 V 0 vpt2 V
  hpt2 neg 0 V closepath stroke} def
/TriUE {stroke [] 0 setdash vpt 1.12 mul add M
  hpt neg vpt -1.62 mul V
  hpt 2 mul 0 V
  hpt neg vpt 1.62 mul V closepath stroke} def
/TriDE {stroke [] 0 setdash vpt 1.12 mul sub M
  hpt neg vpt 1.62 mul V
  hpt 2 mul 0 V
  hpt neg vpt -1.62 mul V closepath stroke} def
/PentE {stroke [] 0 setdash gsave
  translate 0 hpt M 4 {72 rotate 0 hpt L} repeat
  closepath stroke grestore} def
/CircE {stroke [] 0 setdash 
  hpt 0 360 arc stroke} def
/Opaque {gsave closepath 1 setgray fill grestore 0 setgray closepath} def
/DiaW {stroke [] 0 setdash vpt add M
  hpt neg vpt neg V hpt vpt neg V
  hpt vpt V hpt neg vpt V Opaque stroke} def
/BoxW {stroke [] 0 setdash exch hpt sub exch vpt add M
  0 vpt2 neg V hpt2 0 V 0 vpt2 V
  hpt2 neg 0 V Opaque stroke} def
/TriUW {stroke [] 0 setdash vpt 1.12 mul add M
  hpt neg vpt -1.62 mul V
  hpt 2 mul 0 V
  hpt neg vpt 1.62 mul V Opaque stroke} def
/TriDW {stroke [] 0 setdash vpt 1.12 mul sub M
  hpt neg vpt 1.62 mul V
  hpt 2 mul 0 V
  hpt neg vpt -1.62 mul V Opaque stroke} def
/PentW {stroke [] 0 setdash gsave
  translate 0 hpt M 4 {72 rotate 0 hpt L} repeat
  Opaque stroke grestore} def
/CircW {stroke [] 0 setdash 
  hpt 0 360 arc Opaque stroke} def
/BoxFill {gsave Rec 1 setgray fill grestore} def
/Density {
  /Fillden exch def
  currentrgbcolor
  /ColB exch def /ColG exch def /ColR exch def
  /ColR ColR Fillden mul Fillden sub 1 add def
  /ColG ColG Fillden mul Fillden sub 1 add def
  /ColB ColB Fillden mul Fillden sub 1 add def
  ColR ColG ColB setrgbcolor} def
/BoxColFill {gsave Rec PolyFill} def
/PolyFill {gsave Density fill grestore grestore} def
/h {rlineto rlineto rlineto gsave closepath fill grestore} bind def
%
% PostScript Level 1 Pattern Fill routine for rectangles
% Usage: x y w h s a XX PatternFill
%	x,y = lower left corner of box to be filled
%	w,h = width and height of box
%	  a = angle in degrees between lines and x-axis
%	 XX = 0/1 for no/yes cross-hatch
%
/PatternFill {gsave /PFa [ 9 2 roll ] def
  PFa 0 get PFa 2 get 2 div add PFa 1 get PFa 3 get 2 div add translate
  PFa 2 get -2 div PFa 3 get -2 div PFa 2 get PFa 3 get Rec
  TransparentPatterns {} {gsave 1 setgray fill grestore} ifelse
  clip
  currentlinewidth 0.5 mul setlinewidth
  /PFs PFa 2 get dup mul PFa 3 get dup mul add sqrt def
  0 0 M PFa 5 get rotate PFs -2 div dup translate
  0 1 PFs PFa 4 get div 1 add floor cvi
	{PFa 4 get mul 0 M 0 PFs V} for
  0 PFa 6 get ne {
	0 1 PFs PFa 4 get div 1 add floor cvi
	{PFa 4 get mul 0 2 1 roll M PFs 0 V} for
 } if
  stroke grestore} def
%
/languagelevel where
 {pop languagelevel} {1} ifelse
dup 2 lt
	{/InterpretLevel1 true def
	 /InterpretLevel3 false def}
	{/InterpretLevel1 Level1 def
	 2 gt
	    {/InterpretLevel3 Level3 def}
	    {/InterpretLevel3 false def}
	 ifelse }
 ifelse
%
% PostScript level 2 pattern fill definitions
%
/Level2PatternFill {
/Tile8x8 {/PaintType 2 /PatternType 1 /TilingType 1 /BBox [0 0 8 8] /XStep 8 /YStep 8}
	bind def
/KeepColor {currentrgbcolor [/Pattern /DeviceRGB] setcolorspace} bind def
<< Tile8x8
 /PaintProc {0.5 setlinewidth pop 0 0 M 8 8 L 0 8 M 8 0 L stroke} 
>> matrix makepattern
/Pat1 exch def
<< Tile8x8
 /PaintProc {0.5 setlinewidth pop 0 0 M 8 8 L 0 8 M 8 0 L stroke
	0 4 M 4 8 L 8 4 L 4 0 L 0 4 L stroke}
>> matrix makepattern
/Pat2 exch def
<< Tile8x8
 /PaintProc {0.5 setlinewidth pop 0 0 M 0 8 L
	8 8 L 8 0 L 0 0 L fill}
>> matrix makepattern
/Pat3 exch def
<< Tile8x8
 /PaintProc {0.5 setlinewidth pop -4 8 M 8 -4 L
	0 12 M 12 0 L stroke}
>> matrix makepattern
/Pat4 exch def
<< Tile8x8
 /PaintProc {0.5 setlinewidth pop -4 0 M 8 12 L
	0 -4 M 12 8 L stroke}
>> matrix makepattern
/Pat5 exch def
<< Tile8x8
 /PaintProc {0.5 setlinewidth pop -2 8 M 4 -4 L
	0 12 M 8 -4 L 4 12 M 10 0 L stroke}
>> matrix makepattern
/Pat6 exch def
<< Tile8x8
 /PaintProc {0.5 setlinewidth pop -2 0 M 4 12 L
	0 -4 M 8 12 L 4 -4 M 10 8 L stroke}
>> matrix makepattern
/Pat7 exch def
<< Tile8x8
 /PaintProc {0.5 setlinewidth pop 8 -2 M -4 4 L
	12 0 M -4 8 L 12 4 M 0 10 L stroke}
>> matrix makepattern
/Pat8 exch def
<< Tile8x8
 /PaintProc {0.5 setlinewidth pop 0 -2 M 12 4 L
	-4 0 M 12 8 L -4 4 M 8 10 L stroke}
>> matrix makepattern
/Pat9 exch def
/Pattern1 {PatternBgnd KeepColor Pat1 setpattern} bind def
/Pattern2 {PatternBgnd KeepColor Pat2 setpattern} bind def
/Pattern3 {PatternBgnd KeepColor Pat3 setpattern} bind def
/Pattern4 {PatternBgnd KeepColor Landscape {Pat5} {Pat4} ifelse setpattern} bind def
/Pattern5 {PatternBgnd KeepColor Landscape {Pat4} {Pat5} ifelse setpattern} bind def
/Pattern6 {PatternBgnd KeepColor Landscape {Pat9} {Pat6} ifelse setpattern} bind def
/Pattern7 {PatternBgnd KeepColor Landscape {Pat8} {Pat7} ifelse setpattern} bind def
} def
%
%
%End of PostScript Level 2 code
%
/PatternBgnd {
  TransparentPatterns {} {gsave 1 setgray fill grestore} ifelse
} def
%
% Substitute for Level 2 pattern fill codes with
% grayscale if Level 2 support is not selected.
%
/Level1PatternFill {
/Pattern1 {0.250 Density} bind def
/Pattern2 {0.500 Density} bind def
/Pattern3 {0.750 Density} bind def
/Pattern4 {0.125 Density} bind def
/Pattern5 {0.375 Density} bind def
/Pattern6 {0.625 Density} bind def
/Pattern7 {0.875 Density} bind def
} def
%
% Now test for support of Level 2 code
%
Level1 {Level1PatternFill} {Level2PatternFill} ifelse
%
/Symbol-Oblique /Symbol findfont [1 0 .167 1 0 0] makefont
dup length dict begin {1 index /FID eq {pop pop} {def} ifelse} forall
currentdict end definefont pop
%
/MFshow {
   { dup 5 get 3 ge
     { 5 get 3 eq {gsave} {grestore} ifelse }
     {dup dup 0 get findfont exch 1 get scalefont setfont
     [ currentpoint ] exch dup 2 get 0 exch R dup 5 get 2 ne {dup dup 6
     get exch 4 get {textshow} {stringwidth pop 0 R} ifelse }if dup 5 get 0 eq
     {dup 3 get {2 get neg 0 exch R pop} {pop aload pop M} ifelse} {dup 5
     get 1 eq {dup 2 get exch dup 3 get exch 6 get stringwidth pop -2 div
     dup 0 R} {dup 6 get stringwidth pop -2 div 0 R 6 get
     textshow 2 index {aload pop M neg 3 -1 roll neg R pop pop} {pop pop pop
     pop aload pop M} ifelse }ifelse }ifelse }
     ifelse }
   forall} def
/Gswidth {dup type /stringtype eq {stringwidth} {pop (n) stringwidth} ifelse} def
/MFwidth {0 exch { dup 5 get 3 ge { 5 get 3 eq { 0 } { pop } ifelse }
 {dup 3 get{dup dup 0 get findfont exch 1 get scalefont setfont
     6 get Gswidth pop add} {pop} ifelse} ifelse} forall} def
/MLshow { currentpoint stroke M
  0 exch R
  Blacktext {gsave 0 setgray MFshow grestore} {MFshow} ifelse } bind def
/MRshow { currentpoint stroke M
  exch dup MFwidth neg 3 -1 roll R
  Blacktext {gsave 0 setgray MFshow grestore} {MFshow} ifelse } bind def
/MCshow { currentpoint stroke M
  exch dup MFwidth -2 div 3 -1 roll R
  Blacktext {gsave 0 setgray MFshow grestore} {MFshow} ifelse } bind def
/XYsave    { [( ) 1 2 true false 3 ()] } bind def
/XYrestore { [( ) 1 2 true false 4 ()] } bind def
Level1 SuppressPDFMark or 
{} {
/SDict 10 dict def
systemdict /pdfmark known not {
  userdict /pdfmark systemdict /cleartomark get put
} if
SDict begin [
  /Title (image.eps)
  /Subject (gnuplot plot)
  /Creator (gnuplot 5.0 patchlevel 3)
  /Author (bad)
%  /Producer (gnuplot)
%  /Keywords ()
  /CreationDate (Mon Feb  5 14:55:52 2018)
  /DOCINFO pdfmark
end
} ifelse
%
% Support for boxed text - Ethan A Merritt May 2005
%
/InitTextBox { userdict /TBy2 3 -1 roll put userdict /TBx2 3 -1 roll put
           userdict /TBy1 3 -1 roll put userdict /TBx1 3 -1 roll put
	   /Boxing true def } def
/ExtendTextBox { Boxing
    { gsave dup false charpath pathbbox
      dup TBy2 gt {userdict /TBy2 3 -1 roll put} {pop} ifelse
      dup TBx2 gt {userdict /TBx2 3 -1 roll put} {pop} ifelse
      dup TBy1 lt {userdict /TBy1 3 -1 roll put} {pop} ifelse
      dup TBx1 lt {userdict /TBx1 3 -1 roll put} {pop} ifelse
      grestore } if } def
/PopTextBox { newpath TBx1 TBxmargin sub TBy1 TBymargin sub M
               TBx1 TBxmargin sub TBy2 TBymargin add L
	       TBx2 TBxmargin add TBy2 TBymargin add L
	       TBx2 TBxmargin add TBy1 TBymargin sub L closepath } def
/DrawTextBox { PopTextBox stroke /Boxing false def} def
/FillTextBox { gsave PopTextBox 1 1 1 setrgbcolor fill grestore /Boxing false def} def
0 0 0 0 InitTextBox
/TBxmargin 20 def
/TBymargin 20 def
/Boxing false def
/textshow { ExtendTextBox Gshow } def
%
% redundant definitions for compatibility with prologue.ps older than 5.0.2
/LTB {BL [] LCb DL} def
/LTb {PL [] LCb DL} def
end
%%EndProlog
%%Page: 1 1
gnudict begin
gsave
doclip
50 50 translate
0.100 0.100 scale
90 rotate
0 -5040 translate
0 setgray
newpath
(Times-Roman) findfont 240 scalefont setfont
BackgroundColor 0 lt 3 1 roll 0 lt exch 0 lt or or not {gsave BackgroundColor C clippath fill grestore} if
1.000 UL
LTb
LCb setrgbcolor
936 2916 M
31 0 V
1480 0 R
-31 0 V
936 2984 M
31 0 V
1480 0 R
-31 0 V
936 3053 M
31 0 V
1480 0 R
-31 0 V
936 3121 M
63 0 V
1448 0 R
-63 0 V
stroke
907 3121 M
[ [(Times-Roman) 200.0 0.0 true true 0 ( 1)]
] -66.7 MRshow
1.000 UL
LTb
LCb setrgbcolor
936 3189 M
31 0 V
1480 0 R
-31 0 V
936 3258 M
31 0 V
1480 0 R
-31 0 V
936 3326 M
31 0 V
1480 0 R
-31 0 V
936 3394 M
31 0 V
1480 0 R
-31 0 V
936 3463 M
63 0 V
1448 0 R
-63 0 V
stroke
907 3463 M
[ [(Times-Roman) 200.0 0.0 true true 0 ( 1.2)]
] -66.7 MRshow
1.000 UL
LTb
LCb setrgbcolor
936 3531 M
31 0 V
1480 0 R
-31 0 V
936 3599 M
31 0 V
1480 0 R
-31 0 V
936 3668 M
31 0 V
1480 0 R
-31 0 V
936 3736 M
31 0 V
1480 0 R
-31 0 V
936 3804 M
63 0 V
1448 0 R
-63 0 V
stroke
907 3804 M
[ [(Times-Roman) 200.0 0.0 true true 0 ( 1.4)]
] -66.7 MRshow
1.000 UL
LTb
LCb setrgbcolor
936 3873 M
31 0 V
1480 0 R
-31 0 V
936 3941 M
31 0 V
1480 0 R
-31 0 V
936 4009 M
31 0 V
1480 0 R
-31 0 V
936 4078 M
31 0 V
1480 0 R
-31 0 V
936 4146 M
63 0 V
1448 0 R
-63 0 V
stroke
907 4146 M
[ [(Times-Roman) 200.0 0.0 true true 0 ( 1.6)]
] -66.7 MRshow
1.000 UL
LTb
LCb setrgbcolor
1029 2899 M
0 31 V
0 1216 R
0 -31 V
1152 2899 M
0 31 V
0 1216 R
0 -31 V
1275 2899 M
0 31 V
0 1216 R
0 -31 V
1399 2899 M
0 31 V
0 1216 R
0 -31 V
1522 2899 M
0 63 V
0 1184 R
0 -63 V
stroke
1522 2779 M
[ [(Times-Roman) 10.0 0.0 true true 0 ( 0.1)]
] -3.3 MCshow
1.000 UL
LTb
LCb setrgbcolor
1645 2899 M
0 31 V
0 1216 R
0 -31 V
1769 2899 M
0 31 V
0 1216 R
0 -31 V
1892 2899 M
0 31 V
0 1216 R
0 -31 V
2015 2899 M
0 31 V
0 1216 R
0 -31 V
2139 2899 M
0 63 V
0 1184 R
0 -63 V
stroke
2139 2779 M
[ [(Times-Roman) 10.0 0.0 true true 0 ( 0.2)]
] -3.3 MCshow
1.000 UL
LTb
LCb setrgbcolor
2262 2899 M
0 31 V
0 1216 R
0 -31 V
2385 2899 M
0 31 V
0 1216 R
0 -31 V
stroke
LTB
LCb setrgbcolor
936 4146 N
0 -1247 V
1511 0 V
0 1247 V
-1511 0 V
Z stroke
1.000 UP
LCb setrgbcolor
1522 3429 M
[ [(Times-Roman) 180.0 0.0 true true 0 (Rside)]
] -60.0 MLshow
1.000 UL
LTb
LCb setrgbcolor
LCb setrgbcolor
528 3522 M
currentpoint gsave translate -270 rotate 0 0 moveto
[ [(Times-Roman) 220.0 0.0 true true 0 (C\(q\))]
] -73.3 MCshow
grestore
LTb
% Begin plot #1
1.000 UP
2.000 UL
LTb
0.34 0.71 0.91 C LCb setrgbcolor
1827 3876 M
[ [(Times-Roman) 130.0 0.0 true true 0 (CorrFunc)]
] -43.3 MRshow
1.000 UP
2.000 UL
LTb
0.34 0.71 0.91 C 1905 3876 M
156 0 V
-156 31 R
0 -62 V
156 62 R
0 -62 V
951 3469 M
0 73 V
-15 -73 R
46 0 V
-46 73 R
46 0 V
0 -66 R
0 65 V
-31 -65 R
62 0 V
-62 65 R
62 0 V
0 -2 R
0 60 V
-31 -60 R
62 0 V
-62 60 R
62 0 V
0 -97 R
0 55 V
-31 -55 R
62 0 V
-62 55 R
62 0 V
0 -104 R
0 50 V
-31 -50 R
62 0 V
-62 50 R
62 0 V
0 -2 R
0 49 V
-31 -49 R
62 0 V
-62 49 R
62 0 V
-1 -190 R
0 45 V
-31 -45 R
62 0 V
-62 45 R
62 0 V
0 -82 R
0 44 V
-31 -44 R
62 0 V
-62 44 R
62 0 V
0 -70 R
0 44 V
-31 -44 R
62 0 V
-62 44 R
62 0 V
0 -100 R
0 44 V
-31 -44 R
62 0 V
-62 44 R
62 0 V
0 -84 R
0 42 V
-31 -42 R
62 0 V
-62 42 R
62 0 V
0 -32 R
0 43 V
-31 -43 R
62 0 V
-62 43 R
62 0 V
-1 -111 R
0 42 V
-31 -42 R
62 0 V
-62 42 R
62 0 V
0 -12 R
0 43 V
-31 -43 R
62 0 V
-62 43 R
62 0 V
0 -105 R
0 41 V
-31 -41 R
62 0 V
-62 41 R
62 0 V
0 -55 R
0 41 V
-31 -41 R
62 0 V
-62 41 R
62 0 V
0 -39 R
0 41 V
-31 -41 R
62 0 V
stroke 1476 3099 M
-62 41 R
62 0 V
0 -23 R
0 42 V
-31 -42 R
62 0 V
-62 42 R
62 0 V
-1 -52 R
0 42 V
-31 -42 R
62 0 V
-62 42 R
62 0 V
0 -44 R
0 42 V
-31 -42 R
62 0 V
-62 42 R
62 0 V
0 -50 R
0 41 V
-31 -41 R
62 0 V
-62 41 R
62 0 V
0 -50 R
0 41 V
-31 -41 R
62 0 V
-62 41 R
62 0 V
0 -34 R
0 42 V
-31 -42 R
62 0 V
-62 42 R
62 0 V
0 -16 R
0 41 V
-31 -41 R
62 0 V
-62 41 R
62 0 V
0 -79 R
0 42 V
-31 -42 R
62 0 V
-62 42 R
62 0 V
-1 -25 R
0 42 V
-31 -42 R
62 0 V
-62 42 R
62 0 V
0 -60 R
0 41 V
-31 -41 R
62 0 V
-62 41 R
62 0 V
0 -35 R
0 42 V
-31 -42 R
62 0 V
-62 42 R
62 0 V
0 -5 R
0 43 V
-31 -43 R
62 0 V
-62 43 R
62 0 V
0 -61 R
0 42 V
-31 -42 R
62 0 V
-62 42 R
62 0 V
0 -53 R
0 42 V
-31 -42 R
62 0 V
-62 42 R
62 0 V
-1 -28 R
0 43 V
-31 -43 R
62 0 V
-62 43 R
62 0 V
0 -83 R
0 43 V
-31 -43 R
62 0 V
-62 43 R
62 0 V
0 -21 R
0 43 V
-31 -43 R
62 0 V
-62 43 R
62 0 V
stroke 2000 3135 M
0 -46 R
0 43 V
-31 -43 R
62 0 V
-62 43 R
62 0 V
0 -21 R
0 44 V
-31 -44 R
62 0 V
-62 44 R
62 0 V
0 -58 R
0 44 V
-31 -44 R
62 0 V
-62 44 R
62 0 V
-1 -54 R
0 43 V
-31 -43 R
62 0 V
-62 43 R
62 0 V
0 -26 R
0 44 V
-31 -44 R
62 0 V
-62 44 R
62 0 V
0 -26 R
0 45 V
-31 -45 R
62 0 V
-62 45 R
62 0 V
0 -102 R
0 44 V
-31 -44 R
62 0 V
-62 44 R
62 0 V
0 22 R
0 45 V
-31 -45 R
62 0 V
-62 45 R
62 0 V
0 -110 R
0 45 V
-31 -45 R
62 0 V
-62 45 R
62 0 V
-1 -33 R
0 46 V
-31 -46 R
62 0 V
-62 46 R
62 0 V
0 -42 R
0 46 V
-31 -46 R
62 0 V
-62 46 R
62 0 V
0 -50 R
0 45 V
-31 -45 R
62 0 V
-62 45 R
62 0 V
0 -23 R
0 46 V
-31 -46 R
62 0 V
-62 46 R
62 0 V
0 -79 R
0 47 V
-31 -47 R
62 0 V
-62 47 R
62 0 V
0 22 R
0 48 V
-31 -48 R
46 0 V
-46 48 R
46 0 V
951 3505 TriU
982 3509 TriU
1013 3569 TriU
1044 3529 TriU
1075 3478 TriU
1106 3526 TriU
1136 3382 TriU
1167 3345 TriU
1198 3319 TriU
1229 3263 TriU
1260 3222 TriU
1291 3232 TriU
1321 3164 TriU
1352 3195 TriU
1383 3131 TriU
1414 3118 TriU
1445 3119 TriU
1476 3138 TriU
1506 3128 TriU
1537 3126 TriU
1568 3117 TriU
1599 3108 TriU
1630 3116 TriU
1661 3142 TriU
1692 3104 TriU
1722 3121 TriU
1753 3102 TriU
1784 3109 TriU
1815 3147 TriU
1846 3128 TriU
1877 3117 TriU
1907 3131 TriU
1938 3091 TriU
1969 3114 TriU
2000 3110 TriU
2031 3133 TriU
2062 3119 TriU
2092 3109 TriU
2123 3126 TriU
2154 3145 TriU
2185 3087 TriU
2216 3154 TriU
2247 3089 TriU
2277 3101 TriU
2308 3105 TriU
2339 3101 TriU
2370 3123 TriU
2401 3090 TriU
2432 3160 TriU
1983 3876 TriU
% End plot #1
% Begin plot #2
2.400 UL
LTb
0.58 0.00 0.83 C LCb setrgbcolor
1827 3746 M
[ [(Times-Roman) 130.0 0.0 true true 0 (3DFit)]
] -43.3 MRshow
2.400 UL
LTb
0.58 0.00 0.83 C 1905 3746 M
156 0 V
936 3634 M
15 -6 V
31 -22 V
31 -32 V
31 -40 V
31 -44 V
31 -46 V
30 -48 V
31 -46 V
31 -43 V
31 -39 V
31 -32 V
31 -30 V
30 -22 V
31 -19 V
31 -13 V
31 -10 V
31 -9 V
31 -5 V
30 -5 V
31 -2 V
31 -2 V
31 -1 V
31 -1 V
31 0 V
31 -1 V
30 0 V
31 0 V
31 0 V
31 0 V
31 0 V
31 0 V
30 0 V
31 0 V
31 0 V
31 0 V
31 0 V
31 0 V
30 0 V
31 0 V
31 0 V
31 0 V
31 0 V
31 0 V
30 0 V
31 0 V
31 0 V
31 0 V
31 0 V
31 0 V
15 0 V
% End plot #2
stroke
2.000 UL
LTb
LCb setrgbcolor
1.000 UL
LTB
LCb setrgbcolor
936 4146 N
0 -1247 V
1511 0 V
0 1247 V
-1511 0 V
Z stroke
1.000 UP
1.000 UL
LTb
LCb setrgbcolor
1.000 UL
LTb
LCb setrgbcolor
2448 2916 M
31 0 V
1480 0 R
-31 0 V
-1480 68 R
31 0 V
1480 0 R
-31 0 V
-1480 69 R
31 0 V
1480 0 R
-31 0 V
-1480 68 R
63 0 V
1448 0 R
-63 0 V
stroke
2419 3121 M
[ [(Times-Roman) 10.0 0.0 true true 0 ( 1)]
] -3.3 MRshow
1.000 UL
LTb
LCb setrgbcolor
2448 3189 M
31 0 V
1480 0 R
-31 0 V
-1480 69 R
31 0 V
1480 0 R
-31 0 V
-1480 68 R
31 0 V
1480 0 R
-31 0 V
-1480 68 R
31 0 V
1480 0 R
-31 0 V
-1480 69 R
63 0 V
1448 0 R
-63 0 V
stroke
2419 3463 M
[ [(Times-Roman) 10.0 0.0 true true 0 ( 1.2)]
] -3.3 MRshow
1.000 UL
LTb
LCb setrgbcolor
2448 3531 M
31 0 V
1480 0 R
-31 0 V
-1480 68 R
31 0 V
1480 0 R
-31 0 V
-1480 69 R
31 0 V
1480 0 R
-31 0 V
-1480 68 R
31 0 V
1480 0 R
-31 0 V
-1480 68 R
63 0 V
1448 0 R
-63 0 V
stroke
2419 3804 M
[ [(Times-Roman) 10.0 0.0 true true 0 ( 1.4)]
] -3.3 MRshow
1.000 UL
LTb
LCb setrgbcolor
2448 3873 M
31 0 V
1480 0 R
-31 0 V
-1480 68 R
31 0 V
1480 0 R
-31 0 V
-1480 68 R
31 0 V
1480 0 R
-31 0 V
-1480 69 R
31 0 V
1480 0 R
-31 0 V
-1480 68 R
63 0 V
1448 0 R
-63 0 V
stroke
2419 4146 M
[ [(Times-Roman) 10.0 0.0 true true 0 ( 1.6)]
] -3.3 MRshow
1.000 UL
LTb
LCb setrgbcolor
2541 2899 M
0 31 V
0 1216 R
0 -31 V
2664 2899 M
0 31 V
0 1216 R
0 -31 V
2787 2899 M
0 31 V
0 1216 R
0 -31 V
2911 2899 M
0 31 V
0 1216 R
0 -31 V
3034 2899 M
0 63 V
0 1184 R
0 -63 V
stroke
3034 2779 M
[ [(Times-Roman) 10.0 0.0 true true 0 ( 0.1)]
] -3.3 MCshow
1.000 UL
LTb
LCb setrgbcolor
3157 2899 M
0 31 V
0 1216 R
0 -31 V
3281 2899 M
0 31 V
0 1216 R
0 -31 V
3404 2899 M
0 31 V
0 1216 R
0 -31 V
3527 2899 M
0 31 V
0 1216 R
0 -31 V
3651 2899 M
0 63 V
0 1184 R
0 -63 V
stroke
3651 2779 M
[ [(Times-Roman) 10.0 0.0 true true 0 ( 0.2)]
] -3.3 MCshow
1.000 UL
LTb
LCb setrgbcolor
3774 2899 M
0 31 V
0 1216 R
0 -31 V
3897 2899 M
0 31 V
0 1216 R
0 -31 V
stroke
LTB
LCb setrgbcolor
2448 4146 N
0 -1247 V
1511 0 V
0 1247 V
-1511 0 V
Z stroke
1.000 UP
LCb setrgbcolor
3034 3429 M
[ [(Times-Roman) 180.0 0.0 true true 0 (Rside)]
] -60.0 MLshow
1.000 UL
LTb
LCb setrgbcolor
LCb setrgbcolor
2040 3522 M
currentpoint gsave translate -270 rotate 0 0 moveto
[ [(Times-Roman) 10.0 0.0 true true 0 (C\(q\))]
] -3.3 MCshow
grestore
LTb
% Begin plot #1
1.000 UP
2.000 UL
LTb
0.34 0.71 0.91 C LCb setrgbcolor
10739 -7165 M
[ [(Times-Roman) 130.0 0.0 true true 0 (CorrFunc)]
] -43.3 MRshow
1.000 UP
2.000 UL
LTb
0.34 0.71 0.91 C 10817 -7165 M
156 0 V
-156 31 R
0 -62 V
156 62 R
0 -62 V
2463 3541 M
0 104 V
-15 -104 R
46 0 V
-46 104 R
46 0 V
0 -64 R
0 95 V
-31 -95 R
62 0 V
-62 95 R
62 0 V
0 -77 R
0 83 V
-31 -83 R
62 0 V
-62 83 R
62 0 V
0 -29 R
0 77 V
-31 -77 R
62 0 V
-62 77 R
62 0 V
0 -177 R
0 69 V
-31 -69 R
62 0 V
-62 69 R
62 0 V
0 -147 R
0 64 V
-31 -64 R
62 0 V
-62 64 R
62 0 V
-1 -64 R
0 64 V
-31 -64 R
62 0 V
-62 64 R
62 0 V
0 -159 R
0 63 V
-31 -63 R
62 0 V
-62 63 R
62 0 V
0 -61 R
0 63 V
-31 -63 R
62 0 V
-62 63 R
62 0 V
0 -118 R
0 63 V
-31 -63 R
62 0 V
-62 63 R
62 0 V
0 -105 R
0 61 V
-31 -61 R
62 0 V
-62 61 R
62 0 V
0 -88 R
0 61 V
-31 -61 R
62 0 V
-62 61 R
62 0 V
-1 -137 R
0 59 V
-31 -59 R
62 0 V
-62 59 R
62 0 V
0 -15 R
0 60 V
-31 -60 R
62 0 V
-62 60 R
62 0 V
0 -173 R
0 58 V
-31 -58 R
62 0 V
-62 58 R
62 0 V
0 -57 R
0 58 V
-31 -58 R
62 0 V
-62 58 R
62 0 V
0 -101 R
0 57 V
-31 -57 R
62 0 V
stroke 2988 3071 M
-62 57 R
62 0 V
0 -9 R
0 59 V
-31 -59 R
62 0 V
-62 59 R
62 0 V
-1 -114 R
0 58 V
-31 -58 R
62 0 V
-62 58 R
62 0 V
0 -20 R
0 59 V
-31 -59 R
62 0 V
-62 59 R
62 0 V
0 -35 R
0 59 V
-31 -59 R
62 0 V
-62 59 R
62 0 V
0 -93 R
0 58 V
-31 -58 R
62 0 V
-62 58 R
62 0 V
0 -38 R
0 59 V
-31 -59 R
62 0 V
-62 59 R
62 0 V
0 -63 R
0 60 V
-31 -60 R
62 0 V
-62 60 R
62 0 V
0 -61 R
0 59 V
-31 -59 R
62 0 V
-62 59 R
62 0 V
-1 -29 R
0 61 V
-31 -61 R
62 0 V
-62 61 R
62 0 V
0 -157 R
0 58 V
-31 -58 R
62 0 V
-62 58 R
62 0 V
0 26 R
0 61 V
-31 -61 R
62 0 V
-62 61 R
62 0 V
0 -123 R
0 59 V
-31 -59 R
62 0 V
-62 59 R
62 0 V
0 -67 R
0 59 V
-31 -59 R
62 0 V
-62 59 R
62 0 V
0 2 R
0 61 V
-31 -61 R
62 0 V
-62 61 R
62 0 V
-1 -89 R
0 61 V
-31 -61 R
62 0 V
-62 61 R
62 0 V
0 -16 R
0 62 V
-31 -62 R
62 0 V
-62 62 R
62 0 V
0 -163 R
0 60 V
-31 -60 R
62 0 V
-62 60 R
62 0 V
stroke 3512 3092 M
0 -42 R
0 60 V
-31 -60 R
62 0 V
-62 60 R
62 0 V
0 -41 R
0 61 V
-31 -61 R
62 0 V
-62 61 R
62 0 V
0 -10 R
0 63 V
-31 -63 R
62 0 V
-62 63 R
62 0 V
-1 -73 R
0 63 V
-31 -63 R
62 0 V
-62 63 R
62 0 V
0 -82 R
0 63 V
-31 -63 R
62 0 V
-62 63 R
62 0 V
0 -104 R
0 62 V
-31 -62 R
62 0 V
-62 62 R
62 0 V
0 -60 R
0 63 V
-31 -63 R
62 0 V
-62 63 R
62 0 V
0 23 R
0 65 V
-31 -65 R
62 0 V
-62 65 R
62 0 V
0 -146 R
0 63 V
-31 -63 R
62 0 V
-62 63 R
62 0 V
-1 -28 R
0 65 V
-31 -65 R
62 0 V
-62 65 R
62 0 V
0 -94 R
0 63 V
-31 -63 R
62 0 V
-62 63 R
62 0 V
0 -51 R
0 64 V
-31 -64 R
62 0 V
-62 64 R
62 0 V
0 -54 R
0 66 V
-31 -66 R
62 0 V
-62 66 R
62 0 V
0 -32 R
0 66 V
-31 -66 R
62 0 V
-62 66 R
62 0 V
0 -92 R
0 66 V
-31 -66 R
46 0 V
-46 66 R
46 0 V
2463 3593 TriU
2494 3628 TriU
2525 3640 TriU
2556 3692 TriU
2587 3587 TriU
2618 3507 TriU
2648 3507 TriU
2679 3411 TriU
2710 3413 TriU
2741 3359 TriU
2772 3316 TriU
2803 3288 TriU
2833 3212 TriU
2864 3256 TriU
2895 3142 TriU
2926 3143 TriU
2957 3100 TriU
2988 3148 TriU
3018 3093 TriU
3049 3131 TriU
3080 3155 TriU
3111 3121 TriU
3142 3142 TriU
3173 3138 TriU
3204 3136 TriU
3234 3167 TriU
3265 3070 TriU
3296 3155 TriU
3327 3092 TriU
3358 3085 TriU
3389 3147 TriU
3419 3119 TriU
3450 3164 TriU
3481 3062 TriU
3512 3080 TriU
3543 3100 TriU
3574 3152 TriU
3604 3142 TriU
3635 3123 TriU
3666 3081 TriU
3697 3083 TriU
3728 3171 TriU
3759 3089 TriU
3789 3124 TriU
3820 3094 TriU
3851 3107 TriU
3882 3118 TriU
3913 3152 TriU
3944 3126 TriU
10895 -7165 TriU
% End plot #1
% Begin plot #2
2.400 UL
LTb
0.58 0.00 0.83 C LCb setrgbcolor
10739 -7243 M
[ [(Times-Roman) 130.0 0.0 true true 0 (3DFit)]
] -43.3 MRshow
2.400 UL
LTb
0.58 0.00 0.83 C 10817 -7243 M
156 0 V
2448 3709 M
15 -5 V
31 -21 V
31 -29 V
31 -38 V
31 -42 V
31 -46 V
30 -48 V
31 -48 V
31 -46 V
31 -45 V
31 -39 V
31 -36 V
30 -30 V
31 -26 V
31 -22 V
31 -17 V
31 -14 V
31 -10 V
30 -9 V
31 -7 V
31 -3 V
31 -4 V
31 -3 V
31 -1 V
31 -1 V
30 -1 V
31 0 V
31 0 V
31 -1 V
31 0 V
31 0 V
30 0 V
31 0 V
31 0 V
31 0 V
31 0 V
31 0 V
30 0 V
31 0 V
31 0 V
31 0 V
31 0 V
31 0 V
30 0 V
31 0 V
31 0 V
31 0 V
31 0 V
31 0 V
15 0 V
% End plot #2
stroke
2.000 UL
LTb
LCb setrgbcolor
1.000 UL
LTB
LCb setrgbcolor
2448 4146 N
0 -1247 V
1511 0 V
0 1247 V
-1511 0 V
Z stroke
1.000 UP
1.000 UL
LTb
LCb setrgbcolor
1.000 UL
LTb
LCb setrgbcolor
3960 2916 M
31 0 V
1480 0 R
-31 0 V
-1480 68 R
31 0 V
1480 0 R
-31 0 V
-1480 69 R
31 0 V
1480 0 R
-31 0 V
-1480 68 R
63 0 V
1448 0 R
-63 0 V
stroke
3931 3121 M
[ [(Times-Roman) 10.0 0.0 true true 0 ( 1)]
] -3.3 MRshow
1.000 UL
LTb
LCb setrgbcolor
3960 3189 M
31 0 V
1480 0 R
-31 0 V
-1480 69 R
31 0 V
1480 0 R
-31 0 V
-1480 68 R
31 0 V
1480 0 R
-31 0 V
-1480 68 R
31 0 V
1480 0 R
-31 0 V
-1480 69 R
63 0 V
1448 0 R
-63 0 V
stroke
3931 3463 M
[ [(Times-Roman) 10.0 0.0 true true 0 ( 1.2)]
] -3.3 MRshow
1.000 UL
LTb
LCb setrgbcolor
3960 3531 M
31 0 V
1480 0 R
-31 0 V
-1480 68 R
31 0 V
1480 0 R
-31 0 V
-1480 69 R
31 0 V
1480 0 R
-31 0 V
-1480 68 R
31 0 V
1480 0 R
-31 0 V
-1480 68 R
63 0 V
1448 0 R
-63 0 V
stroke
3931 3804 M
[ [(Times-Roman) 10.0 0.0 true true 0 ( 1.4)]
] -3.3 MRshow
1.000 UL
LTb
LCb setrgbcolor
3960 3873 M
31 0 V
1480 0 R
-31 0 V
-1480 68 R
31 0 V
1480 0 R
-31 0 V
-1480 68 R
31 0 V
1480 0 R
-31 0 V
-1480 69 R
31 0 V
1480 0 R
-31 0 V
-1480 68 R
63 0 V
1448 0 R
-63 0 V
stroke
3931 4146 M
[ [(Times-Roman) 10.0 0.0 true true 0 ( 1.6)]
] -3.3 MRshow
1.000 UL
LTb
LCb setrgbcolor
4053 2899 M
0 31 V
0 1216 R
0 -31 V
4176 2899 M
0 31 V
0 1216 R
0 -31 V
4299 2899 M
0 31 V
0 1216 R
0 -31 V
4423 2899 M
0 31 V
0 1216 R
0 -31 V
4546 2899 M
0 63 V
0 1184 R
0 -63 V
stroke
4546 2779 M
[ [(Times-Roman) 10.0 0.0 true true 0 ( 0.1)]
] -3.3 MCshow
1.000 UL
LTb
LCb setrgbcolor
4669 2899 M
0 31 V
0 1216 R
0 -31 V
4793 2899 M
0 31 V
0 1216 R
0 -31 V
4916 2899 M
0 31 V
0 1216 R
0 -31 V
5039 2899 M
0 31 V
0 1216 R
0 -31 V
5163 2899 M
0 63 V
0 1184 R
0 -63 V
stroke
5163 2779 M
[ [(Times-Roman) 10.0 0.0 true true 0 ( 0.2)]
] -3.3 MCshow
1.000 UL
LTb
LCb setrgbcolor
5286 2899 M
0 31 V
0 1216 R
0 -31 V
5409 2899 M
0 31 V
0 1216 R
0 -31 V
stroke
LTB
LCb setrgbcolor
3960 4146 N
0 -1247 V
1511 0 V
0 1247 V
-1511 0 V
Z stroke
1.000 UP
LCb setrgbcolor
4546 3429 M
[ [(Times-Roman) 180.0 0.0 true true 0 (Rside)]
] -60.0 MLshow
1.000 UL
LTb
LCb setrgbcolor
LCb setrgbcolor
3552 3522 M
currentpoint gsave translate -270 rotate 0 0 moveto
[ [(Times-Roman) 10.0 0.0 true true 0 (C\(q\))]
] -3.3 MCshow
grestore
LTb
% Begin plot #1
1.000 UP
2.000 UL
LTb
0.34 0.71 0.91 C LCb setrgbcolor
12251 -7158 M
[ [(Times-Roman) 130.0 0.0 true true 0 (CorrFunc)]
] -43.3 MRshow
1.000 UP
2.000 UL
LTb
0.34 0.71 0.91 C 12329 -7158 M
156 0 V
-156 31 R
0 -62 V
156 62 R
0 -62 V
3975 3643 M
0 156 V
-15 -156 R
46 0 V
-46 156 R
46 0 V
0 -62 R
0 145 V
-31 -145 R
62 0 V
-62 145 R
62 0 V
0 -153 R
0 126 V
-31 -126 R
62 0 V
-62 126 R
62 0 V
0 -83 R
0 112 V
-31 -112 R
62 0 V
-62 112 R
62 0 V
0 -198 R
0 100 V
-31 -100 R
62 0 V
-62 100 R
62 0 V
0 -209 R
0 93 V
-31 -93 R
62 0 V
-62 93 R
62 0 V
-1 -123 R
0 91 V
-31 -91 R
62 0 V
-62 91 R
62 0 V
0 -197 R
0 88 V
-31 -88 R
62 0 V
-62 88 R
62 0 V
0 -169 R
0 86 V
-31 -86 R
62 0 V
-62 86 R
62 0 V
0 -146 R
0 86 V
-31 -86 R
62 0 V
-62 86 R
62 0 V
0 -84 R
0 86 V
-31 -86 R
62 0 V
-62 86 R
62 0 V
0 -157 R
0 84 V
-31 -84 R
62 0 V
-62 84 R
62 0 V
-1 -56 R
0 86 V
-31 -86 R
62 0 V
-62 86 R
62 0 V
0 -139 R
0 83 V
-31 -83 R
62 0 V
-62 83 R
62 0 V
0 -151 R
0 82 V
-31 -82 R
62 0 V
-62 82 R
62 0 V
0 -127 R
0 80 V
-31 -80 R
62 0 V
-62 80 R
62 0 V
0 -54 R
0 82 V
-31 -82 R
62 0 V
stroke 4500 3119 M
-62 82 R
62 0 V
0 -113 R
0 80 V
-31 -80 R
62 0 V
-62 80 R
62 0 V
-1 -65 R
0 81 V
-31 -81 R
62 0 V
-62 81 R
62 0 V
0 -65 R
0 82 V
-31 -82 R
62 0 V
-62 82 R
62 0 V
0 -104 R
0 82 V
-31 -82 R
62 0 V
-62 82 R
62 0 V
0 -68 R
0 82 V
-31 -82 R
62 0 V
-62 82 R
62 0 V
0 -79 R
0 83 V
-31 -83 R
62 0 V
-62 83 R
62 0 V
0 -85 R
0 83 V
-31 -83 R
62 0 V
-62 83 R
62 0 V
0 -131 R
0 81 V
-31 -81 R
62 0 V
-62 81 R
62 0 V
-1 -67 R
0 82 V
-31 -82 R
62 0 V
-62 82 R
62 0 V
0 -35 R
0 84 V
-31 -84 R
62 0 V
-62 84 R
62 0 V
0 -122 R
0 82 V
-31 -82 R
62 0 V
-62 82 R
62 0 V
0 -145 R
0 80 V
-31 -80 R
62 0 V
-62 80 R
62 0 V
0 -20 R
0 84 V
-31 -84 R
62 0 V
-62 84 R
62 0 V
0 -32 R
0 86 V
-31 -86 R
62 0 V
-62 86 R
62 0 V
-1 -153 R
0 83 V
-31 -83 R
62 0 V
-62 83 R
62 0 V
0 3 R
0 86 V
-31 -86 R
62 0 V
-62 86 R
62 0 V
0 -191 R
0 82 V
-31 -82 R
62 0 V
-62 82 R
62 0 V
stroke 5024 3132 M
0 -30 R
0 86 V
-31 -86 R
62 0 V
-62 86 R
62 0 V
0 -79 R
0 86 V
-31 -86 R
62 0 V
-62 86 R
62 0 V
0 -181 R
0 83 V
-31 -83 R
62 0 V
-62 83 R
62 0 V
-1 -19 R
0 84 V
-31 -84 R
62 0 V
-62 84 R
62 0 V
0 -115 R
0 84 V
-31 -84 R
62 0 V
-62 84 R
62 0 V
0 -64 R
0 86 V
-31 -86 R
62 0 V
-62 86 R
62 0 V
0 -50 R
0 87 V
-31 -87 R
62 0 V
-62 87 R
62 0 V
0 -131 R
0 86 V
-31 -86 R
62 0 V
-62 86 R
62 0 V
0 -148 R
0 85 V
-31 -85 R
62 0 V
-62 85 R
62 0 V
-1 66 R
0 90 V
-31 -90 R
62 0 V
-62 90 R
62 0 V
0 -206 R
0 86 V
-31 -86 R
62 0 V
-62 86 R
62 0 V
0 19 R
0 91 V
-31 -91 R
62 0 V
-62 91 R
62 0 V
0 -178 R
0 88 V
-31 -88 R
62 0 V
-62 88 R
62 0 V
0 6 R
0 91 V
-31 -91 R
62 0 V
-62 91 R
62 0 V
0 -90 R
0 92 V
-31 -92 R
46 0 V
-46 92 R
46 0 V
3975 3721 TriU
4006 3809 TriU
4037 3792 TriU
4068 3828 TriU
4099 3736 TriU
4130 3623 TriU
4160 3593 TriU
4191 3485 TriU
4222 3403 TriU
4253 3343 TriU
4284 3345 TriU
4315 3273 TriU
4345 3302 TriU
4376 3247 TriU
4407 3179 TriU
4438 3133 TriU
4469 3160 TriU
4500 3128 TriU
4530 3143 TriU
4561 3160 TriU
4592 3138 TriU
4623 3152 TriU
4654 3155 TriU
4685 3154 TriU
4716 3104 TriU
4746 3119 TriU
4777 3167 TriU
4808 3128 TriU
4839 3064 TriU
4870 3126 TriU
4901 3179 TriU
4931 3111 TriU
4962 3198 TriU
4993 3091 TriU
5024 3145 TriU
5055 3152 TriU
5086 3055 TriU
5116 3120 TriU
5147 3089 TriU
5178 3110 TriU
5209 3147 TriU
5240 3102 TriU
5271 3039 TriU
5301 3193 TriU
5332 3075 TriU
5363 3183 TriU
5394 3094 TriU
5425 3189 TriU
5456 3191 TriU
12407 -7158 TriU
% End plot #1
% Begin plot #2
2.400 UL
LTb
0.58 0.00 0.83 C LCb setrgbcolor
12251 -7223 M
[ [(Times-Roman) 130.0 0.0 true true 0 (3DFit)]
] -43.3 MRshow
2.400 UL
LTb
0.58 0.00 0.83 C 12329 -7223 M
156 0 V
3960 3883 M
15 -7 V
31 -29 V
31 -39 V
31 -50 V
31 -56 V
31 -62 V
30 -65 V
31 -63 V
31 -60 V
31 -58 V
31 -51 V
31 -44 V
30 -40 V
31 -32 V
31 -27 V
31 -23 V
31 -15 V
31 -14 V
30 -8 V
31 -9 V
31 -5 V
31 -3 V
31 -2 V
31 -2 V
31 -1 V
30 -1 V
31 0 V
31 0 V
31 0 V
31 -1 V
31 0 V
30 0 V
31 0 V
31 0 V
31 0 V
31 0 V
31 0 V
30 0 V
31 0 V
31 0 V
31 0 V
31 0 V
31 0 V
30 0 V
31 0 V
31 0 V
31 0 V
31 0 V
31 0 V
15 0 V
% End plot #2
stroke
2.000 UL
LTb
LCb setrgbcolor
1.000 UL
LTB
LCb setrgbcolor
3960 4146 N
0 -1247 V
1511 0 V
0 1247 V
-1511 0 V
Z stroke
1.000 UP
1.000 UL
LTb
LCb setrgbcolor
1.000 UL
LTb
LCb setrgbcolor
5472 2916 M
31 0 V
1479 0 R
-31 0 V
-1479 68 R
31 0 V
1479 0 R
-31 0 V
-1479 69 R
31 0 V
1479 0 R
-31 0 V
-1479 68 R
63 0 V
1447 0 R
-63 0 V
stroke
5443 3121 M
[ [(Times-Roman) 10.0 0.0 true true 0 ( 1)]
] -3.3 MRshow
1.000 UL
LTb
LCb setrgbcolor
5472 3189 M
31 0 V
1479 0 R
-31 0 V
-1479 69 R
31 0 V
1479 0 R
-31 0 V
-1479 68 R
31 0 V
1479 0 R
-31 0 V
-1479 68 R
31 0 V
1479 0 R
-31 0 V
-1479 69 R
63 0 V
1447 0 R
-63 0 V
stroke
5443 3463 M
[ [(Times-Roman) 10.0 0.0 true true 0 ( 1.2)]
] -3.3 MRshow
1.000 UL
LTb
LCb setrgbcolor
5472 3531 M
31 0 V
1479 0 R
-31 0 V
-1479 68 R
31 0 V
1479 0 R
-31 0 V
-1479 69 R
31 0 V
1479 0 R
-31 0 V
-1479 68 R
31 0 V
1479 0 R
-31 0 V
-1479 68 R
63 0 V
1447 0 R
-63 0 V
stroke
5443 3804 M
[ [(Times-Roman) 10.0 0.0 true true 0 ( 1.4)]
] -3.3 MRshow
1.000 UL
LTb
LCb setrgbcolor
5472 3873 M
31 0 V
1479 0 R
-31 0 V
-1479 68 R
31 0 V
1479 0 R
-31 0 V
-1479 68 R
31 0 V
1479 0 R
-31 0 V
-1479 69 R
31 0 V
1479 0 R
-31 0 V
-1479 68 R
63 0 V
1447 0 R
-63 0 V
stroke
5443 4146 M
[ [(Times-Roman) 10.0 0.0 true true 0 ( 1.6)]
] -3.3 MRshow
1.000 UL
LTb
LCb setrgbcolor
5564 2899 M
0 31 V
0 1216 R
0 -31 V
5688 2899 M
0 31 V
0 1216 R
0 -31 V
5811 2899 M
0 31 V
0 1216 R
0 -31 V
5934 2899 M
0 31 V
0 1216 R
0 -31 V
6058 2899 M
0 63 V
0 1184 R
0 -63 V
stroke
6058 2779 M
[ [(Times-Roman) 10.0 0.0 true true 0 ( 0.1)]
] -3.3 MCshow
1.000 UL
LTb
LCb setrgbcolor
6181 2899 M
0 31 V
0 1216 R
0 -31 V
6304 2899 M
0 31 V
0 1216 R
0 -31 V
6427 2899 M
0 31 V
0 1216 R
0 -31 V
6551 2899 M
0 31 V
0 1216 R
0 -31 V
6674 2899 M
0 63 V
0 1184 R
0 -63 V
stroke
6674 2779 M
[ [(Times-Roman) 10.0 0.0 true true 0 ( 0.2)]
] -3.3 MCshow
1.000 UL
LTb
LCb setrgbcolor
6797 2899 M
0 31 V
0 1216 R
0 -31 V
6920 2899 M
0 31 V
0 1216 R
0 -31 V
stroke
LTB
LCb setrgbcolor
5472 4146 N
0 -1247 V
1510 0 V
0 1247 V
-1510 0 V
Z stroke
1.000 UP
LCb setrgbcolor
6058 3429 M
[ [(Times-Roman) 180.0 0.0 true true 0 (Rside)]
] -60.0 MLshow
1.000 UL
LTb
LCb setrgbcolor
LCb setrgbcolor
5064 3522 M
currentpoint gsave translate -270 rotate 0 0 moveto
[ [(Times-Roman) 10.0 0.0 true true 0 (C\(q\))]
] -3.3 MCshow
grestore
LTb
% Begin plot #1
1.000 UP
2.000 UL
LTb
0.34 0.71 0.91 C LCb setrgbcolor
13758 -7158 M
[ [(Times-Roman) 130.0 0.0 true true 0 (CorrFunc)]
] -43.3 MRshow
1.000 UP
2.000 UL
LTb
0.34 0.71 0.91 C 13836 -7158 M
156 0 V
-156 31 R
0 -62 V
156 62 R
0 -62 V
5487 3811 M
0 335 V
-15 -335 R
46 0 V
0 -120 R
0 373 V
-31 -373 R
62 0 V
-62 373 R
62 0 V
0 -416 R
0 299 V
-31 -299 R
62 0 V
-62 299 R
62 0 V
0 -340 R
0 238 V
-31 -238 R
62 0 V
-62 238 R
62 0 V
0 -176 R
0 192 V
-31 -192 R
62 0 V
-62 192 R
62 0 V
-1 31 R
0 176 V
-31 -176 R
62 0 V
-62 176 R
62 0 V
0 -385 R
0 151 V
-31 -151 R
62 0 V
-62 151 R
62 0 V
0 -57 R
0 154 V
-31 -154 R
62 0 V
-62 154 R
62 0 V
0 -378 R
0 140 V
-31 -140 R
62 0 V
-62 140 R
62 0 V
0 -238 R
0 135 V
-31 -135 R
62 0 V
-62 135 R
62 0 V
0 -186 R
0 134 V
-31 -134 R
62 0 V
-62 134 R
62 0 V
-1 -178 R
0 131 V
-31 -131 R
62 0 V
-62 131 R
62 0 V
0 -164 R
0 131 V
-31 -131 R
62 0 V
-62 131 R
62 0 V
0 -138 R
0 132 V
-31 -132 R
62 0 V
-62 132 R
62 0 V
0 -194 R
0 130 V
-31 -130 R
62 0 V
-62 130 R
62 0 V
0 -285 R
0 122 V
-31 -122 R
62 0 V
-62 122 R
62 0 V
-1 -28 R
0 128 V
-31 -128 R
62 0 V
-62 128 R
62 0 V
stroke 6011 3325 M
0 -163 R
0 127 V
-31 -127 R
62 0 V
-62 127 R
62 0 V
0 -172 R
0 125 V
-31 -125 R
62 0 V
-62 125 R
62 0 V
0 -187 R
0 122 V
-31 -122 R
62 0 V
-62 122 R
62 0 V
0 -8 R
0 126 V
-31 -126 R
62 0 V
-62 126 R
62 0 V
0 -230 R
0 119 V
-31 -119 R
62 0 V
-62 119 R
62 0 V
-1 -226 R
0 114 V
-31 -114 R
62 0 V
-62 114 R
62 0 V
0 50 R
0 125 V
-31 -125 R
62 0 V
-62 125 R
62 0 V
0 -164 R
0 124 V
-31 -124 R
62 0 V
-62 124 R
62 0 V
0 -59 R
0 127 V
-31 -127 R
62 0 V
-62 127 R
62 0 V
0 -186 R
0 125 V
-31 -125 R
62 0 V
-62 125 R
62 0 V
-1 -111 R
0 125 V
-31 -125 R
62 0 V
-62 125 R
62 0 V
0 -192 R
0 122 V
-31 -122 R
62 0 V
-62 122 R
62 0 V
0 -9 R
0 128 V
-31 -128 R
62 0 V
-62 128 R
62 0 V
0 -226 R
0 123 V
-31 -123 R
62 0 V
-62 123 R
62 0 V
0 17 R
0 130 V
-31 -130 R
62 0 V
-62 130 R
62 0 V
0 -266 R
0 124 V
-31 -124 R
62 0 V
-62 124 R
62 0 V
-1 -41 R
0 127 V
-31 -127 R
62 0 V
-62 127 R
62 0 V
0 -211 R
0 125 V
stroke 6535 3179 M
-31 -125 R
62 0 V
-62 125 R
62 0 V
0 -21 R
0 128 V
-31 -128 R
62 0 V
-62 128 R
62 0 V
0 -252 R
0 124 V
-31 -124 R
62 0 V
-62 124 R
62 0 V
0 -190 R
0 120 V
-31 -120 R
62 0 V
-62 120 R
62 0 V
-1 7 R
0 128 V
-31 -128 R
62 0 V
-62 128 R
62 0 V
0 -116 R
0 128 V
-31 -128 R
62 0 V
-62 128 R
62 0 V
0 -141 R
0 129 V
-31 -129 R
62 0 V
-62 129 R
62 0 V
0 -108 R
0 129 V
-31 -129 R
62 0 V
-62 129 R
62 0 V
0 -219 R
0 124 V
-31 -124 R
62 0 V
-62 124 R
62 0 V
0 -79 R
0 126 V
-31 -126 R
62 0 V
-62 126 R
62 0 V
-1 -29 R
0 133 V
-31 -133 R
62 0 V
-62 133 R
62 0 V
0 -268 R
0 128 V
-31 -128 R
62 0 V
-62 128 R
62 0 V
0 -138 R
0 126 V
-31 -126 R
62 0 V
-62 126 R
62 0 V
0 -143 R
0 126 V
-31 -126 R
62 0 V
-62 126 R
62 0 V
0 -152 R
0 126 V
-31 -126 R
46 0 V
-46 126 R
46 0 V
5487 4035 TriU
5518 3878 TriU
5549 3798 TriU
5580 3726 TriU
5611 3765 TriU
5641 3980 TriU
5672 3758 TriU
5703 3854 TriU
5734 3623 TriU
5765 3523 TriU
5796 3471 TriU
5826 3425 TriU
5857 3393 TriU
5888 3386 TriU
5919 3323 TriU
5950 3164 TriU
5980 3261 TriU
6011 3225 TriU
6042 3179 TriU
6073 3116 TriU
6104 3232 TriU
6135 3124 TriU
6165 3015 TriU
6196 3184 TriU
6227 3145 TriU
6258 3212 TriU
6289 3152 TriU
6319 3165 TriU
6350 3097 TriU
6381 3213 TriU
6412 3112 TriU
6443 3256 TriU
6474 3117 TriU
6504 3201 TriU
6535 3117 TriU
6566 3222 TriU
6597 3096 TriU
6628 3028 TriU
6658 3159 TriU
6689 3171 TriU
6720 3159 TriU
6751 3179 TriU
6782 3087 TriU
6813 3133 TriU
6843 3234 TriU
6874 3096 TriU
6905 3085 TriU
6936 3068 TriU
6967 3042 TriU
13914 -7158 TriU
% End plot #1
% Begin plot #2
2.400 UL
LTb
0.58 0.00 0.83 C LCb setrgbcolor
13758 -7223 M
[ [(Times-Roman) 130.0 0.0 true true 0 (3DFit)]
] -43.3 MRshow
2.400 UL
LTb
0.58 0.00 0.83 C 13836 -7223 M
156 0 V
5472 3967 M
15 -5 V
31 -23 V
31 -32 V
31 -41 V
31 -48 V
30 -53 V
31 -58 V
31 -60 V
31 -60 V
31 -58 V
31 -56 V
30 -53 V
31 -48 V
31 -44 V
31 -38 V
31 -34 V
30 -27 V
31 -24 V
31 -21 V
31 -17 V
31 -12 V
31 -10 V
30 -9 V
31 -5 V
31 -5 V
31 -3 V
31 -3 V
30 -1 V
31 -2 V
31 -1 V
31 0 V
31 -1 V
31 0 V
30 0 V
31 0 V
31 0 V
31 0 V
31 0 V
30 -1 V
31 0 V
31 0 V
31 0 V
31 0 V
31 0 V
30 0 V
31 0 V
31 0 V
31 0 V
31 0 V
15 0 V
% End plot #2
stroke
2.000 UL
LTb
LCb setrgbcolor
1.000 UL
LTB
LCb setrgbcolor
5472 4146 N
0 -1247 V
1510 0 V
0 1247 V
-1510 0 V
Z stroke
1.000 UP
1.000 UL
LTb
LCb setrgbcolor
1.000 UL
LTb
LCb setrgbcolor
936 1671 M
31 0 V
1480 0 R
-31 0 V
936 1739 M
31 0 V
1480 0 R
-31 0 V
936 1808 M
31 0 V
1480 0 R
-31 0 V
936 1876 M
63 0 V
1448 0 R
-63 0 V
stroke
907 1876 M
[ [(Times-Roman) 200.0 0.0 true true 0 ( 1)]
] -66.7 MRshow
1.000 UL
LTb
LCb setrgbcolor
936 1945 M
31 0 V
1480 0 R
-31 0 V
936 2013 M
31 0 V
1480 0 R
-31 0 V
936 2081 M
31 0 V
1480 0 R
-31 0 V
936 2150 M
31 0 V
1480 0 R
-31 0 V
936 2218 M
63 0 V
1448 0 R
-63 0 V
stroke
907 2218 M
[ [(Times-Roman) 200.0 0.0 true true 0 ( 1.2)]
] -66.7 MRshow
1.000 UL
LTb
LCb setrgbcolor
936 2287 M
31 0 V
1480 0 R
-31 0 V
936 2355 M
31 0 V
1480 0 R
-31 0 V
936 2423 M
31 0 V
1480 0 R
-31 0 V
936 2492 M
31 0 V
1480 0 R
-31 0 V
936 2560 M
63 0 V
1448 0 R
-63 0 V
stroke
907 2560 M
[ [(Times-Roman) 200.0 0.0 true true 0 ( 1.4)]
] -66.7 MRshow
1.000 UL
LTb
LCb setrgbcolor
936 2628 M
31 0 V
1480 0 R
-31 0 V
936 2697 M
31 0 V
1480 0 R
-31 0 V
936 2765 M
31 0 V
1480 0 R
-31 0 V
936 2834 M
31 0 V
1480 0 R
-31 0 V
936 2902 M
63 0 V
1448 0 R
-63 0 V
stroke
907 2902 M
[ [(Times-Roman) 200.0 0.0 true true 0 ( 1.6)]
] -66.7 MRshow
1.000 UL
LTb
LCb setrgbcolor
1029 1654 M
0 31 V
0 1217 R
0 -31 V
1152 1654 M
0 31 V
0 1217 R
0 -31 V
1275 1654 M
0 31 V
0 1217 R
0 -31 V
1399 1654 M
0 31 V
0 1217 R
0 -31 V
1522 1654 M
0 63 V
0 1185 R
0 -63 V
stroke
1522 1534 M
[ [(Times-Roman) 10.0 0.0 true true 0 ( 0.1)]
] -3.3 MCshow
1.000 UL
LTb
LCb setrgbcolor
1645 1654 M
0 31 V
0 1217 R
0 -31 V
1769 1654 M
0 31 V
0 1217 R
0 -31 V
1892 1654 M
0 31 V
0 1217 R
0 -31 V
2015 1654 M
0 31 V
0 1217 R
0 -31 V
2139 1654 M
0 63 V
0 1185 R
0 -63 V
stroke
2139 1534 M
[ [(Times-Roman) 10.0 0.0 true true 0 ( 0.2)]
] -3.3 MCshow
1.000 UL
LTb
LCb setrgbcolor
2262 1654 M
0 31 V
0 1217 R
0 -31 V
2385 1654 M
0 31 V
0 1217 R
0 -31 V
stroke
LTB
LCb setrgbcolor
936 2902 N
0 -1248 V
1511 0 V
0 1248 V
-1511 0 V
Z stroke
1.000 UP
LCb setrgbcolor
1522 2184 M
[ [(Times-Roman) 180.0 0.0 true true 0 (Rout)]
] -60.0 MLshow
1.000 UL
LTb
LCb setrgbcolor
LCb setrgbcolor
528 2278 M
currentpoint gsave translate -270 rotate 0 0 moveto
[ [(Times-Roman) 220.0 0.0 true true 0 (C\(q\))]
] -73.3 MCshow
grestore
LTb
% Begin plot #1
1.000 UP
2.000 UL
LTb
0.34 0.71 0.91 C LCb setrgbcolor
9227 -8411 M
[ [(Times-Roman) 130.0 0.0 true true 0 (CorrFunc)]
] -43.3 MRshow
1.000 UP
2.000 UL
LTb
0.34 0.71 0.91 C 9305 -8411 M
156 0 V
-156 31 R
0 -62 V
156 62 R
0 -62 V
951 2250 M
0 60 V
-15 -60 R
46 0 V
-46 60 R
46 0 V
0 -32 R
0 62 V
-31 -62 R
62 0 V
-62 62 R
62 0 V
0 -76 R
0 62 V
-31 -62 R
62 0 V
-62 62 R
62 0 V
0 -135 R
0 61 V
-31 -61 R
62 0 V
-62 61 R
62 0 V
0 -95 R
0 61 V
-31 -61 R
62 0 V
-62 61 R
62 0 V
0 -177 R
0 60 V
-31 -60 R
62 0 V
-62 60 R
62 0 V
-1 -46 R
0 60 V
-31 -60 R
62 0 V
-62 60 R
62 0 V
0 -120 R
0 60 V
-31 -60 R
62 0 V
-62 60 R
62 0 V
0 -113 R
0 60 V
-31 -60 R
62 0 V
-62 60 R
62 0 V
0 -148 R
0 58 V
-31 -58 R
62 0 V
-62 58 R
62 0 V
0 -58 R
0 58 V
-31 -58 R
62 0 V
-62 58 R
62 0 V
0 -66 R
0 58 V
-31 -58 R
62 0 V
-62 58 R
62 0 V
-1 -101 R
0 58 V
-31 -58 R
62 0 V
-62 58 R
62 0 V
0 -61 R
0 60 V
-31 -60 R
62 0 V
-62 60 R
62 0 V
0 -6 R
0 62 V
-31 -62 R
62 0 V
-62 62 R
62 0 V
0 -107 R
0 62 V
-31 -62 R
62 0 V
-62 62 R
62 0 V
0 -40 R
0 64 V
-31 -64 R
62 0 V
stroke 1476 1831 M
-62 64 R
62 0 V
0 -38 R
0 66 V
-31 -66 R
62 0 V
-62 66 R
62 0 V
-1 -104 R
0 67 V
-31 -67 R
62 0 V
-62 67 R
62 0 V
0 -71 R
0 69 V
-31 -69 R
62 0 V
-62 69 R
62 0 V
0 -89 R
0 71 V
-31 -71 R
62 0 V
-62 71 R
62 0 V
0 -20 R
0 77 V
-31 -77 R
62 0 V
-62 77 R
62 0 V
0 -146 R
0 78 V
-31 -78 R
62 0 V
-62 78 R
62 0 V
0 13 R
0 85 V
-31 -85 R
62 0 V
-62 85 R
62 0 V
0 -130 R
0 87 V
-31 -87 R
62 0 V
-62 87 R
62 0 V
-1 -2 R
0 97 V
-31 -97 R
62 0 V
-62 97 R
62 0 V
0 -239 R
0 98 V
-31 -98 R
62 0 V
-62 98 R
62 0 V
0 51 R
0 114 V
-31 -114 R
62 0 V
-62 114 R
62 0 V
0 -218 R
0 120 V
-31 -120 R
62 0 V
-62 120 R
62 0 V
0 -17 R
0 140 V
-31 -140 R
62 0 V
-62 140 R
62 0 V
0 -293 R
0 152 V
-31 -152 R
62 0 V
-62 152 R
62 0 V
-1 -28 R
0 191 V
-31 -191 R
62 0 V
-62 191 R
62 0 V
0 -163 R
0 241 V
-31 -241 R
62 0 V
-62 241 R
62 0 V
0 -476 R
0 391 V
-31 -391 R
62 0 V
-62 391 R
62 0 V
stroke 2000 2069 M
0 -415 R
0 1248 V
951 2280 TriU
982 2309 TriU
1013 2295 TriU
1044 2222 TriU
1075 2187 TriU
1106 2071 TriU
1136 2085 TriU
1167 2025 TriU
1198 1972 TriU
1229 1883 TriU
1260 1883 TriU
1291 1875 TriU
1321 1832 TriU
1352 1830 TriU
1383 1885 TriU
1414 1840 TriU
1445 1863 TriU
1476 1890 TriU
1506 1852 TriU
1537 1850 TriU
1568 1831 TriU
1599 1885 TriU
1630 1816 TriU
1661 1910 TriU
1692 1867 TriU
1722 1957 TriU
1753 1815 TriU
1784 1972 TriU
1815 1871 TriU
1846 1984 TriU
1877 1837 TriU
1907 1981 TriU
1938 2034 TriU
1969 1874 TriU
2000 2169 TriU
9383 -8411 TriU
% End plot #1
% Begin plot #2
2.400 UL
LTb
0.58 0.00 0.83 C LCb setrgbcolor
9227 -8476 M
[ [(Times-Roman) 130.0 0.0 true true 0 (3DFit)]
] -43.3 MRshow
2.400 UL
LTb
0.58 0.00 0.83 C 9305 -8476 M
156 0 V
936 2426 M
15 -11 V
31 -38 V
31 -55 V
31 -61 V
31 -67 V
31 -65 V
30 -58 V
31 -51 V
31 -43 V
31 -32 V
31 -26 V
31 -17 V
30 -12 V
31 -7 V
31 -5 V
31 -3 V
31 -2 V
31 -1 V
30 0 V
31 -1 V
31 0 V
31 0 V
31 0 V
31 0 V
31 0 V
30 0 V
31 0 V
31 0 V
31 0 V
31 0 V
31 0 V
30 0 V
31 0 V
31 0 V
31 0 V
% End plot #2
stroke
2.000 UL
LTb
LCb setrgbcolor
1.000 UL
LTB
LCb setrgbcolor
936 2902 N
0 -1248 V
1511 0 V
0 1248 V
-1511 0 V
Z stroke
1.000 UP
1.000 UL
LTb
LCb setrgbcolor
1.000 UL
LTb
LCb setrgbcolor
2448 1671 M
31 0 V
1480 0 R
-31 0 V
-1480 68 R
31 0 V
1480 0 R
-31 0 V
-1480 69 R
31 0 V
1480 0 R
-31 0 V
-1480 68 R
63 0 V
1448 0 R
-63 0 V
stroke
2419 1876 M
[ [(Times-Roman) 10.0 0.0 true true 0 ( 1)]
] -3.3 MRshow
1.000 UL
LTb
LCb setrgbcolor
2448 1945 M
31 0 V
1480 0 R
-31 0 V
-1480 68 R
31 0 V
1480 0 R
-31 0 V
-1480 68 R
31 0 V
1480 0 R
-31 0 V
-1480 69 R
31 0 V
1480 0 R
-31 0 V
-1480 68 R
63 0 V
1448 0 R
-63 0 V
stroke
2419 2218 M
[ [(Times-Roman) 10.0 0.0 true true 0 ( 1.2)]
] -3.3 MRshow
1.000 UL
LTb
LCb setrgbcolor
2448 2287 M
31 0 V
1480 0 R
-31 0 V
-1480 68 R
31 0 V
1480 0 R
-31 0 V
-1480 68 R
31 0 V
1480 0 R
-31 0 V
-1480 69 R
31 0 V
1480 0 R
-31 0 V
-1480 68 R
63 0 V
1448 0 R
-63 0 V
stroke
2419 2560 M
[ [(Times-Roman) 10.0 0.0 true true 0 ( 1.4)]
] -3.3 MRshow
1.000 UL
LTb
LCb setrgbcolor
2448 2628 M
31 0 V
1480 0 R
-31 0 V
-1480 69 R
31 0 V
1480 0 R
-31 0 V
-1480 68 R
31 0 V
1480 0 R
-31 0 V
-1480 69 R
31 0 V
1480 0 R
-31 0 V
-1480 68 R
63 0 V
1448 0 R
-63 0 V
stroke
2419 2902 M
[ [(Times-Roman) 10.0 0.0 true true 0 ( 1.6)]
] -3.3 MRshow
1.000 UL
LTb
LCb setrgbcolor
2541 1654 M
0 31 V
0 1217 R
0 -31 V
2664 1654 M
0 31 V
0 1217 R
0 -31 V
2787 1654 M
0 31 V
0 1217 R
0 -31 V
2911 1654 M
0 31 V
0 1217 R
0 -31 V
3034 1654 M
0 63 V
0 1185 R
0 -63 V
stroke
3034 1534 M
[ [(Times-Roman) 10.0 0.0 true true 0 ( 0.1)]
] -3.3 MCshow
1.000 UL
LTb
LCb setrgbcolor
3157 1654 M
0 31 V
0 1217 R
0 -31 V
3281 1654 M
0 31 V
0 1217 R
0 -31 V
3404 1654 M
0 31 V
0 1217 R
0 -31 V
3527 1654 M
0 31 V
0 1217 R
0 -31 V
3651 1654 M
0 63 V
0 1185 R
0 -63 V
stroke
3651 1534 M
[ [(Times-Roman) 10.0 0.0 true true 0 ( 0.2)]
] -3.3 MCshow
1.000 UL
LTb
LCb setrgbcolor
3774 1654 M
0 31 V
0 1217 R
0 -31 V
3897 1654 M
0 31 V
0 1217 R
0 -31 V
stroke
LTB
LCb setrgbcolor
2448 2902 N
0 -1248 V
1511 0 V
0 1248 V
-1511 0 V
Z stroke
1.000 UP
LCb setrgbcolor
3034 2184 M
[ [(Times-Roman) 180.0 0.0 true true 0 (Rout)]
] -60.0 MLshow
1.000 UL
LTb
LCb setrgbcolor
LCb setrgbcolor
2040 2278 M
currentpoint gsave translate -270 rotate 0 0 moveto
[ [(Times-Roman) 10.0 0.0 true true 0 (C\(q\))]
] -3.3 MCshow
grestore
LTb
% Begin plot #1
1.000 UP
2.000 UL
LTb
0.34 0.71 0.91 C LCb setrgbcolor
10739 -8418 M
[ [(Times-Roman) 130.0 0.0 true true 0 (CorrFunc)]
] -43.3 MRshow
1.000 UP
2.000 UL
LTb
0.34 0.71 0.91 C 10817 -8418 M
156 0 V
-156 31 R
0 -62 V
156 62 R
0 -62 V
2463 2449 M
0 89 V
-15 -89 R
46 0 V
-46 89 R
46 0 V
0 -195 R
0 86 V
-31 -86 R
62 0 V
-62 86 R
62 0 V
0 -132 R
0 85 V
-31 -85 R
62 0 V
-62 85 R
62 0 V
0 -68 R
0 85 V
-31 -85 R
62 0 V
-62 85 R
62 0 V
0 -183 R
0 83 V
-31 -83 R
62 0 V
-62 83 R
62 0 V
0 -137 R
0 81 V
-31 -81 R
62 0 V
-62 81 R
62 0 V
-1 -166 R
0 77 V
-31 -77 R
62 0 V
-62 77 R
62 0 V
0 -110 R
0 75 V
-31 -75 R
62 0 V
-62 75 R
62 0 V
0 -112 R
0 73 V
-31 -73 R
62 0 V
-62 73 R
62 0 V
0 -126 R
0 71 V
-31 -71 R
62 0 V
-62 71 R
62 0 V
0 -150 R
0 68 V
-31 -68 R
62 0 V
-62 68 R
62 0 V
0 -131 R
0 66 V
-31 -66 R
62 0 V
-62 66 R
62 0 V
-1 -80 R
0 65 V
-31 -65 R
62 0 V
-62 65 R
62 0 V
0 -4 R
0 65 V
-31 -65 R
62 0 V
-62 65 R
62 0 V
0 -68 R
0 64 V
-31 -64 R
62 0 V
-62 64 R
62 0 V
0 -86 R
0 63 V
-31 -63 R
62 0 V
-62 63 R
62 0 V
0 -108 R
0 61 V
-31 -61 R
62 0 V
stroke 2988 1789 M
-62 61 R
62 0 V
0 -34 R
0 62 V
-31 -62 R
62 0 V
-62 62 R
62 0 V
-1 -51 R
0 61 V
-31 -61 R
62 0 V
-62 61 R
62 0 V
0 -67 R
0 60 V
-31 -60 R
62 0 V
-62 60 R
62 0 V
0 -86 R
0 59 V
-31 -59 R
62 0 V
-62 59 R
62 0 V
0 -17 R
0 59 V
-31 -59 R
62 0 V
-62 59 R
62 0 V
0 -105 R
0 58 V
-31 -58 R
62 0 V
-62 58 R
62 0 V
0 -62 R
0 57 V
-31 -57 R
62 0 V
-62 57 R
62 0 V
0 -56 R
0 57 V
-31 -57 R
62 0 V
-62 57 R
62 0 V
-1 -13 R
0 57 V
-31 -57 R
62 0 V
-62 57 R
62 0 V
0 -81 R
0 57 V
-31 -57 R
62 0 V
-62 57 R
62 0 V
0 -45 R
0 58 V
-31 -58 R
62 0 V
-62 58 R
62 0 V
0 -73 R
0 57 V
-31 -57 R
62 0 V
-62 57 R
62 0 V
0 7 R
0 59 V
-31 -59 R
62 0 V
-62 59 R
62 0 V
0 -167 R
0 56 V
-31 -56 R
62 0 V
-62 56 R
62 0 V
-1 25 R
0 58 V
-31 -58 R
62 0 V
-62 58 R
62 0 V
0 -125 R
0 57 V
-31 -57 R
62 0 V
-62 57 R
62 0 V
0 -28 R
0 57 V
-31 -57 R
62 0 V
-62 57 R
62 0 V
stroke 3512 1861 M
0 1 R
0 59 V
-31 -59 R
62 0 V
-62 59 R
62 0 V
0 -87 R
0 60 V
-31 -60 R
62 0 V
-62 60 R
62 0 V
0 -62 R
0 61 V
-31 -61 R
62 0 V
-62 61 R
62 0 V
-1 -67 R
0 62 V
-31 -62 R
62 0 V
-62 62 R
62 0 V
0 -29 R
0 65 V
-31 -65 R
62 0 V
-62 65 R
62 0 V
0 -125 R
0 65 V
-31 -65 R
62 0 V
-62 65 R
62 0 V
0 -44 R
0 67 V
-31 -67 R
62 0 V
-62 67 R
62 0 V
0 -46 R
0 70 V
-31 -70 R
62 0 V
-62 70 R
62 0 V
0 -116 R
0 70 V
-31 -70 R
62 0 V
-62 70 R
62 0 V
-1 -4 R
0 75 V
-31 -75 R
62 0 V
-62 75 R
62 0 V
0 -151 R
0 73 V
-31 -73 R
62 0 V
-62 73 R
62 0 V
0 -30 R
0 78 V
-31 -78 R
62 0 V
-62 78 R
62 0 V
0 -93 R
0 79 V
-31 -79 R
62 0 V
-62 79 R
62 0 V
0 -86 R
0 82 V
-31 -82 R
62 0 V
-62 82 R
62 0 V
0 -54 R
0 84 V
-31 -84 R
46 0 V
-46 84 R
46 0 V
2463 2493 TriU
2494 2386 TriU
2525 2340 TriU
2556 2357 TriU
2587 2257 TriU
2618 2203 TriU
2648 2116 TriU
2679 2081 TriU
2710 2044 TriU
2741 1989 TriU
2772 1909 TriU
2803 1845 TriU
2833 1830 TriU
2864 1892 TriU
2895 1888 TriU
2926 1866 TriU
2957 1819 TriU
2988 1847 TriU
3018 1857 TriU
3049 1851 TriU
3080 1824 TriU
3111 1867 TriU
3142 1820 TriU
3173 1815 TriU
3204 1816 TriU
3234 1861 TriU
3265 1836 TriU
3296 1849 TriU
3327 1834 TriU
3358 1898 TriU
3389 1789 TriU
3419 1871 TriU
3450 1803 TriU
3481 1832 TriU
3512 1892 TriU
3543 1864 TriU
3574 1863 TriU
3604 1857 TriU
3635 1892 TriU
3666 1831 TriU
3697 1854 TriU
3728 1876 TriU
3759 1830 TriU
3789 1898 TriU
3820 1822 TriU
3851 1867 TriU
3882 1852 TriU
3913 1847 TriU
3944 1876 TriU
10895 -8418 TriU
% End plot #1
% Begin plot #2
2.400 UL
LTb
0.58 0.00 0.83 C LCb setrgbcolor
10739 -8496 M
[ [(Times-Roman) 130.0 0.0 true true 0 (3DFit)]
] -43.3 MRshow
2.400 UL
LTb
0.58 0.00 0.83 C 10817 -8496 M
156 0 V
2448 2501 M
15 -9 V
31 -38 V
31 -49 V
31 -62 V
31 -67 V
31 -66 V
30 -65 V
31 -58 V
31 -52 V
31 -43 V
31 -34 V
31 -25 V
30 -21 V
31 -14 V
31 -8 V
31 -7 V
31 -5 V
31 -2 V
30 -2 V
31 -1 V
31 0 V
31 0 V
31 -1 V
31 0 V
31 0 V
30 0 V
31 0 V
31 0 V
31 0 V
31 0 V
31 0 V
30 0 V
31 0 V
31 0 V
31 0 V
31 0 V
31 0 V
30 0 V
31 0 V
31 0 V
31 0 V
31 0 V
31 0 V
30 0 V
31 0 V
31 0 V
31 0 V
31 0 V
31 0 V
15 0 V
% End plot #2
stroke
2.000 UL
LTb
LCb setrgbcolor
1.000 UL
LTB
LCb setrgbcolor
2448 2902 N
0 -1248 V
1511 0 V
0 1248 V
-1511 0 V
Z stroke
1.000 UP
1.000 UL
LTb
LCb setrgbcolor
1.000 UL
LTb
LCb setrgbcolor
3960 1671 M
31 0 V
1480 0 R
-31 0 V
-1480 68 R
31 0 V
1480 0 R
-31 0 V
-1480 69 R
31 0 V
1480 0 R
-31 0 V
-1480 68 R
63 0 V
1448 0 R
-63 0 V
stroke
3931 1876 M
[ [(Times-Roman) 10.0 0.0 true true 0 ( 1)]
] -3.3 MRshow
1.000 UL
LTb
LCb setrgbcolor
3960 1945 M
31 0 V
1480 0 R
-31 0 V
-1480 68 R
31 0 V
1480 0 R
-31 0 V
-1480 68 R
31 0 V
1480 0 R
-31 0 V
-1480 69 R
31 0 V
1480 0 R
-31 0 V
-1480 68 R
63 0 V
1448 0 R
-63 0 V
stroke
3931 2218 M
[ [(Times-Roman) 10.0 0.0 true true 0 ( 1.2)]
] -3.3 MRshow
1.000 UL
LTb
LCb setrgbcolor
3960 2287 M
31 0 V
1480 0 R
-31 0 V
-1480 68 R
31 0 V
1480 0 R
-31 0 V
-1480 68 R
31 0 V
1480 0 R
-31 0 V
-1480 69 R
31 0 V
1480 0 R
-31 0 V
-1480 68 R
63 0 V
1448 0 R
-63 0 V
stroke
3931 2560 M
[ [(Times-Roman) 10.0 0.0 true true 0 ( 1.4)]
] -3.3 MRshow
1.000 UL
LTb
LCb setrgbcolor
3960 2628 M
31 0 V
1480 0 R
-31 0 V
-1480 69 R
31 0 V
1480 0 R
-31 0 V
-1480 68 R
31 0 V
1480 0 R
-31 0 V
-1480 69 R
31 0 V
1480 0 R
-31 0 V
-1480 68 R
63 0 V
1448 0 R
-63 0 V
stroke
3931 2902 M
[ [(Times-Roman) 10.0 0.0 true true 0 ( 1.6)]
] -3.3 MRshow
1.000 UL
LTb
LCb setrgbcolor
4053 1654 M
0 31 V
0 1217 R
0 -31 V
4176 1654 M
0 31 V
0 1217 R
0 -31 V
4299 1654 M
0 31 V
0 1217 R
0 -31 V
4423 1654 M
0 31 V
0 1217 R
0 -31 V
4546 1654 M
0 63 V
0 1185 R
0 -63 V
stroke
4546 1534 M
[ [(Times-Roman) 10.0 0.0 true true 0 ( 0.1)]
] -3.3 MCshow
1.000 UL
LTb
LCb setrgbcolor
4669 1654 M
0 31 V
0 1217 R
0 -31 V
4793 1654 M
0 31 V
0 1217 R
0 -31 V
4916 1654 M
0 31 V
0 1217 R
0 -31 V
5039 1654 M
0 31 V
0 1217 R
0 -31 V
5163 1654 M
0 63 V
0 1185 R
0 -63 V
stroke
5163 1534 M
[ [(Times-Roman) 10.0 0.0 true true 0 ( 0.2)]
] -3.3 MCshow
1.000 UL
LTb
LCb setrgbcolor
5286 1654 M
0 31 V
0 1217 R
0 -31 V
5409 1654 M
0 31 V
0 1217 R
0 -31 V
stroke
LTB
LCb setrgbcolor
3960 2902 N
0 -1248 V
1511 0 V
0 1248 V
-1511 0 V
Z stroke
1.000 UP
LCb setrgbcolor
4546 2184 M
[ [(Times-Roman) 180.0 0.0 true true 0 (Rout)]
] -60.0 MLshow
1.000 UL
LTb
LCb setrgbcolor
LCb setrgbcolor
3552 2278 M
currentpoint gsave translate -270 rotate 0 0 moveto
[ [(Times-Roman) 10.0 0.0 true true 0 (C\(q\))]
] -3.3 MCshow
grestore
LTb
% Begin plot #1
1.000 UP
2.000 UL
LTb
0.34 0.71 0.91 C LCb setrgbcolor
12251 -8411 M
[ [(Times-Roman) 130.0 0.0 true true 0 (CorrFunc)]
] -43.3 MRshow
1.000 UP
2.000 UL
LTb
0.34 0.71 0.91 C 12329 -8411 M
156 0 V
-156 31 R
0 -62 V
156 62 R
0 -62 V
3975 2625 M
0 133 V
-15 -133 R
46 0 V
-46 133 R
46 0 V
0 -196 R
0 133 V
-31 -133 R
62 0 V
-62 133 R
62 0 V
0 -165 R
0 132 V
-31 -132 R
62 0 V
-62 132 R
62 0 V
0 -338 R
0 123 V
-31 -123 R
62 0 V
-62 123 R
62 0 V
0 -151 R
0 121 V
-31 -121 R
62 0 V
-62 121 R
62 0 V
0 -169 R
0 118 V
-31 -118 R
62 0 V
-62 118 R
62 0 V
-1 -90 R
0 120 V
-31 -120 R
62 0 V
-62 120 R
62 0 V
0 -192 R
0 117 V
-31 -117 R
62 0 V
-62 117 R
62 0 V
0 -322 R
0 107 V
-31 -107 R
62 0 V
-62 107 R
62 0 V
0 -33 R
0 109 V
-31 -109 R
62 0 V
-62 109 R
62 0 V
0 -237 R
0 102 V
-31 -102 R
62 0 V
-62 102 R
62 0 V
0 -216 R
0 98 V
-31 -98 R
62 0 V
-62 98 R
62 0 V
-1 -2 R
0 100 V
-31 -100 R
62 0 V
-62 100 R
62 0 V
0 -155 R
0 97 V
-31 -97 R
62 0 V
-62 97 R
62 0 V
0 -102 R
0 98 V
-31 -98 R
62 0 V
-62 98 R
62 0 V
0 -90 R
0 95 V
-31 -95 R
62 0 V
-62 95 R
62 0 V
0 -227 R
0 89 V
-31 -89 R
62 0 V
stroke 4500 1743 M
-62 89 R
62 0 V
0 -18 R
0 91 V
-31 -91 R
62 0 V
-62 91 R
62 0 V
-1 -164 R
0 87 V
-31 -87 R
62 0 V
-62 87 R
62 0 V
0 -23 R
0 89 V
-31 -89 R
62 0 V
-62 89 R
62 0 V
0 -77 R
0 87 V
-31 -87 R
62 0 V
-62 87 R
62 0 V
0 -134 R
0 85 V
-31 -85 R
62 0 V
-62 85 R
62 0 V
0 8 R
0 88 V
-31 -88 R
62 0 V
-62 88 R
62 0 V
0 -174 R
0 84 V
-31 -84 R
62 0 V
-62 84 R
62 0 V
0 -85 R
0 83 V
-31 -83 R
62 0 V
-62 83 R
62 0 V
-1 -107 R
0 82 V
-31 -82 R
62 0 V
-62 82 R
62 0 V
0 -97 R
0 80 V
-31 -80 R
62 0 V
-62 80 R
62 0 V
0 -25 R
0 81 V
-31 -81 R
62 0 V
-62 81 R
62 0 V
0 -78 R
0 81 V
-31 -81 R
62 0 V
-62 81 R
62 0 V
0 -137 R
0 77 V
-31 -77 R
62 0 V
-62 77 R
62 0 V
0 35 R
0 81 V
-31 -81 R
62 0 V
-62 81 R
62 0 V
-1 -192 R
0 77 V
-31 -77 R
62 0 V
-62 77 R
62 0 V
0 34 R
0 81 V
-31 -81 R
62 0 V
-62 81 R
62 0 V
0 -194 R
0 76 V
-31 -76 R
62 0 V
-62 76 R
62 0 V
stroke 5024 1814 M
0 17 R
0 80 V
-31 -80 R
62 0 V
-62 80 R
62 0 V
0 -133 R
0 78 V
-31 -78 R
62 0 V
-62 78 R
62 0 V
0 -58 R
0 78 V
-31 -78 R
62 0 V
-62 78 R
62 0 V
-1 -83 R
0 78 V
-31 -78 R
62 0 V
-62 78 R
62 0 V
0 58 R
0 82 V
-31 -82 R
62 0 V
-62 82 R
62 0 V
0 -117 R
0 81 V
-31 -81 R
62 0 V
-62 81 R
62 0 V
0 -71 R
0 81 V
-31 -81 R
62 0 V
-62 81 R
62 0 V
0 -74 R
0 81 V
-31 -81 R
62 0 V
-62 81 R
62 0 V
0 -204 R
0 77 V
-31 -77 R
62 0 V
-62 77 R
62 0 V
-1 -54 R
0 78 V
-31 -78 R
62 0 V
-62 78 R
62 0 V
0 -10 R
0 80 V
-31 -80 R
62 0 V
-62 80 R
62 0 V
0 -112 R
0 79 V
-31 -79 R
62 0 V
-62 79 R
62 0 V
0 -88 R
0 79 V
-31 -79 R
62 0 V
-62 79 R
62 0 V
0 -126 R
0 77 V
-31 -77 R
62 0 V
-62 77 R
62 0 V
0 -94 R
0 76 V
-31 -76 R
46 0 V
-46 76 R
46 0 V
3975 2692 TriU
4006 2628 TriU
4037 2596 TriU
4068 2386 TriU
4099 2357 TriU
4130 2307 TriU
4160 2336 TriU
4191 2263 TriU
4222 2052 TriU
4253 2128 TriU
4284 1996 TriU
4315 1880 TriU
4345 1977 TriU
4376 1921 TriU
4407 1916 TriU
4438 1922 TriU
4469 1787 TriU
4500 1859 TriU
4530 1784 TriU
4561 1850 TriU
4592 1861 TriU
4623 1813 TriU
4654 1907 TriU
4685 1819 TriU
4716 1818 TriU
4746 1793 TriU
4777 1777 TriU
4808 1833 TriU
4839 1835 TriU
4870 1777 TriU
4901 1892 TriU
4931 1778 TriU
4962 1892 TriU
4993 1776 TriU
5024 1871 TriU
5055 1817 TriU
5086 1837 TriU
5116 1832 TriU
5147 1970 TriU
5178 1934 TriU
5209 1945 TriU
5240 1951 TriU
5271 1826 TriU
5301 1850 TriU
5332 1919 TriU
5363 1887 TriU
5394 1878 TriU
5425 1829 TriU
5456 1812 TriU
12407 -8411 TriU
% End plot #1
% Begin plot #2
2.400 UL
LTb
0.58 0.00 0.83 C LCb setrgbcolor
12251 -8476 M
[ [(Times-Roman) 130.0 0.0 true true 0 (3DFit)]
] -43.3 MRshow
2.400 UL
LTb
0.58 0.00 0.83 C 12329 -8476 M
156 0 V
3960 2651 M
15 -9 V
31 -32 V
31 -48 V
31 -58 V
31 -65 V
31 -70 V
30 -72 V
31 -69 V
31 -63 V
31 -58 V
31 -51 V
31 -43 V
30 -34 V
31 -29 V
31 -22 V
31 -16 V
31 -14 V
31 -8 V
30 -7 V
31 -3 V
31 -4 V
31 -1 V
31 -2 V
31 0 V
31 -1 V
30 0 V
31 0 V
31 0 V
31 0 V
31 0 V
31 0 V
30 0 V
31 0 V
31 0 V
31 0 V
31 0 V
31 0 V
30 0 V
31 0 V
31 0 V
31 0 V
31 0 V
31 0 V
30 0 V
31 0 V
31 0 V
31 0 V
31 0 V
31 0 V
15 0 V
% End plot #2
stroke
2.000 UL
LTb
LCb setrgbcolor
1.000 UL
LTB
LCb setrgbcolor
3960 2902 N
0 -1248 V
1511 0 V
0 1248 V
-1511 0 V
Z stroke
1.000 UP
1.000 UL
LTb
LCb setrgbcolor
1.000 UL
LTb
LCb setrgbcolor
5472 1671 M
31 0 V
1479 0 R
-31 0 V
-1479 68 R
31 0 V
1479 0 R
-31 0 V
-1479 69 R
31 0 V
1479 0 R
-31 0 V
-1479 68 R
63 0 V
1447 0 R
-63 0 V
stroke
5443 1876 M
[ [(Times-Roman) 10.0 0.0 true true 0 ( 1)]
] -3.3 MRshow
1.000 UL
LTb
LCb setrgbcolor
5472 1945 M
31 0 V
1479 0 R
-31 0 V
-1479 68 R
31 0 V
1479 0 R
-31 0 V
-1479 68 R
31 0 V
1479 0 R
-31 0 V
-1479 69 R
31 0 V
1479 0 R
-31 0 V
-1479 68 R
63 0 V
1447 0 R
-63 0 V
stroke
5443 2218 M
[ [(Times-Roman) 10.0 0.0 true true 0 ( 1.2)]
] -3.3 MRshow
1.000 UL
LTb
LCb setrgbcolor
5472 2287 M
31 0 V
1479 0 R
-31 0 V
-1479 68 R
31 0 V
1479 0 R
-31 0 V
-1479 68 R
31 0 V
1479 0 R
-31 0 V
-1479 69 R
31 0 V
1479 0 R
-31 0 V
-1479 68 R
63 0 V
1447 0 R
-63 0 V
stroke
5443 2560 M
[ [(Times-Roman) 10.0 0.0 true true 0 ( 1.4)]
] -3.3 MRshow
1.000 UL
LTb
LCb setrgbcolor
5472 2628 M
31 0 V
1479 0 R
-31 0 V
-1479 69 R
31 0 V
1479 0 R
-31 0 V
-1479 68 R
31 0 V
1479 0 R
-31 0 V
-1479 69 R
31 0 V
1479 0 R
-31 0 V
-1479 68 R
63 0 V
1447 0 R
-63 0 V
stroke
5443 2902 M
[ [(Times-Roman) 10.0 0.0 true true 0 ( 1.6)]
] -3.3 MRshow
1.000 UL
LTb
LCb setrgbcolor
5564 1654 M
0 31 V
0 1217 R
0 -31 V
5688 1654 M
0 31 V
0 1217 R
0 -31 V
5811 1654 M
0 31 V
0 1217 R
0 -31 V
5934 1654 M
0 31 V
0 1217 R
0 -31 V
6058 1654 M
0 63 V
0 1185 R
0 -63 V
stroke
6058 1534 M
[ [(Times-Roman) 10.0 0.0 true true 0 ( 0.1)]
] -3.3 MCshow
1.000 UL
LTb
LCb setrgbcolor
6181 1654 M
0 31 V
0 1217 R
0 -31 V
6304 1654 M
0 31 V
0 1217 R
0 -31 V
6427 1654 M
0 31 V
0 1217 R
0 -31 V
6551 1654 M
0 31 V
0 1217 R
0 -31 V
6674 1654 M
0 63 V
0 1185 R
0 -63 V
stroke
6674 1534 M
[ [(Times-Roman) 10.0 0.0 true true 0 ( 0.2)]
] -3.3 MCshow
1.000 UL
LTb
LCb setrgbcolor
6797 1654 M
0 31 V
0 1217 R
0 -31 V
6920 1654 M
0 31 V
0 1217 R
0 -31 V
stroke
LTB
LCb setrgbcolor
5472 2902 N
0 -1248 V
1510 0 V
0 1248 V
-1510 0 V
Z stroke
1.000 UP
LCb setrgbcolor
6058 2184 M
[ [(Times-Roman) 180.0 0.0 true true 0 (Rout)]
] -60.0 MLshow
1.000 UL
LTb
LCb setrgbcolor
LCb setrgbcolor
5064 2278 M
currentpoint gsave translate -270 rotate 0 0 moveto
[ [(Times-Roman) 10.0 0.0 true true 0 (C\(q\))]
] -3.3 MCshow
grestore
LTb
% Begin plot #1
1.000 UP
2.000 UL
LTb
0.34 0.71 0.91 C LCb setrgbcolor
13758 -8411 M
[ [(Times-Roman) 130.0 0.0 true true 0 (CorrFunc)]
] -43.3 MRshow
1.000 UP
2.000 UL
LTb
0.34 0.71 0.91 C 13836 -8411 M
156 0 V
-156 31 R
0 -62 V
156 62 R
0 -62 V
5487 2552 M
0 310 V
-15 -310 R
46 0 V
-46 310 R
46 0 V
0 -150 R
0 190 V
-31 -190 R
62 0 V
0 -604 R
0 262 V
-31 -262 R
62 0 V
-62 262 R
62 0 V
0 -15 R
0 280 V
-31 -280 R
62 0 V
-62 280 R
62 0 V
0 -348 R
0 272 V
-31 -272 R
62 0 V
-62 272 R
62 0 V
-1 -159 R
0 276 V
-31 -276 R
62 0 V
-62 276 R
62 0 V
0 -343 R
0 269 V
-31 -269 R
62 0 V
-62 269 R
62 0 V
0 -291 R
0 266 V
-31 -266 R
62 0 V
-62 266 R
62 0 V
0 -530 R
0 237 V
-31 -237 R
62 0 V
-62 237 R
62 0 V
0 -48 R
0 251 V
-31 -251 R
62 0 V
-62 251 R
62 0 V
0 -543 R
0 220 V
-31 -220 R
62 0 V
-62 220 R
62 0 V
-1 -302 R
0 209 V
-31 -209 R
62 0 V
-62 209 R
62 0 V
0 -293 R
0 195 V
-31 -195 R
62 0 V
-62 195 R
62 0 V
0 -83 R
0 201 V
-31 -201 R
62 0 V
-62 201 R
62 0 V
0 -147 R
0 203 V
-31 -203 R
62 0 V
-62 203 R
62 0 V
0 -220 R
0 196 V
-31 -196 R
62 0 V
-62 196 R
62 0 V
-1 -241 R
0 194 V
-31 -194 R
62 0 V
-62 194 R
62 0 V
stroke 6011 2076 M
0 -124 R
0 193 V
-31 -193 R
62 0 V
-62 193 R
62 0 V
0 -367 R
0 175 V
-31 -175 R
62 0 V
-62 175 R
62 0 V
0 -174 R
0 175 V
-31 -175 R
62 0 V
-62 175 R
62 0 V
0 -226 R
0 167 V
-31 -167 R
62 0 V
-62 167 R
62 0 V
0 -148 R
0 169 V
-31 -169 R
62 0 V
-62 169 R
62 0 V
-1 -93 R
0 171 V
-31 -171 R
62 0 V
-62 171 R
62 0 V
0 -188 R
0 164 V
-31 -164 R
62 0 V
-62 164 R
62 0 V
0 -193 R
0 161 V
-31 -161 R
62 0 V
-62 161 R
62 0 V
0 -67 R
0 164 V
-31 -164 R
62 0 V
-62 164 R
62 0 V
0 -321 R
0 151 V
-31 -151 R
62 0 V
-62 151 R
62 0 V
-1 -2 R
0 157 V
-31 -157 R
62 0 V
-62 157 R
62 0 V
0 -319 R
0 146 V
-31 -146 R
62 0 V
-62 146 R
62 0 V
0 -63 R
0 151 V
-31 -151 R
62 0 V
-62 151 R
62 0 V
0 -254 R
0 141 V
-31 -141 R
62 0 V
-62 141 R
62 0 V
0 -70 R
0 143 V
-31 -143 R
62 0 V
-62 143 R
62 0 V
0 3 R
0 151 V
-31 -151 R
62 0 V
-62 151 R
62 0 V
-1 -354 R
0 137 V
-31 -137 R
62 0 V
-62 137 R
62 0 V
0 -80 R
0 139 V
stroke 6535 1891 M
-31 -139 R
62 0 V
-62 139 R
62 0 V
0 -212 R
0 132 V
-31 -132 R
62 0 V
-62 132 R
62 0 V
0 -90 R
0 136 V
-31 -136 R
62 0 V
-62 136 R
62 0 V
0 -83 R
0 135 V
-31 -135 R
62 0 V
-62 135 R
62 0 V
-1 -186 R
0 131 V
-31 -131 R
62 0 V
-62 131 R
62 0 V
0 130 R
0 144 V
-31 -144 R
62 0 V
-62 144 R
62 0 V
0 -332 R
0 133 V
-31 -133 R
62 0 V
-62 133 R
62 0 V
0 -119 R
0 132 V
-31 -132 R
62 0 V
-62 132 R
62 0 V
0 -225 R
0 125 V
-31 -125 R
62 0 V
-62 125 R
62 0 V
0 -64 R
0 129 V
-31 -129 R
62 0 V
-62 129 R
62 0 V
-1 8 R
0 135 V
-31 -135 R
62 0 V
-62 135 R
62 0 V
0 -184 R
0 130 V
-31 -130 R
62 0 V
-62 130 R
62 0 V
0 -248 R
0 123 V
-31 -123 R
62 0 V
-62 123 R
62 0 V
0 -104 R
0 124 V
-31 -124 R
62 0 V
-62 124 R
62 0 V
0 -122 R
0 122 V
-31 -122 R
46 0 V
-46 122 R
46 0 V
5487 2707 TriU
5518 2868 TriU
5549 2239 TriU
5580 2495 TriU
5611 2423 TriU
5641 2538 TriU
5672 2468 TriU
5703 2444 TriU
5734 2165 TriU
5765 2362 TriU
5796 2054 TriU
5826 1967 TriU
5857 1875 TriU
5888 1991 TriU
5919 2045 TriU
5950 2025 TriU
5980 1979 TriU
6011 2049 TriU
6042 1866 TriU
6073 1867 TriU
6104 1811 TriU
6135 1832 TriU
6165 1909 TriU
6196 1888 TriU
6227 1857 TriU
6258 1953 TriU
6289 1789 TriU
6319 1941 TriU
6350 1774 TriU
6381 1859 TriU
6412 1751 TriU
6443 1824 TriU
6474 1974 TriU
6504 1763 TriU
6535 1821 TriU
6566 1745 TriU
6597 1789 TriU
6628 1842 TriU
6658 1789 TriU
6689 2056 TriU
6720 1863 TriU
6751 1876 TriU
6782 1780 TriU
6813 1842 TriU
6843 1982 TriU
6874 1931 TriU
6905 1810 TriU
6936 1829 TriU
6967 1830 TriU
13914 -8411 TriU
% End plot #1
% Begin plot #2
2.400 UL
LTb
0.58 0.00 0.83 C LCb setrgbcolor
13758 -8476 M
[ [(Times-Roman) 130.0 0.0 true true 0 (3DFit)]
] -43.3 MRshow
2.400 UL
LTb
0.58 0.00 0.83 C 13836 -8476 M
156 0 V
5472 2735 M
15 -7 V
31 -26 V
31 -39 V
31 -50 V
31 -58 V
30 -63 V
31 -65 V
31 -69 V
31 -65 V
31 -63 V
31 -58 V
30 -53 V
31 -46 V
31 -41 V
31 -36 V
31 -27 V
30 -24 V
31 -19 V
31 -16 V
31 -10 V
31 -8 V
31 -7 V
30 -5 V
31 -4 V
31 -2 V
31 -1 V
31 -1 V
30 -1 V
31 -1 V
31 0 V
31 0 V
31 0 V
31 0 V
30 0 V
31 0 V
31 0 V
31 0 V
31 0 V
30 0 V
31 0 V
31 0 V
31 0 V
31 0 V
31 0 V
30 0 V
31 0 V
31 0 V
31 0 V
31 0 V
15 0 V
% End plot #2
stroke
2.000 UL
LTb
LCb setrgbcolor
1.000 UL
LTB
LCb setrgbcolor
5472 2902 N
0 -1248 V
1510 0 V
0 1248 V
-1510 0 V
Z stroke
1.000 UP
1.000 UL
LTb
LCb setrgbcolor
1.000 UL
LTb
LCb setrgbcolor
936 422 M
31 0 V
1480 0 R
-31 0 V
936 490 M
31 0 V
1480 0 R
-31 0 V
936 559 M
31 0 V
1480 0 R
-31 0 V
936 627 M
63 0 V
1448 0 R
-63 0 V
stroke
907 627 M
[ [(Times-Roman) 200.0 0.0 true true 0 ( 1)]
] -66.7 MRshow
1.000 UL
LTb
LCb setrgbcolor
936 695 M
31 0 V
1480 0 R
-31 0 V
936 764 M
31 0 V
1480 0 R
-31 0 V
936 832 M
31 0 V
1480 0 R
-31 0 V
936 900 M
31 0 V
1480 0 R
-31 0 V
936 969 M
63 0 V
1448 0 R
-63 0 V
stroke
907 969 M
[ [(Times-Roman) 200.0 0.0 true true 0 ( 1.2)]
] -66.7 MRshow
1.000 UL
LTb
LCb setrgbcolor
936 1037 M
31 0 V
1480 0 R
-31 0 V
936 1105 M
31 0 V
1480 0 R
-31 0 V
936 1174 M
31 0 V
1480 0 R
-31 0 V
936 1242 M
31 0 V
1480 0 R
-31 0 V
936 1310 M
63 0 V
1448 0 R
-63 0 V
stroke
907 1310 M
[ [(Times-Roman) 200.0 0.0 true true 0 ( 1.4)]
] -66.7 MRshow
1.000 UL
LTb
LCb setrgbcolor
936 1379 M
31 0 V
1480 0 R
-31 0 V
936 1447 M
31 0 V
1480 0 R
-31 0 V
936 1515 M
31 0 V
1480 0 R
-31 0 V
936 1584 M
31 0 V
1480 0 R
-31 0 V
936 1652 M
63 0 V
1448 0 R
-63 0 V
stroke
907 1652 M
[ [(Times-Roman) 200.0 0.0 true true 0 ( 1.6)]
] -66.7 MRshow
1.000 UL
LTb
LCb setrgbcolor
1029 405 M
0 31 V
0 1216 R
0 -31 V
1152 405 M
0 31 V
0 1216 R
0 -31 V
1275 405 M
0 31 V
0 1216 R
0 -31 V
1399 405 M
0 31 V
0 1216 R
0 -31 V
1522 405 M
0 63 V
0 1184 R
0 -63 V
stroke
1522 285 M
[ [(Times-Roman) 150.0 0.0 true true 0 ( 0.1)]
] -50.0 MCshow
1.000 UL
LTb
LCb setrgbcolor
1645 405 M
0 31 V
0 1216 R
0 -31 V
1769 405 M
0 31 V
0 1216 R
0 -31 V
1892 405 M
0 31 V
0 1216 R
0 -31 V
2015 405 M
0 31 V
0 1216 R
0 -31 V
2139 405 M
0 63 V
0 1184 R
0 -63 V
stroke
2139 285 M
[ [(Times-Roman) 150.0 0.0 true true 0 ( 0.2)]
] -50.0 MCshow
1.000 UL
LTb
LCb setrgbcolor
2262 405 M
0 31 V
0 1216 R
0 -31 V
2385 405 M
0 31 V
0 1216 R
0 -31 V
stroke
LTB
LCb setrgbcolor
936 1652 N
936 405 L
1511 0 V
0 1247 V
-1511 0 V
Z stroke
1.000 UP
LCb setrgbcolor
1522 935 M
[ [(Times-Roman) 180.0 0.0 true true 0 (Rlong)]
] -60.0 MLshow
1.000 UL
LTb
LCb setrgbcolor
LCb setrgbcolor
528 1028 M
currentpoint gsave translate -270 rotate 0 0 moveto
[ [(Times-Roman) 220.0 0.0 true true 0 (C\(q\))]
] -73.3 MCshow
grestore
LTb
% Begin plot #1
1.000 UP
2.000 UL
LTb
0.34 0.71 0.91 C LCb setrgbcolor
9227 -9652 M
[ [(Times-Roman) 130.0 0.0 true true 0 (CorrFunc)]
] -43.3 MRshow
1.000 UP
2.000 UL
LTb
0.34 0.71 0.91 C 9305 -9652 M
156 0 V
-156 31 R
0 -62 V
156 62 R
0 -62 V
951 996 M
0 82 V
936 996 M
46 0 V
-46 82 R
46 0 V
0 -4 R
0 73 V
-31 -73 R
62 0 V
-62 73 R
62 0 V
0 -116 R
0 59 V
-31 -59 R
62 0 V
-62 59 R
62 0 V
0 -90 R
0 50 V
-31 -50 R
62 0 V
-62 50 R
62 0 V
0 -153 R
0 47 V
-31 -47 R
62 0 V
-62 47 R
62 0 V
0 -94 R
0 46 V
-31 -46 R
62 0 V
-62 46 R
62 0 V
-1 -57 R
0 47 V
-31 -47 R
62 0 V
-62 47 R
62 0 V
0 -154 R
0 46 V
-31 -46 R
62 0 V
-62 46 R
62 0 V
0 -36 R
0 47 V
-31 -47 R
62 0 V
-62 47 R
62 0 V
0 -81 R
0 47 V
-31 -47 R
62 0 V
-62 47 R
62 0 V
0 -122 R
0 46 V
-31 -46 R
62 0 V
-62 46 R
62 0 V
0 -9 R
0 48 V
-31 -48 R
62 0 V
-62 48 R
62 0 V
-1 -64 R
0 49 V
-31 -49 R
62 0 V
-62 49 R
62 0 V
0 -106 R
0 49 V
-31 -49 R
62 0 V
-62 49 R
62 0 V
0 -41 R
0 50 V
-31 -50 R
62 0 V
-62 50 R
62 0 V
0 -38 R
0 51 V
-31 -51 R
62 0 V
-62 51 R
62 0 V
0 -58 R
0 52 V
-31 -52 R
62 0 V
stroke 1476 610 M
-62 52 R
62 0 V
0 -68 R
0 53 V
-31 -53 R
62 0 V
-62 53 R
62 0 V
-1 -44 R
0 55 V
-31 -55 R
62 0 V
-62 55 R
62 0 V
0 -51 R
0 57 V
-31 -57 R
62 0 V
-62 57 R
62 0 V
0 -49 R
0 58 V
-31 -58 R
62 0 V
-62 58 R
62 0 V
0 -86 R
0 59 V
-31 -59 R
62 0 V
-62 59 R
62 0 V
0 -14 R
0 62 V
-31 -62 R
62 0 V
-62 62 R
62 0 V
0 -138 R
0 62 V
-31 -62 R
62 0 V
-62 62 R
62 0 V
0 -31 R
0 64 V
-31 -64 R
62 0 V
-62 64 R
62 0 V
-1 -73 R
0 66 V
-31 -66 R
62 0 V
-62 66 R
62 0 V
0 -38 R
0 69 V
-31 -69 R
62 0 V
-62 69 R
62 0 V
0 -103 R
0 71 V
-31 -71 R
62 0 V
-62 71 R
62 0 V
0 -69 R
0 74 V
-31 -74 R
62 0 V
-62 74 R
62 0 V
0 -58 R
0 77 V
-31 -77 R
62 0 V
-62 77 R
62 0 V
0 -71 R
0 82 V
-31 -82 R
62 0 V
-62 82 R
62 0 V
-1 -133 R
0 85 V
-31 -85 R
62 0 V
-62 85 R
62 0 V
0 -25 R
0 92 V
-31 -92 R
62 0 V
-62 92 R
62 0 V
0 -158 R
0 94 V
-31 -94 R
62 0 V
-62 94 R
62 0 V
stroke 2000 633 M
0 -16 R
0 105 V
1969 617 M
62 0 V
-62 105 R
62 0 V
0 -178 R
0 109 V
2000 544 M
62 0 V
-62 109 R
62 0 V
0 -63 R
0 119 V
2031 590 M
62 0 V
-62 119 R
62 0 V
-1 -134 R
0 128 V
2061 575 M
62 0 V
-62 128 R
62 0 V
0 -177 R
0 133 V
2092 526 M
62 0 V
-62 133 R
62 0 V
0 -26 R
0 156 V
2123 633 M
62 0 V
-62 156 R
62 0 V
0 -261 R
0 166 V
2154 528 M
62 0 V
-62 166 R
62 0 V
0 -138 R
0 186 V
2185 556 M
62 0 V
-62 186 R
62 0 V
0 -305 R
0 195 V
2216 437 M
62 0 V
-62 195 R
62 0 V
-1 44 R
0 247 V
2246 676 M
62 0 V
-62 247 R
62 0 V
31 -466 R
0 292 V
2308 457 M
62 0 V
-62 292 R
62 0 V
0 -169 R
0 357 V
2339 580 M
62 0 V
-62 357 R
62 0 V
0 -447 R
0 394 V
2370 490 M
62 0 V
-62 394 R
62 0 V
951 1037 TriU
982 1110 TriU
1013 1061 TriU
1044 1025 TriU
1075 921 TriU
1106 873 TriU
1136 863 TriU
1167 755 TriU
1198 765 TriU
1229 731 TriU
1260 656 TriU
1291 694 TriU
1321 678 TriU
1352 621 TriU
1383 630 TriU
1414 642 TriU
1445 636 TriU
1476 621 TriU
1506 630 TriU
1537 636 TriU
1568 644 TriU
1599 616 TriU
1630 663 TriU
1661 587 TriU
1692 619 TriU
1722 611 TriU
1753 641 TriU
1784 607 TriU
1815 611 TriU
1846 629 TriU
1877 637 TriU
1907 588 TriU
1938 651 TriU
1969 586 TriU
2000 670 TriU
2031 598 TriU
2062 649 TriU
2092 639 TriU
2123 593 TriU
2154 711 TriU
2185 611 TriU
2216 649 TriU
2247 534 TriU
2277 800 TriU
2339 603 TriU
2370 759 TriU
2401 687 TriU
9383 -9652 TriU
% End plot #1
% Begin plot #2
2.400 UL
LTb
0.58 0.00 0.83 C LCb setrgbcolor
9227 -9717 M
[ [(Times-Roman) 130.0 0.0 true true 0 (3DFit)]
] -43.3 MRshow
2.400 UL
LTb
0.58 0.00 0.83 C 9305 -9717 M
156 0 V
936 1168 M
15 -10 V
31 -34 V
31 -49 V
31 -57 V
31 -61 V
31 -62 V
30 -58 V
31 -51 V
31 -43 V
31 -34 V
31 -27 V
31 -21 V
30 -13 V
31 -11 V
31 -5 V
31 -5 V
31 -2 V
31 -1 V
30 -1 V
31 -1 V
31 0 V
31 0 V
31 0 V
31 0 V
31 0 V
30 0 V
31 0 V
31 0 V
31 0 V
31 0 V
31 0 V
30 0 V
31 0 V
31 0 V
31 0 V
31 0 V
31 0 V
30 0 V
31 0 V
31 0 V
31 0 V
31 0 V
31 0 V
30 0 V
31 0 V
31 0 V
31 0 V
31 0 V
31 0 V
15 0 V
% End plot #2
stroke
2.000 UL
LTb
LCb setrgbcolor
1.000 UL
LTB
LCb setrgbcolor
936 1652 N
936 405 L
1511 0 V
0 1247 V
-1511 0 V
Z stroke
1.000 UP
1.000 UL
LTb
LCb setrgbcolor
1.000 UL
LTb
LCb setrgbcolor
2448 422 M
31 0 V
1480 0 R
-31 0 V
2448 490 M
31 0 V
1480 0 R
-31 0 V
2448 559 M
31 0 V
1480 0 R
-31 0 V
2448 627 M
63 0 V
1448 0 R
-63 0 V
stroke
2419 627 M
[ [(Times-Roman) 10.0 0.0 true true 0 ( 1)]
] -3.3 MRshow
1.000 UL
LTb
LCb setrgbcolor
2448 695 M
31 0 V
1480 0 R
-31 0 V
2448 764 M
31 0 V
1480 0 R
-31 0 V
2448 832 M
31 0 V
1480 0 R
-31 0 V
2448 900 M
31 0 V
1480 0 R
-31 0 V
2448 969 M
63 0 V
1448 0 R
-63 0 V
stroke
2419 969 M
[ [(Times-Roman) 10.0 0.0 true true 0 ( 1.2)]
] -3.3 MRshow
1.000 UL
LTb
LCb setrgbcolor
2448 1037 M
31 0 V
1480 0 R
-31 0 V
-1480 68 R
31 0 V
1480 0 R
-31 0 V
-1480 69 R
31 0 V
1480 0 R
-31 0 V
-1480 68 R
31 0 V
1480 0 R
-31 0 V
-1480 68 R
63 0 V
1448 0 R
-63 0 V
stroke
2419 1310 M
[ [(Times-Roman) 10.0 0.0 true true 0 ( 1.4)]
] -3.3 MRshow
1.000 UL
LTb
LCb setrgbcolor
2448 1379 M
31 0 V
1480 0 R
-31 0 V
-1480 68 R
31 0 V
1480 0 R
-31 0 V
-1480 68 R
31 0 V
1480 0 R
-31 0 V
-1480 69 R
31 0 V
1480 0 R
-31 0 V
-1480 68 R
63 0 V
1448 0 R
-63 0 V
stroke
2419 1652 M
[ [(Times-Roman) 10.0 0.0 true true 0 ( 1.6)]
] -3.3 MRshow
1.000 UL
LTb
LCb setrgbcolor
2541 405 M
0 31 V
0 1216 R
0 -31 V
2664 405 M
0 31 V
0 1216 R
0 -31 V
2787 405 M
0 31 V
0 1216 R
0 -31 V
2911 405 M
0 31 V
0 1216 R
0 -31 V
3034 405 M
0 63 V
0 1184 R
0 -63 V
stroke
3034 285 M
[ [(Times-Roman) 150.0 0.0 true true 0 ( 0.1)]
] -50.0 MCshow
1.000 UL
LTb
LCb setrgbcolor
3157 405 M
0 31 V
0 1216 R
0 -31 V
3281 405 M
0 31 V
0 1216 R
0 -31 V
3404 405 M
0 31 V
0 1216 R
0 -31 V
3527 405 M
0 31 V
0 1216 R
0 -31 V
3651 405 M
0 63 V
0 1184 R
0 -63 V
stroke
3651 285 M
[ [(Times-Roman) 150.0 0.0 true true 0 ( 0.2)]
] -50.0 MCshow
1.000 UL
LTb
LCb setrgbcolor
3774 405 M
0 31 V
0 1216 R
0 -31 V
3897 405 M
0 31 V
0 1216 R
0 -31 V
stroke
LTB
LCb setrgbcolor
2448 1652 N
0 -1247 V
1511 0 V
0 1247 V
-1511 0 V
Z stroke
1.000 UP
LCb setrgbcolor
3034 935 M
[ [(Times-Roman) 180.0 0.0 true true 0 (Rlong)]
] -60.0 MLshow
1.000 UL
LTb
LCb setrgbcolor
LCb setrgbcolor
2040 1028 M
currentpoint gsave translate -270 rotate 0 0 moveto
[ [(Times-Roman) 10.0 0.0 true true 0 (C\(q\))]
] -3.3 MCshow
grestore
LTb
% Begin plot #1
1.000 UP
2.000 UL
LTb
0.34 0.71 0.91 C LCb setrgbcolor
10739 -9659 M
[ [(Times-Roman) 130.0 0.0 true true 0 (CorrFunc)]
] -43.3 MRshow
1.000 UP
2.000 UL
LTb
0.34 0.71 0.91 C 10817 -9659 M
156 0 V
-156 31 R
0 -62 V
156 62 R
0 -62 V
2463 1230 M
0 123 V
-15 -123 R
46 0 V
-46 123 R
46 0 V
0 -267 R
0 101 V
-31 -101 R
62 0 V
-62 101 R
62 0 V
0 -117 R
0 81 V
-31 -81 R
62 0 V
-62 81 R
62 0 V
0 -112 R
0 68 V
-31 -68 R
62 0 V
-62 68 R
62 0 V
0 -10 R
0 68 V
-31 -68 R
62 0 V
-62 68 R
62 0 V
0 -301 R
0 63 V
-31 -63 R
62 0 V
-62 63 R
62 0 V
-1 -54 R
0 65 V
-31 -65 R
62 0 V
-62 65 R
62 0 V
0 -109 R
0 64 V
-31 -64 R
62 0 V
-62 64 R
62 0 V
0 -140 R
0 63 V
-31 -63 R
62 0 V
-62 63 R
62 0 V
0 -87 R
0 63 V
-31 -63 R
62 0 V
-62 63 R
62 0 V
0 -54 R
0 65 V
-31 -65 R
62 0 V
-62 65 R
62 0 V
0 -148 R
0 63 V
-31 -63 R
62 0 V
-62 63 R
62 0 V
-1 -18 R
0 66 V
-31 -66 R
62 0 V
-62 66 R
62 0 V
0 -137 R
0 64 V
-31 -64 R
62 0 V
-62 64 R
62 0 V
0 -56 R
0 65 V
-31 -65 R
62 0 V
-62 65 R
62 0 V
0 -77 R
0 66 V
-31 -66 R
62 0 V
-62 66 R
62 0 V
0 -113 R
0 65 V
-31 -65 R
62 0 V
stroke 2988 578 M
-62 65 R
62 0 V
0 -62 R
0 67 V
-31 -67 R
62 0 V
-62 67 R
62 0 V
-1 38 R
0 70 V
-31 -70 R
62 0 V
-62 70 R
62 0 V
0 -202 R
0 68 V
-31 -68 R
62 0 V
-62 68 R
62 0 V
0 -67 R
0 69 V
-31 -69 R
62 0 V
-62 69 R
62 0 V
0 -38 R
0 71 V
-31 -71 R
62 0 V
-62 71 R
62 0 V
0 -29 R
0 73 V
-31 -73 R
62 0 V
-62 73 R
62 0 V
0 -162 R
0 71 V
-31 -71 R
62 0 V
-62 71 R
62 0 V
0 12 R
0 75 V
-31 -75 R
62 0 V
-62 75 R
62 0 V
-1 -94 R
0 76 V
-31 -76 R
62 0 V
-62 76 R
62 0 V
0 11 R
0 80 V
-31 -80 R
62 0 V
-62 80 R
62 0 V
0 -165 R
0 78 V
-31 -78 R
62 0 V
-62 78 R
62 0 V
0 -52 R
0 81 V
-31 -81 R
62 0 V
-62 81 R
62 0 V
0 -84 R
0 84 V
-31 -84 R
62 0 V
-62 84 R
62 0 V
0 -193 R
0 80 V
-31 -80 R
62 0 V
-62 80 R
62 0 V
-1 -42 R
0 84 V
-31 -84 R
62 0 V
-62 84 R
62 0 V
0 -70 R
0 85 V
-31 -85 R
62 0 V
-62 85 R
62 0 V
0 -66 R
0 88 V
-31 -88 R
62 0 V
-62 88 R
62 0 V
stroke 3512 678 M
0 -114 R
0 90 V
-31 -90 R
62 0 V
-62 90 R
62 0 V
0 -42 R
0 95 V
-31 -95 R
62 0 V
-62 95 R
62 0 V
0 -152 R
0 95 V
-31 -95 R
62 0 V
-62 95 R
62 0 V
-1 -89 R
0 99 V
-31 -99 R
62 0 V
-62 99 R
62 0 V
0 -35 R
0 103 V
3604 625 M
62 0 V
-62 103 R
62 0 V
0 -72 R
0 106 V
3635 656 M
62 0 V
-62 106 R
62 0 V
0 -169 R
0 109 V
3666 593 M
62 0 V
-62 109 R
62 0 V
0 -154 R
0 110 V
3697 548 M
62 0 V
-62 110 R
62 0 V
0 -52 R
0 117 V
3728 606 M
62 0 V
-62 117 R
62 0 V
-1 -157 R
0 118 V
3758 566 M
62 0 V
-62 118 R
62 0 V
0 -106 R
0 125 V
3789 578 M
62 0 V
-62 125 R
62 0 V
0 -81 R
0 133 V
3820 622 M
62 0 V
-62 133 R
62 0 V
0 -230 R
0 131 V
3851 525 M
62 0 V
-62 131 R
62 0 V
0 -102 R
0 141 V
3882 554 M
62 0 V
-62 141 R
62 0 V
0 -189 R
0 145 V
3913 506 M
46 0 V
-46 145 R
46 0 V
2463 1292 TriU
2494 1136 TriU
2525 1110 TriU
2556 1073 TriU
2587 1131 TriU
2618 895 TriU
2648 906 TriU
2679 861 TriU
2710 784 TriU
2741 760 TriU
2772 771 TriU
2803 687 TriU
2833 733 TriU
2864 661 TriU
2895 670 TriU
2926 658 TriU
2957 610 TriU
2988 615 TriU
3018 721 TriU
3049 588 TriU
3080 589 TriU
3111 622 TriU
3142 665 TriU
3173 574 TriU
3204 660 TriU
3234 641 TriU
3265 730 TriU
3296 644 TriU
3327 671 TriU
3358 670 TriU
3389 559 TriU
3419 599 TriU
3450 613 TriU
3481 634 TriU
3512 609 TriU
3543 660 TriU
3574 602 TriU
3604 610 TriU
3635 677 TriU
3666 709 TriU
3697 648 TriU
3728 603 TriU
3759 665 TriU
3789 625 TriU
3820 641 TriU
3851 689 TriU
3882 591 TriU
3913 625 TriU
3944 579 TriU
10895 -9659 TriU
% End plot #1
% Begin plot #2
2.400 UL
LTb
0.58 0.00 0.83 C LCb setrgbcolor
10739 -9737 M
[ [(Times-Roman) 130.0 0.0 true true 0 (3DFit)]
] -43.3 MRshow
2.400 UL
LTb
0.58 0.00 0.83 C 10817 -9737 M
156 0 V
2448 1234 M
15 -7 V
31 -29 V
31 -41 V
31 -50 V
31 -56 V
31 -58 V
30 -60 V
31 -55 V
31 -51 V
31 -44 V
31 -38 V
31 -31 V
30 -25 V
31 -19 V
31 -16 V
31 -10 V
31 -7 V
31 -5 V
30 -3 V
31 -2 V
31 -2 V
31 -1 V
31 0 V
31 -1 V
31 0 V
30 0 V
31 0 V
31 0 V
31 0 V
31 0 V
31 0 V
30 0 V
31 0 V
31 0 V
31 0 V
31 0 V
31 0 V
30 0 V
31 0 V
31 0 V
31 0 V
31 0 V
31 0 V
30 0 V
31 0 V
31 0 V
31 0 V
31 0 V
31 0 V
15 0 V
% End plot #2
stroke
2.000 UL
LTb
LCb setrgbcolor
1.000 UL
LTB
LCb setrgbcolor
2448 1652 N
0 -1247 V
1511 0 V
0 1247 V
-1511 0 V
Z stroke
1.000 UP
1.000 UL
LTb
LCb setrgbcolor
1.000 UL
LTb
LCb setrgbcolor
3960 422 M
31 0 V
1480 0 R
-31 0 V
3960 490 M
31 0 V
1480 0 R
-31 0 V
3960 559 M
31 0 V
1480 0 R
-31 0 V
3960 627 M
63 0 V
1448 0 R
-63 0 V
stroke
3931 627 M
[ [(Times-Roman) 10.0 0.0 true true 0 ( 1)]
] -3.3 MRshow
1.000 UL
LTb
LCb setrgbcolor
3960 695 M
31 0 V
1480 0 R
-31 0 V
3960 764 M
31 0 V
1480 0 R
-31 0 V
3960 832 M
31 0 V
1480 0 R
-31 0 V
3960 900 M
31 0 V
1480 0 R
-31 0 V
3960 969 M
63 0 V
1448 0 R
-63 0 V
stroke
3931 969 M
[ [(Times-Roman) 10.0 0.0 true true 0 ( 1.2)]
] -3.3 MRshow
1.000 UL
LTb
LCb setrgbcolor
3960 1037 M
31 0 V
1480 0 R
-31 0 V
-1480 68 R
31 0 V
1480 0 R
-31 0 V
-1480 69 R
31 0 V
1480 0 R
-31 0 V
-1480 68 R
31 0 V
1480 0 R
-31 0 V
-1480 68 R
63 0 V
1448 0 R
-63 0 V
stroke
3931 1310 M
[ [(Times-Roman) 10.0 0.0 true true 0 ( 1.4)]
] -3.3 MRshow
1.000 UL
LTb
LCb setrgbcolor
3960 1379 M
31 0 V
1480 0 R
-31 0 V
-1480 68 R
31 0 V
1480 0 R
-31 0 V
-1480 68 R
31 0 V
1480 0 R
-31 0 V
-1480 69 R
31 0 V
1480 0 R
-31 0 V
-1480 68 R
63 0 V
1448 0 R
-63 0 V
stroke
3931 1652 M
[ [(Times-Roman) 10.0 0.0 true true 0 ( 1.6)]
] -3.3 MRshow
1.000 UL
LTb
LCb setrgbcolor
4053 405 M
0 31 V
0 1216 R
0 -31 V
4176 405 M
0 31 V
0 1216 R
0 -31 V
4299 405 M
0 31 V
0 1216 R
0 -31 V
4423 405 M
0 31 V
0 1216 R
0 -31 V
4546 405 M
0 63 V
0 1184 R
0 -63 V
stroke
4546 285 M
[ [(Times-Roman) 150.0 0.0 true true 0 ( 0.1)]
] -50.0 MCshow
1.000 UL
LTb
LCb setrgbcolor
4669 405 M
0 31 V
0 1216 R
0 -31 V
4793 405 M
0 31 V
0 1216 R
0 -31 V
4916 405 M
0 31 V
0 1216 R
0 -31 V
5039 405 M
0 31 V
0 1216 R
0 -31 V
5163 405 M
0 63 V
0 1184 R
0 -63 V
stroke
5163 285 M
[ [(Times-Roman) 150.0 0.0 true true 0 ( 0.2)]
] -50.0 MCshow
1.000 UL
LTb
LCb setrgbcolor
5286 405 M
0 31 V
0 1216 R
0 -31 V
5409 405 M
0 31 V
0 1216 R
0 -31 V
stroke
LTB
LCb setrgbcolor
3960 1652 N
0 -1247 V
1511 0 V
0 1247 V
-1511 0 V
Z stroke
1.000 UP
LCb setrgbcolor
4546 935 M
[ [(Times-Roman) 180.0 0.0 true true 0 (Rlong)]
] -60.0 MLshow
1.000 UL
LTb
LCb setrgbcolor
LCb setrgbcolor
3552 1028 M
currentpoint gsave translate -270 rotate 0 0 moveto
[ [(Times-Roman) 10.0 0.0 true true 0 (C\(q\))]
] -3.3 MCshow
grestore
LTb
% Begin plot #1
1.000 UP
2.000 UL
LTb
0.34 0.71 0.91 C LCb setrgbcolor
12251 -9652 M
[ [(Times-Roman) 130.0 0.0 true true 0 (CorrFunc)]
] -43.3 MRshow
1.000 UP
2.000 UL
LTb
0.34 0.71 0.91 C 12329 -9652 M
156 0 V
-156 31 R
0 -62 V
156 62 R
0 -62 V
3975 1178 M
0 180 V
-15 -180 R
46 0 V
-46 180 R
46 0 V
0 -47 R
0 159 V
-31 -159 R
62 0 V
-62 159 R
62 0 V
0 -159 R
0 125 V
-31 -125 R
62 0 V
-62 125 R
62 0 V
0 -188 R
0 101 V
-31 -101 R
62 0 V
-62 101 R
62 0 V
0 -238 R
0 95 V
-31 -95 R
62 0 V
-62 95 R
62 0 V
0 -108 R
0 96 V
-31 -96 R
62 0 V
-62 96 R
62 0 V
-1 -195 R
0 93 V
-31 -93 R
62 0 V
-62 93 R
62 0 V
0 -105 R
0 93 V
-31 -93 R
62 0 V
-62 93 R
62 0 V
0 -231 R
0 90 V
-31 -90 R
62 0 V
-62 90 R
62 0 V
0 -116 R
0 90 V
-31 -90 R
62 0 V
-62 90 R
62 0 V
0 -109 R
0 90 V
-31 -90 R
62 0 V
-62 90 R
62 0 V
0 -144 R
0 89 V
-31 -89 R
62 0 V
-62 89 R
62 0 V
-1 -118 R
0 89 V
-31 -89 R
62 0 V
-62 89 R
62 0 V
0 -170 R
0 87 V
-31 -87 R
62 0 V
-62 87 R
62 0 V
0 -12 R
0 91 V
-31 -91 R
62 0 V
-62 91 R
62 0 V
0 -84 R
0 91 V
-31 -91 R
62 0 V
-62 91 R
62 0 V
0 -115 R
0 91 V
-31 -91 R
62 0 V
stroke 4500 698 M
-62 91 R
62 0 V
0 -198 R
0 89 V
-31 -89 R
62 0 V
-62 89 R
62 0 V
-1 -81 R
0 90 V
-31 -90 R
62 0 V
-62 90 R
62 0 V
0 -92 R
0 91 V
-31 -91 R
62 0 V
-62 91 R
62 0 V
0 -36 R
0 94 V
-31 -94 R
62 0 V
-62 94 R
62 0 V
0 -83 R
0 96 V
-31 -96 R
62 0 V
-62 96 R
62 0 V
0 -147 R
0 95 V
-31 -95 R
62 0 V
-62 95 R
62 0 V
0 -191 R
0 92 V
-31 -92 R
62 0 V
-62 92 R
62 0 V
0 -81 R
0 93 V
-31 -93 R
62 0 V
-62 93 R
62 0 V
-1 4 R
0 99 V
-31 -99 R
62 0 V
-62 99 R
62 0 V
0 -126 R
0 98 V
-31 -98 R
62 0 V
-62 98 R
62 0 V
0 -144 R
0 97 V
-31 -97 R
62 0 V
-62 97 R
62 0 V
0 -39 R
0 101 V
4808 609 M
62 0 V
-62 101 R
62 0 V
0 -94 R
0 101 V
4839 616 M
62 0 V
-62 101 R
62 0 V
0 -154 R
0 101 V
4870 563 M
62 0 V
-62 101 R
62 0 V
-1 -68 R
0 103 V
4900 596 M
62 0 V
-62 103 R
62 0 V
0 -114 R
0 105 V
4931 585 M
62 0 V
-62 105 R
62 0 V
0 -131 R
0 106 V
4962 559 M
62 0 V
-62 106 R
62 0 V
stroke 5024 665 M
0 -104 R
0 105 V
4993 561 M
62 0 V
-62 105 R
62 0 V
0 -138 R
0 106 V
5024 528 M
62 0 V
-62 106 R
62 0 V
0 -131 R
0 107 V
5055 503 M
62 0 V
-62 107 R
62 0 V
-1 -81 R
0 110 V
5085 529 M
62 0 V
-62 110 R
62 0 V
0 78 R
0 121 V
5116 717 M
62 0 V
-62 121 R
62 0 V
0 -234 R
0 118 V
5147 604 M
62 0 V
-62 118 R
62 0 V
0 -161 R
0 117 V
5178 561 M
62 0 V
-62 117 R
62 0 V
0 -97 R
0 120 V
5209 581 M
62 0 V
-62 120 R
62 0 V
0 -75 R
0 125 V
5240 626 M
62 0 V
-62 125 R
62 0 V
-1 -131 R
0 127 V
5270 620 M
62 0 V
-62 127 R
62 0 V
0 -149 R
0 127 V
5301 598 M
62 0 V
-62 127 R
62 0 V
0 -232 R
0 123 V
5332 493 M
62 0 V
-62 123 R
62 0 V
0 -18 R
0 133 V
5363 598 M
62 0 V
-62 133 R
62 0 V
0 -197 R
0 130 V
5394 534 M
62 0 V
-62 130 R
62 0 V
0 -62 R
0 139 V
5425 602 M
46 0 V
-46 139 R
46 0 V
3975 1268 TriU
4006 1391 TriU
4037 1374 TriU
4068 1298 TriU
4099 1158 TriU
4130 1146 TriU
4160 1046 TriU
4191 1034 TriU
4222 894 TriU
4253 868 TriU
4284 849 TriU
4315 794 TriU
4345 765 TriU
4376 683 TriU
4407 760 TriU
4438 767 TriU
4469 743 TriU
4500 636 TriU
4530 644 TriU
4561 642 TriU
4592 699 TriU
4623 711 TriU
4654 660 TriU
4685 562 TriU
4716 574 TriU
4746 673 TriU
4777 646 TriU
4808 600 TriU
4839 660 TriU
4870 666 TriU
4901 613 TriU
4931 648 TriU
4962 637 TriU
4993 612 TriU
5024 613 TriU
5055 581 TriU
5086 556 TriU
5116 584 TriU
5147 777 TriU
5178 663 TriU
5209 619 TriU
5240 641 TriU
5271 689 TriU
5301 683 TriU
5332 661 TriU
5363 555 TriU
5394 665 TriU
5425 599 TriU
5456 671 TriU
12407 -9652 TriU
% End plot #1
% Begin plot #2
2.400 UL
LTb
0.58 0.00 0.83 C LCb setrgbcolor
12251 -9717 M
[ [(Times-Roman) 130.0 0.0 true true 0 (3DFit)]
] -43.3 MRshow
2.400 UL
LTb
0.58 0.00 0.83 C 12329 -9717 M
156 0 V
3960 1387 M
15 -7 V
31 -27 V
31 -39 V
31 -48 V
31 -56 V
31 -62 V
30 -63 V
31 -63 V
31 -60 V
31 -56 V
31 -52 V
31 -46 V
30 -39 V
31 -33 V
31 -27 V
31 -22 V
31 -17 V
31 -14 V
30 -10 V
31 -7 V
31 -5 V
31 -4 V
31 -3 V
31 -1 V
31 -1 V
30 -1 V
31 -1 V
31 0 V
31 0 V
31 0 V
31 -1 V
30 0 V
31 0 V
31 0 V
31 0 V
31 0 V
31 0 V
30 0 V
31 0 V
31 0 V
31 0 V
31 0 V
31 0 V
30 0 V
31 0 V
31 0 V
31 0 V
31 0 V
31 0 V
15 0 V
% End plot #2
stroke
2.000 UL
LTb
LCb setrgbcolor
1.000 UL
LTB
LCb setrgbcolor
3960 1652 N
0 -1247 V
1511 0 V
0 1247 V
-1511 0 V
Z stroke
1.000 UP
1.000 UL
LTb
LCb setrgbcolor
1.000 UL
LTb
LCb setrgbcolor
5472 422 M
31 0 V
1479 0 R
-31 0 V
5472 490 M
31 0 V
1479 0 R
-31 0 V
5472 559 M
31 0 V
1479 0 R
-31 0 V
5472 627 M
63 0 V
1447 0 R
-63 0 V
stroke
5443 627 M
[ [(Times-Roman) 10.0 0.0 true true 0 ( 1)]
] -3.3 MRshow
1.000 UL
LTb
LCb setrgbcolor
5472 695 M
31 0 V
1479 0 R
-31 0 V
5472 764 M
31 0 V
1479 0 R
-31 0 V
5472 832 M
31 0 V
1479 0 R
-31 0 V
5472 900 M
31 0 V
1479 0 R
-31 0 V
5472 969 M
63 0 V
1447 0 R
-63 0 V
stroke
5443 969 M
[ [(Times-Roman) 10.0 0.0 true true 0 ( 1.2)]
] -3.3 MRshow
1.000 UL
LTb
LCb setrgbcolor
5472 1037 M
31 0 V
1479 0 R
-31 0 V
-1479 68 R
31 0 V
1479 0 R
-31 0 V
-1479 69 R
31 0 V
1479 0 R
-31 0 V
-1479 68 R
31 0 V
1479 0 R
-31 0 V
-1479 68 R
63 0 V
1447 0 R
-63 0 V
stroke
5443 1310 M
[ [(Times-Roman) 10.0 0.0 true true 0 ( 1.4)]
] -3.3 MRshow
1.000 UL
LTb
LCb setrgbcolor
5472 1379 M
31 0 V
1479 0 R
-31 0 V
-1479 68 R
31 0 V
1479 0 R
-31 0 V
-1479 68 R
31 0 V
1479 0 R
-31 0 V
-1479 69 R
31 0 V
1479 0 R
-31 0 V
-1479 68 R
63 0 V
1447 0 R
-63 0 V
stroke
5443 1652 M
[ [(Times-Roman) 10.0 0.0 true true 0 ( 1.6)]
] -3.3 MRshow
1.000 UL
LTb
LCb setrgbcolor
5564 405 M
0 31 V
0 1216 R
0 -31 V
5688 405 M
0 31 V
0 1216 R
0 -31 V
5811 405 M
0 31 V
0 1216 R
0 -31 V
5934 405 M
0 31 V
0 1216 R
0 -31 V
6058 405 M
0 63 V
0 1184 R
0 -63 V
stroke
6058 285 M
[ [(Times-Roman) 150.0 0.0 true true 0 ( 0.1)]
] -50.0 MCshow
1.000 UL
LTb
LCb setrgbcolor
6181 405 M
0 31 V
0 1216 R
0 -31 V
6304 405 M
0 31 V
0 1216 R
0 -31 V
6427 405 M
0 31 V
0 1216 R
0 -31 V
6551 405 M
0 31 V
0 1216 R
0 -31 V
6674 405 M
0 63 V
0 1184 R
0 -63 V
stroke
6674 285 M
[ [(Times-Roman) 150.0 0.0 true true 0 ( 0.2)]
] -50.0 MCshow
1.000 UL
LTb
LCb setrgbcolor
6797 405 M
0 31 V
0 1216 R
0 -31 V
6920 405 M
0 31 V
0 1216 R
0 -31 V
stroke
LTB
LCb setrgbcolor
5472 1652 N
0 -1247 V
1510 0 V
0 1247 V
-1510 0 V
Z stroke
1.000 UP
LCb setrgbcolor
6058 935 M
[ [(Times-Roman) 180.0 0.0 true true 0 (Rlong)]
] -60.0 MLshow
1.000 UL
LTb
LCb setrgbcolor
LCb setrgbcolor
5064 1028 M
currentpoint gsave translate -270 rotate 0 0 moveto
[ [(Times-Roman) 10.0 0.0 true true 0 (C\(q\))]
] -3.3 MCshow
grestore
LTb
% Begin plot #1
1.000 UP
2.000 UL
LTb
0.34 0.71 0.91 C LCb setrgbcolor
13758 -9652 M
[ [(Times-Roman) 130.0 0.0 true true 0 (CorrFunc)]
] -43.3 MRshow
1.000 UP
2.000 UL
LTb
0.34 0.71 0.91 C 13836 -9652 M
156 0 V
-156 31 R
0 -62 V
156 62 R
0 -62 V
5487 800 M
0 546 V
5472 800 M
46 0 V
-46 546 R
46 0 V
0 -149 R
0 455 V
-31 -455 R
62 0 V
-62 455 R
62 0 V
0 -362 R
0 332 V
-31 -332 R
62 0 V
-62 332 R
62 0 V
0 -464 R
0 222 V
-31 -222 R
62 0 V
-62 222 R
62 0 V
0 -169 R
0 175 V
-31 -175 R
62 0 V
-62 175 R
62 0 V
-1 -149 R
0 157 V
-31 -157 R
62 0 V
-62 157 R
62 0 V
0 -217 R
0 151 V
-31 -151 R
62 0 V
-62 151 R
62 0 V
0 -372 R
0 138 V
5672 956 M
62 0 V
-62 138 R
62 0 V
0 -128 R
0 138 V
5703 966 M
62 0 V
-62 138 R
62 0 V
0 -45 R
0 144 V
-31 -144 R
62 0 V
-62 144 R
62 0 V
0 -341 R
0 135 V
5765 862 M
62 0 V
-62 135 R
62 0 V
-1 20 R
0 143 V
-31 -143 R
62 0 V
-62 143 R
62 0 V
0 -408 R
0 132 V
5826 752 M
62 0 V
-62 132 R
62 0 V
0 -109 R
0 134 V
5857 775 M
62 0 V
-62 134 R
62 0 V
0 -159 R
0 133 V
5888 750 M
62 0 V
-62 133 R
62 0 V
0 -129 R
0 136 V
5919 754 M
62 0 V
-62 136 R
62 0 V
-1 -174 R
0 136 V
5949 716 M
62 0 V
stroke 6011 716 M
-62 136 R
62 0 V
0 -32 R
0 141 V
5980 820 M
62 0 V
-62 141 R
62 0 V
0 -196 R
0 138 V
6011 765 M
62 0 V
-62 138 R
62 0 V
0 -248 R
0 132 V
6042 655 M
62 0 V
-62 132 R
62 0 V
0 -74 R
0 136 V
6073 713 M
62 0 V
-62 136 R
62 0 V
0 -202 R
0 135 V
6104 647 M
62 0 V
-62 135 R
62 0 V
-1 -260 R
0 128 V
6134 522 M
62 0 V
-62 128 R
62 0 V
0 -13 R
0 137 V
6165 637 M
62 0 V
-62 137 R
62 0 V
0 -190 R
0 134 V
6196 584 M
62 0 V
-62 134 R
62 0 V
0 -99 R
0 136 V
6227 619 M
62 0 V
-62 136 R
62 0 V
0 -200 R
0 134 V
6258 555 M
62 0 V
-62 134 R
62 0 V
-1 39 R
0 147 V
6288 728 M
62 0 V
-62 147 R
62 0 V
0 -280 R
0 139 V
6319 595 M
62 0 V
-62 139 R
62 0 V
0 -70 R
0 145 V
6350 664 M
62 0 V
-62 145 R
62 0 V
0 -167 R
0 144 V
6381 642 M
62 0 V
-62 144 R
62 0 V
0 -348 R
0 132 V
6412 438 M
62 0 V
-62 132 R
62 0 V
0 -53 R
0 140 V
6443 517 M
62 0 V
-62 140 R
62 0 V
-1 -202 R
0 134 V
6473 455 M
62 0 V
-62 134 R
62 0 V
stroke 6535 589 M
0 30 R
0 146 V
6504 619 M
62 0 V
-62 146 R
62 0 V
0 -159 R
0 149 V
6535 606 M
62 0 V
-62 149 R
62 0 V
0 -173 R
0 148 V
6566 582 M
62 0 V
-62 148 R
62 0 V
0 -210 R
0 143 V
6597 520 M
62 0 V
-62 143 R
62 0 V
-1 -122 R
0 147 V
6627 541 M
62 0 V
-62 147 R
62 0 V
0 -159 R
0 148 V
6658 529 M
62 0 V
-62 148 R
62 0 V
0 -46 R
0 157 V
6689 631 M
62 0 V
-62 157 R
62 0 V
0 -116 R
0 160 V
6720 672 M
62 0 V
-62 160 R
62 0 V
0 -246 R
0 157 V
6751 586 M
62 0 V
-62 157 R
62 0 V
0 -269 R
0 152 V
6782 474 M
62 0 V
-62 152 R
62 0 V
-1 -170 R
0 149 V
6812 456 M
62 0 V
-62 149 R
62 0 V
0 -63 R
0 157 V
6843 542 M
62 0 V
-62 157 R
62 0 V
0 -215 R
0 156 V
6874 484 M
62 0 V
-62 156 R
62 0 V
0 -149 R
0 155 V
6905 491 M
62 0 V
-62 155 R
62 0 V
0 -61 R
0 166 V
6936 585 M
46 0 V
-46 166 R
46 0 V
5487 1073 TriU
5518 1425 TriU
5549 1456 TriU
5580 1269 TriU
5611 1298 TriU
5641 1315 TriU
5672 1252 TriU
5703 1025 TriU
5734 1035 TriU
5765 1131 TriU
5796 929 TriU
5826 1088 TriU
5857 818 TriU
5888 842 TriU
5919 817 TriU
5950 822 TriU
5980 784 TriU
6011 890 TriU
6042 834 TriU
6073 721 TriU
6104 781 TriU
6135 714 TriU
6165 586 TriU
6196 706 TriU
6227 651 TriU
6258 687 TriU
6289 622 TriU
6319 801 TriU
6350 665 TriU
6381 736 TriU
6412 714 TriU
6443 504 TriU
6474 587 TriU
6504 522 TriU
6535 692 TriU
6566 680 TriU
6597 656 TriU
6628 592 TriU
6658 615 TriU
6689 603 TriU
6720 709 TriU
6751 752 TriU
6782 665 TriU
6813 550 TriU
6843 530 TriU
6874 620 TriU
6905 562 TriU
6936 569 TriU
6967 668 TriU
13914 -9652 TriU
% End plot #1
% Begin plot #2
2.400 UL
LTb
0.58 0.00 0.83 C LCb setrgbcolor
13758 -9717 M
[ [(Times-Roman) 130.0 0.0 true true 0 (3DFit)]
] -43.3 MRshow
2.400 UL
LTb
0.58 0.00 0.83 C 13836 -9717 M
156 0 V
5472 1464 M
15 -5 V
31 -17 V
31 -27 V
31 -35 V
31 -41 V
30 -47 V
31 -50 V
31 -53 V
31 -55 V
31 -53 V
31 -52 V
30 -52 V
31 -48 V
31 -44 V
31 -41 V
31 -36 V
30 -32 V
31 -29 V
31 -24 V
31 -21 V
31 -17 V
31 -14 V
30 -11 V
31 -9 V
31 -7 V
31 -7 V
31 -3 V
30 -4 V
31 -3 V
31 -2 V
31 -1 V
31 -1 V
31 -1 V
30 0 V
31 -1 V
31 0 V
31 0 V
31 0 V
30 0 V
31 0 V
31 0 V
31 0 V
31 -1 V
31 0 V
30 0 V
31 0 V
31 0 V
31 0 V
31 0 V
15 0 V
% End plot #2
stroke
2.000 UL
LTb
LCb setrgbcolor
1.000 UL
LTB
LCb setrgbcolor
5472 1652 N
0 -1247 V
1510 0 V
0 1247 V
-1510 0 V
Z stroke
1.000 UP
1.000 UL
LTb
LCb setrgbcolor
stroke
grestore
end
showpage
%%Trailer
%%DocumentFonts: Times-Roman
%%Pages: 1
