0.0025	1.196	0.01322	1.295
0.0075	1.227	0.01363	1.283
0.0125	1.167	0.0134	1.259
0.0175	1.147	0.01343	1.227
0.0225	1.121	0.01337	1.191
0.0275	1.101	0.01342	1.154
0.0325	1.071	0.01316	1.118
0.0375	1.066	0.01328	1.087
0.0425	1.053	0.01323	1.061
0.0475	1.004	0.01287	1.041
0.0525	1.01	0.01307	1.026
0.0575	1.003	0.01315	1.016
0.0625	1.002	0.01328	1.009
0.0675	0.9808	0.01324	1.004
0.0725	0.9698	0.01333	1.002
0.0775	0.9725	0.01366	1
0.0825	0.9763	0.01387	0.9994
0.0875	0.9863	0.01439	0.9989
0.0925	0.9737	0.0146	0.9987
0.0975	0.9437	0.01464	0.9986
0.1025	0.974	0.01545	0.9986
0.1075	1.013	0.01649	0.9985
0.1125	1.008	0.0171	0.9985
0.1175	0.985	0.01779	0.9985
0.1225	0.988	0.01862	0.9985
0.1275	0.9777	0.01942	0.9985
0.1325	0.986	0.02096	0.9985
0.1375	0.9825	0.02233	0.9985
0.1425	0.961	0.02384	0.9985
0.1475	1.006	0.02698	0.9985
0.1525	1.019	0.0302	0.9985
0.1575	0.9864	0.03364	0.9985
0.1625	0.9823	0.03978	0.9985
0.1675	0.9167	0.04973	0.9985
0.1725	1.089	0.0905	0.9985
0.1775	2.549	1.996	0.9985

0.0025	1.351	0.01982	1.396
0.0075	1.294	0.01917	1.382
0.0125	1.283	0.01909	1.355
0.0175	1.228	0.01842	1.319
0.0225	1.201	0.01814	1.275
0.0275	1.184	0.01786	1.23
0.0325	1.132	0.01721	1.184
0.0375	1.09	0.01654	1.143
0.0425	1.059	0.01605	1.107
0.0475	1.042	0.01581	1.077
0.0525	1.064	0.01584	1.053
0.0575	1.038	0.01538	1.035
0.0625	1.033	0.01506	1.022
0.0675	0.9796	0.01434	1.014
0.0725	0.983	0.01419	1.008
0.0775	1.001	0.01419	1.004
0.0825	0.9884	0.01393	1.002
0.0875	0.971	0.01349	1.001
0.0925	0.9661	0.01335	0.9998
0.0975	0.982	0.01331	0.9994
0.1025	0.9711	0.01316	0.9992
0.1075	0.9812	0.01305	0.999
0.1125	1.006	0.01313	0.999
0.1175	0.9609	0.01268	0.999
0.1225	0.9788	0.01274	0.999
0.1275	0.9726	0.01269	0.999
0.1325	0.9914	0.01283	0.999
0.1375	1.003	0.01286	0.999
0.1425	0.9867	0.01273	0.999
0.1475	1.011	0.01296	0.999
0.1525	0.971	0.01264	0.999
0.1575	1.007	0.01287	0.999
0.1625	0.9886	0.01268	0.999
0.1675	0.9993	0.01287	0.999
0.1725	0.9898	0.01289	0.999
0.1775	0.9957	0.01294	0.999
0.1825	0.9714	0.01305	0.999
0.1875	0.9878	0.01358	0.999
0.1925	0.9818	0.01372	0.999
0.1975	0.9882	0.01414	0.999
0.2025	1	0.0146	0.999
0.2075	0.9593	0.01457	0.999
0.2125	0.9744	0.01505	0.999
0.2175	0.9781	0.0155	0.999
0.2225	0.9926	0.01606	0.999
0.2275	0.9993	0.01673	0.999
0.2325	0.9857	0.01685	0.999
0.2375	0.99	0.01746	0.999
0.2425	0.9713	0.01789	0.999
0.2475	0.9816	0.01845	0.999
0.2525	0.968	0.01904	0.999
0.2575	1.018	0.02033	0.999
0.2625	0.9824	0.02044	0.999
0.2675	1.004	0.02158	0.999
0.2725	1.012	0.02259	0.999
0.2775	0.9865	0.02324	0.999
0.2825	0.9924	0.02429	0.999
0.2875	0.9895	0.02583	0.999
0.2925	1.002	0.02688	0.999
0.2975	0.9649	0.02795	0.999

0.0025	1.399	0.02778	1.439
0.0075	1.376	0.02753	1.426
0.0125	1.342	0.02719	1.402
0.0175	1.324	0.02691	1.368
0.0225	1.268	0.02614	1.327
0.0275	1.217	0.02534	1.283
0.0325	1.198	0.02521	1.237
0.0375	1.12	0.02367	1.193
0.0425	1.147	0.02412	1.153
0.0475	1.034	0.02201	1.117
0.0525	1.049	0.02212	1.087
0.0575	1.03	0.0218	1.063
0.0625	1.01	0.02119	1.044
0.0675	0.9874	0.02071	1.03
0.0725	1.007	0.02069	1.019
0.0775	1.004	0.02053	1.012
0.0825	0.9673	0.01959	1.007
0.0875	0.9799	0.01969	1.004
0.0925	0.9932	0.01971	1.002
0.0975	0.9807	0.01926	1.001
0.1025	1.021	0.01955	0.9999
0.1075	0.9646	0.01877	0.9995
0.1125	0.9801	0.01867	0.9992
0.1175	0.9682	0.01833	0.9991
0.1225	0.9958	0.01845	0.999
0.1275	1.007	0.0185	0.999
0.1325	0.9571	0.01764	0.999
0.1375	0.9741	0.01778	0.999
0.1425	0.984	0.01763	0.999
0.1475	0.9966	0.01762	0.999
0.1525	0.9643	0.01729	0.999
0.1575	0.9911	0.0175	0.999
0.1625	0.9767	0.01723	0.999
0.1675	0.9659	0.017	0.999
0.1725	0.9713	0.01702	0.999
0.1775	0.9683	0.01689	0.999
0.1825	0.9814	0.01703	0.999
0.1875	0.9866	0.01703	0.999
0.1925	0.9925	0.01706	0.999
0.1975	1.022	0.01737	0.999
0.2025	1.007	0.0171	0.999
0.2075	0.9692	0.01664	0.999
0.2125	0.964	0.01652	0.999
0.2175	0.9905	0.01692	0.999
0.2225	0.9904	0.01695	0.999
0.2275	0.9814	0.01669	0.999
0.2325	1.005	0.01714	0.999
0.2375	0.983	0.01679	0.999
0.2425	0.9743	0.01672	0.999
0.2475	0.9987	0.017	0.999
0.2525	0.9995	0.01701	0.999
0.2575	0.9817	0.01682	0.999
0.2625	0.9782	0.0167	0.999
0.2675	0.9849	0.01688	0.999
0.2725	0.9899	0.01688	0.999
0.2775	0.9939	0.01697	0.999
0.2825	0.9547	0.01649	0.999
0.2875	0.9756	0.01669	0.999
0.2925	0.9889	0.01697	0.999
0.2975	0.9949	0.01686	0.999

0.0025	1.59	0.0685	1.478
0.0075	1.428	0.06122	1.468
0.0125	1.304	0.05921	1.448
0.0175	1.325	0.05955	1.42
0.0225	1.466	0.06281	1.384
0.0275	1.291	0.05677	1.344
0.0325	1.327	0.05822	1.302
0.0375	1.355	0.05857	1.259
0.0425	1.116	0.04978	1.217
0.0475	1.118	0.04943	1.178
0.0525	1.054	0.04494	1.143
0.0575	0.9867	0.04304	1.112
0.0625	0.9762	0.04251	1.086
0.0675	1.04	0.04311	1.064
0.0725	0.9781	0.04003	1.047
0.0775	1.057	0.04178	1.033
0.0825	1.051	0.04119	1.023
0.0875	1.058	0.04087	1.015
0.0925	1.042	0.03901	1.01
0.0975	1.049	0.03914	1.006
0.1025	0.9764	0.03569	1.003
0.1075	1.045	0.03721	1.001
0.1125	1.003	0.03606	1
0.1175	1.027	0.0363	0.9995
0.1225	0.9946	0.03439	0.999
0.1275	1.006	0.03415	0.9987
0.1325	0.9968	0.03364	0.9985
0.1375	1.042	0.03419	0.9984
0.1425	1.009	0.03258	0.9984
0.1475	0.9936	0.0321	0.9983
0.1525	0.9864	0.03127	0.9983
0.1575	0.9796	0.03092	0.9983
0.1625	0.9568	0.03029	0.9983
0.1675	1.007	0.03094	0.9983
0.1725	0.9923	0.03006	0.9983
0.1775	0.9844	0.02969	0.9983
0.1825	0.9718	0.02903	0.9983
0.1875	0.9824	0.02871	0.9983
0.1925	0.9762	0.02861	0.9983
0.1975	0.9482	0.02774	0.9983
0.2025	0.9811	0.02823	0.9983
0.2075	0.9676	0.02736	0.9983
0.2125	0.9915	0.02779	0.9983
0.2175	1.005	0.02813	0.9983
0.2225	0.9557	0.02669	0.9983
0.2275	0.952	0.02615	0.9983
0.2325	0.9644	0.02623	0.9983
0.2375	0.9539	0.02597	0.9983
0.2425	1.013	0.02664	0.9983
0.2475	0.975	0.02608	0.9983
0.2525	1.005	0.02627	0.9983
0.2575	1.02	0.02672	0.9983
0.2625	1.019	0.02669	0.9983
0.2675	1.002	0.02576	0.9983
0.2725	0.9352	0.02467	0.9983
0.2775	1.005	0.02582	0.9983
0.2825	0.9473	0.02466	0.9983
0.2875	0.9535	0.02469	0.9983
0.2925	0.963	0.02472	0.9983
0.2975	1.013	0.0257	0.9983

0.0025	1.223	0.01576	1.318
0.0075	1.197	0.01568	1.306
0.0125	1.217	0.01627	1.284
0.0175	1.198	0.01624	1.253
0.0225	1.147	0.01603	1.218
0.0275	1.155	0.01614	1.18
0.0325	1.117	0.01594	1.143
0.0375	1.062	0.0155	1.11
0.0425	1.038	0.01541	1.081
0.0475	1.023	0.01538	1.057
0.0525	1.011	0.01535	1.039
0.0575	0.9786	0.01522	1.025
0.0625	0.9899	0.01549	1.015
0.0675	0.9807	0.01569	1.009
0.0725	0.9624	0.01567	1.004
0.0775	1	0.01639	1.002
0.0825	0.9622	0.01614	1
0.0875	0.9572	0.01653	0.9992
0.0925	0.9482	0.01679	0.9987
0.0975	0.9726	0.0175	0.9984
0.1025	1.009	0.01866	0.9983
0.1075	1.008	0.01934	0.9982
0.1125	0.9762	0.01974	0.9982
0.1175	0.997	0.02082	0.9981
0.1225	1.006	0.02225	0.9981
0.1275	0.9923	0.02305	0.9981
0.1325	0.9703	0.0243	0.9981
0.1375	0.9771	0.02622	0.9981
0.1425	0.9973	0.02878	0.9981
0.1475	1.05	0.03305	0.9981
0.1525	1.01	0.03559	0.9981
0.1575	1.006	0.03998	0.9981
0.1625	0.9746	0.0465	0.9981
0.1675	1.068	0.06479	0.9981
0.1725	0.914	0.09783	0.9981
0.1775	0.7277	0.7995	0.9981

0.0025	1.293	0.0227	1.374
0.0075	1.289	0.02256	1.362
0.0125	1.287	0.02247	1.339
0.0175	1.239	0.02178	1.307
0.0225	1.235	0.02162	1.268
0.0275	1.15	0.02057	1.227
0.0325	1.134	0.02019	1.186
0.0375	1.103	0.01967	1.147
0.0425	1.05	0.01883	1.113
0.0475	1.019	0.01827	1.084
0.0525	1.019	0.01802	1.06
0.0575	1.013	0.01773	1.041
0.0625	1.011	0.01758	1.027
0.0675	1.018	0.0174	1.017
0.0725	1.014	0.0171	1.01
0.0775	0.9962	0.01671	1.006
0.0825	0.9764	0.01628	1.003
0.0875	0.9784	0.01601	1.001
0.0925	0.9974	0.016	1
0.0975	0.973	0.01563	0.9995
0.1025	0.9825	0.01557	0.9992
0.1075	0.9797	0.01547	0.999
0.1125	0.9866	0.01528	0.9989
0.1175	0.9943	0.0153	0.9988
0.1225	0.9871	0.01514	0.9988
0.1275	0.982	0.01506	0.9988
0.1325	0.9618	0.01482	0.9988
0.1375	1.001	0.01519	0.9988
0.1425	0.9664	0.01473	0.9988
0.1475	1.002	0.01517	0.9988
0.1525	0.9806	0.01496	0.9988
0.1575	0.9717	0.01485	0.9988
0.1625	0.9804	0.01491	0.9988
0.1675	0.982	0.015	0.9988
0.1725	1.002	0.01523	0.9988
0.1775	0.9872	0.01521	0.9988
0.1825	0.9875	0.01555	0.9988
0.1875	1.015	0.01627	0.9988
0.1925	0.9739	0.01618	0.9988
0.1975	0.9792	0.01669	0.9988
0.2025	0.9937	0.01733	0.9988
0.2075	0.9982	0.01772	0.9988
0.2125	0.9563	0.01758	0.9988
0.2175	0.9732	0.01821	0.9988
0.2225	0.9892	0.01908	0.9988
0.2275	0.9746	0.01931	0.9988
0.2325	0.9955	0.0201	0.9988
0.2375	0.9826	0.0204	0.9988
0.2425	1.014	0.02153	0.9988
0.2475	0.9984	0.02208	0.9988
0.2525	1.014	0.02326	0.9988
0.2575	1.022	0.02406	0.9988
0.2625	1.023	0.02485	0.9988
0.2675	0.9801	0.02519	0.9988
0.2725	0.9889	0.02637	0.9988
0.2775	1.001	0.0277	0.9988
0.2825	1.056	0.03011	0.9988
0.2875	0.9874	0.03021	0.9988
0.2925	1.018	0.03232	0.9988
0.2975	0.9571	0.03255	0.9988

0.0025	1.423	0.03311	1.43
0.0075	1.448	0.03373	1.421
0.0125	1.369	0.03229	1.403
0.0175	1.332	0.03187	1.377
0.0225	1.332	0.03239	1.345
0.0275	1.219	0.02989	1.309
0.0325	1.237	0.03024	1.271
0.0375	1.193	0.02932	1.232
0.0425	1.13	0.02815	1.195
0.0475	1.144	0.02817	1.159
0.0525	1.106	0.02695	1.128
0.0575	1.043	0.02588	1.1
0.0625	1.019	0.02519	1.077
0.0675	1.088	0.0259	1.057
0.0725	1.027	0.02492	1.042
0.0775	1.011	0.02407	1.03
0.0825	0.9997	0.02375	1.02
0.0875	0.9939	0.02356	1.014
0.0925	1	0.02345	1.009
0.0975	1.019	0.02344	1.005
0.1025	0.9993	0.02285	1.003
0.1075	0.9755	0.02243	1.001
0.1125	0.9983	0.02215	1
0.1175	0.9802	0.02191	0.9994
0.1225	0.977	0.02157	0.999
0.1275	0.9987	0.02177	0.9988
0.1325	0.9647	0.02109	0.9986
0.1375	0.9844	0.02099	0.9985
0.1425	0.9897	0.02113	0.9985
0.1475	0.9918	0.0209	0.9985
0.1525	1.022	0.02123	0.9984
0.1575	1.005	0.02094	0.9984
0.1625	0.9776	0.02033	0.9984
0.1675	0.9798	0.02011	0.9984
0.1725	0.9775	0.02019	0.9984
0.1775	0.9855	0.02033	0.9984
0.1825	0.9785	0.02002	0.9984
0.1875	0.9776	0.01994	0.9984
0.1925	1.015	0.02052	0.9984
0.1975	0.9731	0.01968	0.9984
0.2025	0.9776	0.01985	0.9984
0.2075	0.9831	0.01989	0.9984
0.2125	0.9844	0.01994	0.9984
0.2175	0.982	0.01988	0.9984
0.2225	1.016	0.02043	0.9984
0.2275	0.9884	0.01994	0.9984
0.2325	0.9699	0.01962	0.9984
0.2375	0.9937	0.0199	0.9984
0.2425	1.033	0.02038	0.9984
0.2475	1.001	0.02003	0.9984
0.2525	0.9837	0.01977	0.9984
0.2575	0.9841	0.01987	0.9984
0.2625	0.9778	0.01975	0.9984
0.2675	0.9804	0.01969	0.9984
0.2725	0.9874	0.01988	0.9984
0.2775	0.9972	0.01993	0.9984
0.2825	0.987	0.01991	0.9984
0.2875	0.9746	0.01967	0.9984
0.2925	0.9956	0.01998	0.9984
0.2975	0.9798	0.01982	0.9984

0.0025	1.378	0.07065	1.449
0.0075	1.492	0.0757	1.44
0.0125	1.367	0.07132	1.424
0.0175	1.387	0.0714	1.401
0.0225	1.365	0.07058	1.372
0.0275	1.251	0.06734	1.339
0.0325	1.243	0.06466	1.302
0.0375	1.203	0.06132	1.265
0.0425	1.077	0.05691	1.228
0.0475	1.167	0.05852	1.193
0.0525	1.025	0.05245	1.159
0.0575	1.025	0.05257	1.129
0.0625	1.007	0.05078	1.103
0.0675	1.002	0.04975	1.08
0.0725	1.115	0.05225	1.061
0.0775	1.012	0.04787	1.046
0.0825	1.026	0.04747	1.034
0.0875	1.013	0.04679	1.024
0.0925	1.071	0.04738	1.016
0.0975	0.9926	0.04359	1.011
0.1025	0.9771	0.04333	1.007
0.1075	1.128	0.04637	1.004
0.1125	0.968	0.04131	1.002
0.1175	0.964	0.04034	1.001
0.1225	1.008	0.04124	0.9996
0.1275	0.9053	0.03769	0.999
0.1325	0.9737	0.03912	0.9986
0.1375	1.057	0.04052	0.9983
0.1425	0.9117	0.03571	0.9982
0.1475	0.9179	0.0353	0.9981
0.1525	1.015	0.03798	0.998
0.1575	0.9665	0.03607	0.998
0.1625	0.9724	0.03631	0.998
0.1675	0.9797	0.03623	0.9979
0.1725	1.003	0.03582	0.9979
0.1775	1.013	0.03579	0.9979
0.1825	1.004	0.03483	0.9979
0.1875	1.015	0.03508	0.9979
0.1925	0.9853	0.0342	0.9979
0.1975	0.9926	0.03376	0.9979
0.2025	0.9451	0.03225	0.9979
0.2075	0.9843	0.03277	0.9979
0.2125	0.9668	0.03193	0.9979
0.2175	0.9501	0.03154	0.9979
0.2225	0.9695	0.03194	0.9979
0.2275	0.9906	0.03196	0.9979
0.2325	1.018	0.03249	0.9979
0.2375	1.003	0.03196	0.9979
0.2425	0.9524	0.03032	0.9979
0.2475	0.9968	0.03136	0.9979
0.2525	0.9777	0.03086	0.9979
0.2575	0.9665	0.0303	0.9979
0.2625	0.9636	0.03011	0.9979
0.2675	0.9495	0.02941	0.9979
0.2725	0.9953	0.03055	0.9979
0.2775	0.97	0.02978	0.9979
0.2825	0.9789	0.03003	0.9979
0.2875	0.8948	0.02796	0.9979
0.2925	1.01	0.03021	0.9979
0.2975	1.022	0.03021	0.9979

0.0025	1.241	0.0138	1.325
0.0075	1.233	0.01391	1.313
0.0125	1.202	0.01392	1.291
0.0175	1.188	0.0141	1.261
0.0225	1.168	0.01404	1.226
0.0275	1.123	0.01379	1.188
0.0325	1.108	0.01381	1.15
0.0375	1.063	0.01346	1.116
0.0425	1.085	0.01382	1.086
0.0475	1.02	0.01336	1.062
0.0525	1.035	0.01358	1.042
0.0575	0.9904	0.01334	1.027
0.0625	0.9791	0.0134	1.017
0.0675	1.009	0.0139	1.009
0.0725	0.9783	0.01379	1.005
0.0775	0.9859	0.01412	1.002
0.0825	0.9794	0.01431	0.9997
0.0875	0.987	0.01472	0.9986
0.0925	0.9825	0.01502	0.9979
0.0975	0.957	0.01529	0.9976
0.1025	0.9739	0.01581	0.9974
0.1075	0.9819	0.01665	0.9974
0.1125	0.9976	0.01739	0.9973
0.1175	0.982	0.01809	0.9973
0.1225	1.008	0.01937	0.9973
0.1275	0.9629	0.02	0.9973
0.1325	0.9872	0.02144	0.9973
0.1375	0.982	0.02291	0.9973
0.1425	0.9916	0.025	0.9973
0.1475	0.9722	0.02697	0.9973
0.1525	0.9466	0.02933	0.9973
0.1575	1.015	0.03518	0.9973
0.1625	0.969	0.04099	0.9973
0.1675	0.8874	0.04934	0.9973
0.1725	0.9811	0.09091	0.9973
0.1775	1.266	1.036	0.9973

0.0025	1.326	0.02014	1.416
0.0075	1.342	0.02016	1.404
0.0125	1.3	0.01961	1.382
0.0175	1.281	0.01952	1.351
0.0225	1.251	0.01909	1.313
0.0275	1.208	0.01849	1.271
0.0325	1.153	0.01783	1.228
0.0375	1.176	0.01806	1.187
0.0425	1.092	0.01691	1.148
0.0475	1.066	0.01646	1.115
0.0525	1.061	0.01634	1.086
0.0575	1.051	0.01589	1.062
0.0625	1.016	0.01539	1.044
0.0675	0.9936	0.015	1.03
0.0725	0.9687	0.01448	1.019
0.0775	0.9858	0.01446	1.012
0.0825	0.9956	0.01442	1.007
0.0875	1.004	0.0143	1.004
0.0925	0.9655	0.01374	1.001
0.0975	0.9706	0.01368	1
0.1025	0.963	0.01345	0.9993
0.1075	0.9815	0.0135	0.9988
0.1125	0.9503	0.01301	0.9986
0.1175	0.9788	0.0133	0.9984
0.1225	0.9812	0.01323	0.9983
0.1275	1.003	0.01337	0.9983
0.1325	0.9815	0.01313	0.9983
0.1375	0.9839	0.01303	0.9983
0.1425	1.003	0.01326	0.9982
0.1475	0.9807	0.01307	0.9982
0.1525	0.9844	0.01302	0.9982
0.1575	0.9975	0.0132	0.9982
0.1625	0.9889	0.0131	0.9982
0.1675	0.9731	0.01305	0.9982
0.1725	0.9672	0.01297	0.9982
0.1775	0.9709	0.01317	0.9982
0.1825	0.9645	0.0134	0.9982
0.1875	1.003	0.01411	0.9982
0.1925	0.9943	0.01435	0.9982
0.1975	1.003	0.01478	0.9982
0.2025	1.009	0.01511	0.9982
0.2075	0.9766	0.01518	0.9982
0.2125	1.021	0.01604	0.9982
0.2175	0.9881	0.0162	0.9982
0.2225	0.9877	0.01657	0.9982
0.2275	0.9831	0.01693	0.9982
0.2325	0.9591	0.0171	0.9982
0.2375	0.9653	0.0178	0.9982
0.2425	0.9779	0.01839	0.9982
0.2475	0.9677	0.01896	0.9982
0.2525	0.9993	0.02	0.9982
0.2575	1.02	0.02092	0.9982
0.2625	1.026	0.02187	0.9982
0.2675	0.9688	0.02161	0.9982
0.2725	0.9881	0.02299	0.9982
0.2775	1.008	0.02445	0.9982
0.2825	1.017	0.02542	0.9982
0.2875	1.044	0.02698	0.9982
0.2925	1.018	0.02822	0.9982
0.2975	1.009	0.0295	0.9982

0.0025	1.454	0.02981	1.469
0.0075	1.422	0.02939	1.459
0.0125	1.362	0.02854	1.438
0.0175	1.394	0.02882	1.408
0.0225	1.335	0.02794	1.371
0.0275	1.268	0.02728	1.33
0.0325	1.236	0.02643	1.287
0.0375	1.193	0.0257	1.243
0.0425	1.216	0.0258	1.201
0.0475	1.118	0.02426	1.163
0.0525	1.141	0.02441	1.129
0.0575	1.079	0.02316	1.099
0.0625	1.028	0.0221	1.074
0.0675	1.056	0.02252	1.054
0.0725	0.9866	0.02138	1.039
0.0775	1.018	0.02142	1.027
0.0825	0.9943	0.0208	1.018
0.0875	0.9908	0.02078	1.011
0.0925	0.9731	0.02012	1.007
0.0975	0.9574	0.01978	1.004
0.1025	0.9708	0.01968	1.002
0.1075	0.9595	0.01931	1
0.1125	0.9784	0.01945	0.9994
0.1175	0.9902	0.01937	0.9989
0.1225	0.9535	0.01872	0.9986
0.1275	0.9797	0.01886	0.9984
0.1325	0.9809	0.01869	0.9983
0.1375	0.9731	0.01831	0.9982
0.1425	0.9771	0.01828	0.9982
0.1475	0.9724	0.01809	0.9982
0.1525	0.964	0.01794	0.9981
0.1575	1.005	0.01813	0.9981
0.1625	0.9637	0.01763	0.9981
0.1675	0.9691	0.01766	0.9981
0.1725	0.946	0.01718	0.9981
0.1775	0.9883	0.01776	0.9981
0.1825	0.9883	0.01779	0.9981
0.1875	0.9721	0.01747	0.9981
0.1925	0.9866	0.01748	0.9981
0.1975	0.9883	0.01752	0.9981
0.2025	0.973	0.01725	0.9981
0.2075	0.9619	0.01711	0.9981
0.2125	0.9941	0.01768	0.9981
0.2175	0.9798	0.01736	0.9981
0.2225	0.9838	0.0174	0.9981
0.2275	0.989	0.01744	0.9981
0.2325	0.9961	0.01759	0.9981
0.2375	0.9716	0.01732	0.9981
0.2425	0.9755	0.01748	0.9981
0.2475	1.01	0.01773	0.9981
0.2525	0.9904	0.01747	0.9981
0.2575	1.024	0.01786	0.9981
0.2625	1.017	0.0178	0.9981
0.2675	0.9681	0.01715	0.9981
0.2725	1.012	0.01761	0.9981
0.2775	0.9819	0.01735	0.9981
0.2825	0.9439	0.01688	0.9981
0.2875	0.9791	0.01731	0.9981
0.2925	0.9988	0.0176	0.9981
0.2975	0.9625	0.0171	0.9981

0.0025	1.455	0.06398	1.467
0.0075	1.361	0.06277	1.46
0.0125	1.462	0.06463	1.446
0.0175	1.382	0.06458	1.426
0.0225	1.357	0.06249	1.401
0.0275	1.376	0.06141	1.372
0.0325	1.303	0.05799	1.34
0.0375	1.35	0.05961	1.305
0.0425	1.221	0.05416	1.27
0.0475	1.112	0.04981	1.236
0.0525	1.094	0.04889	1.202
0.0575	1.156	0.0502	1.171
0.0625	1.168	0.04974	1.142
0.0675	1.048	0.04554	1.116
0.0725	1.132	0.04706	1.094
0.0775	1.045	0.04292	1.074
0.0825	0.976	0.03977	1.058
0.0875	0.9709	0.03958	1.044
0.0925	0.972	0.03927	1.033
0.0975	0.9417	0.03728	1.024
0.1025	1.032	0.03936	1.017
0.1075	1.026	0.03793	1.012
0.1125	0.9938	0.03744	1.007
0.1175	0.9411	0.03513	1.004
0.1225	0.9835	0.03574	1.002
0.1275	0.9926	0.03521	1.001
0.1325	1.026	0.03589	0.9995
0.1375	0.9957	0.03467	0.9987
0.1425	1.013	0.03432	0.9981
0.1475	0.9916	0.0333	0.9978
0.1525	1.02	0.03392	0.9975
0.1575	1.011	0.03303	0.9974
0.1625	0.9819	0.03182	0.9973
0.1675	0.9655	0.03094	0.9972
0.1725	1.001	0.03157	0.9972
0.1775	0.9541	0.03011	0.9971
0.1825	0.8941	0.02845	0.9971
0.1875	0.9435	0.02885	0.9971
0.1925	0.9615	0.02964	0.9971
0.1975	0.9427	0.02854	0.9971
0.2025	0.9723	0.02914	0.9971
0.2075	0.9804	0.02885	0.9971
0.2125	0.9306	0.02747	0.9971
0.2175	0.9898	0.02867	0.9971
0.2225	0.9667	0.0279	0.9971
0.2275	0.9569	0.02721	0.9971
0.2325	0.9766	0.02777	0.9971
0.2375	0.9513	0.02679	0.9971
0.2425	0.9563	0.02679	0.9971
0.2475	0.9632	0.02666	0.9971
0.2525	0.9188	0.02568	0.9971
0.2575	1.008	0.02745	0.9971
0.2625	0.9616	0.02639	0.9971
0.2675	0.9475	0.02588	0.9971
0.2725	0.9755	0.0261	0.9971
0.2775	0.9657	0.02613	0.9971
0.2825	0.9922	0.02627	0.9971
0.2875	0.9816	0.02611	0.9971
0.2925	0.9613	0.02597	0.9971
0.2975	0.9735	0.02577	0.9971

0.0025	1.267	0.01921	1.357
0.0075	1.272	0.01938	1.347
0.0125	1.247	0.01964	1.328
0.0175	1.235	0.01994	1.302
0.0225	1.208	0.0198	1.271
0.0275	1.167	0.01928	1.236
0.0325	1.181	0.01978	1.199
0.0375	1.138	0.01947	1.164
0.0425	1.077	0.01886	1.131
0.0475	1.041	0.01862	1.102
0.0525	1.016	0.01841	1.076
0.0575	1.038	0.01903	1.056
0.0625	0.9885	0.01847	1.039
0.0675	1.029	0.01941	1.026
0.0725	0.9829	0.01905	1.017
0.0775	1.02	0.01983	1.01
0.0825	0.947	0.01925	1.005
0.0875	0.979	0.02003	1.002
0.0925	0.9999	0.02111	1
0.0975	0.977	0.02126	0.9986
0.1025	0.9899	0.0221	0.9978
0.1075	1.005	0.02316	0.9973
0.1125	0.9805	0.02342	0.997
0.1175	0.9866	0.02482	0.9968
0.1225	0.9534	0.02565	0.9967
0.1275	0.9521	0.02698	0.9967
0.1325	0.9761	0.02917	0.9967
0.1375	0.9811	0.03133	0.9966
0.1425	0.9525	0.03349	0.9966
0.1475	1.001	0.0382	0.9966
0.1525	1.025	0.04266	0.9966
0.1575	0.8654	0.04344	0.9966
0.1625	1.028	0.05729	0.9966
0.1675	0.8691	0.06632	0.9966
0.1725	0.6987	0.1002	0.9966

0.0025	1.396	0.02885	1.418
0.0075	1.385	0.0284	1.408
0.0125	1.325	0.02762	1.388
0.0175	1.285	0.0267	1.36
0.0225	1.282	0.02693	1.325
0.0275	1.205	0.02566	1.287
0.0325	1.197	0.02533	1.247
0.0375	1.148	0.02427	1.207
0.0425	1.102	0.02334	1.169
0.0475	1.102	0.02308	1.135
0.0525	1.103	0.02308	1.104
0.0575	0.9914	0.02113	1.079
0.0625	1.033	0.02132	1.058
0.0675	1.009	0.02087	1.041
0.0725	1.013	0.02064	1.028
0.0775	1.003	0.02033	1.019
0.0825	0.9495	0.01932	1.012
0.0875	0.9673	0.01914	1.007
0.0925	0.9592	0.01893	1.004
0.0975	0.9879	0.01923	1.001
0.1025	0.9817	0.01895	0.9999
0.1075	0.9994	0.01892	0.9989
0.1125	0.9757	0.01846	0.9984
0.1175	1.004	0.01867	0.9981
0.1225	1.009	0.01874	0.9979
0.1275	0.9503	0.01784	0.9977
0.1325	0.9535	0.0178	0.9977
0.1375	0.9546	0.01785	0.9977
0.1425	0.9662	0.01786	0.9976
0.1475	0.9565	0.01771	0.9976
0.1525	1.017	0.01865	0.9976
0.1575	1.008	0.01855	0.9976
0.1625	0.9692	0.01789	0.9976
0.1675	0.9667	0.01794	0.9976
0.1725	0.9964	0.01822	0.9976
0.1775	0.9691	0.01816	0.9976
0.1825	0.9718	0.01854	0.9976
0.1875	1.016	0.0197	0.9976
0.1925	1.003	0.01993	0.9976
0.1975	0.9911	0.02037	0.9976
0.2025	0.9854	0.02053	0.9976
0.2075	0.9971	0.02148	0.9976
0.2125	0.9605	0.0213	0.9976
0.2175	0.9682	0.02199	0.9976
0.2225	0.9916	0.02299	0.9976
0.2275	0.999	0.02358	0.9976
0.2325	0.9528	0.02359	0.9976
0.2375	1.015	0.0257	0.9976
0.2425	0.9951	0.02576	0.9976
0.2475	0.9771	0.02636	0.9976
0.2525	0.9875	0.02739	0.9976
0.2575	0.9624	0.02803	0.9976
0.2625	1.032	0.03024	0.9976
0.2675	0.9787	0.02998	0.9976
0.2725	0.9635	0.03159	0.9976
0.2775	1.003	0.03388	0.9976
0.2825	0.9834	0.03486	0.9976
0.2875	0.9749	0.0358	0.9976
0.2925	0.9673	0.03753	0.9976
0.2975	0.9453	0.03915	0.9976

0.0025	1.426	0.04057	1.453
0.0075	1.437	0.0408	1.445
0.0125	1.384	0.03983	1.429
0.0175	1.421	0.04072	1.407
0.0225	1.355	0.03915	1.378
0.0275	1.267	0.03729	1.345
0.0325	1.312	0.03813	1.309
0.0375	1.241	0.03672	1.272
0.0425	1.159	0.03483	1.235
0.0475	1.181	0.03504	1.199
0.0525	1.115	0.03313	1.166
0.0575	1.121	0.03332	1.136
0.0625	1.046	0.03149	1.109
0.0675	1.066	0.03128	1.085
0.0725	1.015	0.03001	1.066
0.0775	1.031	0.02988	1.049
0.0825	1.079	0.03077	1.036
0.0875	0.9905	0.02874	1.026
0.0925	0.9955	0.02809	1.018
0.0975	1.007	0.02871	1.012
0.1025	0.97	0.02747	1.007
0.1075	0.9611	0.02686	1.004
0.1125	1.002	0.02767	1.002
0.1175	0.9572	0.0262	1
0.1225	0.9627	0.02576	0.9991
0.1275	0.9738	0.02612	0.9984
0.1325	0.9676	0.02594	0.9979
0.1375	0.9477	0.02526	0.9976
0.1425	0.9586	0.02509	0.9974
0.1475	1.013	0.02623	0.9972
0.1525	0.9681	0.0249	0.9972
0.1575	0.9958	0.02538	0.9971
0.1625	0.9725	0.02476	0.9971
0.1675	0.9792	0.02471	0.9971
0.1725	0.9963	0.02523	0.9971
0.1775	0.9303	0.02377	0.9971
0.1825	0.9929	0.02476	0.9971
0.1875	0.9706	0.02431	0.9971
0.1925	0.9676	0.0241	0.9971
0.1975	0.9961	0.02444	0.9971
0.2025	1.008	0.02471	0.9971
0.2075	0.9818	0.02425	0.9971
0.2125	1.011	0.02469	0.9971
0.2175	0.9438	0.02345	0.9971
0.2225	0.9959	0.02436	0.9971
0.2275	0.9928	0.02407	0.9971
0.2325	0.96	0.02359	0.9971
0.2375	1.028	0.02508	0.9971
0.2425	0.9719	0.02399	0.9971
0.2475	0.9905	0.02414	0.9971
0.2525	0.9386	0.02325	0.9971
0.2575	1.017	0.02465	0.9971
0.2625	1.016	0.02475	0.9971
0.2675	0.9894	0.02399	0.9971
0.2725	0.9749	0.02379	0.9971
0.2775	0.9825	0.024	0.9971
0.2825	0.9562	0.02385	0.9971
0.2875	0.9546	0.02398	0.9971
0.2925	0.9983	0.0242	0.9971
0.2975	0.9954	0.02417	0.9971

0.0025	1.567	0.09694	1.479
0.0075	1.391	0.08687	1.472
0.0125	1.463	0.09395	1.459
0.0175	1.374	0.08822	1.441
0.0225	1.49	0.09005	1.417
0.0275	1.294	0.08072	1.39
0.0325	1.268	0.08104	1.359
0.0375	1.205	0.07511	1.326
0.0425	1.201	0.07411	1.292
0.0475	1.081	0.07077	1.258
0.0525	1.213	0.07398	1.225
0.0575	1.228	0.07482	1.193
0.0625	1.049	0.06333	1.164
0.0675	1.192	0.06728	1.137
0.0725	1.086	0.06141	1.112
0.0775	1.078	0.0618	1.091
0.0825	1.023	0.05824	1.072
0.0875	1.033	0.05726	1.057
0.0925	1.049	0.05709	1.043
0.0975	1.046	0.05642	1.033
0.1025	0.937	0.05043	1.024
0.1075	0.972	0.05102	1.017
0.1125	0.9517	0.05009	1.011
0.1175	0.9359	0.04893	1.007
0.1225	0.9606	0.04897	1.004
0.1275	0.9687	0.04881	1.002
0.1325	1.046	0.04987	0.9999
0.1375	0.9352	0.04595	0.9986
0.1425	0.9783	0.04624	0.9977
0.1475	0.9628	0.04528	0.9971
0.1525	0.9428	0.04418	0.9966
0.1575	0.9256	0.04219	0.9963
0.1625	0.9863	0.04481	0.9961
0.1675	0.9072	0.04156	0.996
0.1725	1.024	0.0449	0.9959
0.1775	0.9644	0.04244	0.9959
0.1825	0.9797	0.04206	0.9958
0.1875	0.9838	0.04207	0.9958
0.1925	1.02	0.04278	0.9958
0.1975	0.9603	0.04086	0.9958
0.2025	0.9299	0.03872	0.9958
0.2075	1.024	0.04129	0.9958
0.2125	0.9421	0.03874	0.9958
0.2175	0.9555	0.03857	0.9958
0.2225	0.9798	0.03966	0.9958
0.2275	0.9966	0.03936	0.9958
0.2325	1.011	0.03932	0.9958
0.2375	1.004	0.0386	0.9958
0.2425	0.9644	0.03749	0.9958
0.2475	1.017	0.03815	0.9958
0.2525	0.9444	0.03653	0.9958
0.2575	0.9537	0.03674	0.9958
0.2625	0.928	0.03616	0.9958
0.2675	0.9336	0.03593	0.9958
0.2725	0.9471	0.03568	0.9958
0.2775	0.9697	0.03662	0.9958
0.2825	0.9849	0.03632	0.9958
0.2875	0.9781	0.03613	0.9958
0.2925	1.013	0.03719	0.9958
0.2975	0.9962	0.03639	0.9958

0.0025	1.294	0.02842	1.383
0.0075	1.294	0.02877	1.374
0.0125	1.32	0.02972	1.357
0.0175	1.255	0.02921	1.333
0.0225	1.188	0.02815	1.303
0.0275	1.186	0.02874	1.27
0.0325	1.189	0.02888	1.234
0.0375	1.172	0.02877	1.199
0.0425	1.152	0.02862	1.165
0.0475	1.095	0.0276	1.133
0.0525	1.084	0.02805	1.105
0.0575	1.025	0.02755	1.081
0.0625	1.055	0.02804	1.06
0.0675	1.01	0.02747	1.044
0.0725	1.013	0.02812	1.031
0.0775	1.025	0.02902	1.021
0.0825	0.9289	0.0274	1.013
0.0875	0.984	0.02959	1.008
0.0925	0.9666	0.03009	1.004
0.0975	1.006	0.03155	1.001
0.1025	1.014	0.03262	0.9994
0.1075	1.009	0.03377	0.9983
0.1125	0.9561	0.03381	0.9975
0.1175	0.957	0.03594	0.997
0.1225	0.9454	0.03741	0.9968
0.1275	0.9597	0.0402	0.9966
0.1325	0.9589	0.0423	0.9965
0.1375	0.9214	0.04403	0.9964
0.1425	1.071	0.05301	0.9964
0.1475	1.033	0.05692	0.9964
0.1525	0.9902	0.06229	0.9964
0.1575	1.026	0.0726	0.9964
0.1625	1.067	0.08774	0.9964
0.1675	1.179	0.1217	0.9964
0.1725	1.38	0.2306	0.9964

0.0025	1.398	0.04218	1.441
0.0075	1.365	0.04113	1.433
0.0125	1.302	0.03948	1.416
0.0175	1.416	0.04264	1.392
0.0225	1.24	0.03819	1.362
0.0275	1.246	0.03852	1.328
0.0325	1.2	0.03712	1.291
0.0375	1.183	0.03634	1.253
0.0425	1.166	0.03546	1.216
0.0475	1.151	0.03524	1.18
0.0525	1.108	0.03374	1.147
0.0575	1.076	0.03269	1.118
0.0625	1.085	0.03263	1.093
0.0675	1.015	0.03039	1.071
0.0725	1.059	0.03122	1.053
0.0775	0.9804	0.02927	1.039
0.0825	0.9412	0.02831	1.028
0.0875	0.9528	0.02799	1.019
0.0925	0.9615	0.02783	1.013
0.0975	0.9819	0.0279	1.008
0.1025	0.9753	0.02766	1.005
0.1075	0.9834	0.02733	1.002
0.1125	0.9841	0.02733	1.001
0.1175	0.9492	0.02647	0.9994
0.1225	0.9957	0.02731	0.9987
0.1275	0.9893	0.02699	0.9982
0.1325	0.9325	0.02547	0.9979
0.1375	0.9836	0.02664	0.9978
0.1425	0.9491	0.02591	0.9977
0.1475	1.025	0.02738	0.9976
0.1525	0.9639	0.02616	0.9976
0.1575	0.9805	0.02652	0.9975
0.1625	1.012	0.02733	0.9975
0.1675	0.9676	0.02646	0.9975
0.1725	1.017	0.02724	0.9975
0.1775	0.9724	0.02671	0.9975
0.1825	0.9275	0.02643	0.9975
0.1875	0.9985	0.02845	0.9975
0.1925	0.9845	0.02903	0.9975
0.1975	1.023	0.03075	0.9975
0.2025	0.9482	0.02982	0.9975
0.2075	0.9748	0.03069	0.9975
0.2125	0.9326	0.03036	0.9975
0.2175	0.9465	0.03185	0.9975
0.2225	0.9436	0.03256	0.9975
0.2275	1.011	0.03568	0.9975
0.2325	0.9173	0.03332	0.9975
0.2375	0.9451	0.03565	0.9975
0.2425	0.9412	0.03618	0.9975
0.2475	0.9276	0.0366	0.9975
0.2525	0.996	0.0413	0.9975
0.2575	0.9192	0.03965	0.9975
0.2625	0.9813	0.0434	0.9975
0.2675	1.025	0.0464	0.9975
0.2725	0.9402	0.04519	0.9975
0.2775	1.023	0.04982	0.9975
0.2825	1.006	0.05147	0.9975
0.2875	1.022	0.05459	0.9975
0.2925	1.005	0.05655	0.9975
0.2975	1.023	0.06151	0.9975

0.0025	1.432	0.05912	1.452
0.0075	1.471	0.06209	1.445
0.0125	1.317	0.05581	1.432
0.0175	1.464	0.06207	1.413
0.0225	1.25	0.05365	1.389
0.0275	1.424	0.06011	1.361
0.0325	1.289	0.05607	1.329
0.0375	1.239	0.05427	1.296
0.0425	1.223	0.05309	1.262
0.0475	1.052	0.04727	1.229
0.0525	1.195	0.05149	1.197
0.0575	1.119	0.04868	1.166
0.0625	1.084	0.04811	1.138
0.0675	1.102	0.04714	1.113
0.0725	1.036	0.04458	1.091
0.0775	1.035	0.04434	1.072
0.0825	1.044	0.0447	1.056
0.0875	1.042	0.04358	1.042
0.0925	1.023	0.04315	1.031
0.0975	0.9981	0.04229	1.023
0.1025	1.068	0.04266	1.016
0.1075	0.9801	0.03997	1.01
0.1125	0.9262	0.03858	1.006
0.1175	0.944	0.03866	1.003
0.1225	0.8913	0.03656	1.001
0.1275	0.9454	0.03784	0.9994
0.1325	0.9514	0.03697	0.9983
0.1375	0.9618	0.03782	0.9975
0.1425	0.9951	0.03874	0.9969
0.1475	1.036	0.03862	0.9966
0.1525	0.9271	0.03589	0.9963
0.1575	1.006	0.03794	0.9962
0.1625	1.013	0.03786	0.9961
0.1675	1.045	0.03852	0.996
0.1725	0.9443	0.03544	0.996
0.1775	0.9272	0.03517	0.9959
0.1825	0.9296	0.03519	0.9959
0.1875	0.9848	0.036	0.9959
0.1925	1	0.03606	0.9959
0.1975	1.035	0.03727	0.9959
0.2025	0.9869	0.03613	0.9959
0.2075	0.9217	0.03439	0.9959
0.2125	0.9546	0.0352	0.9959
0.2175	0.9304	0.03468	0.9959
0.2225	1.006	0.03625	0.9959
0.2275	0.957	0.03457	0.9959
0.2325	1.029	0.03666	0.9959
0.2375	0.9628	0.03544	0.9959
0.2425	0.9724	0.03577	0.9959
0.2475	0.9456	0.03471	0.9959
0.2525	0.9833	0.03503	0.9959
0.2575	0.9738	0.03501	0.9959
0.2625	0.9782	0.03569	0.9959
0.2675	0.944	0.03445	0.9959
0.2725	1.041	0.037	0.9959
0.2775	1.004	0.03689	0.9959
0.2825	0.9959	0.03598	0.9959
0.2875	0.9275	0.03427	0.9959
0.2925	0.945	0.03429	0.9959
0.2975	0.984	0.03537	0.9959

0.0025	1.56	0.1518	1.509
0.0075	1.598	0.1428	1.503
0.0125	1.761	0.154	1.492
0.0175	1.373	0.1279	1.477
0.0225	1.331	0.1278	1.457
0.0275	1.416	0.134	1.433
0.0325	1.42	0.1262	1.405
0.0375	1.424	0.1276	1.376
0.0425	1.288	0.1197	1.345
0.0475	1.415	0.1246	1.313
0.0525	1.221	0.1079	1.281
0.0575	1.296	0.1123	1.249
0.0625	1.119	0.1006	1.218
0.0675	1.159	0.1002	1.189
0.0725	1.276	0.1085	1.162
0.0775	0.9813	0.0861	1.138
0.0825	1.07	0.09053	1.115
0.0875	0.872	0.0778	1.095
0.0925	1.2	0.09374	1.077
0.0975	1.045	0.08528	1.062
0.1025	0.8922	0.07344	1.049
0.1075	1.103	0.08378	1.038
0.1125	1.079	0.08124	1.029
0.1175	1.009	0.07837	1.021
0.1225	0.9096	0.07053	1.015
0.1275	0.9819	0.07096	1.01
0.1325	1.016	0.07258	1.006
0.1375	0.87	0.06712	1.003
0.1425	1.049	0.0727	1.001
0.1475	0.953	0.06703	0.999
0.1525	0.9507	0.06607	0.9976
0.1575	0.9277	0.06483	0.9966
0.1625	0.9751	0.06634	0.9959
0.1675	1.012	0.0667	0.9953
0.1725	0.9335	0.06171	0.9949
0.1775	0.8919	0.05927	0.9946
0.1825	1.135	0.07006	0.9944
0.1875	0.849	0.05693	0.9943
0.1925	0.9216	0.05933	0.9942
0.1975	0.9783	0.06074	0.9941
0.2025	1.046	0.06363	0.9941
0.2075	1.009	0.06033	0.994
0.2125	1.026	0.06104	0.994
0.2175	0.8822	0.05505	0.994
0.2225	0.9396	0.05725	0.994
0.2275	0.9464	0.05564	0.994
0.2325	1.014	0.06003	0.994
0.2375	1.061	0.06033	0.994
0.2425	1.073	0.06028	0.994
0.2475	0.9566	0.05647	0.994
0.2525	1.047	0.05884	0.994
0.2575	0.9116	0.05315	0.994
0.2625	0.9105	0.05152	0.994
0.2675	0.884	0.05047	0.994
0.2725	0.9709	0.05402	0.994
0.2775	0.9502	0.05352	0.994
0.2825	0.9234	0.05248	0.994
0.2875	0.9196	0.0515	0.994
0.2925	1.05	0.05787	0.994
0.2975	0.9825	0.05456	0.994

0.0025	1.279	0.04333	1.401
0.0075	1.282	0.04316	1.393
0.0125	1.262	0.04447	1.376
0.0175	1.319	0.0461	1.352
0.0225	1.282	0.04631	1.323
0.0275	1.21	0.04493	1.29
0.0325	1.243	0.04589	1.254
0.0375	1.139	0.04317	1.219
0.0425	1.097	0.04325	1.184
0.0475	1.137	0.045	1.152
0.0525	1.108	0.04409	1.122
0.0575	1.056	0.04305	1.097
0.0625	1.064	0.04387	1.075
0.0675	1.014	0.04354	1.057
0.0725	1.035	0.04403	1.042
0.0775	1.002	0.04398	1.031
0.0825	1.071	0.04759	1.023
0.0875	0.9199	0.04334	1.016
0.0925	1.012	0.04835	1.012
0.0975	1.063	0.05052	1.008
0.1025	0.9279	0.04807	1.006
0.1075	1.071	0.05464	1.005
0.1125	0.9868	0.05438	1.004
0.1175	0.9992	0.05657	1.003
0.1225	0.8708	0.05607	1.003
0.1275	1.008	0.06345	1.002
0.1325	0.9343	0.06401	1.002
0.1375	0.9915	0.07226	1.002
0.1425	1.031	0.0806	1.002
0.1475	1.031	0.08553	1.002
0.1525	0.9661	0.09177	1.002
0.1575	0.7748	0.09091	1.002
0.1625	1.06	0.1351	1.002
0.1675	1.019	0.1712	1.002
0.1725	0.9005	0.2385	1.002

0.0025	1.485	0.06787	1.454
0.0075	1.392	0.06524	1.446
0.0125	1.366	0.06342	1.431
0.0175	1.36	0.0642	1.41
0.0225	1.347	0.06282	1.383
0.0275	1.407	0.06623	1.352
0.0325	1.295	0.06214	1.318
0.0375	1.23	0.05803	1.282
0.0425	1.14	0.05487	1.246
0.0475	1.19	0.05668	1.212
0.0525	1.11	0.05257	1.179
0.0575	1.043	0.04934	1.149
0.0625	1.026	0.04861	1.122
0.0675	1.072	0.0503	1.098
0.0725	0.9577	0.0461	1.078
0.0775	1.087	0.04949	1.061
0.0825	1.024	0.04578	1.047
0.0875	1.004	0.04491	1.036
0.0925	0.931	0.04231	1.028
0.0975	0.9256	0.04168	1.021
0.1025	0.9586	0.04249	1.016
0.1075	1.053	0.04528	1.012
0.1125	0.9906	0.04283	1.01
0.1175	0.998	0.04269	1.008
0.1225	0.9947	0.04236	1.007
0.1275	1.015	0.04219	1.006
0.1325	0.915	0.03892	1.005
0.1375	1.023	0.0429	1.005
0.1425	0.9261	0.0394	1.004
0.1475	1.016	0.04218	1.004
0.1525	1.015	0.042	1.004
0.1575	0.9556	0.04019	1.004
0.1625	1.042	0.04383	1.004
0.1675	0.9378	0.04011	1.004
0.1725	1.046	0.04326	1.004
0.1775	0.9193	0.03978	1.004
0.1825	0.965	0.04244	1.004
0.1875	0.946	0.04264	1.004
0.1925	1.017	0.04594	1.004
0.1975	1.009	0.04728	1.004
0.2025	0.9252	0.04498	1.004
0.2075	1.048	0.05017	1.004
0.2125	0.9108	0.0466	1.004
0.2175	0.983	0.0517	1.004
0.2225	0.9896	0.05215	1.004
0.2275	0.9891	0.05366	1.004
0.2325	0.9638	0.05465	1.004
0.2375	1.024	0.0582	1.004
0.2425	0.9887	0.06051	1.004
0.2475	1.006	0.06061	1.004
0.2525	0.9817	0.06205	1.004
0.2575	1.099	0.06983	1.004
0.2625	1.031	0.06798	1.004
0.2675	0.9664	0.06934	1.004
0.2725	0.9074	0.06895	1.004
0.2775	1.184	0.08616	1.004
0.2825	1.052	0.08394	1.004
0.2875	0.9167	0.07895	1.004
0.2925	0.9959	0.08693	1.004
0.2975	1.092	0.1009	1.004

0.0025	1.499	0.09859	1.525
0.0075	1.351	0.09161	1.517
0.0125	1.519	0.09751	1.502
0.0175	1.364	0.09132	1.479
0.0225	1.28	0.08737	1.451
0.0275	1.36	0.09247	1.418
0.0325	1.357	0.09219	1.381
0.0375	1.371	0.0911	1.343
0.0425	1.222	0.08467	1.304
0.0475	1.272	0.0848	1.265
0.0525	1.111	0.07633	1.228
0.0575	1.146	0.07897	1.193
0.0625	1.052	0.07095	1.161
0.0675	1.072	0.07263	1.133
0.0725	0.9975	0.07015	1.108
0.0775	1.004	0.06874	1.086
0.0825	1.057	0.07093	1.068
0.0875	1.01	0.06628	1.054
0.0925	1.103	0.0707	1.042
0.0975	1.076	0.06916	1.032
0.1025	0.9018	0.06087	1.025
0.1075	0.9573	0.06274	1.019
0.1125	0.9513	0.06153	1.015
0.1175	0.9524	0.06153	1.012
0.1225	0.8797	0.05598	1.009
0.1275	0.9512	0.05881	1.008
0.1325	0.951	0.05935	1.006
0.1375	0.9592	0.05841	1.006
0.1425	1.062	0.06185	1.005
0.1475	1.025	0.06036	1.005
0.1525	0.8313	0.05174	1.004
0.1575	0.9637	0.05741	1.004
0.1625	0.8585	0.05239	1.004
0.1675	0.9424	0.05555	1.004
0.1725	1.006	0.05762	1.004
0.1775	0.9694	0.05743	1.004
0.1825	0.9354	0.05483	1.004
0.1875	0.9509	0.05522	1.004
0.1925	0.9512	0.05629	1.004
0.1975	1.006	0.0572	1.004
0.2025	0.9537	0.05542	1.004
0.2075	0.9537	0.0556	1.004
0.2125	0.9542	0.05463	1.004
0.2175	0.9707	0.05531	1.004
0.2225	0.941	0.05487	1.004
0.2275	1	0.05656	1.004
0.2325	1.112	0.06268	1.004
0.2375	0.973	0.05569	1.004
0.2425	1.003	0.05702	1.004
0.2475	1.103	0.06012	1.004
0.2525	0.9585	0.0552	1.004
0.2575	0.9041	0.05221	1.004
0.2625	0.9229	0.05383	1.004
0.2675	1.031	0.05829	1.004
0.2725	0.9962	0.05714	1.004
0.2775	1.02	0.05706	1.004
0.2825	0.901	0.05366	1.004
0.2875	0.9799	0.05598	1.004
0.2925	1.026	0.05731	1.004
0.2975	0.9441	0.05524	1.004

0.0025	1.396	0.2068	1.658
0.0075	1.908	0.2749	1.652
0.0125	1.551	0.2375	1.638
0.0175	1.555	0.2285	1.619
0.0225	1.84	0.2569	1.594
0.0275	1.291	0.1977	1.565
0.0325	1.487	0.2195	1.532
0.0375	1.345	0.1871	1.495
0.0425	1.452	0.2072	1.457
0.0475	1.116	0.1679	1.418
0.0525	1.825	0.244	1.379
0.0575	1.24	0.1671	1.341
0.0625	1.052	0.1454	1.304
0.0675	1.131	0.1623	1.269
0.0725	1.136	0.146	1.237
0.0775	1.068	0.1476	1.207
0.0825	1.19	0.15	1.18
0.0875	1.063	0.1389	1.157
0.0925	1.118	0.1329	1.136
0.0975	1.021	0.1281	1.118
0.1025	1.254	0.1482	1.103
0.1075	0.8561	0.1121	1.09
0.1125	0.9446	0.1189	1.079
0.1175	0.8847	0.1152	1.071
0.1225	0.841	0.1062	1.064
0.1275	0.9962	0.1171	1.058
0.1325	1.085	0.1211	1.054
0.1375	1.023	0.1195	1.05
0.1425	0.796	0.1006	1.048
0.1475	0.7313	0.0884	1.046
0.1525	0.873	0.09763	1.044
0.1575	1.045	0.1085	1.043
0.1625	1.047	0.1093	1.042
0.1675	1.089	0.1094	1.042
0.1725	0.9127	0.09977	1.041
0.1775	0.9029	0.1008	1.041
0.1825	0.837	0.09068	1.041
0.1875	0.9005	0.09343	1.04
0.1925	0.9845	0.0959	1.04
0.1975	0.9712	0.09714	1.04
0.2025	0.9445	0.09366	1.04
0.2075	0.8905	0.08877	1.04
0.2125	0.8334	0.08597	1.04
0.2175	0.9304	0.09009	1.04
0.2225	0.9264	0.08758	1.04
0.2275	0.9598	0.0887	1.04
0.2325	1.046	0.09595	1.04
0.2375	0.9782	0.09419	1.04
0.2425	0.8814	0.08537	1.04
0.2475	0.9572	0.08829	1.04
0.2525	0.9939	0.09133	1.04
0.2575	0.8797	0.08385	1.04
0.2625	0.8805	0.0811	1.04
0.2675	0.8605	0.07681	1.04
0.2725	0.9703	0.08821	1.04
0.2775	1.081	0.09427	1.04
0.2825	0.8306	0.08091	1.04
0.2875	0.8144	0.07718	1.04
0.2925	1.018	0.08803	1.04
0.2975	1.031	0.09207	1.04

0.0025	1.328	0.07206	1.49
0.0075	1.356	0.0719	1.479
0.0125	1.263	0.07102	1.457
0.0175	1.492	0.0808	1.426
0.0225	1.181	0.06991	1.388
0.0275	1.434	0.07901	1.346
0.0325	1.27	0.07547	1.302
0.0375	1.264	0.07636	1.258
0.0425	1.118	0.06833	1.217
0.0475	1.166	0.0725	1.18
0.0525	1.006	0.06487	1.147
0.0575	1.095	0.06983	1.119
0.0625	0.9722	0.06553	1.096
0.0675	1.095	0.07373	1.078
0.0725	1.029	0.07058	1.065
0.0775	1.038	0.07241	1.054
0.0825	1.038	0.07163	1.047
0.0875	0.9657	0.07329	1.042
0.0925	1.088	0.07995	1.038
0.0975	1.02	0.07983	1.036
0.1025	1.074	0.08421	1.034
0.1075	1.083	0.09023	1.033
0.1125	0.9967	0.08532	1.033
0.1175	0.945	0.08862	1.032
0.1225	1.107	0.1046	1.032
0.1275	1.162	0.1119	1.032
0.1325	0.9406	0.104	1.032
0.1375	0.9479	0.1161	1.032
0.1425	1.095	0.134	1.032
0.1475	1.021	0.1451	1.032
0.1525	0.9663	0.1388	1.032
0.1575	0.9238	0.1667	1.032
0.1625	0.8899	0.1999	1.032
0.1675	1.276	0.2982	1.032
0.1725	1.417	0.6382	1.032

0.0025	1.584	0.1189	1.67
0.0075	1.447	0.1075	1.656
0.0125	1.201	0.09411	1.628
0.0175	1.32	0.1002	1.589
0.0225	1.515	0.1079	1.541
0.0275	1.379	0.1006	1.487
0.0325	1.35	0.1014	1.43
0.0375	1.335	0.1	1.373
0.0425	1.284	0.09518	1.318
0.0475	1.219	0.09184	1.267
0.0525	1.211	0.09147	1.221
0.0575	1.192	0.08717	1.182
0.0625	1.077	0.08258	1.15
0.0675	0.9637	0.07546	1.123
0.0725	0.9191	0.07212	1.102
0.0775	1.077	0.07733	1.086
0.0825	0.9823	0.06936	1.074
0.0875	1.032	0.07195	1.066
0.0925	1.028	0.07359	1.059
0.0975	1.133	0.07867	1.055
0.1025	1.043	0.0725	1.052
0.1075	0.9374	0.0666	1.051
0.1125	0.8717	0.06255	1.049
0.1175	1.049	0.07034	1.049
0.1225	0.9097	0.06411	1.048
0.1275	0.9946	0.06745	1.048
0.1325	1.004	0.06676	1.048
0.1375	1.001	0.0677	1.048
0.1425	0.9417	0.06593	1.048
0.1475	1.017	0.06854	1.048
0.1525	0.9085	0.06249	1.048
0.1575	0.9972	0.0697	1.048
0.1625	0.9615	0.06563	1.048
0.1675	0.9239	0.06391	1.048
0.1725	0.9452	0.06563	1.048
0.1775	1.049	0.07166	1.048
0.1825	1.002	0.06967	1.048
0.1875	1.033	0.07323	1.048
0.1925	1.091	0.0778	1.048
0.1975	0.9782	0.07347	1.048
0.2025	0.9406	0.07415	1.048
0.2075	1.004	0.08157	1.048
0.2125	0.9905	0.08144	1.048
0.2175	0.9153	0.07844	1.048
0.2225	0.9342	0.08426	1.048
0.2275	0.9878	0.08746	1.048
0.2325	1.049	0.09339	1.048
0.2375	1.03	0.09573	1.048
0.2425	1.055	0.09988	1.048
0.2475	1.241	0.1148	1.048
0.2525	0.9367	0.09552	1.048
0.2575	1.004	0.1049	1.048
0.2625	0.9967	0.1102	1.048
0.2675	0.9289	0.1057	1.048
0.2725	0.8991	0.112	1.048
0.2775	0.9722	0.1199	1.048
0.2825	0.9048	0.1204	1.048
0.2875	0.7715	0.1183	1.048
0.2925	0.9068	0.1374	1.048
0.2975	0.7957	0.1331	1.048

0.0025	1.416	0.1501	1.253
0.0075	1.626	0.1721	1.251
0.0125	1.837	0.1853	1.248
0.0175	1.588	0.1713	1.243
0.0225	1.192	0.128	1.237
0.0275	1.562	0.1672	1.23
0.0325	1.247	0.1391	1.221
0.0375	1.32	0.146	1.213
0.0425	1.589	0.1756	1.203
0.0475	1.243	0.1407	1.194
0.0525	1.302	0.1377	1.184
0.0575	1.361	0.1377	1.175
0.0625	1.119	0.1233	1.166
0.0675	1.174	0.1246	1.158
0.0725	1.133	0.1169	1.151
0.0775	1.234	0.1271	1.144
0.0825	1.266	0.1326	1.138
0.0875	1.127	0.1193	1.132
0.0925	0.8799	0.1007	1.128
0.0975	0.9106	0.1039	1.124
0.1025	1.134	0.1158	1.121
0.1075	0.9697	0.1051	1.118
0.1125	0.9472	0.1012	1.116
0.1175	0.9662	0.1	1.114
0.1225	1.031	0.1028	1.113
0.1275	0.9304	0.09264	1.111
0.1325	0.9821	0.09769	1.111
0.1375	0.9514	0.09749	1.11
0.1425	0.8363	0.08696	1.109
0.1475	0.9374	0.0909	1.109
0.1525	0.7903	0.08138	1.109
0.1575	1.023	0.1001	1.109
0.1625	0.9117	0.08689	1.108
0.1675	1.023	0.09802	1.108
0.1725	0.8334	0.08118	1.108
0.1775	1.023	0.0967	1.108
0.1825	1.038	0.0993	1.108
0.1875	0.9216	0.0883	1.108
0.1925	0.8821	0.08583	1.108
0.1975	0.8951	0.08475	1.108
0.2025	1.013	0.09541	1.108
0.2075	0.8839	0.08478	1.108
0.2125	0.823	0.08057	1.108
0.2175	0.9033	0.08811	1.108
0.2225	1.025	0.09517	1.108
0.2275	0.9531	0.08931	1.108
0.2325	0.9646	0.08927	1.108
0.2375	1.093	0.09834	1.108
0.2425	0.9445	0.08843	1.108
0.2475	0.8771	0.0839	1.108
0.2525	0.9263	0.09179	1.108
0.2575	0.9593	0.09088	1.108
0.2625	0.8996	0.08589	1.108
0.2675	1.042	0.1014	1.108
0.2725	0.8125	0.0824	1.108
0.2775	1.131	0.09966	1.108
0.2825	0.8533	0.08073	1.108
0.2875	0.915	0.08533	1.108
0.2925	1.066	0.09621	1.108
0.2975	0.8605	0.08339	1.108

0.0025	1.289	0.3126	1.429
0.0075	0.8681	0.2617	1.429
0.0125	1.881	0.4374	1.429
0.0175	1.153	0.29	1.429
0.0225	1.809	0.4421	1.429
0.0275	1.747	0.3868	1.429
0.0325	1.218	0.2815	1.428
0.0375	1.04	0.2894	1.428
0.0425	1.203	0.2779	1.428
0.0475	1.132	0.2671	1.427
0.0525	1.094	0.2724	1.427
0.0575	1.455	0.3261	1.427
0.0625	1.701	0.3577	1.426
0.0675	1.192	0.2778	1.426
0.0725	0.7567	0.1895	1.425
0.0775	1.224	0.2429	1.424
0.0825	1.497	0.3111	1.424
0.0875	0.9743	0.2177	1.423
0.0925	1.255	0.2543	1.422
0.0975	0.9789	0.213	1.422
0.1025	1.367	0.2725	1.421
0.1075	0.944	0.2054	1.42
0.1125	0.795	0.1648	1.419
0.1175	1.189	0.2365	1.418
0.1225	1.26	0.2284	1.417
0.1275	1.176	0.2237	1.416
0.1325	1.032	0.1922	1.415
0.1375	1.169	0.2229	1.414
0.1425	1.538	0.2574	1.413
0.1475	1.133	0.1964	1.412
0.1525	0.8996	0.1684	1.411
0.1575	1.27	0.2037	1.41
0.1625	1.02	0.1725	1.409
0.1675	0.85	0.1529	1.407
0.1725	0.8828	0.1582	1.406
0.1775	1.336	0.2027	1.405
0.1825	1.097	0.1838	1.403
0.1875	1.173	0.188	1.402
0.1925	0.9775	0.1584	1.401
0.1975	0.7981	0.1404	1.399
0.2025	0.8223	0.1412	1.398
0.2075	0.8383	0.1446	1.396
0.2125	0.6928	0.1276	1.394
0.2175	1.015	0.1584	1.393
0.2225	0.8314	0.1438	1.391
0.2275	0.6693	0.1234	1.39
0.2325	0.5957	0.1155	1.388
0.2375	0.7052	0.1263	1.386
0.2425	0.9713	0.1499	1.384
0.2475	0.721	0.1187	1.383
0.2525	0.866	0.1337	1.381
0.2575	1.11	0.161	1.379
0.2625	0.7976	0.1302	1.377
0.2675	0.8797	0.1299	1.375
0.2725	0.9178	0.1363	1.373
0.2775	0.8887	0.1348	1.371
0.2825	0.9938	0.1509	1.369
0.2875	0.8865	0.1337	1.367
0.2925	0.8673	0.1259	1.365
0.2975	0.9973	0.1463	1.363

